Temperature (K)	Pressure (MPa)	Density (kg/m3)	Volume (m3/kg)	Internal Energy (kJ/kg)	Enthalpy (kJ/kg)	Entropy (J/g*K)	Cv (J/g*K)	Cp (J/g*K)	Sound Spd. (m/s)	Joule-Thomson (K/MPa)	Viscosity (uPa*s)	Therm. Cond. (W/m*K)	Phase
150.00	11.498	377.99	0.0026455	119.80	150.22	0.93753	1.9403	3.6076	1098.5	-0.27813	67.976	0.14622	liquid
151.00	11.498	376.42	0.0026566	123.29	153.84	0.96154	1.9373	3.6173	1089.4	-0.27045	66.915	0.14497	liquid
152.00	11.498	374.84	0.0026678	126.78	157.46	0.98544	1.9343	3.6273	1080.3	-0.26253	65.874	0.14372	liquid
153.00	11.498	373.25	0.0026792	130.29	161.09	1.0093	1.9313	3.6376	1071.1	-0.25437	64.854	0.14248	liquid
154.00	11.498	371.65	0.0026907	133.80	164.73	1.0330	1.9284	3.6481	1062.0	-0.24596	63.854	0.14123	liquid
155.00	11.498	370.04	0.0027024	137.31	168.39	1.0566	1.9256	3.6590	1052.8	-0.23729	62.873	0.13999	liquid
156.00	11.498	368.41	0.0027144	140.84	172.05	1.0802	1.9228	3.6702	1043.6	-0.22834	61.910	0.13876	liquid
157.00	11.498	366.77	0.0027265	144.38	175.73	1.1037	1.9200	3.6818	1034.3	-0.21912	60.966	0.13753	liquid
158.00	11.498	365.12	0.0027388	147.92	179.42	1.1271	1.9173	3.6937	1025.1	-0.20960	60.039	0.13630	liquid
159.00	11.498	363.45	0.0027514	151.48	183.11	1.1505	1.9147	3.7060	1015.8	-0.19977	59.129	0.13507	liquid
160.00	11.498	361.78	0.0027641	155.05	186.83	1.1737	1.9121	3.7186	1006.5	-0.18963	58.236	0.13385	liquid
161.00	11.498	360.09	0.0027771	158.62	190.55	1.1969	1.9095	3.7316	997.24	-0.17916	57.358	0.13263	liquid
162.00	11.498	358.38	0.0027903	162.21	194.29	1.2201	1.9070	3.7451	987.92	-0.16835	56.497	0.13142	liquid
163.00	11.498	356.66	0.0028038	165.80	198.04	1.2432	1.9046	3.7590	978.59	-0.15718	55.650	0.13020	liquid
164.00	11.498	354.93	0.0028175	169.41	201.81	1.2662	1.9022	3.7733	969.23	-0.14565	54.818	0.12900	liquid
165.00	11.498	353.18	0.0028314	173.03	205.59	1.2892	1.8999	3.7880	959.86	-0.13372	54.001	0.12779	liquid
166.00	11.498	351.41	0.0028457	176.67	209.38	1.3121	1.8976	3.8033	950.46	-0.12140	53.197	0.12659	liquid
167.00	11.498	349.63	0.0028602	180.31	213.20	1.3350	1.8954	3.8190	941.05	-0.10866	52.407	0.12539	liquid
168.00	11.498	347.83	0.0028750	183.97	217.02	1.3579	1.8933	3.8352	931.62	-0.095485	51.630	0.12420	liquid
169.00	11.498	346.02	0.0028900	187.64	220.87	1.3807	1.8912	3.8520	922.17	-0.081855	50.866	0.12301	liquid
170.00	11.498	344.18	0.0029054	191.32	224.73	1.4035	1.8891	3.8693	912.70	-0.067752	50.114	0.12182	liquid
171.00	11.498	342.33	0.0029211	195.02	228.61	1.4262	1.8872	3.8872	903.22	-0.053156	49.374	0.12064	liquid
172.00	11.498	340.46	0.0029372	198.73	232.50	1.4489	1.8853	3.9057	893.71	-0.038045	48.646	0.11946	liquid
173.00	11.498	338.57	0.0029536	202.46	236.42	1.4716	1.8834	3.9248	884.19	-0.022396	47.929	0.11829	liquid
174.00	11.498	336.66	0.0029703	206.20	240.35	1.4943	1.8817	3.9446	874.65	-0.0061853	47.223	0.11712	liquid
175.00	11.498	334.74	0.0029874	209.96	244.31	1.5170	1.8800	3.9651	865.09	0.010612	46.527	0.11595	liquid
176.00	11.498	332.79	0.0030049	213.73	248.28	1.5396	1.8783	3.9862	855.52	0.028022	45.842	0.11479	liquid
177.00	11.498	330.81	0.0030229	217.52	252.28	1.5623	1.8768	4.0081	845.92	0.046073	45.166	0.11363	liquid
178.00	11.498	328.82	0.0030412	221.33	256.30	1.5849	1.8753	4.0308	836.32	0.064794	44.500	0.11248	liquid
179.00	11.498	326.80	0.0030600	225.16	260.34	1.6075	1.8738	4.0543	826.69	0.084216	43.844	0.11133	liquid
180.00	11.498	324.76	0.0030792	229.00	264.41	1.6302	1.8725	4.0786	817.06	0.10437	43.197	0.11019	liquid
181.00	11.498	322.69	0.0030989	232.87	268.50	1.6529	1.8712	4.1037	807.41	0.12530	42.558	0.10906	liquid
182.00	11.498	320.60	0.0031191	236.75	272.62	1.6755	1.8700	4.1298	797.74	0.14702	41.928	0.10793	liquid
183.00	11.498	318.48	0.0031399	240.66	276.76	1.6982	1.8689	4.1568	788.07	0.16959	41.305	0.10680	liquid
184.00	11.498	316.34	0.0031612	244.58	280.93	1.7210	1.8679	4.1848	778.38	0.19304	40.691	0.10569	liquid
185.00	11.498	314.17	0.0031830	248.53	285.13	1.7437	1.8669	4.2138	768.69	0.21742	40.085	0.10458	liquid
186.00	11.498	311.97	0.0032055	252.50	289.36	1.7665	1.8661	4.2439	758.99	0.24276	39.485	0.10349	liquid
187.00	11.498	309.73	0.0032286	256.49	293.62	1.7894	1.8653	4.2751	749.28	0.26912	38.893	0.10240	liquid
188.00	11.498	307.47	0.0032523	260.51	297.91	1.8123	1.8646	4.3075	739.57	0.29654	38.308	0.10134	liquid
189.00	11.498	305.18	0.0032768	264.56	302.23	1.8352	1.8640	4.3410	729.86	0.32508	37.729	0.10030	liquid
190.00	11.498	302.85	0.0033020	268.62	306.59	1.8582	1.8635	4.3758	720.15	0.35478	37.157	0.099305	liquid
191.00	11.498	300.49	0.0033279	272.72	310.98	1.8813	1.8630	4.4119	710.44	0.38571	36.591	0.098259	supercritical
192.00	11.498	298.10	0.0033546	276.84	315.41	1.9044	1.8627	4.4493	700.74	0.41792	36.031	0.097095	supercritical
193.00	11.498	295.66	0.0033822	280.99	319.88	1.9276	1.8624	4.4881	691.05	0.45148	35.476	0.095967	supercritical
194.00	11.498	293.20	0.0034107	285.17	324.39	1.9509	1.8623	4.5283	681.38	0.48644	34.927	0.094854	supercritical
195.00	11.498	290.69	0.0034401	289.39	328.94	1.9743	1.8622	4.5700	671.73	0.52287	34.384	0.093752	supercritical
196.00	11.498	288.14	0.0034705	293.63	333.53	1.9978	1.8623	4.6132	662.10	0.56084	33.845	0.092658	supercritical
197.00	11.498	285.56	0.0035019	297.90	338.17	2.0214	1.8624	4.6579	652.50	0.60042	33.312	0.091573	supercritical
198.00	11.498	282.93	0.0035345	302.21	342.85	2.0451	1.8626	4.7042	642.93	0.64168	32.783	0.090495	supercritical
199.00	11.498	280.26	0.0035681	306.55	347.58	2.0689	1.8630	4.7520	633.41	0.68469	32.260	0.089424	supercritical
200.00	11.498	277.54	0.0036030	310.92	352.35	2.0928	1.8634	4.8015	623.94	0.72952	31.740	0.088360	supercritical
201.00	11.498	274.78	0.0036392	315.34	357.18	2.1169	1.8639	4.8525	614.52	0.77625	31.226	0.087304	supercritical
202.00	11.498	271.98	0.0036768	319.78	362.06	2.1411	1.8645	4.9052	605.17	0.82493	30.715	0.086256	supercritical
203.00	11.498	269.13	0.0037157	324.27	366.99	2.1655	1.8651	4.9593	595.90	0.87564	30.209	0.085216	supercritical
204.00	11.498	266.23	0.0037562	328.79	371.98	2.1900	1.8659	5.0148	586.72	0.92844	29.708	0.084185	supercritical
205.00	11.498	263.28	0.0037982	333.35	377.02	2.2146	1.8666	5.0717	577.63	0.98337	29.210	0.083162	supercritical
206.00	11.498	260.29	0.0038419	337.95	382.12	2.2395	1.8675	5.1297	568.65	1.0405	28.718	0.082149	supercritical
207.00	11.498	257.24	0.0038874	342.58	387.28	2.2644	1.8684	5.1887	559.79	1.0998	28.229	0.081146	supercritical
208.00	11.498	254.15	0.0039346	347.26	392.50	2.2896	1.8693	5.2483	551.08	1.1613	27.745	0.080153	supercritical
209.00	11.498	251.01	0.0039838	351.97	397.78	2.3149	1.8703	5.3083	542.52	1.2250	27.266	0.079172	supercritical
210.00	11.498	247.83	0.0040350	356.72	403.11	2.3404	1.8712	5.3682	534.13	1.2909	26.792	0.078202	supercritical
211.00	11.498	244.60	0.0040883	361.51	408.51	2.3660	1.8722	5.4276	525.93	1.3589	26.323	0.077245	supercritical
212.00	11.498	241.33	0.0041437	366.33	413.97	2.3918	1.8731	5.4859	517.93	1.4289	25.859	0.076300	supercritical
213.00	11.498	238.02	0.0042014	371.18	419.48	2.4178	1.8740	5.5424	510.16	1.5008	25.402	0.075369	supercritical
214.00	11.498	234.67	0.0042613	376.06	425.05	2.4439	1.8748	5.5966	502.63	1.5744	24.951	0.074451	supercritical
215.00	11.498	231.29	0.0043235	380.96	430.68	2.4701	1.8756	5.6477	495.35	1.6495	24.507	0.073548	supercritical
216.00	11.498	227.89	0.0043882	385.89	436.35	2.4964	1.8763	5.6949	488.36	1.7260	24.070	0.072659	supercritical
217.00	11.498	224.46	0.0044552	390.84	442.06	2.5228	1.8768	5.7375	481.65	1.8035	23.642	0.071785	supercritical
218.00	11.498	221.01	0.0045246	395.80	447.82	2.5493	1.8773	5.7749	475.24	1.8819	23.223	0.070927	supercritical
219.00	11.498	217.56	0.0045964	400.76	453.61	2.5758	1.8776	5.8065	469.15	1.9607	22.812	0.070083	supercritical
220.00	11.498	214.11	0.0046705	405.73	459.43	2.6023	1.8778	5.8316	463.37	2.0399	22.412	0.069255	supercritical
221.00	11.498	210.66	0.0047470	410.69	465.27	2.6288	1.8779	5.8500	457.92	2.1189	22.023	0.068441	supercritical
222.00	11.498	207.23	0.0048256	415.64	471.13	2.6552	1.8778	5.8612	452.80	2.1976	21.644	0.067643	supercritical
223.00	11.498	203.81	0.0049065	420.58	476.99	2.6816	1.8775	5.8652	448.01	2.2756	21.278	0.066860	supercritical
224.00	11.498	200.43	0.0049893	425.49	482.86	2.7078	1.8771	5.8619	443.54	2.3527	20.923	0.066092	supercritical
225.00	11.498	197.08	0.0050741	430.37	488.71	2.7339	1.8766	5.8513	439.39	2.4285	20.581	0.065338	supercritical
226.00	11.498	193.77	0.0051607	435.22	494.56	2.7598	1.8759	5.8336	435.56	2.5027	20.251	0.064599	supercritical
227.00	11.498	190.52	0.0052489	440.03	500.38	2.7855	1.8750	5.8092	432.04	2.5752	19.934	0.063875	supercritical
228.00	11.498	187.31	0.0053387	444.79	506.17	2.8110	1.8741	5.7783	428.81	2.6456	19.631	0.063166	supercritical
229.00	11.498	184.17	0.0054298	449.50	511.93	2.8362	1.8730	5.7415	425.88	2.7137	19.340	0.062472	supercritical
230.00	11.498	181.09	0.0055221	454.16	517.65	2.8611	1.8717	5.6992	423.21	2.7794	19.062	0.061793	supercritical
231.00	11.498	178.08	0.0056155	458.76	523.33	2.8858	1.8704	5.6520	420.82	2.8424	18.797	0.061129	supercritical
232.00	11.498	175.14	0.0057098	463.31	528.96	2.9101	1.8690	5.6005	418.67	2.9026	18.545	0.060482	supercritical
233.00	11.498	172.27	0.0058048	467.79	534.53	2.9340	1.8674	5.5451	416.77	2.9599	18.304	0.059850	supercritical
234.00	11.498	169.48	0.0059004	472.20	540.05	2.9577	1.8658	5.4866	415.09	3.0141	18.076	0.059236	supercritical
235.00	11.498	166.76	0.0059965	476.55	545.50	2.9809	1.8640	5.4255	413.62	3.0653	17.860	0.058638	supercritical
236.00	11.498	164.12	0.0060930	480.84	550.90	3.0038	1.8622	5.3623	412.35	3.1135	17.654	0.058057	supercritical
237.00	11.498	161.56	0.0061896	485.06	556.23	3.0264	1.8604	5.2975	411.27	3.1585	17.460	0.057494	supercritical
238.00	11.498	159.07	0.0062864	489.21	561.49	3.0485	1.8585	5.2317	410.36	3.2004	17.275	0.056949	supercritical
239.00	11.498	156.66	0.0063831	493.30	566.69	3.0703	1.8565	5.1652	409.61	3.2393	17.101	0.056422	supercritical
240.00	11.498	154.33	0.0064798	497.32	571.82	3.0918	1.8545	5.0985	409.00	3.2753	16.937	0.055913	supercritical
241.00	11.498	152.06	0.0065763	501.27	576.89	3.1128	1.8525	5.0319	408.54	3.3083	16.781	0.055422	supercritical
242.00	11.498	149.87	0.0066725	505.17	581.89	3.1335	1.8504	4.9658	408.20	3.3385	16.634	0.054949	supercritical
243.00	11.498	147.75	0.0067684	509.00	586.82	3.1539	1.8484	4.9003	407.97	3.3660	16.495	0.054494	supercritical
244.00	11.498	145.69	0.0068639	512.77	591.69	3.1738	1.8463	4.8357	407.86	3.3909	16.364	0.054057	supercritical
245.00	11.498	143.70	0.0069590	516.48	596.49	3.1935	1.8443	4.7723	407.84	3.4132	16.240	0.053637	supercritical
246.00	11.498	141.77	0.0070537	520.13	601.23	3.2128	1.8423	4.7101	407.90	3.4332	16.123	0.053235	supercritical
247.00	11.498	139.90	0.0071478	523.73	605.91	3.2318	1.8403	4.6492	408.05	3.4508	16.013	0.052849	supercritical
248.00	11.498	138.09	0.0072415	527.27	610.53	3.2505	1.8383	4.5898	408.28	3.4663	15.909	0.052481	supercritical
249.00	11.498	136.34	0.0073345	530.76	615.09	3.2688	1.8363	4.5320	408.57	3.4797	15.811	0.052128	supercritical
250.00	11.498	134.64	0.0074270	534.20	619.60	3.2869	1.8345	4.4757	408.93	3.4912	15.718	0.051791	supercritical
251.00	11.498	133.00	0.0075190	537.59	624.04	3.3046	1.8326	4.4210	409.34	3.5008	15.631	0.051470	supercritical
252.00	11.498	131.40	0.0076103	540.93	628.44	3.3221	1.8308	4.3680	409.80	3.5087	15.548	0.051163	supercritical
253.00	11.498	129.85	0.0077010	544.23	632.78	3.3393	1.8291	4.3166	410.31	3.5149	15.470	0.050871	supercritical
254.00	11.498	128.35	0.0077911	547.49	637.07	3.3562	1.8274	4.2668	410.86	3.5196	15.397	0.050593	supercritical
255.00	11.498	126.89	0.0078806	550.70	641.31	3.3729	1.8258	4.2186	411.46	3.5228	15.328	0.050328	supercritical
256.00	11.498	125.48	0.0079695	553.88	645.51	3.3893	1.8242	4.1720	412.08	3.5246	15.262	0.050076	supercritical
257.00	11.498	124.10	0.0080577	557.01	649.66	3.4055	1.8227	4.1269	412.74	3.5251	15.201	0.049837	supercritical
258.00	11.498	122.77	0.0081454	560.11	653.76	3.4214	1.8213	4.0834	413.43	3.5245	15.143	0.049610	supercritical
259.00	11.498	121.47	0.0082324	563.17	657.83	3.4371	1.8199	4.0413	414.14	3.5227	15.088	0.049394	supercritical
260.00	11.498	120.21	0.0083189	566.20	661.85	3.4526	1.8186	4.0006	414.88	3.5198	15.037	0.049190	supercritical
261.00	11.498	118.98	0.0084047	569.19	665.83	3.4679	1.8174	3.9614	415.64	3.5159	14.988	0.048997	supercritical
262.00	11.498	117.79	0.0084900	572.15	669.77	3.4830	1.8162	3.9235	416.42	3.5111	14.943	0.048813	supercritical
263.00	11.498	116.62	0.0085747	575.08	673.67	3.4979	1.8151	3.8869	417.22	3.5055	14.900	0.048640	supercritical
264.00	11.498	115.49	0.0086588	577.98	677.54	3.5126	1.8141	3.8516	418.03	3.4990	14.859	0.048477	supercritical
265.00	11.498	114.38	0.0087424	580.86	681.38	3.5270	1.8132	3.8175	418.86	3.4917	14.821	0.048322	supercritical
266.00	11.498	113.31	0.0088254	583.70	685.18	3.5414	1.8123	3.7846	419.70	3.4837	14.786	0.048177	supercritical
267.00	11.498	112.26	0.0089079	586.52	688.95	3.5555	1.8115	3.7528	420.55	3.4751	14.752	0.048040	supercritical
268.00	11.498	111.24	0.0089898	589.32	692.69	3.5695	1.8107	3.7221	421.41	3.4659	14.721	0.047911	supercritical
269.00	11.498	110.24	0.0090713	592.09	696.39	3.5833	1.8101	3.6925	422.28	3.4560	14.692	0.047791	supercritical
270.00	11.498	109.26	0.0091522	594.84	700.07	3.5969	1.8095	3.6638	423.16	3.4456	14.664	0.047677	supercritical
271.00	11.498	108.31	0.0092326	597.56	703.72	3.6104	1.8089	3.6362	424.05	3.4348	14.638	0.047572	supercritical
272.00	11.498	107.38	0.0093125	600.27	707.34	3.6238	1.8085	3.6095	424.94	3.4234	14.614	0.047473	supercritical
273.00	11.498	106.47	0.0093919	602.95	710.94	3.6370	1.8081	3.5837	425.84	3.4116	14.592	0.047381	supercritical
274.00	11.498	105.59	0.0094709	605.62	714.51	3.6500	1.8077	3.5587	426.75	3.3994	14.572	0.047295	supercritical
275.00	11.498	104.72	0.0095493	608.26	718.06	3.6629	1.8075	3.5347	427.66	3.3868	14.552	0.047216	supercritical
276.00	11.498	103.87	0.0096274	610.88	721.58	3.6757	1.8072	3.5114	428.57	3.3739	14.535	0.047143	supercritical
277.00	11.498	103.04	0.0097050	613.49	725.08	3.6884	1.8071	3.4888	429.48	3.3607	14.518	0.047075	supercritical
278.00	11.498	102.23	0.0097821	616.08	728.56	3.7009	1.8070	3.4671	430.40	3.3471	14.503	0.047013	supercritical
279.00	11.498	101.43	0.0098588	618.66	732.01	3.7133	1.8070	3.4460	431.32	3.3333	14.489	0.046957	supercritical
280.00	11.498	100.65	0.0099351	621.22	735.45	3.7256	1.8070	3.4257	432.24	3.3192	14.477	0.046906	supercritical
281.00	11.498	99.890	0.010011	623.76	738.87	3.7378	1.8071	3.4060	433.16	3.3049	14.465	0.046860	supercritical
282.00	11.498	99.142	0.010086	626.29	742.26	3.7499	1.8073	3.3869	434.09	3.2903	14.455	0.046819	supercritical
283.00	11.498	98.410	0.010162	628.80	745.64	3.7618	1.8075	3.3685	435.01	3.2755	14.445	0.046782	supercritical
284.00	11.498	97.692	0.010236	631.30	749.00	3.7737	1.8077	3.3506	435.94	3.2606	14.437	0.046750	supercritical
285.00	11.498	96.987	0.010311	633.79	752.34	3.7854	1.8080	3.3333	436.86	3.2455	14.430	0.046723	supercritical
286.00	11.498	96.297	0.010385	636.27	755.67	3.7971	1.8084	3.3166	437.78	3.2302	14.423	0.046699	supercritical
287.00	11.498	95.619	0.010458	638.73	758.98	3.8086	1.8088	3.3004	438.71	3.2148	14.418	0.046680	supercritical
288.00	11.498	94.954	0.010531	641.18	762.27	3.8201	1.8093	3.2848	439.63	3.1993	14.413	0.046665	supercritical
289.00	11.498	94.302	0.010604	643.62	765.55	3.8314	1.8098	3.2696	440.55	3.1836	14.409	0.046654	supercritical
290.00	11.498	93.661	0.010677	646.05	768.81	3.8427	1.8104	3.2549	441.47	3.1679	14.406	0.046646	supercritical
291.00	11.498	93.032	0.010749	648.46	772.05	3.8539	1.8110	3.2406	442.39	3.1520	14.404	0.046642	supercritical
292.00	11.498	92.414	0.010821	650.87	775.29	3.8650	1.8117	3.2268	443.31	3.1361	14.403	0.046642	supercritical
293.00	11.498	91.807	0.010892	653.27	778.51	3.8760	1.8124	3.2134	444.22	3.1201	14.402	0.046644	supercritical
294.00	11.498	91.210	0.010964	655.66	781.72	3.8869	1.8132	3.2005	445.14	3.1040	14.402	0.046651	supercritical
295.00	11.498	90.624	0.011035	658.03	784.91	3.8978	1.8140	3.1879	446.05	3.0879	14.402	0.046660	supercritical
296.00	11.498	90.048	0.011105	660.40	788.09	3.9085	1.8149	3.1758	446.96	3.0717	14.404	0.046673	supercritical
297.00	11.498	89.481	0.011176	662.76	791.26	3.9192	1.8158	3.1640	447.86	3.0555	14.406	0.046688	supercritical
298.00	11.498	88.924	0.011246	665.12	794.42	3.9298	1.8167	3.1526	448.77	3.0392	14.408	0.046707	supercritical
299.00	11.498	88.376	0.011315	667.46	797.57	3.9404	1.8177	3.1415	449.67	3.0230	14.411	0.046728	supercritical
300.00	11.498	87.836	0.011385	669.80	800.70	3.9508	1.8188	3.1307	450.57	3.0067	14.415	0.046752	supercritical
301.00	11.498	87.306	0.011454	672.13	803.83	3.9612	1.8198	3.1203	451.47	2.9903	14.419	0.046779	supercritical
302.00	11.498	86.784	0.011523	674.45	806.94	3.9716	1.8210	3.1102	452.36	2.9740	14.423	0.046808	supercritical
303.00	11.498	86.270	0.011592	676.77	810.05	3.9818	1.8221	3.1004	453.26	2.9577	14.429	0.046840	supercritical
304.00	11.498	85.764	0.011660	679.08	813.14	3.9920	1.8233	3.0910	454.15	2.9414	14.434	0.046875	supercritical
305.00	11.498	85.265	0.011728	681.38	816.23	4.0022	1.8245	3.0818	455.03	2.9251	14.440	0.046911	supercritical
306.00	11.498	84.775	0.011796	683.68	819.31	4.0122	1.8258	3.0728	455.92	2.9088	14.447	0.046951	supercritical
307.00	11.498	84.291	0.011864	685.97	822.38	4.0223	1.8271	3.0642	456.80	2.8925	14.454	0.046992	supercritical
308.00	11.498	83.815	0.011931	688.25	825.44	4.0322	1.8285	3.0558	457.68	2.8762	14.461	0.047036	supercritical
309.00	11.498	83.346	0.011998	690.53	828.49	4.0421	1.8299	3.0477	458.55	2.8600	14.469	0.047082	supercritical
310.00	11.498	82.884	0.012065	692.81	831.53	4.0519	1.8313	3.0398	459.43	2.8437	14.477	0.047130	supercritical
311.00	11.498	82.428	0.012132	695.08	834.57	4.0617	1.8327	3.0322	460.30	2.8276	14.486	0.047180	supercritical
312.00	11.498	81.979	0.012198	697.34	837.60	4.0714	1.8342	3.0248	461.16	2.8114	14.495	0.047232	supercritical
313.00	11.498	81.536	0.012264	699.60	840.62	4.0811	1.8358	3.0176	462.03	2.7953	14.504	0.047286	supercritical
314.00	11.498	81.100	0.012330	701.86	843.63	4.0907	1.8373	3.0107	462.89	2.7792	14.514	0.047342	supercritical
315.00	11.498	80.669	0.012396	704.11	846.64	4.1003	1.8389	3.0039	463.75	2.7632	14.524	0.047400	supercritical
316.00	11.498	80.245	0.012462	706.35	849.64	4.1098	1.8405	2.9974	464.60	2.7472	14.535	0.047460	supercritical
317.00	11.498	79.826	0.012527	708.60	852.63	4.1193	1.8422	2.9911	465.45	2.7312	14.545	0.047522	supercritical
318.00	11.498	79.412	0.012592	710.83	855.62	4.1287	1.8439	2.9850	466.30	2.7153	14.556	0.047585	supercritical
319.00	11.498	79.005	0.012657	713.07	858.60	4.1380	1.8456	2.9790	467.15	2.6995	14.568	0.047651	supercritical
320.00	11.498	78.602	0.012722	715.30	861.58	4.1473	1.8473	2.9733	467.99	2.6837	14.579	0.047718	supercritical
321.00	11.498	78.205	0.012787	717.53	864.55	4.1566	1.8491	2.9677	468.83	2.6680	14.591	0.047786	supercritical
322.00	11.498	77.813	0.012851	719.75	867.52	4.1658	1.8509	2.9623	469.67	2.6523	14.603	0.047856	supercritical
323.00	11.498	77.426	0.012915	721.97	870.48	4.1750	1.8528	2.9571	470.50	2.6367	14.616	0.047928	supercritical
324.00	11.498	77.044	0.012980	724.19	873.43	4.1841	1.8546	2.9521	471.33	2.6211	14.629	0.048001	supercritical
325.00	11.498	76.667	0.013043	726.41	876.38	4.1932	1.8565	2.9472	472.16	2.6056	14.642	0.048076	supercritical
326.00	11.498	76.295	0.013107	728.62	879.32	4.2023	1.8584	2.9425	472.99	2.5902	14.655	0.048153	supercritical
327.00	11.498	75.927	0.013171	730.83	882.26	4.2113	1.8604	2.9379	473.81	2.5748	14.668	0.048231	supercritical
328.00	11.498	75.564	0.013234	733.04	885.20	4.2202	1.8624	2.9335	474.63	2.5595	14.682	0.048310	supercritical
329.00	11.498	75.205	0.013297	735.24	888.13	4.2292	1.8644	2.9292	475.44	2.5442	14.696	0.048391	supercritical
330.00	11.498	74.850	0.013360	737.45	891.06	4.2381	1.8664	2.9251	476.26	2.5290	14.710	0.048473	supercritical
331.00	11.498	74.500	0.013423	739.65	893.98	4.2469	1.8684	2.9211	477.07	2.5139	14.725	0.048556	supercritical
332.00	11.498	74.154	0.013485	741.84	896.90	4.2557	1.8705	2.9173	477.87	2.4989	14.739	0.048641	supercritical
333.00	11.498	73.812	0.013548	744.04	899.82	4.2645	1.8726	2.9136	478.68	2.4839	14.754	0.048727	supercritical
334.00	11.498	73.474	0.013610	746.24	902.73	4.2732	1.8748	2.9100	479.48	2.4690	14.769	0.048815	supercritical
335.00	11.498	73.140	0.013672	748.43	905.64	4.2819	1.8769	2.9065	480.28	2.4542	14.784	0.048903	supercritical
336.00	11.498	72.809	0.013735	750.62	908.54	4.2906	1.8791	2.9032	481.07	2.4394	14.799	0.048993	supercritical
337.00	11.498	72.483	0.013796	752.81	911.44	4.2992	1.8813	2.9000	481.87	2.4247	14.815	0.049085	supercritical
338.00	11.498	72.160	0.013858	755.00	914.34	4.3078	1.8835	2.8969	482.65	2.4101	14.831	0.049177	supercritical
339.00	11.498	71.841	0.013920	757.19	917.24	4.3163	1.8858	2.8939	483.44	2.3956	14.847	0.049271	supercritical
340.00	11.498	71.525	0.013981	759.37	920.13	4.3248	1.8880	2.8911	484.23	2.3811	14.863	0.049365	supercritical
341.00	11.498	71.213	0.014042	761.56	923.02	4.3333	1.8903	2.8883	485.01	2.3667	14.879	0.049461	supercritical
342.00	11.498	70.904	0.014104	763.74	925.91	4.3418	1.8926	2.8857	485.79	2.3524	14.895	0.049558	supercritical
343.00	11.498	70.598	0.014165	765.93	928.79	4.3502	1.8950	2.8832	486.56	2.3381	14.912	0.049657	supercritical
344.00	11.498	70.296	0.014226	768.11	931.67	4.3586	1.8973	2.8807	487.34	2.3240	14.929	0.049756	supercritical
345.00	11.498	69.997	0.014286	770.29	934.55	4.3670	1.8997	2.8784	488.11	2.3099	14.945	0.049856	supercritical
346.00	11.498	69.702	0.014347	772.47	937.43	4.3753	1.9021	2.8762	488.87	2.2958	14.962	0.049958	supercritical
347.00	11.498	69.409	0.014407	774.65	940.30	4.3836	1.9045	2.8741	489.64	2.2819	14.980	0.050060	supercritical
348.00	11.498	69.119	0.014468	776.83	943.18	4.3918	1.9070	2.8720	490.40	2.2680	14.997	0.050164	supercritical
349.00	11.498	68.833	0.014528	779.01	946.05	4.4001	1.9094	2.8701	491.16	2.2542	15.014	0.050268	supercritical
350.00	11.498	68.549	0.014588	781.18	948.92	4.4083	1.9119	2.8682	491.92	2.2405	15.032	0.050374	supercritical
351.00	11.498	68.269	0.014648	783.36	951.78	4.4165	1.9144	2.8665	492.67	2.2269	15.050	0.050480	supercritical
352.00	11.498	67.991	0.014708	785.54	954.65	4.4246	1.9169	2.8648	493.43	2.2133	15.067	0.050588	supercritical
353.00	11.498	67.716	0.014768	787.72	957.51	4.4328	1.9195	2.8632	494.18	2.1998	15.085	0.050696	supercritical
354.00	11.498	67.443	0.014827	789.89	960.38	4.4408	1.9220	2.8617	494.92	2.1864	15.103	0.050806	supercritical
355.00	11.498	67.174	0.014887	792.07	963.24	4.4489	1.9246	2.8603	495.67	2.1730	15.121	0.050916	supercritical
356.00	11.498	66.907	0.014946	794.25	966.10	4.4570	1.9272	2.8590	496.41	2.1598	15.140	0.051027	supercritical
357.00	11.498	66.643	0.015005	796.42	968.96	4.4650	1.9298	2.8577	497.15	2.1466	15.158	0.051140	supercritical
358.00	11.498	66.381	0.015065	798.60	971.81	4.4730	1.9324	2.8565	497.89	2.1335	15.177	0.051253	supercritical
359.00	11.498	66.122	0.015124	800.78	974.67	4.4809	1.9351	2.8554	498.62	2.1204	15.195	0.051367	supercritical
360.00	11.498	65.865	0.015183	802.95	977.52	4.4889	1.9377	2.8544	499.35	2.1075	15.214	0.051482	supercritical
361.00	11.498	65.611	0.015241	805.13	980.38	4.4968	1.9404	2.8534	500.08	2.0946	15.233	0.051597	supercritical
362.00	11.498	65.359	0.015300	807.31	983.23	4.5047	1.9431	2.8525	500.81	2.0818	15.252	0.051714	supercritical
363.00	11.498	65.110	0.015359	809.49	986.08	4.5126	1.9458	2.8517	501.53	2.0690	15.271	0.051831	supercritical
364.00	11.498	64.863	0.015417	811.67	988.93	4.5204	1.9485	2.8509	502.26	2.0564	15.290	0.051950	supercritical
365.00	11.498	64.618	0.015476	813.85	991.78	4.5282	1.9513	2.8502	502.98	2.0438	15.309	0.052069	supercritical
366.00	11.498	64.375	0.015534	816.03	994.63	4.5360	1.9540	2.8496	503.70	2.0313	15.328	0.052188	supercritical
367.00	11.498	64.135	0.015592	818.21	997.48	4.5438	1.9568	2.8491	504.41	2.0188	15.347	0.052309	supercritical
368.00	11.498	63.897	0.015650	820.39	1000.3	4.5515	1.9596	2.8486	505.13	2.0064	15.367	0.052431	supercritical
369.00	11.498	63.661	0.015708	822.57	1003.2	4.5593	1.9624	2.8481	505.84	1.9942	15.386	0.052553	supercritical
370.00	11.498	63.427	0.015766	824.75	1006.0	4.5670	1.9652	2.8478	506.55	1.9819	15.406	0.052676	supercritical
371.00	11.498	63.195	0.015824	826.93	1008.9	4.5747	1.9681	2.8475	507.25	1.9698	15.426	0.052800	supercritical
372.00	11.498	62.965	0.015882	829.12	1011.7	4.5823	1.9709	2.8472	507.96	1.9577	15.445	0.052924	supercritical
373.00	11.498	62.738	0.015939	831.30	1014.6	4.5900	1.9738	2.8470	508.66	1.9457	15.465	0.053050	supercritical
374.00	11.498	62.512	0.015997	833.49	1017.4	4.5976	1.9767	2.8469	509.36	1.9338	15.485	0.053176	supercritical
375.00	11.498	62.288	0.016054	835.67	1020.3	4.6052	1.9795	2.8468	510.06	1.9219	15.505	0.053303	supercritical
376.00	11.498	62.067	0.016112	837.86	1023.1	4.6128	1.9824	2.8468	510.75	1.9102	15.525	0.053430	supercritical
377.00	11.498	61.847	0.016169	840.05	1026.0	4.6203	1.9854	2.8468	511.45	1.8985	15.545	0.053558	supercritical
378.00	11.498	61.629	0.016226	842.24	1028.8	4.6279	1.9883	2.8469	512.14	1.8868	15.565	0.053687	supercritical
379.00	11.498	61.413	0.016283	844.43	1031.7	4.6354	1.9912	2.8470	512.83	1.8752	15.586	0.053817	supercritical
380.00	11.498	61.199	0.016340	846.62	1034.5	4.6429	1.9942	2.8472	513.52	1.8638	15.606	0.053947	supercritical
381.00	11.498	60.986	0.016397	848.81	1037.3	4.6504	1.9972	2.8474	514.20	1.8523	15.626	0.054078	supercritical
382.00	11.498	60.775	0.016454	851.01	1040.2	4.6579	2.0001	2.8477	514.89	1.8410	15.647	0.054210	supercritical
383.00	11.498	60.567	0.016511	853.20	1043.0	4.6653	2.0031	2.8480	515.57	1.8297	15.667	0.054343	supercritical
384.00	11.498	60.359	0.016567	855.40	1045.9	4.6727	2.0061	2.8484	516.25	1.8185	15.688	0.054476	supercritical
385.00	11.498	60.154	0.016624	857.60	1048.7	4.6801	2.0092	2.8488	516.93	1.8073	15.708	0.054609	supercritical
386.00	11.498	59.950	0.016681	859.80	1051.6	4.6875	2.0122	2.8493	517.60	1.7962	15.729	0.054744	supercritical
387.00	11.498	59.748	0.016737	862.00	1054.4	4.6949	2.0152	2.8498	518.28	1.7852	15.750	0.054879	supercritical
388.00	11.498	59.547	0.016793	864.20	1057.3	4.7023	2.0183	2.8504	518.95	1.7743	15.770	0.055014	supercritical
389.00	11.498	59.349	0.016850	866.40	1060.1	4.7096	2.0214	2.8510	519.62	1.7634	15.791	0.055151	supercritical
390.00	11.498	59.151	0.016906	868.61	1063.0	4.7169	2.0244	2.8516	520.29	1.7526	15.812	0.055288	supercritical
391.00	11.498	58.956	0.016962	870.81	1065.8	4.7242	2.0275	2.8523	520.95	1.7419	15.833	0.055425	supercritical
392.00	11.498	58.761	0.017018	873.02	1068.7	4.7315	2.0306	2.8530	521.62	1.7312	15.854	0.055563	supercritical
393.00	11.498	58.569	0.017074	875.23	1071.5	4.7388	2.0337	2.8538	522.28	1.7206	15.875	0.055702	supercritical
394.00	11.498	58.378	0.017130	877.44	1074.4	4.7460	2.0368	2.8546	522.94	1.7101	15.896	0.055842	supercritical
395.00	11.498	58.188	0.017186	879.66	1077.3	4.7533	2.0400	2.8554	523.60	1.6996	15.917	0.055982	supercritical
396.00	11.498	58.000	0.017241	881.87	1080.1	4.7605	2.0431	2.8563	524.26	1.6892	15.938	0.056122	supercritical
397.00	11.498	57.813	0.017297	884.09	1083.0	4.7677	2.0463	2.8572	524.91	1.6788	15.959	0.056263	supercritical
398.00	11.498	57.628	0.017353	886.30	1085.8	4.7749	2.0494	2.8582	525.57	1.6686	15.980	0.056405	supercritical
399.00	11.498	57.444	0.017408	888.52	1088.7	4.7821	2.0526	2.8592	526.22	1.6584	16.002	0.056547	supercritical
400.00	11.498	57.261	0.017464	890.75	1091.5	4.7892	2.0558	2.8602	526.87	1.6482	16.023	0.056690	supercritical
401.00	11.498	57.080	0.017519	892.97	1094.4	4.7964	2.0589	2.8613	527.52	1.6381	16.044	0.056834	supercritical
402.00	11.498	56.900	0.017575	895.20	1097.3	4.8035	2.0621	2.8624	528.17	1.6281	16.066	0.056978	supercritical
403.00	11.498	56.722	0.017630	897.42	1100.1	4.8106	2.0654	2.8635	528.81	1.6181	16.087	0.057122	supercritical
404.00	11.498	56.545	0.017685	899.65	1103.0	4.8177	2.0686	2.8647	529.46	1.6082	16.108	0.057267	supercritical
405.00	11.498	56.369	0.017740	901.88	1105.9	4.8248	2.0718	2.8659	530.10	1.5984	16.130	0.057413	supercritical
406.00	11.498	56.195	0.017795	904.12	1108.7	4.8318	2.0750	2.8671	530.74	1.5886	16.151	0.057559	supercritical
407.00	11.498	56.022	0.017850	906.35	1111.6	4.8389	2.0783	2.8684	531.38	1.5789	16.173	0.057706	supercritical
408.00	11.498	55.850	0.017905	908.59	1114.5	4.8459	2.0815	2.8697	532.01	1.5693	16.194	0.057853	supercritical
409.00	11.498	55.679	0.017960	910.83	1117.3	4.8530	2.0848	2.8710	532.65	1.5597	16.216	0.058001	supercritical
410.00	11.498	55.509	0.018015	913.07	1120.2	4.8600	2.0880	2.8723	533.28	1.5502	16.238	0.058149	supercritical
411.00	11.498	55.341	0.018070	915.31	1123.1	4.8670	2.0913	2.8737	533.92	1.5407	16.259	0.058298	supercritical
412.00	11.498	55.174	0.018124	917.56	1126.0	4.8740	2.0946	2.8751	534.55	1.5313	16.281	0.058448	supercritical
413.00	11.498	55.008	0.018179	919.81	1128.8	4.8809	2.0979	2.8766	535.18	1.5219	16.303	0.058597	supercritical
414.00	11.498	54.844	0.018234	922.06	1131.7	4.8879	2.1012	2.8781	535.80	1.5126	16.324	0.058748	supercritical
415.00	11.498	54.680	0.018288	924.31	1134.6	4.8948	2.1045	2.8796	536.43	1.5034	16.346	0.058899	supercritical
416.00	11.498	54.518	0.018343	926.56	1137.5	4.9018	2.1078	2.8811	537.05	1.4942	16.368	0.059050	supercritical
417.00	11.498	54.356	0.018397	928.82	1140.3	4.9087	2.1111	2.8827	537.68	1.4851	16.390	0.059202	supercritical
418.00	11.498	54.196	0.018451	931.08	1143.2	4.9156	2.1145	2.8842	538.30	1.4761	16.412	0.059354	supercritical
419.00	11.498	54.037	0.018506	933.34	1146.1	4.9225	2.1178	2.8859	538.92	1.4671	16.433	0.059507	supercritical
420.00	11.498	53.879	0.018560	935.60	1149.0	4.9294	2.1211	2.8875	539.54	1.4581	16.455	0.059660	supercritical
421.00	11.498	53.723	0.018614	937.86	1151.9	4.9362	2.1245	2.8892	540.15	1.4492	16.477	0.059814	supercritical
422.00	11.498	53.567	0.018668	940.13	1154.8	4.9431	2.1278	2.8908	540.77	1.4404	16.499	0.059969	supercritical
423.00	11.498	53.412	0.018722	942.40	1157.7	4.9499	2.1312	2.8926	541.39	1.4316	16.521	0.060123	supercritical
424.00	11.498	53.258	0.018776	944.67	1160.6	4.9568	2.1346	2.8943	542.00	1.4229	16.543	0.060279	supercritical
425.00	11.498	53.106	0.018830	946.95	1163.5	4.9636	2.1380	2.8961	542.61	1.4142	16.565	0.060434	supercritical
426.00	11.498	52.954	0.018884	949.23	1166.4	4.9704	2.1413	2.8978	543.22	1.4056	16.587	0.060590	supercritical
427.00	11.498	52.803	0.018938	951.51	1169.3	4.9772	2.1447	2.8996	543.83	1.3971	16.609	0.060747	supercritical
428.00	11.498	52.654	0.018992	953.79	1172.2	4.9840	2.1481	2.9015	544.44	1.3886	16.631	0.060904	supercritical
429.00	11.498	52.505	0.019046	956.07	1175.1	4.9908	2.1515	2.9033	545.04	1.3801	16.653	0.061061	supercritical
430.00	11.498	52.358	0.019099	958.36	1178.0	4.9975	2.1549	2.9052	545.65	1.3717	16.675	0.061219	supercritical
431.00	11.498	52.211	0.019153	960.65	1180.9	5.0043	2.1584	2.9071	546.25	1.3634	16.698	0.061378	supercritical
432.00	11.498	52.065	0.019207	962.94	1183.8	5.0110	2.1618	2.9090	546.85	1.3551	16.720	0.061537	supercritical
433.00	11.498	51.920	0.019260	965.23	1186.7	5.0177	2.1652	2.9110	547.45	1.3469	16.742	0.061696	supercritical
434.00	11.498	51.777	0.019314	967.53	1189.6	5.0245	2.1686	2.9129	548.05	1.3387	16.764	0.061856	supercritical
435.00	11.498	51.634	0.019367	969.83	1192.5	5.0312	2.1721	2.9149	548.65	1.3305	16.786	0.062016	supercritical
436.00	11.498	51.492	0.019421	972.13	1195.4	5.0379	2.1755	2.9169	549.25	1.3225	16.808	0.062176	supercritical
437.00	11.498	51.350	0.019474	974.44	1198.3	5.0445	2.1790	2.9189	549.84	1.3144	16.830	0.062337	supercritical
438.00	11.498	51.210	0.019527	976.74	1201.3	5.0512	2.1824	2.9210	550.44	1.3064	16.853	0.062499	supercritical
439.00	11.498	51.071	0.019581	979.05	1204.2	5.0579	2.1859	2.9230	551.03	1.2985	16.875	0.062660	supercritical
440.00	11.498	50.933	0.019634	981.36	1207.1	5.0645	2.1893	2.9251	551.62	1.2906	16.897	0.062823	supercritical
441.00	11.498	50.795	0.019687	983.68	1210.0	5.0712	2.1928	2.9272	552.21	1.2828	16.919	0.062985	supercritical
442.00	11.498	50.658	0.019740	986.00	1213.0	5.0778	2.1963	2.9293	552.80	1.2750	16.942	0.063148	supercritical
443.00	11.498	50.522	0.019793	988.32	1215.9	5.0844	2.1998	2.9315	553.39	1.2673	16.964	0.063312	supercritical
444.00	11.498	50.387	0.019846	990.64	1218.8	5.0910	2.2032	2.9336	553.98	1.2596	16.986	0.063476	supercritical
445.00	11.498	50.253	0.019899	992.96	1221.8	5.0976	2.2067	2.9358	554.56	1.2519	17.009	0.063640	supercritical
446.00	11.498	50.120	0.019952	995.29	1224.7	5.1042	2.2102	2.9380	555.15	1.2444	17.031	0.063805	supercritical
447.00	11.498	49.987	0.020005	997.62	1227.6	5.1108	2.2137	2.9402	555.73	1.2368	17.053	0.063970	supercritical
448.00	11.498	49.855	0.020058	999.96	1230.6	5.1174	2.2172	2.9424	556.31	1.2293	17.076	0.064135	supercritical
449.00	11.498	49.724	0.020111	1002.3	1233.5	5.1240	2.2207	2.9447	556.89	1.2219	17.098	0.064301	supercritical
450.00	11.498	49.594	0.020164	1004.6	1236.5	5.1305	2.2242	2.9469	557.47	1.2145	17.120	0.064467	supercritical
451.00	11.498	49.465	0.020216	1007.0	1239.4	5.1371	2.2277	2.9492	558.05	1.2071	17.143	0.064634	supercritical
452.00	11.498	49.336	0.020269	1009.3	1242.4	5.1436	2.2313	2.9515	558.63	1.1998	17.165	0.064801	supercritical
453.00	11.498	49.208	0.020322	1011.7	1245.3	5.1501	2.2348	2.9538	559.21	1.1925	17.187	0.064968	supercritical
454.00	11.498	49.081	0.020374	1014.0	1248.3	5.1566	2.2383	2.9561	559.78	1.1853	17.210	0.065136	supercritical
455.00	11.498	48.955	0.020427	1016.4	1251.2	5.1631	2.2418	2.9585	560.36	1.1781	17.232	0.065304	supercritical
456.00	11.498	48.829	0.020479	1018.7	1254.2	5.1696	2.2454	2.9608	560.93	1.1710	17.254	0.065472	supercritical
457.00	11.498	48.705	0.020532	1021.1	1257.2	5.1761	2.2489	2.9632	561.50	1.1639	17.277	0.065641	supercritical
458.00	11.498	48.581	0.020584	1023.4	1260.1	5.1826	2.2524	2.9656	562.07	1.1569	17.299	0.065810	supercritical
459.00	11.498	48.457	0.020637	1025.8	1263.1	5.1891	2.2560	2.9680	562.64	1.1499	17.322	0.065980	supercritical
460.00	11.498	48.334	0.020689	1028.2	1266.1	5.1955	2.2595	2.9704	563.21	1.1429	17.344	0.066150	supercritical
461.00	11.498	48.212	0.020742	1030.5	1269.0	5.2020	2.2631	2.9728	563.78	1.1360	17.367	0.066320	supercritical
462.00	11.498	48.091	0.020794	1032.9	1272.0	5.2084	2.2666	2.9752	564.34	1.1292	17.389	0.066491	supercritical
463.00	11.498	47.971	0.020846	1035.3	1275.0	5.2149	2.2702	2.9777	564.91	1.1223	17.411	0.066662	supercritical
464.00	11.498	47.851	0.020898	1037.7	1278.0	5.2213	2.2738	2.9801	565.47	1.1156	17.434	0.066833	supercritical
465.00	11.498	47.732	0.020950	1040.1	1280.9	5.2277	2.2773	2.9826	566.04	1.1088	17.456	0.067005	supercritical
466.00	11.498	47.613	0.021003	1042.4	1283.9	5.2341	2.2809	2.9851	566.60	1.1021	17.479	0.067177	supercritical
467.00	11.498	47.495	0.021055	1044.8	1286.9	5.2405	2.2845	2.9876	567.16	1.0955	17.501	0.067349	supercritical
468.00	11.498	47.378	0.021107	1047.2	1289.9	5.2469	2.2880	2.9901	567.72	1.0888	17.524	0.067522	supercritical
469.00	11.498	47.262	0.021159	1049.6	1292.9	5.2533	2.2916	2.9927	568.28	1.0823	17.546	0.067695	supercritical
470.00	11.498	47.146	0.021211	1052.0	1295.9	5.2597	2.2952	2.9952	568.84	1.0757	17.569	0.067868	supercritical
471.00	11.498	47.030	0.021263	1054.4	1298.9	5.2660	2.2988	2.9977	569.40	1.0692	17.591	0.068042	supercritical
472.00	11.498	46.916	0.021315	1056.8	1301.9	5.2724	2.3023	3.0003	569.95	1.0628	17.614	0.068216	supercritical
473.00	11.498	46.802	0.021367	1059.2	1304.9	5.2788	2.3059	3.0029	570.51	1.0564	17.636	0.068391	supercritical
474.00	11.498	46.689	0.021419	1061.6	1307.9	5.2851	2.3095	3.0055	571.06	1.0500	17.659	0.068565	supercritical
475.00	11.498	46.576	0.021470	1064.0	1310.9	5.2914	2.3131	3.0081	571.62	1.0437	17.681	0.068740	supercritical
476.00	11.498	46.464	0.021522	1066.4	1313.9	5.2978	2.3167	3.0107	572.17	1.0374	17.704	0.068916	supercritical
477.00	11.498	46.352	0.021574	1068.9	1316.9	5.3041	2.3203	3.0133	572.72	1.0311	17.726	0.069091	supercritical
478.00	11.498	46.241	0.021626	1071.3	1319.9	5.3104	2.3239	3.0159	573.27	1.0249	17.749	0.069267	supercritical
479.00	11.498	46.131	0.021677	1073.7	1322.9	5.3167	2.3275	3.0186	573.82	1.0187	17.771	0.069444	supercritical
480.00	11.498	46.022	0.021729	1076.1	1326.0	5.3230	2.3311	3.0212	574.37	1.0126	17.793	0.069620	supercritical
481.00	11.498	45.912	0.021781	1078.6	1329.0	5.3293	2.3347	3.0239	574.92	1.0064	17.816	0.069797	supercritical
482.00	11.498	45.804	0.021832	1081.0	1332.0	5.3356	2.3383	3.0266	575.46	1.0004	17.838	0.069975	supercritical
483.00	11.498	45.696	0.021884	1083.4	1335.0	5.3419	2.3419	3.0293	576.01	0.99435	17.861	0.070152	supercritical
484.00	11.498	45.589	0.021935	1085.9	1338.1	5.3481	2.3455	3.0319	576.56	0.98835	17.883	0.070330	supercritical
485.00	11.498	45.482	0.021987	1088.3	1341.1	5.3544	2.3492	3.0347	577.10	0.98239	17.906	0.070508	supercritical
486.00	11.498	45.376	0.022038	1090.7	1344.1	5.3606	2.3528	3.0374	577.64	0.97647	17.928	0.070687	supercritical
487.00	11.498	45.270	0.022090	1093.2	1347.2	5.3669	2.3564	3.0401	578.19	0.97058	17.951	0.070866	supercritical
488.00	11.498	45.165	0.022141	1095.6	1350.2	5.3731	2.3600	3.0428	578.73	0.96473	17.973	0.071045	supercritical
489.00	11.498	45.060	0.022192	1098.1	1353.3	5.3794	2.3636	3.0456	579.27	0.95891	17.996	0.071224	supercritical
490.00	11.498	44.956	0.022244	1100.6	1356.3	5.3856	2.3672	3.0483	579.81	0.95313	18.018	0.071404	supercritical
491.00	11.498	44.853	0.022295	1103.0	1359.4	5.3918	2.3709	3.0511	580.35	0.94739	18.041	0.071584	supercritical
492.00	11.498	44.750	0.022346	1105.5	1362.4	5.3980	2.3745	3.0538	580.88	0.94168	18.063	0.071764	supercritical
493.00	11.498	44.648	0.022398	1107.9	1365.5	5.4042	2.3781	3.0566	581.42	0.93600	18.086	0.071945	supercritical
494.00	11.498	44.546	0.022449	1110.4	1368.5	5.4104	2.3818	3.0594	581.96	0.93036	18.108	0.072126	supercritical
495.00	11.498	44.444	0.022500	1112.9	1371.6	5.4166	2.3854	3.0622	582.49	0.92475	18.131	0.072307	supercritical
496.00	11.498	44.344	0.022551	1115.4	1374.7	5.4228	2.3890	3.0650	583.03	0.91918	18.153	0.072488	supercritical
497.00	11.498	44.243	0.022602	1117.8	1377.7	5.4290	2.3926	3.0678	583.56	0.91364	18.176	0.072670	supercritical
498.00	11.498	44.143	0.022653	1120.3	1380.8	5.4351	2.3963	3.0706	584.09	0.90813	18.198	0.072852	supercritical
499.00	11.498	44.044	0.022705	1122.8	1383.9	5.4413	2.3999	3.0734	584.62	0.90266	18.221	0.073034	supercritical
500.00	11.498	43.945	0.022756	1125.3	1386.9	5.4474	2.4036	3.0763	585.16	0.89722	18.243	0.073217	supercritical
