Temperature (K)	Pressure (MPa)	Density (kg/m3)	Volume (m3/kg)	Internal Energy (kJ/kg)	Enthalpy (kJ/kg)	Entropy (J/g*K)	Cv (J/g*K)	Cp (J/g*K)	Sound Spd. (m/s)	Joule-Thomson (K/MPa)	Viscosity (uPa*s)	Therm. Cond. (W/m*K)	Phase
100.00	6.0000	443.26	0.0022560	-44.402	-30.866	-0.42056	2.1291	3.3669	1497.3	-0.47205	165.28	0.20527	liquid
101.00	6.0000	441.95	0.0022627	-41.074	-27.498	-0.38703	2.1240	3.3709	1488.4	-0.46962	161.17	0.20401	liquid
102.00	6.0000	440.64	0.0022694	-37.741	-24.125	-0.35380	2.1189	3.3750	1479.5	-0.46712	157.25	0.20274	liquid
103.00	6.0000	439.31	0.0022763	-34.405	-20.748	-0.32086	2.1139	3.3791	1470.6	-0.46455	153.49	0.20147	liquid
104.00	6.0000	437.99	0.0022832	-31.065	-17.366	-0.28819	2.1089	3.3834	1461.6	-0.46190	149.89	0.20018	liquid
105.00	6.0000	436.66	0.0022901	-27.722	-13.981	-0.25579	2.1040	3.3878	1452.6	-0.45918	146.44	0.19889	liquid
106.00	6.0000	435.32	0.0022972	-24.374	-10.591	-0.22365	2.0992	3.3923	1443.5	-0.45639	143.12	0.19758	liquid
107.00	6.0000	433.98	0.0023043	-21.022	-7.1961	-0.19178	2.0944	3.3969	1434.5	-0.45351	139.93	0.19628	liquid
108.00	6.0000	432.63	0.0023114	-17.665	-3.7968	-0.16016	2.0897	3.4017	1425.4	-0.45055	136.85	0.19496	liquid
109.00	6.0000	431.28	0.0023187	-14.305	-0.39270	-0.12878	2.0850	3.4065	1416.3	-0.44752	133.88	0.19364	liquid
110.00	6.0000	429.92	0.0023260	-10.940	3.0163	-0.097652	2.0803	3.4114	1407.1	-0.44439	131.02	0.19231	liquid
111.00	6.0000	428.56	0.0023334	-7.5702	6.4302	-0.066757	2.0757	3.4165	1398.0	-0.44118	128.24	0.19098	liquid
112.00	6.0000	427.19	0.0023409	-4.1960	9.8493	-0.036092	2.0712	3.4217	1388.8	-0.43788	125.56	0.18965	liquid
113.00	6.0000	425.81	0.0023485	-0.81710	13.274	-0.0056534	2.0666	3.4270	1379.5	-0.43448	122.97	0.18831	liquid
114.00	6.0000	424.43	0.0023561	2.5667	16.703	0.024564	2.0621	3.4324	1370.3	-0.43099	120.45	0.18696	liquid
115.00	6.0000	423.04	0.0023638	5.9555	20.139	0.054566	2.0577	3.4380	1361.0	-0.42740	118.01	0.18561	liquid
116.00	6.0000	421.65	0.0023717	9.3494	23.579	0.084357	2.0533	3.4437	1351.7	-0.42370	115.65	0.18426	liquid
117.00	6.0000	420.24	0.0023796	12.748	27.026	0.11394	2.0489	3.4495	1342.3	-0.41990	113.35	0.18291	liquid
118.00	6.0000	418.83	0.0023876	16.153	30.478	0.14332	2.0445	3.4555	1333.0	-0.41599	111.11	0.18155	liquid
119.00	6.0000	417.42	0.0023957	19.563	33.937	0.17251	2.0402	3.4616	1323.6	-0.41197	108.94	0.18020	liquid
120.00	6.0000	415.99	0.0024039	22.978	37.402	0.20150	2.0360	3.4679	1314.2	-0.40782	106.83	0.17884	liquid
121.00	6.0000	414.56	0.0024122	26.400	40.873	0.23031	2.0317	3.4743	1304.7	-0.40355	104.77	0.17747	liquid
122.00	6.0000	413.13	0.0024206	29.827	44.350	0.25893	2.0275	3.4810	1295.3	-0.39916	102.77	0.17611	liquid
123.00	6.0000	411.68	0.0024291	33.260	47.835	0.28738	2.0233	3.4878	1285.8	-0.39463	100.81	0.17475	liquid
124.00	6.0000	410.22	0.0024377	36.700	51.326	0.31565	2.0192	3.4947	1276.2	-0.38997	98.913	0.17338	liquid
125.00	6.0000	408.76	0.0024464	40.146	54.824	0.34374	2.0151	3.5019	1266.7	-0.38516	97.058	0.17202	liquid
126.00	6.0000	407.29	0.0024553	43.598	58.330	0.37168	2.0111	3.5093	1257.1	-0.38021	95.250	0.17065	liquid
127.00	6.0000	405.81	0.0024642	47.058	61.843	0.39945	2.0071	3.5169	1247.5	-0.37510	93.485	0.16928	liquid
128.00	6.0000	404.32	0.0024733	50.524	65.364	0.42706	2.0031	3.5247	1237.8	-0.36983	91.762	0.16791	liquid
129.00	6.0000	402.82	0.0024825	53.998	68.893	0.45452	1.9991	3.5328	1228.2	-0.36440	90.081	0.16655	liquid
130.00	6.0000	401.31	0.0024918	57.478	72.429	0.48184	1.9952	3.5411	1218.4	-0.35879	88.438	0.16518	liquid
131.00	6.0000	399.80	0.0025013	60.967	75.975	0.50900	1.9914	3.5496	1208.7	-0.35301	86.834	0.16381	liquid
132.00	6.0000	398.27	0.0025109	64.463	79.529	0.53603	1.9876	3.5584	1198.9	-0.34703	85.265	0.16245	liquid
133.00	6.0000	396.73	0.0025206	67.968	83.092	0.56292	1.9838	3.5675	1189.1	-0.34086	83.733	0.16108	liquid
134.00	6.0000	395.18	0.0025305	71.481	86.664	0.58968	1.9801	3.5768	1179.2	-0.33449	82.234	0.15971	liquid
135.00	6.0000	393.62	0.0025405	75.002	90.245	0.61631	1.9764	3.5865	1169.4	-0.32791	80.768	0.15835	liquid
136.00	6.0000	392.05	0.0025507	78.533	93.837	0.64281	1.9728	3.5965	1159.4	-0.32111	79.334	0.15698	liquid
137.00	6.0000	390.46	0.0025611	82.072	97.438	0.66920	1.9692	3.6068	1149.5	-0.31407	77.931	0.15562	liquid
138.00	6.0000	388.87	0.0025716	85.621	101.05	0.69547	1.9656	3.6174	1139.5	-0.30680	76.558	0.15425	liquid
139.00	6.0000	387.26	0.0025822	89.180	104.67	0.72163	1.9621	3.6285	1129.4	-0.29928	75.213	0.15289	liquid
140.00	6.0000	385.64	0.0025931	92.749	108.31	0.74768	1.9587	3.6399	1119.3	-0.29149	73.897	0.15153	liquid
141.00	6.0000	384.01	0.0026041	96.328	111.95	0.77363	1.9553	3.6517	1109.2	-0.28343	72.608	0.15017	liquid
142.00	6.0000	382.36	0.0026154	99.919	115.61	0.79948	1.9519	3.6639	1099.0	-0.27509	71.344	0.14881	liquid
143.00	6.0000	380.70	0.0026268	103.52	119.28	0.82523	1.9487	3.6765	1088.8	-0.26644	70.107	0.14745	liquid
144.00	6.0000	379.02	0.0026384	107.13	122.96	0.85090	1.9454	3.6896	1078.5	-0.25748	68.894	0.14609	liquid
145.00	6.0000	377.33	0.0026502	110.76	126.66	0.87648	1.9422	3.7032	1068.2	-0.24819	67.704	0.14473	liquid
146.00	6.0000	375.62	0.0026623	114.40	130.37	0.90198	1.9391	3.7174	1057.8	-0.23855	66.538	0.14337	liquid
147.00	6.0000	373.89	0.0026746	118.05	134.10	0.92740	1.9360	3.7320	1047.4	-0.22855	65.395	0.14202	liquid
148.00	6.0000	372.15	0.0026871	121.71	137.84	0.95275	1.9330	3.7472	1036.9	-0.21817	64.273	0.14066	liquid
149.00	6.0000	370.40	0.0026998	125.39	141.59	0.97804	1.9301	3.7630	1026.4	-0.20739	63.172	0.13931	liquid
150.00	6.0000	368.62	0.0027128	129.08	145.36	1.0033	1.9272	3.7795	1015.8	-0.19619	62.091	0.13795	liquid
151.00	6.0000	366.82	0.0027261	132.79	149.15	1.0284	1.9244	3.7966	1005.2	-0.18455	61.031	0.13660	liquid
152.00	6.0000	365.01	0.0027397	136.52	152.95	1.0536	1.9216	3.8144	994.45	-0.17243	59.989	0.13524	liquid
153.00	6.0000	363.17	0.0027535	140.26	156.78	1.0786	1.9190	3.8330	983.67	-0.15983	58.966	0.13389	liquid
154.00	6.0000	361.32	0.0027677	144.02	160.62	1.1037	1.9164	3.8524	972.82	-0.14670	57.960	0.13254	liquid
155.00	6.0000	359.44	0.0027821	147.79	164.48	1.1287	1.9138	3.8726	961.91	-0.13302	56.972	0.13118	liquid
156.00	6.0000	357.54	0.0027969	151.59	168.37	1.1536	1.9114	3.8937	950.92	-0.11875	56.001	0.12983	liquid
157.00	6.0000	355.61	0.0028120	155.40	172.27	1.1786	1.9090	3.9158	939.86	-0.10387	55.046	0.12847	liquid
158.00	6.0000	353.66	0.0028276	159.23	176.20	1.2035	1.9067	3.9389	928.71	-0.088331	54.107	0.12712	liquid
159.00	6.0000	351.69	0.0028434	163.09	180.15	1.2284	1.9045	3.9631	917.49	-0.072096	53.182	0.12577	liquid
160.00	6.0000	349.68	0.0028597	166.97	184.13	1.2534	1.9024	3.9885	906.18	-0.055120	52.272	0.12441	liquid
161.00	6.0000	347.65	0.0028764	170.87	188.13	1.2783	1.9004	4.0151	894.79	-0.037354	51.376	0.12305	liquid
162.00	6.0000	345.59	0.0028936	174.79	192.16	1.3033	1.8985	4.0431	883.30	-0.018746	50.494	0.12169	liquid
163.00	6.0000	343.50	0.0029112	178.75	196.21	1.3282	1.8967	4.0725	871.72	0.00076223	49.624	0.12033	liquid
164.00	6.0000	341.37	0.0029294	182.73	200.30	1.3532	1.8950	4.1035	860.04	0.021233	48.767	0.11897	liquid
165.00	6.0000	339.21	0.0029480	186.73	204.42	1.3783	1.8934	4.1361	848.25	0.042735	47.921	0.11761	liquid
166.00	6.0000	337.01	0.0029673	190.77	208.57	1.4034	1.8919	4.1706	836.35	0.065346	47.087	0.11624	liquid
167.00	6.0000	334.77	0.0029871	194.84	212.76	1.4285	1.8906	4.2071	824.34	0.089149	46.263	0.11487	liquid
168.00	6.0000	332.50	0.0030075	198.94	216.99	1.4537	1.8894	4.2458	812.21	0.11424	45.449	0.11350	liquid
169.00	6.0000	330.18	0.0030287	203.08	221.26	1.4791	1.8883	4.2868	799.95	0.14072	44.645	0.11212	liquid
170.00	6.0000	327.81	0.0030505	207.26	225.56	1.5045	1.8874	4.3304	787.55	0.16870	43.850	0.11074	liquid
171.00	6.0000	325.40	0.0030732	211.48	229.92	1.5300	1.8867	4.3768	775.02	0.19831	43.063	0.10936	liquid
172.00	6.0000	322.93	0.0030967	215.74	234.32	1.5557	1.8861	4.4264	762.33	0.22971	42.284	0.10797	liquid
173.00	6.0000	320.41	0.0031210	220.04	238.77	1.5815	1.8857	4.4795	749.49	0.26304	41.511	0.10658	liquid
174.00	6.0000	317.82	0.0031464	224.40	243.28	1.6075	1.8855	4.5364	736.48	0.29850	40.745	0.10518	liquid
175.00	6.0000	315.18	0.0031728	228.81	247.85	1.6336	1.8856	4.5976	723.28	0.33629	39.985	0.10377	liquid
176.00	6.0000	312.47	0.0032004	233.27	252.48	1.6600	1.8859	4.6637	709.90	0.37665	39.229	0.10236	liquid
177.00	6.0000	309.68	0.0032292	237.80	257.17	1.6867	1.8865	4.7352	696.32	0.41986	38.478	0.10095	liquid
178.00	6.0000	306.81	0.0032593	242.39	261.95	1.7135	1.8873	4.8129	682.51	0.46622	37.729	0.099523	liquid
179.00	6.0000	303.85	0.0032910	247.06	266.80	1.7407	1.8885	4.8975	668.47	0.51611	36.983	0.098093	liquid
180.00	6.0000	300.80	0.0033244	251.80	271.75	1.7683	1.8900	4.9903	654.18	0.56993	36.238	0.096656	liquid
181.00	6.0000	297.65	0.0033597	256.63	276.79	1.7962	1.8920	5.0923	639.61	0.62820	35.492	0.095213	liquid
182.00	6.0000	294.38	0.0033970	261.55	281.93	1.8246	1.8944	5.2051	624.75	0.69149	34.746	0.093764	liquid
183.00	6.0000	290.98	0.0034366	266.58	287.20	1.8534	1.8973	5.3307	609.57	0.76051	33.996	0.092311	liquid
184.00	6.0000	287.44	0.0034789	271.73	292.60	1.8828	1.9008	5.4713	594.04	0.83607	33.242	0.090855	liquid
185.00	6.0000	283.74	0.0035243	277.00	298.15	1.9129	1.9051	5.6299	578.12	0.91921	32.482	0.089401	liquid
186.00	6.0000	279.86	0.0035732	282.43	303.87	1.9437	1.9101	5.8103	561.80	1.0112	31.713	0.087955	liquid
187.00	6.0000	275.78	0.0036261	288.02	309.78	1.9754	1.9160	6.0176	545.02	1.1134	30.932	0.086527	liquid
188.00	6.0000	271.45	0.0036839	293.81	315.91	2.0082	1.9231	6.2584	527.73	1.2279	30.137	0.085136	liquid
189.00	6.0000	266.85	0.0037474	299.83	322.31	2.0421	1.9315	6.5416	509.89	1.3571	29.323	0.083820	liquid
190.00	6.0000	261.92	0.0038180	306.11	329.02	2.0775	1.9416	6.8798	491.44	1.5040	28.485	0.082688	liquid
191.00	6.0000	256.60	0.0038972	312.71	336.09	2.1146	1.9537	7.2903	472.30	1.6728	27.617	0.081360	supercritical
192.00	6.0000	250.79	0.0039874	319.70	343.63	2.1540	1.9685	7.7988	452.41	1.8687	26.710	0.079486	supercritical
193.00	6.0000	244.39	0.0040918	327.18	351.74	2.1961	1.9866	8.4428	431.70	2.0988	25.752	0.077721	supercritical
194.00	6.0000	237.23	0.0042153	335.29	360.58	2.2418	2.0091	9.2791	410.12	2.3728	24.730	0.075999	supercritical
195.00	6.0000	229.08	0.0043653	344.19	370.39	2.2922	2.0372	10.394	387.69	2.7036	23.622	0.074331	supercritical
196.00	6.0000	219.63	0.0045531	354.18	381.50	2.3491	2.0724	11.916	364.61	3.1083	22.402	0.072759	supercritical
197.00	6.0000	208.45	0.0047973	365.63	394.41	2.4148	2.1147	14.014	341.51	3.6085	21.035	0.071361	supercritical
198.00	6.0000	195.08	0.0051262	378.98	409.74	2.4924	2.1591	16.712	319.91	4.2215	19.498	0.070162	supercritical
199.00	6.0000	179.63	0.0055669	394.31	427.71	2.5829	2.1932	18.976	302.90	4.9129	17.842	0.068718	supercritical
200.00	6.0000	163.85	0.0061033	410.35	446.97	2.6795	2.2076	19.192	293.16	5.5769	16.279	0.066252	supercritical
201.00	6.0000	149.78	0.0066762	425.41	465.47	2.7717	2.1951	17.540	289.55	6.1454	15.007	0.062704	supercritical
202.00	6.0000	138.39	0.0072259	438.41	481.77	2.8526	2.1596	15.032	289.73	6.5777	14.075	0.058664	supercritical
203.00	6.0000	129.47	0.0077238	449.28	495.63	2.9210	2.1176	12.772	291.70	6.8829	13.411	0.054979	supercritical
204.00	6.0000	122.39	0.0081705	458.47	507.49	2.9793	2.0786	11.038	294.32	7.0949	12.928	0.051927	supercritical
205.00	6.0000	116.62	0.0085747	466.40	517.85	3.0300	2.0447	9.7379	297.15	7.2408	12.565	0.049450	supercritical
206.00	6.0000	111.80	0.0089446	473.40	527.07	3.0749	2.0157	8.7478	299.99	7.3392	12.284	0.047431	supercritical
207.00	6.0000	107.68	0.0092868	479.69	535.41	3.1153	1.9909	7.9762	302.79	7.4027	12.060	0.045768	supercritical
208.00	6.0000	104.10	0.0096062	485.43	543.07	3.1522	1.9694	7.3611	305.53	7.4400	11.880	0.044381	supercritical
209.00	6.0000	100.94	0.0099069	490.73	550.17	3.1863	1.9506	6.8609	308.20	7.4574	11.731	0.043211	supercritical
210.00	6.0000	98.121	0.010192	495.67	556.82	3.2180	1.9340	6.4467	310.80	7.4596	11.607	0.042215	supercritical
211.00	6.0000	95.579	0.010463	500.31	563.09	3.2478	1.9192	6.0985	313.33	7.4499	11.503	0.041359	supercritical
212.00	6.0000	93.267	0.010722	504.70	569.04	3.2759	1.9060	5.8017	315.79	7.4308	11.415	0.040617	supercritical
213.00	6.0000	91.150	0.010971	508.88	574.71	3.3026	1.8940	5.5459	318.20	7.4044	11.341	0.039970	supercritical
214.00	6.0000	89.199	0.011211	512.87	580.14	3.3280	1.8831	5.3230	320.54	7.3721	11.277	0.039403	supercritical
215.00	6.0000	87.392	0.011443	516.71	585.36	3.3524	1.8731	5.1272	322.83	7.3351	11.222	0.038904	supercritical
216.00	6.0000	85.709	0.011667	520.40	590.40	3.3757	1.8639	4.9537	325.07	7.2943	11.175	0.038461	supercritical
217.00	6.0000	84.136	0.011886	523.96	595.28	3.3983	1.8554	4.7989	327.27	7.2506	11.135	0.038069	supercritical
218.00	6.0000	82.660	0.012098	527.42	600.00	3.4200	1.8475	4.6599	329.41	7.2045	11.101	0.037719	supercritical
219.00	6.0000	81.270	0.012305	530.77	604.60	3.4410	1.8402	4.5345	331.52	7.1565	11.071	0.037407	supercritical
220.00	6.0000	79.957	0.012507	534.04	609.08	3.4614	1.8333	4.4206	333.58	7.1070	11.047	0.037128	supercritical
221.00	6.0000	78.715	0.012704	537.22	613.44	3.4812	1.8269	4.3168	335.60	7.0563	11.026	0.036878	supercritical
222.00	6.0000	77.535	0.012897	540.33	617.71	3.5005	1.8209	4.2218	337.59	7.0047	11.009	0.036655	supercritical
223.00	6.0000	76.413	0.013087	543.37	621.89	3.5193	1.8153	4.1345	339.54	6.9525	10.995	0.036454	supercritical
224.00	6.0000	75.343	0.013273	546.35	625.98	3.5376	1.8100	4.0540	341.46	6.8998	10.983	0.036274	supercritical
225.00	6.0000	74.321	0.013455	549.27	630.00	3.5555	1.8050	3.9795	343.35	6.8467	10.975	0.036114	supercritical
226.00	6.0000	73.343	0.013635	552.14	633.95	3.5730	1.8003	3.9105	345.20	6.7934	10.968	0.035970	supercritical
227.00	6.0000	72.406	0.013811	554.96	637.82	3.5901	1.7959	3.8462	347.03	6.7401	10.964	0.035841	supercritical
228.00	6.0000	71.507	0.013985	557.73	641.64	3.6069	1.7917	3.7863	348.82	6.6867	10.962	0.035727	supercritical
229.00	6.0000	70.642	0.014156	560.46	645.40	3.6233	1.7877	3.7303	350.60	6.6335	10.961	0.035625	supercritical
230.00	6.0000	69.811	0.014324	563.15	649.10	3.6395	1.7840	3.6778	352.34	6.5803	10.962	0.035536	supercritical
231.00	6.0000	69.009	0.014491	565.81	652.75	3.6553	1.7805	3.6286	354.06	6.5274	10.964	0.035457	supercritical
232.00	6.0000	68.236	0.014655	568.43	656.36	3.6709	1.7772	3.5823	355.75	6.4748	10.968	0.035388	supercritical
233.00	6.0000	67.489	0.014817	571.02	659.92	3.6862	1.7740	3.5388	357.42	6.4224	10.973	0.035328	supercritical
234.00	6.0000	66.767	0.014977	573.57	663.44	3.7013	1.7711	3.4977	359.07	6.3704	10.980	0.035277	supercritical
235.00	6.0000	66.069	0.015136	576.10	666.92	3.7161	1.7683	3.4588	360.70	6.3187	10.987	0.035234	supercritical
236.00	6.0000	65.393	0.015292	578.60	670.36	3.7307	1.7656	3.4221	362.30	6.2674	10.996	0.035198	supercritical
237.00	6.0000	64.737	0.015447	581.08	673.76	3.7451	1.7632	3.3873	363.89	6.2164	11.005	0.035169	supercritical
238.00	6.0000	64.101	0.015600	583.53	677.13	3.7593	1.7608	3.3543	365.45	6.1659	11.015	0.035147	supercritical
239.00	6.0000	63.484	0.015752	585.96	680.47	3.7733	1.7587	3.3230	367.00	6.1158	11.026	0.035131	supercritical
240.00	6.0000	62.884	0.015902	588.36	683.78	3.7871	1.7566	3.2932	368.53	6.0662	11.038	0.035120	supercritical
241.00	6.0000	62.302	0.016051	590.75	687.06	3.8007	1.7547	3.2649	370.04	6.0170	11.050	0.035115	supercritical
242.00	6.0000	61.734	0.016198	593.12	690.31	3.8142	1.7529	3.2379	371.53	5.9682	11.064	0.035114	supercritical
243.00	6.0000	61.182	0.016345	595.47	693.53	3.8275	1.7512	3.2121	373.00	5.9199	11.077	0.035119	supercritical
244.00	6.0000	60.645	0.016489	597.80	696.73	3.8406	1.7496	3.1876	374.46	5.8721	11.092	0.035128	supercritical
245.00	6.0000	60.121	0.016633	600.11	699.91	3.8536	1.7481	3.1642	375.91	5.8247	11.107	0.035141	supercritical
246.00	6.0000	59.610	0.016776	602.41	703.06	3.8665	1.7468	3.1418	377.33	5.7778	11.123	0.035158	supercritical
247.00	6.0000	59.112	0.016917	604.69	706.19	3.8792	1.7455	3.1203	378.74	5.7313	11.139	0.035179	supercritical
248.00	6.0000	58.625	0.017058	606.96	709.30	3.8917	1.7444	3.0999	380.14	5.6853	11.155	0.035203	supercritical
249.00	6.0000	58.150	0.017197	609.21	712.39	3.9042	1.7433	3.0802	381.52	5.6398	11.172	0.035231	supercritical
250.00	6.0000	57.686	0.017335	611.45	715.46	3.9165	1.7423	3.0614	382.89	5.5947	11.190	0.035262	supercritical
251.00	6.0000	57.233	0.017473	613.68	718.52	3.9287	1.7415	3.0434	384.25	5.5501	11.207	0.035297	supercritical
252.00	6.0000	56.789	0.017609	615.90	721.55	3.9407	1.7407	3.0261	385.59	5.5059	11.226	0.035334	supercritical
253.00	6.0000	56.355	0.017745	618.10	724.57	3.9527	1.7400	3.0095	386.92	5.4622	11.244	0.035374	supercritical
254.00	6.0000	55.931	0.017879	620.29	727.57	3.9645	1.7393	2.9936	388.23	5.4189	11.263	0.035417	supercritical
255.00	6.0000	55.515	0.018013	622.48	730.56	3.9763	1.7388	2.9783	389.54	5.3761	11.282	0.035462	supercritical
256.00	6.0000	55.108	0.018146	624.65	733.53	3.9879	1.7383	2.9636	390.83	5.3337	11.302	0.035510	supercritical
257.00	6.0000	54.710	0.018278	626.81	736.48	3.9994	1.7379	2.9495	392.11	5.2918	11.322	0.035560	supercritical
258.00	6.0000	54.319	0.018410	628.97	739.43	4.0108	1.7376	2.9359	393.37	5.2502	11.342	0.035613	supercritical
259.00	6.0000	53.936	0.018541	631.11	742.35	4.0222	1.7374	2.9228	394.63	5.2091	11.363	0.035668	supercritical
260.00	6.0000	53.560	0.018671	633.25	745.27	4.0334	1.7372	2.9102	395.88	5.1684	11.383	0.035725	supercritical
261.00	6.0000	53.192	0.018800	635.38	748.17	4.0446	1.7371	2.8981	397.11	5.1282	11.404	0.035784	supercritical
262.00	6.0000	52.830	0.018929	637.50	751.07	4.0556	1.7370	2.8864	398.34	5.0883	11.425	0.035845	supercritical
263.00	6.0000	52.476	0.019057	639.61	753.95	4.0666	1.7370	2.8752	399.55	5.0488	11.447	0.035908	supercritical
264.00	6.0000	52.127	0.019184	641.71	756.82	4.0775	1.7371	2.8644	400.75	5.0098	11.469	0.035973	supercritical
265.00	6.0000	51.785	0.019311	643.81	759.68	4.0883	1.7372	2.8539	401.95	4.9711	11.490	0.036039	supercritical
266.00	6.0000	51.449	0.019437	645.91	762.53	4.0990	1.7374	2.8439	403.13	4.9329	11.513	0.036107	supercritical
267.00	6.0000	51.119	0.019562	647.99	765.36	4.1097	1.7377	2.8342	404.31	4.8950	11.535	0.036177	supercritical
268.00	6.0000	50.795	0.019687	650.07	768.19	4.1203	1.7380	2.8249	405.47	4.8575	11.557	0.036249	supercritical
269.00	6.0000	50.476	0.019812	652.15	771.01	4.1308	1.7383	2.8158	406.63	4.8204	11.580	0.036322	supercritical
270.00	6.0000	50.162	0.019935	654.21	773.83	4.1412	1.7387	2.8072	407.77	4.7836	11.603	0.036397	supercritical
271.00	6.0000	49.854	0.020059	656.28	776.63	4.1515	1.7392	2.7988	408.91	4.7472	11.626	0.036473	supercritical
272.00	6.0000	49.550	0.020181	658.34	779.42	4.1618	1.7397	2.7907	410.04	4.7112	11.649	0.036551	supercritical
273.00	6.0000	49.252	0.020304	660.39	782.21	4.1721	1.7403	2.7829	411.16	4.6755	11.672	0.036630	supercritical
274.00	6.0000	48.958	0.020426	662.44	784.99	4.1822	1.7409	2.7754	412.28	4.6402	11.695	0.036710	supercritical
275.00	6.0000	48.669	0.020547	664.48	787.76	4.1923	1.7416	2.7681	413.38	4.6052	11.719	0.036792	supercritical
276.00	6.0000	48.385	0.020668	666.52	790.53	4.2024	1.7423	2.7611	414.48	4.5706	11.743	0.036875	supercritical
277.00	6.0000	48.105	0.020788	668.56	793.28	4.2123	1.7430	2.7544	415.57	4.5363	11.767	0.036959	supercritical
278.00	6.0000	47.829	0.020908	670.59	796.03	4.2223	1.7438	2.7479	416.65	4.5023	11.790	0.037045	supercritical
279.00	6.0000	47.557	0.021027	672.61	798.78	4.2321	1.7447	2.7416	417.72	4.4687	11.815	0.037131	supercritical
280.00	6.0000	47.289	0.021147	674.64	801.52	4.2419	1.7456	2.7355	418.79	4.4354	11.839	0.037219	supercritical
281.00	6.0000	47.025	0.021265	676.66	804.25	4.2516	1.7465	2.7297	419.85	4.4024	11.863	0.037308	supercritical
282.00	6.0000	46.765	0.021383	678.68	806.98	4.2613	1.7475	2.7240	420.90	4.3697	11.887	0.037399	supercritical
283.00	6.0000	46.509	0.021501	680.69	809.70	4.2710	1.7485	2.7186	421.94	4.3374	11.912	0.037490	supercritical
284.00	6.0000	46.256	0.021619	682.70	812.41	4.2805	1.7496	2.7134	422.98	4.3053	11.936	0.037582	supercritical
285.00	6.0000	46.007	0.021736	684.71	815.13	4.2901	1.7507	2.7083	424.01	4.2736	11.961	0.037676	supercritical
286.00	6.0000	45.761	0.021852	686.72	817.83	4.2996	1.7518	2.7034	425.03	4.2421	11.986	0.037770	supercritical
287.00	6.0000	45.519	0.021969	688.72	820.53	4.3090	1.7530	2.6988	426.05	4.2110	12.011	0.037866	supercritical
288.00	6.0000	45.280	0.022085	690.72	823.23	4.3184	1.7542	2.6942	427.06	4.1801	12.036	0.037962	supercritical
289.00	6.0000	45.044	0.022200	692.72	825.92	4.3277	1.7554	2.6899	428.07	4.1495	12.061	0.038060	supercritical
290.00	6.0000	44.812	0.022316	694.71	828.61	4.3370	1.7567	2.6857	429.07	4.1193	12.086	0.038158	supercritical
291.00	6.0000	44.582	0.022431	696.71	831.29	4.3462	1.7580	2.6817	430.06	4.0892	12.111	0.038258	supercritical
292.00	6.0000	44.355	0.022545	698.70	833.97	4.3554	1.7594	2.6778	431.04	4.0595	12.136	0.038358	supercritical
293.00	6.0000	44.132	0.022659	700.69	836.65	4.3646	1.7608	2.6741	432.02	4.0301	12.161	0.038459	supercritical
294.00	6.0000	43.911	0.022773	702.68	839.32	4.3737	1.7622	2.6705	433.00	4.0009	12.187	0.038561	supercritical
295.00	6.0000	43.693	0.022887	704.67	841.99	4.3827	1.7637	2.6670	433.96	3.9719	12.212	0.038664	supercritical
296.00	6.0000	43.478	0.023000	706.65	844.65	4.3917	1.7651	2.6637	434.93	3.9433	12.238	0.038768	supercritical
297.00	6.0000	43.265	0.023113	708.64	847.32	4.4007	1.7667	2.6606	435.88	3.9149	12.263	0.038873	supercritical
298.00	6.0000	43.055	0.023226	710.62	849.98	4.4097	1.7682	2.6575	436.83	3.8867	12.289	0.038978	supercritical
299.00	6.0000	42.847	0.023339	712.60	852.63	4.4186	1.7698	2.6546	437.78	3.8588	12.315	0.039085	supercritical
300.00	6.0000	42.642	0.023451	714.58	855.28	4.4274	1.7714	2.6518	438.72	3.8312	12.340	0.039192	supercritical
301.00	6.0000	42.440	0.023563	716.56	857.94	4.4362	1.7731	2.6491	439.66	3.8038	12.366	0.039300	supercritical
302.00	6.0000	42.240	0.023674	718.54	860.58	4.4450	1.7747	2.6466	440.58	3.7767	12.392	0.039409	supercritical
303.00	6.0000	42.042	0.023786	720.51	863.23	4.4538	1.7765	2.6441	441.51	3.7497	12.418	0.039519	supercritical
304.00	6.0000	41.847	0.023897	722.49	865.87	4.4625	1.7782	2.6418	442.43	3.7231	12.444	0.039629	supercritical
305.00	6.0000	41.653	0.024008	724.47	868.51	4.4711	1.7800	2.6396	443.34	3.6966	12.469	0.039740	supercritical
306.00	6.0000	41.462	0.024118	726.44	871.15	4.4798	1.7818	2.6374	444.25	3.6704	12.495	0.039852	supercritical
307.00	6.0000	41.274	0.024229	728.42	873.79	4.4884	1.7836	2.6354	445.16	3.6444	12.521	0.039965	supercritical
308.00	6.0000	41.087	0.024339	730.39	876.42	4.4969	1.7854	2.6335	446.06	3.6187	12.548	0.040078	supercritical
309.00	6.0000	40.902	0.024448	732.36	879.05	4.5055	1.7873	2.6317	446.95	3.5932	12.574	0.040192	supercritical
310.00	6.0000	40.720	0.024558	734.34	881.68	4.5140	1.7892	2.6300	447.84	3.5679	12.600	0.040307	supercritical
311.00	6.0000	40.539	0.024667	736.31	884.31	4.5224	1.7911	2.6283	448.73	3.5428	12.626	0.040423	supercritical
312.00	6.0000	40.361	0.024777	738.28	886.94	4.5309	1.7931	2.6268	449.61	3.5179	12.652	0.040539	supercritical
313.00	6.0000	40.184	0.024885	740.25	889.57	4.5393	1.7951	2.6253	450.48	3.4932	12.678	0.040656	supercritical
314.00	6.0000	40.009	0.024994	742.23	892.19	4.5477	1.7971	2.6240	451.36	3.4688	12.705	0.040774	supercritical
315.00	6.0000	39.836	0.025103	744.20	894.82	4.5560	1.7991	2.6227	452.22	3.4446	12.731	0.040892	supercritical
316.00	6.0000	39.665	0.025211	746.17	897.44	4.5643	1.8012	2.6215	453.09	3.4205	12.757	0.041011	supercritical
317.00	6.0000	39.496	0.025319	748.14	900.06	4.5726	1.8032	2.6204	453.95	3.3967	12.783	0.041131	supercritical
318.00	6.0000	39.329	0.025427	750.12	902.68	4.5808	1.8053	2.6194	454.80	3.3731	12.810	0.041251	supercritical
319.00	6.0000	39.163	0.025534	752.09	905.30	4.5891	1.8075	2.6184	455.65	3.3496	12.836	0.041372	supercritical
320.00	6.0000	38.999	0.025642	754.06	907.92	4.5973	1.8096	2.6175	456.50	3.3264	12.863	0.041494	supercritical
321.00	6.0000	38.836	0.025749	756.04	910.53	4.6054	1.8118	2.6167	457.34	3.3034	12.889	0.041616	supercritical
322.00	6.0000	38.675	0.025856	758.01	913.15	4.6136	1.8140	2.6160	458.18	3.2805	12.915	0.041739	supercritical
323.00	6.0000	38.516	0.025963	759.99	915.76	4.6217	1.8162	2.6153	459.01	3.2579	12.942	0.041863	supercritical
324.00	6.0000	38.359	0.026070	761.96	918.38	4.6298	1.8185	2.6147	459.84	3.2354	12.968	0.041987	supercritical
325.00	6.0000	38.203	0.026176	763.94	920.99	4.6378	1.8207	2.6142	460.67	3.2131	12.995	0.042112	supercritical
326.00	6.0000	38.048	0.026282	765.91	923.61	4.6458	1.8230	2.6138	461.49	3.1910	13.021	0.042237	supercritical
327.00	6.0000	37.895	0.026389	767.89	926.22	4.6539	1.8253	2.6134	462.31	3.1691	13.048	0.042363	supercritical
328.00	6.0000	37.744	0.026495	769.87	928.83	4.6618	1.8277	2.6131	463.13	3.1474	13.074	0.042490	supercritical
329.00	6.0000	37.594	0.026600	771.85	931.45	4.6698	1.8300	2.6128	463.94	3.1258	13.101	0.042617	supercritical
330.00	6.0000	37.445	0.026706	773.82	934.06	4.6777	1.8324	2.6126	464.75	3.1045	13.127	0.042745	supercritical
331.00	6.0000	37.298	0.026811	775.80	936.67	4.6856	1.8348	2.6125	465.55	3.0833	13.154	0.042873	supercritical
332.00	6.0000	37.152	0.026917	777.79	939.29	4.6935	1.8372	2.6124	466.35	3.0622	13.181	0.043002	supercritical
333.00	6.0000	37.007	0.027022	779.77	941.90	4.7014	1.8396	2.6124	467.15	3.0414	13.207	0.043132	supercritical
334.00	6.0000	36.864	0.027127	781.75	944.51	4.7092	1.8421	2.6124	467.95	3.0207	13.234	0.043262	supercritical
335.00	6.0000	36.722	0.027231	783.73	947.12	4.7170	1.8445	2.6125	468.74	3.0001	13.260	0.043392	supercritical
336.00	6.0000	36.582	0.027336	785.72	949.73	4.7248	1.8470	2.6127	469.53	2.9798	13.287	0.043524	supercritical
337.00	6.0000	36.443	0.027440	787.71	952.35	4.7326	1.8495	2.6129	470.31	2.9596	13.314	0.043656	supercritical
338.00	6.0000	36.305	0.027545	789.69	954.96	4.7403	1.8520	2.6131	471.09	2.9396	13.340	0.043788	supercritical
339.00	6.0000	36.168	0.027649	791.68	957.57	4.7480	1.8546	2.6134	471.87	2.9197	13.367	0.043921	supercritical
340.00	6.0000	36.032	0.027753	793.67	960.19	4.7557	1.8571	2.6138	472.64	2.9000	13.393	0.044054	supercritical
341.00	6.0000	35.898	0.027857	795.66	962.80	4.7634	1.8597	2.6142	473.41	2.8804	13.420	0.044188	supercritical
342.00	6.0000	35.765	0.027960	797.65	965.42	4.7710	1.8623	2.6147	474.18	2.8610	13.447	0.044323	supercritical
343.00	6.0000	35.633	0.028064	799.65	968.03	4.7787	1.8649	2.6152	474.95	2.8418	13.473	0.044458	supercritical
344.00	6.0000	35.502	0.028167	801.64	970.65	4.7863	1.8676	2.6158	475.71	2.8227	13.500	0.044594	supercritical
345.00	6.0000	35.372	0.028271	803.64	973.26	4.7939	1.8702	2.6164	476.47	2.8037	13.527	0.044730	supercritical
346.00	6.0000	35.244	0.028374	805.64	975.88	4.8015	1.8729	2.6170	477.22	2.7849	13.553	0.044867	supercritical
347.00	6.0000	35.116	0.028477	807.64	978.50	4.8090	1.8756	2.6177	477.98	2.7663	13.580	0.045004	supercritical
348.00	6.0000	34.990	0.028580	809.64	981.11	4.8165	1.8783	2.6185	478.73	2.7478	13.607	0.045142	supercritical
349.00	6.0000	34.865	0.028682	811.64	983.73	4.8241	1.8810	2.6193	479.48	2.7294	13.633	0.045280	supercritical
350.00	6.0000	34.740	0.028785	813.64	986.35	4.8316	1.8837	2.6201	480.22	2.7112	13.660	0.045419	supercritical
351.00	6.0000	34.617	0.028887	815.65	988.97	4.8390	1.8865	2.6210	480.96	2.6932	13.687	0.045558	supercritical
352.00	6.0000	34.495	0.028990	817.66	991.60	4.8465	1.8892	2.6219	481.70	2.6752	13.713	0.045698	supercritical
353.00	6.0000	34.374	0.029092	819.67	994.22	4.8539	1.8920	2.6228	482.44	2.6574	13.740	0.045838	supercritical
354.00	6.0000	34.253	0.029194	821.68	996.84	4.8614	1.8948	2.6238	483.17	2.6398	13.766	0.045979	supercritical
355.00	6.0000	34.134	0.029296	823.69	999.47	4.8688	1.8976	2.6249	483.90	2.6223	13.793	0.046120	supercritical
356.00	6.0000	34.016	0.029398	825.70	1002.1	4.8761	1.9004	2.6259	484.63	2.6049	13.820	0.046262	supercritical
357.00	6.0000	33.899	0.029500	827.72	1004.7	4.8835	1.9033	2.6270	485.35	2.5877	13.846	0.046404	supercritical
358.00	6.0000	33.782	0.029601	829.74	1007.3	4.8909	1.9061	2.6282	486.08	2.5706	13.873	0.046547	supercritical
359.00	6.0000	33.667	0.029703	831.76	1010.0	4.8982	1.9090	2.6294	486.80	2.5536	13.900	0.046690	supercritical
360.00	6.0000	33.552	0.029804	833.78	1012.6	4.9055	1.9119	2.6306	487.52	2.5367	13.926	0.046833	supercritical
361.00	6.0000	33.439	0.029905	835.80	1015.2	4.9128	1.9148	2.6319	488.23	2.5200	13.953	0.046978	supercritical
362.00	6.0000	33.326	0.030007	837.83	1017.9	4.9201	1.9177	2.6332	488.94	2.5034	13.980	0.047122	supercritical
363.00	6.0000	33.214	0.030108	839.86	1020.5	4.9274	1.9206	2.6345	489.65	2.4869	14.006	0.047267	supercritical
364.00	6.0000	33.103	0.030209	841.88	1023.1	4.9346	1.9235	2.6358	490.36	2.4706	14.033	0.047413	supercritical
365.00	6.0000	32.993	0.030309	843.92	1025.8	4.9418	1.9265	2.6372	491.07	2.4544	14.059	0.047559	supercritical
366.00	6.0000	32.884	0.030410	845.95	1028.4	4.9491	1.9294	2.6387	491.77	2.4383	14.086	0.047705	supercritical
367.00	6.0000	32.775	0.030511	847.99	1031.1	4.9563	1.9324	2.6401	492.47	2.4223	14.113	0.047852	supercritical
368.00	6.0000	32.668	0.030611	850.02	1033.7	4.9634	1.9354	2.6416	493.17	2.4065	14.139	0.048000	supercritical
369.00	6.0000	32.561	0.030712	852.06	1036.3	4.9706	1.9384	2.6431	493.87	2.3908	14.166	0.048148	supercritical
370.00	6.0000	32.455	0.030812	854.11	1039.0	4.9778	1.9414	2.6447	494.56	2.3751	14.192	0.048296	supercritical
371.00	6.0000	32.350	0.030912	856.15	1041.6	4.9849	1.9444	2.6463	495.25	2.3597	14.219	0.048445	supercritical
372.00	6.0000	32.245	0.031012	858.20	1044.3	4.9920	1.9475	2.6479	495.94	2.3443	14.245	0.048594	supercritical
373.00	6.0000	32.142	0.031112	860.24	1046.9	4.9991	1.9505	2.6495	496.63	2.3290	14.272	0.048744	supercritical
374.00	6.0000	32.039	0.031212	862.30	1049.6	5.0062	1.9536	2.6512	497.31	2.3139	14.298	0.048894	supercritical
375.00	6.0000	31.937	0.031312	864.35	1052.2	5.0133	1.9566	2.6529	498.00	2.2988	14.325	0.049044	supercritical
376.00	6.0000	31.835	0.031412	866.40	1054.9	5.0204	1.9597	2.6546	498.68	2.2839	14.352	0.049195	supercritical
377.00	6.0000	31.735	0.031511	868.46	1057.5	5.0274	1.9628	2.6564	499.35	2.2691	14.378	0.049347	supercritical
378.00	6.0000	31.635	0.031611	870.52	1060.2	5.0345	1.9659	2.6582	500.03	2.2544	14.405	0.049499	supercritical
379.00	6.0000	31.536	0.031710	872.58	1062.8	5.0415	1.9690	2.6600	500.71	2.2398	14.431	0.049651	supercritical
380.00	6.0000	31.437	0.031810	874.65	1065.5	5.0485	1.9722	2.6618	501.38	2.2253	14.458	0.049804	supercritical
381.00	6.0000	31.339	0.031909	876.72	1068.2	5.0555	1.9753	2.6637	502.05	2.2110	14.484	0.049957	supercritical
382.00	6.0000	31.242	0.032008	878.79	1070.8	5.0625	1.9784	2.6656	502.72	2.1967	14.510	0.050110	supercritical
383.00	6.0000	31.146	0.032107	880.86	1073.5	5.0695	1.9816	2.6675	503.38	2.1825	14.537	0.050264	supercritical
384.00	6.0000	31.050	0.032206	882.93	1076.2	5.0764	1.9848	2.6694	504.05	2.1685	14.563	0.050419	supercritical
385.00	6.0000	30.955	0.032305	885.01	1078.8	5.0834	1.9879	2.6714	504.71	2.1545	14.590	0.050573	supercritical
386.00	6.0000	30.861	0.032404	887.09	1081.5	5.0903	1.9911	2.6734	505.37	2.1407	14.616	0.050729	supercritical
387.00	6.0000	30.767	0.032503	889.17	1084.2	5.0972	1.9943	2.6754	506.03	2.1269	14.643	0.050884	supercritical
388.00	6.0000	30.674	0.032601	891.26	1086.9	5.1041	1.9975	2.6774	506.68	2.1133	14.669	0.051040	supercritical
389.00	6.0000	30.581	0.032700	893.34	1089.5	5.1110	2.0008	2.6795	507.34	2.0997	14.695	0.051197	supercritical
390.00	6.0000	30.489	0.032798	895.43	1092.2	5.1179	2.0040	2.6815	507.99	2.0863	14.722	0.051353	supercritical
391.00	6.0000	30.398	0.032897	897.53	1094.9	5.1248	2.0072	2.6836	508.64	2.0729	14.748	0.051511	supercritical
392.00	6.0000	30.308	0.032995	899.62	1097.6	5.1316	2.0105	2.6858	509.29	2.0597	14.774	0.051668	supercritical
393.00	6.0000	30.218	0.033093	901.72	1100.3	5.1385	2.0137	2.6879	509.94	2.0465	14.801	0.051826	supercritical
394.00	6.0000	30.128	0.033191	903.82	1103.0	5.1453	2.0170	2.6901	510.59	2.0334	14.827	0.051985	supercritical
395.00	6.0000	30.040	0.033289	905.92	1105.7	5.1521	2.0202	2.6923	511.23	2.0205	14.853	0.052144	supercritical
396.00	6.0000	29.951	0.033387	908.03	1108.3	5.1589	2.0235	2.6945	511.87	2.0076	14.880	0.052303	supercritical
397.00	6.0000	29.864	0.033485	910.13	1111.0	5.1657	2.0268	2.6967	512.51	1.9948	14.906	0.052462	supercritical
398.00	6.0000	29.777	0.033583	912.24	1113.7	5.1725	2.0301	2.6989	513.15	1.9821	14.932	0.052622	supercritical
399.00	6.0000	29.690	0.033681	914.36	1116.4	5.1793	2.0334	2.7012	513.79	1.9695	14.959	0.052783	supercritical
400.00	6.0000	29.604	0.033779	916.47	1119.1	5.1861	2.0367	2.7035	514.42	1.9570	14.985	0.052943	supercritical
401.00	6.0000	29.519	0.033876	918.59	1121.9	5.1928	2.0400	2.7058	515.06	1.9446	15.011	0.053105	supercritical
402.00	6.0000	29.434	0.033974	920.71	1124.6	5.1996	2.0434	2.7081	515.69	1.9323	15.037	0.053266	supercritical
403.00	6.0000	29.350	0.034071	922.84	1127.3	5.2063	2.0467	2.7105	516.32	1.9201	15.063	0.053428	supercritical
404.00	6.0000	29.266	0.034169	924.97	1130.0	5.2130	2.0501	2.7128	516.95	1.9079	15.090	0.053590	supercritical
405.00	6.0000	29.183	0.034266	927.09	1132.7	5.2197	2.0534	2.7152	517.57	1.8959	15.116	0.053753	supercritical
406.00	6.0000	29.101	0.034364	929.23	1135.4	5.2264	2.0568	2.7176	518.20	1.8839	15.142	0.053916	supercritical
407.00	6.0000	29.019	0.034461	931.36	1138.1	5.2331	2.0601	2.7200	518.82	1.8720	15.168	0.054079	supercritical
408.00	6.0000	28.937	0.034558	933.50	1140.8	5.2398	2.0635	2.7225	519.45	1.8602	15.194	0.054243	supercritical
409.00	6.0000	28.856	0.034655	935.64	1143.6	5.2465	2.0669	2.7249	520.07	1.8485	15.220	0.054407	supercritical
410.00	6.0000	28.775	0.034752	937.79	1146.3	5.2531	2.0703	2.7274	520.69	1.8368	15.247	0.054571	supercritical
411.00	6.0000	28.695	0.034849	939.93	1149.0	5.2598	2.0737	2.7298	521.30	1.8253	15.273	0.054736	supercritical
412.00	6.0000	28.616	0.034946	942.08	1151.8	5.2664	2.0771	2.7323	521.92	1.8138	15.299	0.054901	supercritical
413.00	6.0000	28.537	0.035043	944.24	1154.5	5.2730	2.0805	2.7349	522.53	1.8024	15.325	0.055067	supercritical
414.00	6.0000	28.458	0.035139	946.39	1157.2	5.2796	2.0839	2.7374	523.15	1.7911	15.351	0.055233	supercritical
415.00	6.0000	28.380	0.035236	948.55	1160.0	5.2863	2.0873	2.7399	523.76	1.7799	15.377	0.055399	supercritical
416.00	6.0000	28.302	0.035333	950.71	1162.7	5.2929	2.0908	2.7425	524.37	1.7687	15.403	0.055566	supercritical
417.00	6.0000	28.225	0.035429	952.88	1165.5	5.2994	2.0942	2.7451	524.98	1.7576	15.429	0.055732	supercritical
418.00	6.0000	28.149	0.035526	955.04	1168.2	5.3060	2.0976	2.7477	525.59	1.7466	15.455	0.055900	supercritical
419.00	6.0000	28.072	0.035622	957.21	1170.9	5.3126	2.1011	2.7503	526.19	1.7357	15.481	0.056067	supercritical
420.00	6.0000	27.997	0.035719	959.39	1173.7	5.3191	2.1045	2.7529	526.80	1.7249	15.507	0.056235	supercritical
421.00	6.0000	27.921	0.035815	961.56	1176.5	5.3257	2.1080	2.7555	527.40	1.7141	15.533	0.056404	supercritical
422.00	6.0000	27.847	0.035911	963.74	1179.2	5.3322	2.1114	2.7582	528.00	1.7034	15.559	0.056572	supercritical
423.00	6.0000	27.772	0.036007	965.93	1182.0	5.3388	2.1149	2.7608	528.60	1.6928	15.585	0.056741	supercritical
424.00	6.0000	27.698	0.036103	968.11	1184.7	5.3453	2.1184	2.7635	529.20	1.6823	15.611	0.056911	supercritical
425.00	6.0000	27.625	0.036200	970.30	1187.5	5.3518	2.1219	2.7662	529.80	1.6718	15.636	0.057080	supercritical
426.00	6.0000	27.552	0.036296	972.49	1190.3	5.3583	2.1254	2.7689	530.40	1.6614	15.662	0.057250	supercritical
427.00	6.0000	27.479	0.036392	974.68	1193.0	5.3648	2.1289	2.7716	530.99	1.6511	15.688	0.057420	supercritical
428.00	6.0000	27.407	0.036487	976.88	1195.8	5.3713	2.1324	2.7743	531.58	1.6408	15.714	0.057591	supercritical
429.00	6.0000	27.335	0.036583	979.08	1198.6	5.3778	2.1359	2.7771	532.18	1.6306	15.740	0.057762	supercritical
430.00	6.0000	27.263	0.036679	981.29	1201.4	5.3842	2.1394	2.7798	532.77	1.6205	15.766	0.057933	supercritical
431.00	6.0000	27.192	0.036775	983.49	1204.1	5.3907	2.1429	2.7826	533.36	1.6105	15.791	0.058105	supercritical
432.00	6.0000	27.122	0.036871	985.70	1206.9	5.3971	2.1464	2.7854	533.95	1.6005	15.817	0.058277	supercritical
433.00	6.0000	27.052	0.036966	987.92	1209.7	5.4036	2.1499	2.7882	534.53	1.5906	15.843	0.058449	supercritical
434.00	6.0000	26.982	0.037062	990.13	1212.5	5.4100	2.1534	2.7910	535.12	1.5808	15.869	0.058622	supercritical
435.00	6.0000	26.913	0.037157	992.35	1215.3	5.4165	2.1570	2.7938	535.71	1.5710	15.894	0.058795	supercritical
436.00	6.0000	26.844	0.037253	994.57	1218.1	5.4229	2.1605	2.7966	536.29	1.5613	15.920	0.058968	supercritical
437.00	6.0000	26.775	0.037348	996.80	1220.9	5.4293	2.1640	2.7994	536.87	1.5517	15.946	0.059141	supercritical
438.00	6.0000	26.707	0.037444	999.03	1223.7	5.4357	2.1676	2.8023	537.45	1.5421	15.971	0.059315	supercritical
439.00	6.0000	26.639	0.037539	1001.3	1226.5	5.4421	2.1711	2.8051	538.03	1.5326	15.997	0.059489	supercritical
440.00	6.0000	26.572	0.037634	1003.5	1229.3	5.4485	2.1747	2.8080	538.61	1.5232	16.023	0.059664	supercritical
441.00	6.0000	26.504	0.037729	1005.7	1232.1	5.4548	2.1783	2.8109	539.19	1.5138	16.048	0.059839	supercritical
442.00	6.0000	26.438	0.037825	1008.0	1234.9	5.4612	2.1818	2.8137	539.77	1.5045	16.074	0.060014	supercritical
443.00	6.0000	26.371	0.037920	1010.2	1237.7	5.4676	2.1854	2.8166	540.34	1.4952	16.100	0.060189	supercritical
444.00	6.0000	26.305	0.038015	1012.5	1240.6	5.4739	2.1890	2.8196	540.92	1.4861	16.125	0.060365	supercritical
445.00	6.0000	26.240	0.038110	1014.7	1243.4	5.4803	2.1925	2.8225	541.49	1.4769	16.151	0.060541	supercritical
446.00	6.0000	26.175	0.038205	1017.0	1246.2	5.4866	2.1961	2.8254	542.06	1.4679	16.176	0.060717	supercritical
447.00	6.0000	26.110	0.038300	1019.2	1249.0	5.4929	2.1997	2.8283	542.63	1.4589	16.202	0.060893	supercritical
448.00	6.0000	26.045	0.038395	1021.5	1251.9	5.4993	2.2033	2.8313	543.20	1.4500	16.227	0.061070	supercritical
449.00	6.0000	25.981	0.038490	1023.8	1254.7	5.5056	2.2069	2.8342	543.77	1.4411	16.253	0.061248	supercritical
450.00	6.0000	25.917	0.038584	1026.0	1257.5	5.5119	2.2105	2.8372	544.34	1.4323	16.278	0.061425	supercritical
451.00	6.0000	25.854	0.038679	1028.3	1260.4	5.5182	2.2140	2.8402	544.91	1.4235	16.304	0.061603	supercritical
452.00	6.0000	25.791	0.038774	1030.6	1263.2	5.5245	2.2176	2.8432	545.47	1.4148	16.329	0.061781	supercritical
453.00	6.0000	25.728	0.038868	1032.8	1266.0	5.5308	2.2212	2.8461	546.04	1.4062	16.355	0.061959	supercritical
454.00	6.0000	25.665	0.038963	1035.1	1268.9	5.5371	2.2249	2.8491	546.60	1.3976	16.380	0.062138	supercritical
455.00	6.0000	25.603	0.039058	1037.4	1271.7	5.5433	2.2285	2.8522	547.16	1.3891	16.405	0.062317	supercritical
456.00	6.0000	25.541	0.039152	1039.7	1274.6	5.5496	2.2321	2.8552	547.72	1.3806	16.431	0.062496	supercritical
457.00	6.0000	25.480	0.039247	1042.0	1277.5	5.5558	2.2357	2.8582	548.28	1.3722	16.456	0.062675	supercritical
458.00	6.0000	25.419	0.039341	1044.3	1280.3	5.5621	2.2393	2.8612	548.84	1.3638	16.482	0.062855	supercritical
459.00	6.0000	25.358	0.039436	1046.6	1283.2	5.5683	2.2429	2.8643	549.40	1.3555	16.507	0.063035	supercritical
460.00	6.0000	25.297	0.039530	1048.9	1286.0	5.5746	2.2465	2.8673	549.96	1.3473	16.532	0.063215	supercritical
461.00	6.0000	25.237	0.039624	1051.2	1288.9	5.5808	2.2502	2.8704	550.51	1.3391	16.558	0.063396	supercritical
462.00	6.0000	25.177	0.039718	1053.5	1291.8	5.5870	2.2538	2.8734	551.07	1.3310	16.583	0.063577	supercritical
463.00	6.0000	25.118	0.039813	1055.8	1294.7	5.5932	2.2574	2.8765	551.62	1.3229	16.608	0.063758	supercritical
464.00	6.0000	25.058	0.039907	1058.1	1297.5	5.5995	2.2611	2.8796	552.18	1.3148	16.633	0.063939	supercritical
465.00	6.0000	24.999	0.040001	1060.4	1300.4	5.6057	2.2647	2.8827	552.73	1.3069	16.659	0.064121	supercritical
466.00	6.0000	24.941	0.040095	1062.7	1303.3	5.6119	2.2683	2.8858	553.28	1.2990	16.684	0.064303	supercritical
467.00	6.0000	24.882	0.040189	1065.1	1306.2	5.6180	2.2720	2.8889	553.83	1.2911	16.709	0.064485	supercritical
468.00	6.0000	24.824	0.040283	1067.4	1309.1	5.6242	2.2756	2.8920	554.38	1.2833	16.734	0.064668	supercritical
469.00	6.0000	24.766	0.040377	1069.7	1312.0	5.6304	2.2793	2.8951	554.93	1.2755	16.759	0.064850	supercritical
470.00	6.0000	24.709	0.040471	1072.0	1314.9	5.6366	2.2829	2.8982	555.47	1.2678	16.784	0.065033	supercritical
471.00	6.0000	24.652	0.040565	1074.4	1317.8	5.6427	2.2866	2.9013	556.02	1.2601	16.810	0.065217	supercritical
472.00	6.0000	24.595	0.040659	1076.7	1320.7	5.6489	2.2902	2.9045	556.57	1.2525	16.835	0.065400	supercritical
473.00	6.0000	24.538	0.040753	1079.1	1323.6	5.6550	2.2939	2.9076	557.11	1.2449	16.860	0.065584	supercritical
474.00	6.0000	24.482	0.040847	1081.4	1326.5	5.6612	2.2975	2.9108	557.66	1.2374	16.885	0.065768	supercritical
475.00	6.0000	24.426	0.040940	1083.8	1329.4	5.6673	2.3012	2.9139	558.20	1.2300	16.910	0.065952	supercritical
476.00	6.0000	24.370	0.041034	1086.1	1332.3	5.6735	2.3049	2.9171	558.74	1.2225	16.935	0.066137	supercritical
477.00	6.0000	24.315	0.041128	1088.5	1335.2	5.6796	2.3085	2.9202	559.28	1.2152	16.960	0.066322	supercritical
478.00	6.0000	24.259	0.041221	1090.8	1338.2	5.6857	2.3122	2.9234	559.82	1.2078	16.985	0.066507	supercritical
479.00	6.0000	24.204	0.041315	1093.2	1341.1	5.6918	2.3159	2.9266	560.36	1.2006	17.010	0.066692	supercritical
480.00	6.0000	24.150	0.041408	1095.6	1344.0	5.6979	2.3195	2.9298	560.90	1.1933	17.035	0.066878	supercritical
481.00	6.0000	24.095	0.041502	1097.9	1346.9	5.7040	2.3232	2.9329	561.44	1.1862	17.060	0.067064	supercritical
482.00	6.0000	24.041	0.041596	1100.3	1349.9	5.7101	2.3269	2.9361	561.97	1.1790	17.085	0.067250	supercritical
483.00	6.0000	23.987	0.041689	1102.7	1352.8	5.7162	2.3305	2.9393	562.51	1.1719	17.110	0.067436	supercritical
484.00	6.0000	23.934	0.041782	1105.1	1355.8	5.7223	2.3342	2.9425	563.04	1.1649	17.135	0.067623	supercritical
485.00	6.0000	23.880	0.041876	1107.4	1358.7	5.7284	2.3379	2.9457	563.58	1.1579	17.160	0.067810	supercritical
486.00	6.0000	23.827	0.041969	1109.8	1361.6	5.7344	2.3416	2.9490	564.11	1.1509	17.184	0.067997	supercritical
487.00	6.0000	23.774	0.042062	1112.2	1364.6	5.7405	2.3452	2.9522	564.64	1.1440	17.209	0.068184	supercritical
488.00	6.0000	23.722	0.042156	1114.6	1367.6	5.7466	2.3489	2.9554	565.17	1.1372	17.234	0.068372	supercritical
489.00	6.0000	23.669	0.042249	1117.0	1370.5	5.7526	2.3526	2.9586	565.71	1.1303	17.259	0.068559	supercritical
490.00	6.0000	23.617	0.042342	1119.4	1373.5	5.7587	2.3563	2.9619	566.24	1.1236	17.284	0.068747	supercritical
491.00	6.0000	23.565	0.042435	1121.8	1376.4	5.7647	2.3600	2.9651	566.76	1.1168	17.309	0.068936	supercritical
492.00	6.0000	23.514	0.042529	1124.2	1379.4	5.7707	2.3636	2.9683	567.29	1.1101	17.333	0.069124	supercritical
493.00	6.0000	23.462	0.042622	1126.6	1382.4	5.7768	2.3673	2.9716	567.82	1.1035	17.358	0.069313	supercritical
494.00	6.0000	23.411	0.042715	1129.1	1385.3	5.7828	2.3710	2.9748	568.35	1.0969	17.383	0.069502	supercritical
495.00	6.0000	23.360	0.042808	1131.5	1388.3	5.7888	2.3747	2.9781	568.87	1.0903	17.408	0.069691	supercritical
496.00	6.0000	23.310	0.042901	1133.9	1391.3	5.7948	2.3784	2.9814	569.40	1.0838	17.432	0.069881	supercritical
497.00	6.0000	23.259	0.042994	1136.3	1394.3	5.8008	2.3821	2.9846	569.92	1.0773	17.457	0.070070	supercritical
498.00	6.0000	23.209	0.043087	1138.7	1397.3	5.8068	2.3858	2.9879	570.45	1.0709	17.482	0.070260	supercritical
499.00	6.0000	23.159	0.043180	1141.2	1400.3	5.8128	2.3895	2.9912	570.97	1.0645	17.506	0.070450	supercritical
500.00	6.0000	23.109	0.043273	1143.6	1403.3	5.8188	2.3932	2.9944	571.49	1.0581	17.531	0.070641	supercritical
501.00	6.0000	23.060	0.043366	1146.1	1406.2	5.8248	2.3969	2.9977	572.01	1.0518	17.556	0.070831	supercritical
502.00	6.0000	23.011	0.043458	1148.5	1409.2	5.8308	2.4005	3.0010	572.53	1.0455	17.580	0.071022	supercritical
503.00	6.0000	22.961	0.043551	1150.9	1412.2	5.8368	2.4042	3.0043	573.05	1.0393	17.605	0.071213	supercritical
504.00	6.0000	22.913	0.043644	1153.4	1415.3	5.8427	2.4079	3.0076	573.57	1.0331	17.629	0.071405	supercritical
505.00	6.0000	22.864	0.043737	1155.8	1418.3	5.8487	2.4116	3.0109	574.09	1.0269	17.654	0.071596	supercritical
506.00	6.0000	22.816	0.043829	1158.3	1421.3	5.8547	2.4153	3.0142	574.61	1.0208	17.678	0.071788	supercritical
507.00	6.0000	22.768	0.043922	1160.8	1424.3	5.8606	2.4190	3.0175	575.12	1.0147	17.703	0.071980	supercritical
508.00	6.0000	22.720	0.044015	1163.2	1427.3	5.8666	2.4227	3.0208	575.64	1.0087	17.727	0.072172	supercritical
509.00	6.0000	22.672	0.044107	1165.7	1430.3	5.8725	2.4264	3.0241	576.15	1.0026	17.752	0.072364	supercritical
510.00	6.0000	22.624	0.044200	1168.2	1433.4	5.8784	2.4301	3.0274	576.67	0.99668	17.776	0.072557	supercritical
511.00	6.0000	22.577	0.044293	1170.6	1436.4	5.8844	2.4338	3.0307	577.18	0.99074	17.801	0.072750	supercritical
512.00	6.0000	22.530	0.044385	1173.1	1439.4	5.8903	2.4375	3.0341	577.70	0.98484	17.825	0.072943	supercritical
513.00	6.0000	22.483	0.044478	1175.6	1442.5	5.8962	2.4412	3.0374	578.21	0.97898	17.850	0.073136	supercritical
514.00	6.0000	22.437	0.044570	1178.1	1445.5	5.9021	2.4449	3.0407	578.72	0.97315	17.874	0.073329	supercritical
515.00	6.0000	22.390	0.044663	1180.6	1448.5	5.9081	2.4486	3.0440	579.23	0.96736	17.898	0.073523	supercritical
516.00	6.0000	22.344	0.044755	1183.1	1451.6	5.9140	2.4523	3.0474	579.74	0.96161	17.923	0.073717	supercritical
517.00	6.0000	22.298	0.044847	1185.5	1454.6	5.9199	2.4560	3.0507	580.25	0.95589	17.947	0.073911	supercritical
518.00	6.0000	22.252	0.044940	1188.0	1457.7	5.9258	2.4597	3.0540	580.76	0.95020	17.971	0.074105	supercritical
519.00	6.0000	22.206	0.045032	1190.5	1460.7	5.9317	2.4634	3.0574	581.27	0.94455	17.996	0.074300	supercritical
520.00	6.0000	22.161	0.045124	1193.1	1463.8	5.9376	2.4671	3.0607	581.78	0.93894	18.020	0.074494	supercritical
521.00	6.0000	22.116	0.045217	1195.6	1466.9	5.9434	2.4708	3.0641	582.28	0.93336	18.044	0.074689	supercritical
522.00	6.0000	22.071	0.045309	1198.1	1469.9	5.9493	2.4745	3.0674	582.79	0.92781	18.069	0.074885	supercritical
523.00	6.0000	22.026	0.045401	1200.6	1473.0	5.9552	2.4782	3.0708	583.29	0.92230	18.093	0.075080	supercritical
524.00	6.0000	21.981	0.045493	1203.1	1476.1	5.9611	2.4819	3.0741	583.80	0.91682	18.117	0.075275	supercritical
525.00	6.0000	21.937	0.045586	1205.6	1479.1	5.9669	2.4856	3.0775	584.30	0.91138	18.141	0.075471	supercritical
526.00	6.0000	21.893	0.045678	1208.2	1482.2	5.9728	2.4893	3.0808	584.81	0.90596	18.166	0.075667	supercritical
527.00	6.0000	21.848	0.045770	1210.7	1485.3	5.9786	2.4930	3.0842	585.31	0.90059	18.190	0.075863	supercritical
528.00	6.0000	21.805	0.045862	1213.2	1488.4	5.9845	2.4967	3.0875	585.81	0.89524	18.214	0.076059	supercritical
529.00	6.0000	21.761	0.045954	1215.8	1491.5	5.9903	2.5004	3.0909	586.31	0.88992	18.238	0.076256	supercritical
530.00	6.0000	21.717	0.046046	1218.3	1494.6	5.9962	2.5041	3.0943	586.81	0.88464	18.262	0.076453	supercritical
531.00	6.0000	21.674	0.046138	1220.8	1497.7	6.0020	2.5078	3.0976	587.31	0.87939	18.286	0.076650	supercritical
532.00	6.0000	21.631	0.046230	1223.4	1500.8	6.0078	2.5115	3.1010	587.81	0.87417	18.310	0.076847	supercritical
533.00	6.0000	21.588	0.046322	1225.9	1503.9	6.0137	2.5152	3.1044	588.31	0.86899	18.334	0.077044	supercritical
534.00	6.0000	21.545	0.046414	1228.5	1507.0	6.0195	2.5189	3.1078	588.81	0.86383	18.359	0.077242	supercritical
535.00	6.0000	21.503	0.046506	1231.1	1510.1	6.0253	2.5226	3.1111	589.31	0.85870	18.383	0.077439	supercritical
536.00	6.0000	21.460	0.046598	1233.6	1513.2	6.0311	2.5263	3.1145	589.81	0.85361	18.407	0.077637	supercritical
537.00	6.0000	21.418	0.046690	1236.2	1516.3	6.0369	2.5300	3.1179	590.30	0.84855	18.431	0.077835	supercritical
538.00	6.0000	21.376	0.046782	1238.7	1519.4	6.0427	2.5337	3.1213	590.80	0.84351	18.455	0.078033	supercritical
539.00	6.0000	21.334	0.046874	1241.3	1522.6	6.0485	2.5374	3.1247	591.29	0.83851	18.479	0.078232	supercritical
540.00	6.0000	21.292	0.046965	1243.9	1525.7	6.0543	2.5411	3.1280	591.79	0.83353	18.503	0.078430	supercritical
541.00	6.0000	21.251	0.047057	1246.5	1528.8	6.0601	2.5448	3.1314	592.28	0.82859	18.527	0.078629	supercritical
542.00	6.0000	21.209	0.047149	1249.1	1531.9	6.0659	2.5485	3.1348	592.78	0.82368	18.550	0.078828	supercritical
543.00	6.0000	21.168	0.047241	1251.6	1535.1	6.0717	2.5522	3.1382	593.27	0.81879	18.574	0.079028	supercritical
544.00	6.0000	21.127	0.047332	1254.2	1538.2	6.0775	2.5559	3.1416	593.76	0.81393	18.598	0.079227	supercritical
545.00	6.0000	21.086	0.047424	1256.8	1541.4	6.0832	2.5596	3.1450	594.25	0.80911	18.622	0.079426	supercritical
546.00	6.0000	21.046	0.047516	1259.4	1544.5	6.0890	2.5632	3.1484	594.74	0.80431	18.646	0.079626	supercritical
547.00	6.0000	21.005	0.047607	1262.0	1547.7	6.0948	2.5669	3.1518	595.23	0.79954	18.670	0.079826	supercritical
548.00	6.0000	20.965	0.047699	1264.6	1550.8	6.1005	2.5706	3.1552	595.72	0.79479	18.694	0.080026	supercritical
549.00	6.0000	20.925	0.047791	1267.2	1554.0	6.1063	2.5743	3.1586	596.21	0.79008	18.718	0.080227	supercritical
550.00	6.0000	20.885	0.047882	1269.8	1557.1	6.1120	2.5780	3.1620	596.70	0.78539	18.741	0.080427	supercritical
551.00	6.0000	20.845	0.047974	1272.5	1560.3	6.1178	2.5817	3.1654	597.19	0.78073	18.765	0.080628	supercritical
552.00	6.0000	20.805	0.048065	1275.1	1563.5	6.1235	2.5854	3.1688	597.68	0.77610	18.789	0.080828	supercritical
553.00	6.0000	20.765	0.048157	1277.7	1566.6	6.1293	2.5891	3.1722	598.16	0.77149	18.813	0.081029	supercritical
554.00	6.0000	20.726	0.048248	1280.3	1569.8	6.1350	2.5928	3.1756	598.65	0.76692	18.836	0.081231	supercritical
555.00	6.0000	20.687	0.048340	1283.0	1573.0	6.1407	2.5964	3.1790	599.14	0.76237	18.860	0.081432	supercritical
556.00	6.0000	20.648	0.048431	1285.6	1576.2	6.1465	2.6001	3.1824	599.62	0.75784	18.884	0.081633	supercritical
557.00	6.0000	20.609	0.048523	1288.2	1579.4	6.1522	2.6038	3.1858	600.11	0.75334	18.908	0.081835	supercritical
558.00	6.0000	20.570	0.048614	1290.9	1582.5	6.1579	2.6075	3.1892	600.59	0.74887	18.931	0.082037	supercritical
559.00	6.0000	20.532	0.048705	1293.5	1585.7	6.1636	2.6112	3.1926	601.07	0.74442	18.955	0.082239	supercritical
560.00	6.0000	20.493	0.048797	1296.1	1588.9	6.1693	2.6149	3.1960	601.56	0.74000	18.979	0.082441	supercritical
561.00	6.0000	20.455	0.048888	1298.8	1592.1	6.1750	2.6185	3.1994	602.04	0.73561	19.002	0.082644	supercritical
562.00	6.0000	20.417	0.048980	1301.4	1595.3	6.1807	2.6222	3.2029	602.52	0.73124	19.026	0.082846	supercritical
563.00	6.0000	20.379	0.049071	1304.1	1598.5	6.1864	2.6259	3.2063	603.00	0.72690	19.049	0.083049	supercritical
564.00	6.0000	20.341	0.049162	1306.8	1601.7	6.1921	2.6296	3.2097	603.48	0.72258	19.073	0.083252	supercritical
565.00	6.0000	20.303	0.049253	1309.4	1604.9	6.1978	2.6332	3.2131	603.96	0.71828	19.097	0.083455	supercritical
566.00	6.0000	20.266	0.049345	1312.1	1608.2	6.2035	2.6369	3.2165	604.44	0.71401	19.120	0.083658	supercritical
567.00	6.0000	20.228	0.049436	1314.8	1611.4	6.2092	2.6406	3.2199	604.92	0.70977	19.144	0.083861	supercritical
568.00	6.0000	20.191	0.049527	1317.4	1614.6	6.2148	2.6443	3.2233	605.40	0.70555	19.167	0.084065	supercritical
569.00	6.0000	20.154	0.049618	1320.1	1617.8	6.2205	2.6479	3.2268	605.88	0.70135	19.191	0.084269	supercritical
570.00	6.0000	20.117	0.049709	1322.8	1621.1	6.2262	2.6516	3.2302	606.36	0.69718	19.214	0.084473	supercritical
571.00	6.0000	20.080	0.049801	1325.5	1624.3	6.2318	2.6553	3.2336	606.83	0.69303	19.238	0.084677	supercritical
572.00	6.0000	20.043	0.049892	1328.2	1627.5	6.2375	2.6589	3.2370	607.31	0.68891	19.261	0.084881	supercritical
573.00	6.0000	20.007	0.049983	1330.9	1630.8	6.2432	2.6626	3.2404	607.79	0.68480	19.285	0.085085	supercritical
574.00	6.0000	19.970	0.050074	1333.6	1634.0	6.2488	2.6663	3.2438	608.26	0.68073	19.308	0.085290	supercritical
575.00	6.0000	19.934	0.050165	1336.3	1637.3	6.2545	2.6699	3.2473	608.74	0.67667	19.331	0.085494	supercritical
576.00	6.0000	19.898	0.050256	1339.0	1640.5	6.2601	2.6736	3.2507	609.21	0.67264	19.355	0.085699	supercritical
577.00	6.0000	19.862	0.050347	1341.7	1643.8	6.2658	2.6773	3.2541	609.69	0.66863	19.378	0.085904	supercritical
578.00	6.0000	19.826	0.050438	1344.4	1647.0	6.2714	2.6809	3.2575	610.16	0.66464	19.402	0.086109	supercritical
579.00	6.0000	19.791	0.050529	1347.1	1650.3	6.2770	2.6846	3.2609	610.63	0.66068	19.425	0.086315	supercritical
580.00	6.0000	19.755	0.050620	1349.8	1653.5	6.2827	2.6882	3.2644	611.11	0.65674	19.448	0.086520	supercritical
581.00	6.0000	19.720	0.050711	1352.5	1656.8	6.2883	2.6919	3.2678	611.58	0.65282	19.472	0.086726	supercritical
582.00	6.0000	19.684	0.050802	1355.3	1660.1	6.2939	2.6956	3.2712	612.05	0.64892	19.495	0.086931	supercritical
583.00	6.0000	19.649	0.050893	1358.0	1663.3	6.2995	2.6992	3.2746	612.52	0.64505	19.518	0.087137	supercritical
584.00	6.0000	19.614	0.050984	1360.7	1666.6	6.3051	2.7029	3.2780	612.99	0.64120	19.541	0.087343	supercritical
585.00	6.0000	19.579	0.051075	1363.4	1669.9	6.3108	2.7065	3.2814	613.46	0.63736	19.565	0.087550	supercritical
586.00	6.0000	19.544	0.051166	1366.2	1673.2	6.3164	2.7102	3.2849	613.93	0.63355	19.588	0.087756	supercritical
587.00	6.0000	19.510	0.051256	1368.9	1676.5	6.3220	2.7138	3.2883	614.40	0.62977	19.611	0.087962	supercritical
588.00	6.0000	19.475	0.051347	1371.7	1679.8	6.3276	2.7175	3.2917	614.87	0.62600	19.634	0.088169	supercritical
589.00	6.0000	19.441	0.051438	1374.4	1683.0	6.3332	2.7211	3.2951	615.34	0.62225	19.658	0.088376	supercritical
590.00	6.0000	19.407	0.051529	1377.2	1686.3	6.3388	2.7247	3.2985	615.80	0.61853	19.681	0.088583	supercritical
591.00	6.0000	19.372	0.051620	1379.9	1689.6	6.3443	2.7284	3.3020	616.27	0.61482	19.704	0.088790	supercritical
592.00	6.0000	19.338	0.051710	1382.7	1692.9	6.3499	2.7320	3.3054	616.74	0.61114	19.727	0.088997	supercritical
593.00	6.0000	19.305	0.051801	1385.4	1696.3	6.3555	2.7357	3.3088	617.20	0.60747	19.750	0.089205	supercritical
594.00	6.0000	19.271	0.051892	1388.2	1699.6	6.3611	2.7393	3.3122	617.67	0.60383	19.773	0.089412	supercritical
595.00	6.0000	19.237	0.051983	1391.0	1702.9	6.3667	2.7429	3.3156	618.13	0.60021	19.796	0.089620	supercritical
596.00	6.0000	19.204	0.052073	1393.8	1706.2	6.3722	2.7466	3.3191	618.60	0.59660	19.820	0.089828	supercritical
597.00	6.0000	19.170	0.052164	1396.5	1709.5	6.3778	2.7502	3.3225	619.06	0.59302	19.843	0.090036	supercritical
598.00	6.0000	19.137	0.052255	1399.3	1712.8	6.3834	2.7538	3.3259	619.53	0.58946	19.866	0.090244	supercritical
599.00	6.0000	19.104	0.052345	1402.1	1716.2	6.3889	2.7575	3.3293	619.99	0.58591	19.889	0.090452	supercritical
600.00	6.0000	19.071	0.052436	1404.9	1719.5	6.3945	2.7611	3.3327	620.45	0.58239	19.912	0.090661	supercritical
