Temperature (K)	Pressure (MPa)	Density (kg/m3)	Volume (m3/kg)	Internal Energy (kJ/kg)	Enthalpy (kJ/kg)	Entropy (J/g*K)	Cv (J/g*K)	Cp (J/g*K)	Sound Spd. (m/s)	Joule-Thomson (K/MPa)	Viscosity (uPa*s)	Therm. Cond. (W/m*K)	Phase
150.00	1.0000	15.536	0.064365	492.91	557.27	3.8571	1.7556	2.8402	287.76	17.741	5.8270	0.018161	vapor
150.00	1.0400	16.328	0.061246	491.54	555.23	3.8267	1.7727	2.9083	285.97	17.870	5.8236	0.018344	vapor
150.00	1.0400	357.90	0.0027941	139.74	142.64	1.0761	1.9186	4.0474	920.85	-0.075032	55.984	0.12918	liquid
150.00	1.1650	358.21	0.0027917	139.43	142.68	1.0741	1.9187	4.0383	923.61	-0.079036	56.151	0.12942	liquid
150.00	1.3300	358.61	0.0027885	139.03	142.74	1.0714	1.9189	4.0264	927.21	-0.084218	56.369	0.12974	liquid
150.00	1.4950	359.01	0.0027854	138.63	142.80	1.0687	1.9191	4.0149	930.78	-0.089289	56.587	0.13006	liquid
150.00	1.6600	359.41	0.0027823	138.24	142.86	1.0660	1.9193	4.0037	934.31	-0.094254	56.803	0.13037	liquid
150.00	1.8250	359.80	0.0027793	137.85	142.92	1.0634	1.9195	3.9927	937.79	-0.099116	57.018	0.13069	liquid
150.00	1.9900	360.19	0.0027763	137.46	142.99	1.0608	1.9197	3.9819	941.25	-0.10388	57.232	0.13100	liquid
150.00	2.1550	360.57	0.0027733	137.08	143.06	1.0582	1.9200	3.9714	944.66	-0.10855	57.444	0.13130	liquid
150.00	2.3200	360.96	0.0027704	136.70	143.13	1.0556	1.9202	3.9612	948.04	-0.11312	57.655	0.13161	liquid
150.00	2.4850	361.33	0.0027675	136.33	143.20	1.0531	1.9205	3.9512	951.38	-0.11760	57.865	0.13191	liquid
150.00	2.6500	361.71	0.0027647	135.96	143.28	1.0506	1.9207	3.9414	954.69	-0.12200	58.074	0.13221	liquid
150.00	2.8150	362.08	0.0027619	135.59	143.36	1.0480	1.9210	3.9318	957.97	-0.12632	58.282	0.13251	liquid
150.00	2.9800	362.44	0.0027591	135.22	143.45	1.0456	1.9212	3.9224	961.22	-0.13055	58.488	0.13281	liquid
150.00	3.1450	362.80	0.0027563	134.86	143.53	1.0431	1.9215	3.9132	964.43	-0.13470	58.694	0.13311	liquid
150.00	3.3100	363.16	0.0027536	134.51	143.62	1.0407	1.9218	3.9042	967.62	-0.13878	58.898	0.13340	liquid
150.00	3.4750	363.52	0.0027509	134.15	143.71	1.0382	1.9221	3.8953	970.77	-0.14278	59.101	0.13369	liquid
150.00	3.6400	363.87	0.0027482	133.80	143.80	1.0358	1.9224	3.8867	973.90	-0.14671	59.304	0.13398	liquid
150.00	3.8050	364.22	0.0027456	133.45	143.90	1.0334	1.9227	3.8782	977.00	-0.15057	59.505	0.13427	liquid
150.00	3.9700	364.57	0.0027429	133.11	144.00	1.0311	1.9230	3.8699	980.07	-0.15437	59.705	0.13456	liquid
150.00	4.1350	364.92	0.0027404	132.76	144.10	1.0287	1.9233	3.8618	983.11	-0.15810	59.904	0.13484	liquid
150.00	4.3000	365.26	0.0027378	132.43	144.20	1.0264	1.9237	3.8538	986.13	-0.16176	60.103	0.13512	liquid
150.00	4.4650	365.60	0.0027353	132.09	144.30	1.0241	1.9240	3.8460	989.12	-0.16536	60.300	0.13541	liquid
150.00	4.6300	365.93	0.0027328	131.75	144.41	1.0218	1.9243	3.8383	992.09	-0.16891	60.496	0.13569	liquid
150.00	4.7950	366.26	0.0027303	131.42	144.52	1.0195	1.9247	3.8307	995.03	-0.17239	60.692	0.13596	liquid
150.00	4.9600	366.59	0.0027278	131.10	144.63	1.0172	1.9250	3.8233	997.95	-0.17582	60.886	0.13624	liquid
150.00	5.1250	366.92	0.0027254	130.77	144.74	1.0150	1.9253	3.8160	1000.8	-0.17919	61.080	0.13652	liquid
150.00	5.2900	367.25	0.0027230	130.45	144.85	1.0127	1.9257	3.8089	1003.7	-0.18250	61.272	0.13679	liquid
150.00	5.4550	367.57	0.0027206	130.13	144.97	1.0105	1.9260	3.8018	1006.6	-0.18577	61.464	0.13706	liquid
150.00	5.6200	367.89	0.0027182	129.81	145.08	1.0083	1.9264	3.7949	1009.4	-0.18898	61.655	0.13733	liquid
150.00	5.7850	368.21	0.0027159	129.49	145.20	1.0061	1.9267	3.7882	1012.2	-0.19214	61.845	0.13760	liquid
150.00	5.9500	368.52	0.0027135	129.18	145.32	1.0039	1.9271	3.7815	1015.0	-0.19526	62.034	0.13787	liquid
150.00	6.1150	368.84	0.0027112	128.87	145.45	1.0018	1.9275	3.7749	1017.7	-0.19832	62.223	0.13814	liquid
150.00	6.2800	369.15	0.0027089	128.56	145.57	0.99961	1.9278	3.7685	1020.5	-0.20134	62.410	0.13840	liquid
150.00	6.4450	369.46	0.0027067	128.25	145.70	0.99747	1.9282	3.7621	1023.2	-0.20432	62.597	0.13867	liquid
150.00	6.6100	369.76	0.0027044	127.95	145.83	0.99534	1.9286	3.7559	1025.9	-0.20725	62.783	0.13893	liquid
150.00	6.7750	370.07	0.0027022	127.65	145.95	0.99323	1.9289	3.7498	1028.6	-0.21014	62.968	0.13919	liquid
150.00	6.9400	370.37	0.0027000	127.35	146.09	0.99113	1.9293	3.7437	1031.3	-0.21298	63.152	0.13945	liquid
150.00	7.1050	370.67	0.0026978	127.05	146.22	0.98905	1.9297	3.7378	1033.9	-0.21579	63.336	0.13971	liquid
150.00	7.2700	370.97	0.0026957	126.75	146.35	0.98697	1.9301	3.7319	1036.5	-0.21855	63.519	0.13997	liquid
150.00	7.4350	371.26	0.0026935	126.46	146.49	0.98491	1.9305	3.7262	1039.1	-0.22128	63.701	0.14023	liquid
150.00	7.6000	371.56	0.0026914	126.17	146.62	0.98286	1.9308	3.7205	1041.7	-0.22397	63.883	0.14048	liquid
150.00	7.7650	371.85	0.0026893	125.88	146.76	0.98082	1.9312	3.7149	1044.3	-0.22662	64.063	0.14074	liquid
150.00	7.9300	372.14	0.0026872	125.59	146.90	0.97879	1.9316	3.7094	1046.9	-0.22923	64.243	0.14099	liquid
150.00	8.0950	372.43	0.0026851	125.31	147.04	0.97678	1.9320	3.7040	1049.4	-0.23181	64.423	0.14124	liquid
150.00	8.2600	372.71	0.0026830	125.02	147.18	0.97478	1.9324	3.6986	1051.9	-0.23435	64.601	0.14149	liquid
150.00	8.4250	373.00	0.0026810	124.74	147.33	0.97278	1.9328	3.6934	1054.4	-0.23686	64.779	0.14174	liquid
150.00	8.5900	373.28	0.0026789	124.46	147.47	0.97080	1.9332	3.6882	1056.9	-0.23933	64.956	0.14199	liquid
150.00	8.7550	373.56	0.0026769	124.18	147.62	0.96883	1.9336	3.6831	1059.4	-0.24177	65.133	0.14224	liquid
150.00	8.9200	373.84	0.0026749	123.91	147.77	0.96687	1.9340	3.6780	1061.9	-0.24418	65.309	0.14249	liquid
150.00	9.0850	374.12	0.0026730	123.63	147.92	0.96492	1.9344	3.6731	1064.3	-0.24656	65.484	0.14273	liquid
150.00	9.2500	374.39	0.0026710	123.36	148.07	0.96298	1.9348	3.6682	1066.8	-0.24891	65.658	0.14298	liquid
150.00	9.4150	374.67	0.0026690	123.09	148.22	0.96106	1.9352	3.6633	1069.2	-0.25123	65.832	0.14322	liquid
150.00	9.5800	374.94	0.0026671	122.82	148.37	0.95914	1.9356	3.6586	1071.6	-0.25351	66.006	0.14346	liquid
150.00	9.7450	375.21	0.0026652	122.55	148.52	0.95723	1.9360	3.6539	1074.0	-0.25577	66.178	0.14371	liquid
150.00	9.9100	375.48	0.0026633	122.29	148.68	0.95533	1.9364	3.6492	1076.4	-0.25800	66.350	0.14395	liquid
150.00	10.075	375.75	0.0026614	122.02	148.83	0.95344	1.9368	3.6447	1078.7	-0.26021	66.522	0.14419	liquid
150.00	10.240	376.01	0.0026595	121.76	148.99	0.95156	1.9372	3.6402	1081.1	-0.26238	66.693	0.14443	liquid
150.00	10.405	376.28	0.0026576	121.50	149.15	0.94969	1.9376	3.6357	1083.4	-0.26453	66.863	0.14467	liquid
150.00	10.570	376.54	0.0026557	121.24	149.31	0.94783	1.9380	3.6313	1085.7	-0.26666	67.033	0.14490	liquid
150.00	10.735	376.80	0.0026539	120.98	149.47	0.94598	1.9384	3.6270	1088.0	-0.26875	67.202	0.14514	liquid
150.00	10.900	377.06	0.0026521	120.72	149.63	0.94414	1.9389	3.6227	1090.3	-0.27082	67.370	0.14538	liquid
150.00	11.065	377.32	0.0026503	120.47	149.79	0.94230	1.9393	3.6185	1092.6	-0.27287	67.538	0.14561	liquid
150.00	11.230	377.58	0.0026485	120.21	149.96	0.94048	1.9397	3.6143	1094.9	-0.27489	67.706	0.14584	liquid
150.00	11.395	377.83	0.0026467	119.96	150.12	0.93866	1.9401	3.6102	1097.1	-0.27689	67.872	0.14608	liquid
150.00	11.560	378.09	0.0026449	119.71	150.29	0.93685	1.9405	3.6061	1099.4	-0.27887	68.039	0.14631	liquid
150.00	11.725	378.34	0.0026431	119.46	150.45	0.93506	1.9409	3.6021	1101.6	-0.28082	68.204	0.14654	liquid
150.00	11.890	378.59	0.0026414	119.21	150.62	0.93326	1.9413	3.5981	1103.8	-0.28275	68.370	0.14677	liquid
150.00	12.055	378.84	0.0026396	118.97	150.79	0.93148	1.9417	3.5942	1106.1	-0.28466	68.534	0.14700	liquid
150.00	12.220	379.09	0.0026379	118.72	150.96	0.92971	1.9421	3.5903	1108.3	-0.28655	68.698	0.14723	liquid
150.00	12.385	379.34	0.0026362	118.48	151.13	0.92794	1.9426	3.5865	1110.4	-0.28841	68.862	0.14746	liquid
150.00	12.550	379.59	0.0026344	118.24	151.30	0.92618	1.9430	3.5827	1112.6	-0.29026	69.025	0.14769	liquid
150.00	12.715	379.83	0.0026327	118.00	151.47	0.92443	1.9434	3.5789	1114.8	-0.29208	69.188	0.14791	liquid
150.00	12.880	380.08	0.0026311	117.76	151.64	0.92269	1.9438	3.5752	1117.0	-0.29388	69.350	0.14814	liquid
150.00	13.045	380.32	0.0026294	117.52	151.82	0.92096	1.9442	3.5716	1119.1	-0.29567	69.511	0.14837	liquid
150.00	13.210	380.56	0.0026277	117.28	151.99	0.91923	1.9446	3.5680	1121.2	-0.29743	69.672	0.14859	liquid
150.00	13.375	380.80	0.0026260	117.04	152.17	0.91751	1.9451	3.5644	1123.4	-0.29918	69.833	0.14882	liquid
150.00	13.540	381.04	0.0026244	116.81	152.34	0.91580	1.9455	3.5609	1125.5	-0.30090	69.993	0.14904	liquid
150.00	13.705	381.28	0.0026228	116.58	152.52	0.91409	1.9459	3.5574	1127.6	-0.30261	70.152	0.14926	liquid
150.00	13.870	381.51	0.0026211	116.34	152.70	0.91240	1.9463	3.5539	1129.7	-0.30430	70.312	0.14948	liquid
150.00	14.035	381.75	0.0026195	116.11	152.88	0.91071	1.9467	3.5505	1131.8	-0.30597	70.470	0.14970	liquid
150.00	14.200	381.98	0.0026179	115.88	153.06	0.90902	1.9471	3.5472	1133.8	-0.30762	70.628	0.14992	liquid
150.00	14.365	382.22	0.0026163	115.65	153.24	0.90735	1.9475	3.5438	1135.9	-0.30926	70.786	0.15014	liquid
150.00	14.530	382.45	0.0026147	115.43	153.42	0.90568	1.9480	3.5405	1138.0	-0.31088	70.943	0.15036	liquid
150.00	14.695	382.68	0.0026131	115.20	153.60	0.90402	1.9484	3.5373	1140.0	-0.31248	71.100	0.15058	liquid
150.00	14.860	382.91	0.0026116	114.98	153.78	0.90236	1.9488	3.5340	1142.0	-0.31407	71.256	0.15080	liquid
150.00	15.025	383.14	0.0026100	114.75	153.97	0.90071	1.9492	3.5309	1144.1	-0.31564	71.412	0.15102	liquid
150.00	15.190	383.37	0.0026085	114.53	154.15	0.89907	1.9496	3.5277	1146.1	-0.31719	71.568	0.15123	liquid
150.00	15.355	383.59	0.0026069	114.31	154.34	0.89744	1.9500	3.5246	1148.1	-0.31873	71.723	0.15145	liquid
150.00	15.520	383.82	0.0026054	114.09	154.52	0.89581	1.9505	3.5215	1150.1	-0.32025	71.877	0.15167	liquid
150.00	15.685	384.04	0.0026039	113.87	154.71	0.89419	1.9509	3.5184	1152.1	-0.32176	72.031	0.15188	liquid
150.00	15.850	384.27	0.0026024	113.65	154.90	0.89257	1.9513	3.5154	1154.1	-0.32325	72.185	0.15209	liquid
150.00	16.015	384.49	0.0026008	113.43	155.08	0.89096	1.9517	3.5124	1156.1	-0.32473	72.338	0.15231	liquid
150.00	16.180	384.71	0.0025993	113.21	155.27	0.88936	1.9521	3.5094	1158.0	-0.32619	72.491	0.15252	liquid
150.00	16.345	384.93	0.0025979	113.00	155.46	0.88776	1.9525	3.5065	1160.0	-0.32764	72.644	0.15273	liquid
150.00	16.510	385.15	0.0025964	112.79	155.65	0.88617	1.9530	3.5036	1161.9	-0.32907	72.796	0.15294	liquid
150.00	16.675	385.37	0.0025949	112.57	155.84	0.88459	1.9534	3.5007	1163.9	-0.33049	72.947	0.15316	liquid
150.00	16.840	385.59	0.0025934	112.36	156.03	0.88301	1.9538	3.4979	1165.8	-0.33190	73.099	0.15337	liquid
150.00	17.005	385.81	0.0025920	112.15	156.23	0.88143	1.9542	3.4951	1167.7	-0.33329	73.249	0.15358	liquid
150.00	17.170	386.02	0.0025905	111.94	156.42	0.87987	1.9546	3.4923	1169.7	-0.33467	73.400	0.15379	liquid
150.00	17.335	386.24	0.0025891	111.73	156.61	0.87831	1.9550	3.4895	1171.6	-0.33604	73.550	0.15400	liquid
150.00	17.500	386.45	0.0025876	111.52	156.80	0.87675	1.9554	3.4868	1173.5	-0.33739	73.699	0.15420	liquid
150.00	17.665	386.66	0.0025862	111.31	157.00	0.87520	1.9559	3.4841	1175.4	-0.33873	73.849	0.15441	liquid
150.00	17.830	386.88	0.0025848	111.11	157.19	0.87366	1.9563	3.4814	1177.2	-0.34006	73.997	0.15462	liquid
150.00	17.995	387.09	0.0025834	110.90	157.39	0.87212	1.9567	3.4787	1179.1	-0.34137	74.146	0.15483	liquid
150.00	18.160	387.30	0.0025820	110.70	157.59	0.87059	1.9571	3.4761	1181.0	-0.34268	74.294	0.15503	liquid
150.00	18.325	387.51	0.0025806	110.49	157.78	0.86906	1.9575	3.4735	1182.9	-0.34397	74.442	0.15524	liquid
150.00	18.490	387.72	0.0025792	110.29	157.98	0.86754	1.9579	3.4709	1184.7	-0.34525	74.589	0.15544	liquid
150.00	18.655	387.93	0.0025778	110.09	158.18	0.86602	1.9583	3.4683	1186.6	-0.34652	74.736	0.15565	liquid
150.00	18.820	388.13	0.0025764	109.89	158.38	0.86451	1.9587	3.4658	1188.4	-0.34777	74.882	0.15585	liquid
150.00	18.985	388.34	0.0025751	109.69	158.58	0.86300	1.9592	3.4633	1190.3	-0.34902	75.029	0.15606	liquid
150.00	19.150	388.54	0.0025737	109.49	158.78	0.86150	1.9596	3.4608	1192.1	-0.35025	75.175	0.15626	liquid
150.00	19.315	388.75	0.0025724	109.29	158.98	0.86001	1.9600	3.4584	1193.9	-0.35147	75.320	0.15646	liquid
150.00	19.480	388.95	0.0025710	109.09	159.18	0.85852	1.9604	3.4559	1195.7	-0.35269	75.465	0.15666	liquid
150.00	19.645	389.16	0.0025697	108.90	159.38	0.85703	1.9608	3.4535	1197.5	-0.35389	75.610	0.15687	liquid
150.00	19.810	389.36	0.0025683	108.70	159.58	0.85556	1.9612	3.4511	1199.3	-0.35508	75.754	0.15707	liquid
150.00	19.975	389.56	0.0025670	108.51	159.78	0.85408	1.9616	3.4487	1201.1	-0.35626	75.898	0.15727	liquid
150.00	20.140	389.76	0.0025657	108.31	159.99	0.85261	1.9620	3.4464	1202.9	-0.35743	76.042	0.15747	liquid
150.00	20.305	389.96	0.0025644	108.12	160.19	0.85115	1.9624	3.4441	1204.7	-0.35859	76.186	0.15767	liquid
150.00	20.470	390.16	0.0025631	107.93	160.39	0.84969	1.9629	3.4417	1206.5	-0.35973	76.329	0.15787	liquid
150.00	20.635	390.36	0.0025618	107.74	160.60	0.84823	1.9633	3.4395	1208.3	-0.36087	76.471	0.15807	liquid
150.00	20.800	390.56	0.0025605	107.55	160.80	0.84678	1.9637	3.4372	1210.0	-0.36200	76.614	0.15826	liquid
150.00	20.965	390.75	0.0025592	107.36	161.01	0.84534	1.9641	3.4349	1211.8	-0.36312	76.756	0.15846	liquid
150.00	21.130	390.95	0.0025579	107.17	161.21	0.84389	1.9645	3.4327	1213.5	-0.36423	76.897	0.15866	liquid
150.00	21.295	391.14	0.0025566	106.98	161.42	0.84246	1.9649	3.4305	1215.3	-0.36533	77.039	0.15886	liquid
150.00	21.460	391.34	0.0025553	106.79	161.63	0.84103	1.9653	3.4283	1217.0	-0.36643	77.180	0.15905	liquid
150.00	21.625	391.53	0.0025541	106.60	161.84	0.83960	1.9657	3.4261	1218.7	-0.36751	77.321	0.15925	liquid
150.00	21.790	391.73	0.0025528	106.42	162.04	0.83818	1.9661	3.4240	1220.5	-0.36858	77.461	0.15945	liquid
150.00	21.955	391.92	0.0025516	106.23	162.25	0.83676	1.9665	3.4218	1222.2	-0.36964	77.601	0.15964	liquid
150.00	22.120	392.11	0.0025503	106.05	162.46	0.83535	1.9669	3.4197	1223.9	-0.37070	77.741	0.15984	liquid
150.00	22.285	392.30	0.0025491	105.86	162.67	0.83394	1.9673	3.4176	1225.6	-0.37175	77.880	0.16003	liquid
150.00	22.450	392.49	0.0025478	105.68	162.88	0.83253	1.9677	3.4155	1227.3	-0.37278	78.019	0.16022	liquid
150.00	22.615	392.68	0.0025466	105.50	163.09	0.83114	1.9681	3.4135	1229.0	-0.37381	78.158	0.16042	liquid
150.00	22.780	392.87	0.0025454	105.32	163.30	0.82974	1.9685	3.4114	1230.7	-0.37483	78.297	0.16061	liquid
150.00	22.945	393.06	0.0025441	105.14	163.51	0.82835	1.9689	3.4094	1232.4	-0.37585	78.435	0.16080	liquid
150.00	23.110	393.25	0.0025429	104.96	163.72	0.82696	1.9693	3.4074	1234.1	-0.37685	78.573	0.16100	liquid
150.00	23.275	393.43	0.0025417	104.78	163.94	0.82558	1.9698	3.4054	1235.7	-0.37785	78.711	0.16119	liquid
150.00	23.440	393.62	0.0025405	104.60	164.15	0.82420	1.9702	3.4034	1237.4	-0.37883	78.848	0.16138	liquid
150.00	23.605	393.81	0.0025393	104.42	164.36	0.82283	1.9706	3.4014	1239.1	-0.37981	78.985	0.16157	liquid
150.00	23.770	393.99	0.0025381	104.24	164.57	0.82146	1.9710	3.3995	1240.7	-0.38079	79.122	0.16176	liquid
150.00	23.935	394.18	0.0025369	104.07	164.79	0.82009	1.9714	3.3976	1242.4	-0.38175	79.258	0.16195	liquid
150.00	24.100	394.36	0.0025358	103.89	165.00	0.81873	1.9718	3.3957	1244.0	-0.38271	79.394	0.16214	liquid
150.00	24.265	394.54	0.0025346	103.72	165.22	0.81737	1.9722	3.3938	1245.7	-0.38366	79.530	0.16233	liquid
150.00	24.430	394.73	0.0025334	103.54	165.43	0.81602	1.9726	3.3919	1247.3	-0.38460	79.666	0.16252	liquid
150.00	24.595	394.91	0.0025322	103.37	165.65	0.81467	1.9730	3.3900	1248.9	-0.38553	79.801	0.16271	liquid
150.00	24.760	395.09	0.0025311	103.19	165.86	0.81332	1.9734	3.3881	1250.6	-0.38646	79.936	0.16290	liquid
150.00	24.925	395.27	0.0025299	103.02	166.08	0.81198	1.9738	3.3863	1252.2	-0.38738	80.070	0.16309	liquid
150.00	25.090	395.45	0.0025288	102.85	166.30	0.81064	1.9741	3.3845	1253.8	-0.38829	80.205	0.16328	liquid
150.00	25.255	395.63	0.0025276	102.68	166.51	0.80931	1.9745	3.3827	1255.4	-0.38920	80.339	0.16346	liquid
150.00	25.420	395.81	0.0025265	102.51	166.73	0.80798	1.9749	3.3809	1257.0	-0.39010	80.473	0.16365	liquid
150.00	25.585	395.99	0.0025253	102.34	166.95	0.80665	1.9753	3.3791	1258.6	-0.39099	80.607	0.16384	liquid
150.00	25.750	396.17	0.0025242	102.17	167.17	0.80533	1.9757	3.3773	1260.2	-0.39187	80.740	0.16402	liquid
150.00	25.915	396.34	0.0025231	102.00	167.39	0.80401	1.9761	3.3755	1261.8	-0.39275	80.873	0.16421	liquid
150.00	26.080	396.52	0.0025219	101.83	167.60	0.80269	1.9765	3.3738	1263.4	-0.39362	81.006	0.16440	liquid
150.00	26.245	396.70	0.0025208	101.67	167.82	0.80138	1.9769	3.3721	1265.0	-0.39449	81.138	0.16458	liquid
150.00	26.410	396.87	0.0025197	101.50	168.04	0.80007	1.9773	3.3703	1266.6	-0.39535	81.270	0.16477	liquid
150.00	26.575	397.05	0.0025186	101.33	168.26	0.79877	1.9777	3.3686	1268.1	-0.39620	81.402	0.16495	liquid
150.00	26.740	397.22	0.0025175	101.17	168.48	0.79747	1.9781	3.3669	1269.7	-0.39704	81.534	0.16514	liquid
150.00	26.905	397.39	0.0025164	101.00	168.70	0.79617	1.9785	3.3653	1271.3	-0.39788	81.666	0.16532	liquid
150.00	27.070	397.57	0.0025153	100.84	168.93	0.79488	1.9789	3.3636	1272.8	-0.39871	81.797	0.16550	liquid
150.00	27.235	397.74	0.0025142	100.67	169.15	0.79359	1.9793	3.3619	1274.4	-0.39954	81.928	0.16569	liquid
150.00	27.400	397.91	0.0025131	100.51	169.37	0.79230	1.9797	3.3603	1275.9	-0.40036	82.058	0.16587	liquid
150.00	27.565	398.08	0.0025120	100.35	169.59	0.79102	1.9801	3.3587	1277.5	-0.40118	82.189	0.16605	liquid
150.00	27.730	398.26	0.0025109	100.19	169.81	0.78974	1.9805	3.3571	1279.0	-0.40199	82.319	0.16623	liquid
150.00	27.895	398.43	0.0025099	100.02	170.04	0.78847	1.9808	3.3554	1280.6	-0.40279	82.449	0.16642	liquid
150.00	28.060	398.60	0.0025088	99.863	170.26	0.78719	1.9812	3.3539	1282.1	-0.40359	82.579	0.16660	liquid
150.00	28.225	398.77	0.0025077	99.703	170.48	0.78592	1.9816	3.3523	1283.6	-0.40438	82.708	0.16678	liquid
150.00	28.390	398.94	0.0025067	99.543	170.71	0.78466	1.9820	3.3507	1285.2	-0.40516	82.837	0.16696	liquid
150.00	28.555	399.10	0.0025056	99.384	170.93	0.78340	1.9824	3.3491	1286.7	-0.40594	82.966	0.16714	liquid
150.00	28.720	399.27	0.0025046	99.225	171.16	0.78214	1.9828	3.3476	1288.2	-0.40672	83.095	0.16732	liquid
150.00	28.885	399.44	0.0025035	99.067	171.38	0.78088	1.9832	3.3461	1289.7	-0.40748	83.223	0.16750	liquid
150.00	29.050	399.61	0.0025025	98.910	171.61	0.77963	1.9836	3.3445	1291.2	-0.40825	83.352	0.16768	liquid
150.00	29.215	399.77	0.0025014	98.753	171.83	0.77838	1.9839	3.3430	1292.7	-0.40900	83.480	0.16786	liquid
150.00	29.380	399.94	0.0025004	98.596	172.06	0.77713	1.9843	3.3415	1294.2	-0.40976	83.607	0.16804	liquid
150.00	29.545	400.11	0.0024993	98.440	172.28	0.77589	1.9847	3.3400	1295.7	-0.41050	83.735	0.16822	liquid
150.00	29.710	400.27	0.0024983	98.285	172.51	0.77465	1.9851	3.3385	1297.2	-0.41125	83.862	0.16840	liquid
150.00	29.875	400.44	0.0024973	98.130	172.74	0.77341	1.9855	3.3370	1298.7	-0.41198	83.989	0.16858	liquid
150.00	30.040	400.60	0.0024963	97.976	172.96	0.77218	1.9859	3.3356	1300.2	-0.41271	84.116	0.16875	liquid
150.00	30.205	400.76	0.0024952	97.822	173.19	0.77095	1.9863	3.3341	1301.6	-0.41344	84.243	0.16893	liquid
150.00	30.370	400.93	0.0024942	97.669	173.42	0.76972	1.9866	3.3327	1303.1	-0.41416	84.369	0.16911	liquid
150.00	30.535	401.09	0.0024932	97.516	173.65	0.76850	1.9870	3.3313	1304.6	-0.41488	84.495	0.16929	liquid
150.00	30.700	401.25	0.0024922	97.364	173.87	0.76728	1.9874	3.3298	1306.0	-0.41559	84.621	0.16946	liquid
150.00	30.865	401.41	0.0024912	97.212	174.10	0.76606	1.9878	3.3284	1307.5	-0.41629	84.747	0.16964	liquid
150.00	31.030	401.58	0.0024902	97.061	174.33	0.76485	1.9882	3.3270	1309.0	-0.41699	84.872	0.16982	liquid
150.00	31.195	401.74	0.0024892	96.910	174.56	0.76364	1.9885	3.3256	1310.4	-0.41769	84.997	0.16999	liquid
150.00	31.360	401.90	0.0024882	96.760	174.79	0.76243	1.9889	3.3242	1311.9	-0.41838	85.122	0.17017	liquid
150.00	31.525	402.06	0.0024872	96.610	175.02	0.76122	1.9893	3.3229	1313.3	-0.41907	85.247	0.17034	liquid
150.00	31.690	402.22	0.0024862	96.461	175.25	0.76002	1.9897	3.3215	1314.8	-0.41975	85.371	0.17052	liquid
150.00	31.855	402.38	0.0024852	96.312	175.48	0.75882	1.9901	3.3201	1316.2	-0.42043	85.496	0.17069	liquid
150.00	32.020	402.53	0.0024843	96.164	175.71	0.75762	1.9904	3.3188	1317.6	-0.42110	85.620	0.17087	liquid
150.00	32.185	402.69	0.0024833	96.016	175.94	0.75643	1.9908	3.3174	1319.1	-0.42177	85.744	0.17104	liquid
150.00	32.350	402.85	0.0024823	95.869	176.17	0.75524	1.9912	3.3161	1320.5	-0.42244	85.868	0.17122	liquid
150.00	32.515	403.01	0.0024813	95.722	176.40	0.75405	1.9916	3.3148	1321.9	-0.42310	85.991	0.17139	liquid
150.00	32.680	403.16	0.0024804	95.576	176.63	0.75286	1.9919	3.3135	1323.3	-0.42375	86.114	0.17156	liquid
150.00	32.845	403.32	0.0024794	95.430	176.87	0.75168	1.9923	3.3122	1324.8	-0.42440	86.237	0.17174	liquid
150.00	33.010	403.48	0.0024785	95.285	177.10	0.75050	1.9927	3.3109	1326.2	-0.42505	86.360	0.17191	liquid
150.00	33.175	403.63	0.0024775	95.140	177.33	0.74933	1.9931	3.3096	1327.6	-0.42569	86.483	0.17208	liquid
150.00	33.340	403.79	0.0024765	94.995	177.56	0.74815	1.9935	3.3083	1329.0	-0.42633	86.605	0.17225	liquid
150.00	33.505	403.94	0.0024756	94.851	177.80	0.74698	1.9938	3.3070	1330.4	-0.42696	86.727	0.17243	liquid
150.00	33.670	404.10	0.0024747	94.708	178.03	0.74581	1.9942	3.3058	1331.8	-0.42759	86.849	0.17260	liquid
150.00	33.835	404.25	0.0024737	94.565	178.26	0.74465	1.9946	3.3045	1333.2	-0.42822	86.971	0.17277	liquid
150.00	34.000	404.40	0.0024728	94.422	178.50	0.74348	1.9949	3.3033	1334.6	-0.42884	87.093	0.17294	liquid
150.00	34.165	404.56	0.0024718	94.280	178.73	0.74232	1.9953	3.3020	1336.0	-0.42946	87.214	0.17311	liquid
150.00	34.330	404.71	0.0024709	94.138	178.96	0.74116	1.9957	3.3008	1337.4	-0.43007	87.335	0.17328	liquid
150.00	34.495	404.86	0.0024700	93.997	179.20	0.74001	1.9961	3.2996	1338.7	-0.43068	87.456	0.17345	liquid
150.00	34.660	405.01	0.0024690	93.856	179.43	0.73886	1.9964	3.2984	1340.1	-0.43128	87.577	0.17362	liquid
150.00	34.825	405.17	0.0024681	93.716	179.67	0.73771	1.9968	3.2972	1341.5	-0.43189	87.698	0.17379	liquid
150.00	34.990	405.32	0.0024672	93.576	179.90	0.73656	1.9972	3.2960	1342.9	-0.43248	87.818	0.17396	liquid
150.00	35.155	405.47	0.0024663	93.436	180.14	0.73541	1.9975	3.2948	1344.2	-0.43308	87.938	0.17413	liquid
150.00	35.320	405.62	0.0024654	93.297	180.37	0.73427	1.9979	3.2936	1345.6	-0.43367	88.058	0.17430	liquid
150.00	35.485	405.77	0.0024645	93.159	180.61	0.73313	1.9983	3.2924	1347.0	-0.43425	88.178	0.17447	liquid
150.00	35.650	405.92	0.0024635	93.020	180.85	0.73200	1.9987	3.2912	1348.3	-0.43484	88.298	0.17464	liquid
150.00	35.815	406.07	0.0024626	92.883	181.08	0.73086	1.9990	3.2901	1349.7	-0.43541	88.417	0.17481	liquid
150.00	35.980	406.22	0.0024617	92.745	181.32	0.72973	1.9994	3.2889	1351.0	-0.43599	88.537	0.17498	liquid
150.00	36.145	406.37	0.0024608	92.608	181.56	0.72860	1.9998	3.2878	1352.4	-0.43656	88.656	0.17515	liquid
150.00	36.310	406.51	0.0024599	92.472	181.79	0.72747	2.0001	3.2866	1353.7	-0.43713	88.775	0.17531	liquid
150.00	36.475	406.66	0.0024590	92.336	182.03	0.72635	2.0005	3.2855	1355.1	-0.43769	88.893	0.17548	liquid
150.00	36.640	406.81	0.0024582	92.200	182.27	0.72523	2.0009	3.2844	1356.4	-0.43825	89.012	0.17565	liquid
150.00	36.805	406.96	0.0024573	92.065	182.50	0.72411	2.0012	3.2832	1357.8	-0.43881	89.130	0.17582	liquid
150.00	36.970	407.10	0.0024564	91.930	182.74	0.72299	2.0016	3.2821	1359.1	-0.43937	89.248	0.17598	liquid
150.00	37.135	407.25	0.0024555	91.795	182.98	0.72188	2.0019	3.2810	1360.4	-0.43992	89.366	0.17615	liquid
150.00	37.300	407.39	0.0024546	91.661	183.22	0.72076	2.0023	3.2799	1361.8	-0.44046	89.484	0.17632	liquid
150.00	37.465	407.54	0.0024537	91.527	183.46	0.71965	2.0027	3.2788	1363.1	-0.44101	89.602	0.17648	liquid
150.00	37.630	407.69	0.0024529	91.394	183.70	0.71855	2.0030	3.2777	1364.4	-0.44155	89.719	0.17665	liquid
150.00	37.795	407.83	0.0024520	91.261	183.93	0.71744	2.0034	3.2767	1365.7	-0.44208	89.836	0.17682	liquid
150.00	37.960	407.97	0.0024511	91.129	184.17	0.71634	2.0038	3.2756	1367.0	-0.44262	89.953	0.17698	liquid
150.00	38.125	408.12	0.0024503	90.997	184.41	0.71524	2.0041	3.2745	1368.4	-0.44315	90.070	0.17715	liquid
150.00	38.290	408.26	0.0024494	90.865	184.65	0.71414	2.0045	3.2735	1369.7	-0.44368	90.187	0.17731	liquid
150.00	38.455	408.41	0.0024485	90.734	184.89	0.71305	2.0048	3.2724	1371.0	-0.44420	90.303	0.17748	liquid
150.00	38.620	408.55	0.0024477	90.603	185.13	0.71195	2.0052	3.2714	1372.3	-0.44472	90.420	0.17764	liquid
150.00	38.785	408.69	0.0024468	90.472	185.37	0.71086	2.0056	3.2703	1373.6	-0.44524	90.536	0.17781	liquid
150.00	38.950	408.83	0.0024460	90.342	185.61	0.70977	2.0059	3.2693	1374.9	-0.44575	90.652	0.17797	liquid
150.00	39.115	408.98	0.0024451	90.212	185.85	0.70869	2.0063	3.2682	1376.2	-0.44626	90.768	0.17814	liquid
150.00	39.280	409.12	0.0024443	90.083	186.09	0.70760	2.0066	3.2672	1377.5	-0.44677	90.883	0.17830	liquid
150.00	39.445	409.26	0.0024434	89.954	186.34	0.70652	2.0070	3.2662	1378.8	-0.44728	90.999	0.17846	liquid
150.00	39.610	409.40	0.0024426	89.825	186.58	0.70544	2.0074	3.2652	1380.1	-0.44778	91.114	0.17863	liquid
150.00	39.775	409.54	0.0024418	89.697	186.82	0.70436	2.0077	3.2642	1381.3	-0.44828	91.229	0.17879	liquid
150.00	39.940	409.68	0.0024409	89.569	187.06	0.70329	2.0081	3.2632	1382.6	-0.44877	91.344	0.17895	liquid
150.00	40.105	409.82	0.0024401	89.441	187.30	0.70221	2.0084	3.2622	1383.9	-0.44927	91.459	0.17912	liquid
150.00	40.270	409.96	0.0024393	89.314	187.54	0.70114	2.0088	3.2612	1385.2	-0.44976	91.574	0.17928	liquid
150.00	40.435	410.10	0.0024384	89.187	187.78	0.70008	2.0091	3.2602	1386.4	-0.45025	91.688	0.17944	liquid
150.00	40.600	410.24	0.0024376	89.061	188.03	0.69901	2.0095	3.2592	1387.7	-0.45073	91.802	0.17960	liquid
150.00	40.765	410.38	0.0024368	88.935	188.27	0.69794	2.0099	3.2583	1389.0	-0.45121	91.916	0.17977	liquid
150.00	40.930	410.52	0.0024359	88.809	188.51	0.69688	2.0102	3.2573	1390.3	-0.45169	92.030	0.17993	liquid
150.00	41.095	410.66	0.0024351	88.683	188.76	0.69582	2.0106	3.2563	1391.5	-0.45217	92.144	0.18009	liquid
150.00	41.260	410.79	0.0024343	88.558	189.00	0.69476	2.0109	3.2554	1392.8	-0.45264	92.258	0.18025	liquid
150.00	41.425	410.93	0.0024335	88.434	189.24	0.69371	2.0113	3.2544	1394.0	-0.45311	92.371	0.18041	liquid
150.00	41.590	411.07	0.0024327	88.309	189.48	0.69265	2.0116	3.2535	1395.3	-0.45358	92.485	0.18057	liquid
150.00	41.755	411.21	0.0024319	88.185	189.73	0.69160	2.0120	3.2525	1396.5	-0.45404	92.598	0.18073	liquid
150.00	41.920	411.34	0.0024311	88.062	189.97	0.69055	2.0123	3.2516	1397.8	-0.45451	92.711	0.18089	liquid
150.00	42.085	411.48	0.0024303	87.938	190.22	0.68951	2.0127	3.2507	1399.0	-0.45496	92.824	0.18106	liquid
150.00	42.250	411.61	0.0024295	87.815	190.46	0.68846	2.0130	3.2498	1400.3	-0.45542	92.936	0.18122	liquid
150.00	42.415	411.75	0.0024287	87.693	190.70	0.68742	2.0134	3.2488	1401.5	-0.45588	93.049	0.18138	liquid
150.00	42.580	411.89	0.0024279	87.571	190.95	0.68638	2.0137	3.2479	1402.8	-0.45633	93.161	0.18154	liquid
150.00	42.745	412.02	0.0024271	87.449	191.19	0.68534	2.0141	3.2470	1404.0	-0.45678	93.274	0.18170	liquid
150.00	42.910	412.16	0.0024263	87.327	191.44	0.68430	2.0144	3.2461	1405.2	-0.45722	93.386	0.18186	liquid
150.00	43.075	412.29	0.0024255	87.206	191.68	0.68326	2.0148	3.2452	1406.5	-0.45767	93.498	0.18201	liquid
150.00	43.240	412.42	0.0024247	87.085	191.93	0.68223	2.0151	3.2443	1407.7	-0.45811	93.609	0.18217	liquid
150.00	43.405	412.56	0.0024239	86.964	192.17	0.68120	2.0155	3.2434	1408.9	-0.45855	93.721	0.18233	liquid
150.00	43.570	412.69	0.0024231	86.844	192.42	0.68017	2.0158	3.2425	1410.2	-0.45898	93.832	0.18249	liquid
150.00	43.735	412.82	0.0024223	86.724	192.66	0.67914	2.0162	3.2417	1411.4	-0.45942	93.944	0.18265	liquid
150.00	43.900	412.96	0.0024216	86.604	192.91	0.67812	2.0165	3.2408	1412.6	-0.45985	94.055	0.18281	liquid
150.00	44.065	413.09	0.0024208	86.485	193.16	0.67709	2.0169	3.2399	1413.8	-0.46028	94.166	0.18297	liquid
150.00	44.230	413.22	0.0024200	86.366	193.40	0.67607	2.0172	3.2390	1415.0	-0.46070	94.277	0.18313	liquid
150.00	44.395	413.36	0.0024192	86.248	193.65	0.67505	2.0176	3.2382	1416.2	-0.46113	94.388	0.18328	liquid
150.00	44.560	413.49	0.0024185	86.129	193.90	0.67404	2.0179	3.2373	1417.5	-0.46155	94.498	0.18344	liquid
150.00	44.725	413.62	0.0024177	86.011	194.14	0.67302	2.0183	3.2365	1418.7	-0.46197	94.609	0.18360	liquid
150.00	44.890	413.75	0.0024169	85.894	194.39	0.67201	2.0186	3.2356	1419.9	-0.46239	94.719	0.18376	liquid
150.00	45.055	413.88	0.0024162	85.776	194.64	0.67099	2.0189	3.2348	1421.1	-0.46280	94.829	0.18391	liquid
150.00	45.220	414.01	0.0024154	85.659	194.88	0.66998	2.0193	3.2340	1422.3	-0.46321	94.939	0.18407	liquid
150.00	45.385	414.14	0.0024146	85.542	195.13	0.66898	2.0196	3.2331	1423.5	-0.46362	95.049	0.18423	liquid
150.00	45.550	414.27	0.0024139	85.426	195.38	0.66797	2.0200	3.2323	1424.7	-0.46403	95.158	0.18438	liquid
150.00	45.715	414.40	0.0024131	85.310	195.63	0.66696	2.0203	3.2315	1425.9	-0.46444	95.268	0.18454	liquid
150.00	45.880	414.53	0.0024124	85.194	195.87	0.66596	2.0207	3.2306	1427.0	-0.46484	95.377	0.18470	liquid
150.00	46.045	414.66	0.0024116	85.078	196.12	0.66496	2.0210	3.2298	1428.2	-0.46524	95.487	0.18485	liquid
150.00	46.210	414.79	0.0024109	84.963	196.37	0.66396	2.0213	3.2290	1429.4	-0.46564	95.596	0.18501	liquid
150.00	46.375	414.92	0.0024101	84.848	196.62	0.66297	2.0217	3.2282	1430.6	-0.46604	95.705	0.18516	liquid
150.00	46.540	415.05	0.0024094	84.734	196.87	0.66197	2.0220	3.2274	1431.8	-0.46643	95.814	0.18532	liquid
150.00	46.705	415.18	0.0024086	84.619	197.11	0.66098	2.0224	3.2266	1433.0	-0.46683	95.922	0.18548	liquid
150.00	46.870	415.30	0.0024079	84.505	197.36	0.65998	2.0227	3.2258	1434.1	-0.46722	96.031	0.18563	liquid
150.00	47.035	415.43	0.0024071	84.392	197.61	0.65900	2.0230	3.2250	1435.3	-0.46760	96.140	0.18579	liquid
150.00	47.200	415.56	0.0024064	84.278	197.86	0.65801	2.0234	3.2242	1436.5	-0.46799	96.248	0.18594	liquid
150.00	47.365	415.69	0.0024057	84.165	198.11	0.65702	2.0237	3.2234	1437.7	-0.46837	96.356	0.18610	liquid
150.00	47.530	415.81	0.0024049	84.052	198.36	0.65604	2.0241	3.2227	1438.8	-0.46876	96.464	0.18625	liquid
150.00	47.695	415.94	0.0024042	83.940	198.61	0.65505	2.0244	3.2219	1440.0	-0.46914	96.572	0.18640	liquid
150.00	47.860	416.07	0.0024035	83.828	198.86	0.65407	2.0247	3.2211	1441.2	-0.46951	96.680	0.18656	liquid
150.00	48.025	416.19	0.0024027	83.716	199.11	0.65309	2.0251	3.2204	1442.3	-0.46989	96.787	0.18671	liquid
150.00	48.190	416.32	0.0024020	83.604	199.36	0.65212	2.0254	3.2196	1443.5	-0.47026	96.895	0.18687	liquid
150.00	48.355	416.45	0.0024013	83.493	199.61	0.65114	2.0257	3.2188	1444.6	-0.47063	97.002	0.18702	liquid
150.00	48.520	416.57	0.0024006	83.382	199.86	0.65017	2.0261	3.2181	1445.8	-0.47100	97.109	0.18717	liquid
150.00	48.685	416.70	0.0023998	83.271	200.11	0.64919	2.0264	3.2173	1447.0	-0.47137	97.217	0.18733	liquid
150.00	48.850	416.82	0.0023991	83.160	200.36	0.64822	2.0268	3.2166	1448.1	-0.47174	97.324	0.18748	liquid
150.00	49.015	416.95	0.0023984	83.050	200.61	0.64725	2.0271	3.2158	1449.3	-0.47210	97.430	0.18763	liquid
150.00	49.180	417.07	0.0023977	82.940	200.86	0.64629	2.0274	3.2151	1450.4	-0.47246	97.537	0.18779	liquid
150.00	49.345	417.19	0.0023970	82.830	201.11	0.64532	2.0278	3.2144	1451.6	-0.47282	97.644	0.18794	liquid
150.00	49.510	417.32	0.0023962	82.721	201.36	0.64436	2.0281	3.2136	1452.7	-0.47318	97.750	0.18809	liquid
150.00	49.675	417.44	0.0023955	82.612	201.61	0.64339	2.0284	3.2129	1453.8	-0.47354	97.857	0.18825	liquid
150.00	49.840	417.57	0.0023948	82.503	201.86	0.64243	2.0288	3.2122	1455.0	-0.47389	97.963	0.18840	liquid
150.00	50.005	417.69	0.0023941	82.394	202.11	0.64147	2.0291	3.2115	1456.1	-0.47424	98.069	0.18855	liquid
150.00	50.170	417.81	0.0023934	82.286	202.36	0.64052	2.0294	3.2107	1457.2	-0.47459	98.175	0.18870	liquid
150.00	50.335	417.94	0.0023927	82.178	202.62	0.63956	2.0298	3.2100	1458.4	-0.47494	98.281	0.18885	liquid
150.00	50.500	418.06	0.0023920	82.070	202.87	0.63861	2.0301	3.2093	1459.5	-0.47529	98.386	0.18901	liquid
150.00	50.665	418.18	0.0023913	81.963	203.12	0.63765	2.0304	3.2086	1460.6	-0.47563	98.492	0.18916	liquid
150.00	50.830	418.30	0.0023906	81.856	203.37	0.63670	2.0307	3.2079	1461.8	-0.47598	98.597	0.18931	liquid
150.00	50.995	418.42	0.0023899	81.749	203.62	0.63575	2.0311	3.2072	1462.9	-0.47632	98.703	0.18946	liquid
150.00	51.160	418.55	0.0023892	81.642	203.87	0.63481	2.0314	3.2065	1464.0	-0.47666	98.808	0.18961	liquid
150.00	51.325	418.67	0.0023885	81.536	204.13	0.63386	2.0317	3.2058	1465.1	-0.47700	98.913	0.18976	liquid
150.00	51.490	418.79	0.0023878	81.430	204.38	0.63292	2.0321	3.2051	1466.3	-0.47733	99.018	0.18991	liquid
150.00	51.655	418.91	0.0023872	81.324	204.63	0.63197	2.0324	3.2044	1467.4	-0.47767	99.123	0.19006	liquid
150.00	51.820	419.03	0.0023865	81.218	204.88	0.63103	2.0327	3.2038	1468.5	-0.47800	99.228	0.19022	liquid
150.00	51.985	419.15	0.0023858	81.113	205.14	0.63009	2.0331	3.2031	1469.6	-0.47833	99.332	0.19037	liquid
150.00	52.150	419.27	0.0023851	81.008	205.39	0.62915	2.0334	3.2024	1470.7	-0.47866	99.437	0.19052	liquid
150.00	52.315	419.39	0.0023844	80.903	205.64	0.62822	2.0337	3.2017	1471.8	-0.47899	99.541	0.19067	liquid
150.00	52.480	419.51	0.0023837	80.798	205.90	0.62728	2.0340	3.2011	1472.9	-0.47931	99.645	0.19082	liquid
150.00	52.645	419.63	0.0023831	80.694	206.15	0.62635	2.0344	3.2004	1474.0	-0.47964	99.749	0.19097	liquid
150.00	52.810	419.75	0.0023824	80.590	206.40	0.62542	2.0347	3.1997	1475.1	-0.47996	99.853	0.19112	liquid
150.00	52.975	419.87	0.0023817	80.486	206.66	0.62448	2.0350	3.1991	1476.2	-0.48028	99.957	0.19127	liquid
150.00	53.140	419.99	0.0023810	80.382	206.91	0.62356	2.0353	3.1984	1477.3	-0.48060	100.06	0.19142	liquid
150.00	53.305	420.11	0.0023804	80.279	207.16	0.62263	2.0357	3.1978	1478.4	-0.48092	100.16	0.19156	liquid
150.00	53.470	420.22	0.0023797	80.176	207.42	0.62170	2.0360	3.1971	1479.5	-0.48123	100.27	0.19171	liquid
150.00	53.635	420.34	0.0023790	80.073	207.67	0.62078	2.0363	3.1965	1480.6	-0.48155	100.37	0.19186	liquid
150.00	53.800	420.46	0.0023783	79.970	207.93	0.61985	2.0366	3.1958	1481.7	-0.48186	100.48	0.19201	liquid
150.00	53.965	420.58	0.0023777	79.868	208.18	0.61893	2.0370	3.1952	1482.8	-0.48217	100.58	0.19216	liquid
150.00	54.130	420.70	0.0023770	79.766	208.43	0.61801	2.0373	3.1945	1483.9	-0.48248	100.68	0.19231	liquid
150.00	54.295	420.81	0.0023763	79.664	208.69	0.61709	2.0376	3.1939	1485.0	-0.48279	100.78	0.19246	liquid
150.00	54.460	420.93	0.0023757	79.563	208.94	0.61618	2.0379	3.1933	1486.1	-0.48309	100.89	0.19261	liquid
150.00	54.625	421.05	0.0023750	79.461	209.20	0.61526	2.0383	3.1926	1487.2	-0.48340	100.99	0.19275	liquid
150.00	54.790	421.16	0.0023744	79.360	209.45	0.61435	2.0386	3.1920	1488.2	-0.48370	101.09	0.19290	liquid
150.00	54.955	421.28	0.0023737	79.259	209.71	0.61344	2.0389	3.1914	1489.3	-0.48400	101.20	0.19305	liquid
150.00	55.120	421.40	0.0023731	79.159	209.96	0.61252	2.0392	3.1908	1490.4	-0.48430	101.30	0.19320	liquid
150.00	55.285	421.51	0.0023724	79.058	210.22	0.61161	2.0395	3.1901	1491.5	-0.48460	101.40	0.19335	liquid
150.00	55.450	421.63	0.0023718	78.958	210.47	0.61071	2.0399	3.1895	1492.5	-0.48490	101.50	0.19349	liquid
150.00	55.615	421.75	0.0023711	78.858	210.73	0.60980	2.0402	3.1889	1493.6	-0.48519	101.60	0.19364	liquid
150.00	55.780	421.86	0.0023705	78.759	210.98	0.60889	2.0405	3.1883	1494.7	-0.48549	101.71	0.19379	liquid
150.00	55.945	421.98	0.0023698	78.659	211.24	0.60799	2.0408	3.1877	1495.8	-0.48578	101.81	0.19393	liquid
150.00	56.110	422.09	0.0023692	78.560	211.49	0.60709	2.0411	3.1871	1496.8	-0.48607	101.91	0.19408	liquid
150.00	56.275	422.21	0.0023685	78.461	211.75	0.60619	2.0415	3.1865	1497.9	-0.48636	102.01	0.19423	liquid
150.00	56.440	422.32	0.0023679	78.362	212.00	0.60529	2.0418	3.1859	1499.0	-0.48665	102.11	0.19438	liquid
150.00	56.605	422.44	0.0023672	78.264	212.26	0.60439	2.0421	3.1853	1500.0	-0.48694	102.21	0.19452	liquid
150.00	56.770	422.55	0.0023666	78.165	212.52	0.60349	2.0424	3.1847	1501.1	-0.48722	102.32	0.19467	liquid
150.00	56.935	422.66	0.0023659	78.067	212.77	0.60259	2.0427	3.1841	1502.1	-0.48751	102.42	0.19481	liquid
150.00	57.100	422.78	0.0023653	77.970	213.03	0.60170	2.0431	3.1835	1503.2	-0.48779	102.52	0.19496	liquid
150.00	57.265	422.89	0.0023647	77.872	213.29	0.60081	2.0434	3.1830	1504.2	-0.48807	102.62	0.19511	liquid
150.00	57.430	423.00	0.0023640	77.775	213.54	0.59992	2.0437	3.1824	1505.3	-0.48835	102.72	0.19525	liquid
150.00	57.595	423.12	0.0023634	77.678	213.80	0.59902	2.0440	3.1818	1506.4	-0.48863	102.82	0.19540	liquid
150.00	57.760	423.23	0.0023628	77.581	214.05	0.59814	2.0443	3.1812	1507.4	-0.48891	102.92	0.19554	liquid
150.00	57.925	423.34	0.0023621	77.484	214.31	0.59725	2.0446	3.1806	1508.5	-0.48918	103.02	0.19569	liquid
150.00	58.090	423.46	0.0023615	77.388	214.57	0.59636	2.0450	3.1801	1509.5	-0.48946	103.12	0.19584	liquid
150.00	58.255	423.57	0.0023609	77.291	214.82	0.59548	2.0453	3.1795	1510.5	-0.48973	103.22	0.19598	liquid
150.00	58.420	423.68	0.0023603	77.195	215.08	0.59459	2.0456	3.1789	1511.6	-0.49000	103.32	0.19613	liquid
150.00	58.585	423.79	0.0023596	77.099	215.34	0.59371	2.0459	3.1784	1512.6	-0.49027	103.42	0.19627	liquid
150.00	58.750	423.91	0.0023590	77.004	215.60	0.59283	2.0462	3.1778	1513.7	-0.49054	103.52	0.19642	liquid
150.00	58.915	424.02	0.0023584	76.909	215.85	0.59195	2.0465	3.1773	1514.7	-0.49081	103.62	0.19656	liquid
150.00	59.080	424.13	0.0023578	76.813	216.11	0.59107	2.0468	3.1767	1515.7	-0.49108	103.72	0.19671	liquid
150.00	59.245	424.24	0.0023572	76.718	216.37	0.59020	2.0472	3.1761	1516.8	-0.49134	103.82	0.19685	liquid
150.00	59.410	424.35	0.0023565	76.624	216.63	0.58932	2.0475	3.1756	1517.8	-0.49161	103.92	0.19699	liquid
150.00	59.575	424.46	0.0023559	76.529	216.88	0.58845	2.0478	3.1750	1518.8	-0.49187	104.02	0.19714	liquid
150.00	59.740	424.57	0.0023553	76.435	217.14	0.58757	2.0481	3.1745	1519.9	-0.49213	104.12	0.19728	liquid
150.00	59.905	424.68	0.0023547	76.341	217.40	0.58670	2.0484	3.1740	1520.9	-0.49239	104.22	0.19743	liquid
150.00	60.070	424.79	0.0023541	76.247	217.66	0.58583	2.0487	3.1734	1521.9	-0.49265	104.32	0.19757	liquid
150.00	60.235	424.90	0.0023535	76.154	217.91	0.58496	2.0490	3.1729	1523.0	-0.49291	104.42	0.19772	liquid
150.00	60.400	425.01	0.0023529	76.060	218.17	0.58409	2.0493	3.1723	1524.0	-0.49316	104.52	0.19786	liquid
150.00	60.565	425.12	0.0023523	75.967	218.43	0.58323	2.0497	3.1718	1525.0	-0.49342	104.62	0.19800	liquid
150.00	60.730	425.23	0.0023516	75.874	218.69	0.58236	2.0500	3.1713	1526.0	-0.49367	104.72	0.19815	liquid
150.00	60.895	425.34	0.0023510	75.781	218.95	0.58150	2.0503	3.1707	1527.1	-0.49393	104.82	0.19829	liquid
150.00	61.060	425.45	0.0023504	75.689	219.21	0.58064	2.0506	3.1702	1528.1	-0.49418	104.92	0.19843	liquid
150.00	61.225	425.56	0.0023498	75.596	219.46	0.57977	2.0509	3.1697	1529.1	-0.49443	105.01	0.19858	liquid
150.00	61.390	425.67	0.0023492	75.504	219.72	0.57891	2.0512	3.1692	1530.1	-0.49468	105.11	0.19872	liquid
150.00	61.555	425.78	0.0023486	75.412	219.98	0.57805	2.0515	3.1687	1531.1	-0.49492	105.21	0.19886	liquid
150.00	61.720	425.89	0.0023480	75.320	220.24	0.57720	2.0518	3.1681	1532.1	-0.49517	105.31	0.19900	liquid
150.00	61.885	426.00	0.0023474	75.229	220.50	0.57634	2.0521	3.1676	1533.1	-0.49542	105.41	0.19915	liquid
150.00	62.050	426.11	0.0023468	75.137	220.76	0.57549	2.0524	3.1671	1534.1	-0.49566	105.51	0.19929	liquid
150.00	62.215	426.21	0.0023462	75.046	221.02	0.57463	2.0527	3.1666	1535.2	-0.49591	105.60	0.19943	liquid
150.00	62.380	426.32	0.0023456	74.955	221.28	0.57378	2.0530	3.1661	1536.2	-0.49615	105.70	0.19957	liquid
150.00	62.545	426.43	0.0023451	74.865	221.54	0.57293	2.0534	3.1656	1537.2	-0.49639	105.80	0.19972	liquid
150.00	62.710	426.54	0.0023445	74.774	221.80	0.57208	2.0537	3.1651	1538.2	-0.49663	105.90	0.19986	liquid
150.00	62.875	426.64	0.0023439	74.684	222.05	0.57123	2.0540	3.1646	1539.2	-0.49687	106.00	0.20000	liquid
150.00	63.040	426.75	0.0023433	74.594	222.31	0.57038	2.0543	3.1641	1540.2	-0.49710	106.09	0.20014	liquid
150.00	63.205	426.86	0.0023427	74.504	222.57	0.56953	2.0546	3.1636	1541.2	-0.49734	106.19	0.20028	liquid
150.00	63.370	426.97	0.0023421	74.414	222.83	0.56869	2.0549	3.1631	1542.2	-0.49758	106.29	0.20043	liquid
150.00	63.535	427.07	0.0023415	74.324	223.09	0.56784	2.0552	3.1626	1543.2	-0.49781	106.39	0.20057	liquid
150.00	63.700	427.18	0.0023409	74.235	223.35	0.56700	2.0555	3.1621	1544.2	-0.49804	106.48	0.20071	liquid
150.00	63.865	427.28	0.0023404	74.146	223.61	0.56616	2.0558	3.1616	1545.1	-0.49828	106.58	0.20085	liquid
150.00	64.030	427.39	0.0023398	74.057	223.87	0.56532	2.0561	3.1611	1546.1	-0.49851	106.68	0.20099	liquid
150.00	64.195	427.50	0.0023392	73.968	224.13	0.56448	2.0564	3.1606	1547.1	-0.49874	106.77	0.20113	liquid
150.00	64.360	427.60	0.0023386	73.880	224.39	0.56364	2.0567	3.1602	1548.1	-0.49897	106.87	0.20127	liquid
150.00	64.525	427.71	0.0023380	73.791	224.65	0.56280	2.0570	3.1597	1549.1	-0.49919	106.97	0.20142	liquid
150.00	64.690	427.81	0.0023375	73.703	224.91	0.56196	2.0573	3.1592	1550.1	-0.49942	107.07	0.20156	liquid
150.00	64.855	427.92	0.0023369	73.615	225.17	0.56113	2.0576	3.1587	1551.1	-0.49965	107.16	0.20170	liquid
150.00	65.020	428.02	0.0023363	73.527	225.43	0.56029	2.0579	3.1583	1552.1	-0.49987	107.26	0.20184	liquid
150.00	65.185	428.13	0.0023357	73.440	225.70	0.55946	2.0582	3.1578	1553.0	-0.50009	107.36	0.20198	liquid
150.00	65.350	428.23	0.0023352	73.352	225.96	0.55863	2.0585	3.1573	1554.0	-0.50032	107.45	0.20212	liquid
150.00	65.515	428.34	0.0023346	73.265	226.22	0.55780	2.0588	3.1568	1555.0	-0.50054	107.55	0.20226	liquid
150.00	65.680	428.44	0.0023340	73.178	226.48	0.55697	2.0591	3.1564	1556.0	-0.50076	107.64	0.20240	liquid
150.00	65.845	428.55	0.0023335	73.091	226.74	0.55614	2.0594	3.1559	1556.9	-0.50098	107.74	0.20254	liquid
150.00	66.010	428.65	0.0023329	73.005	227.00	0.55531	2.0597	3.1554	1557.9	-0.50120	107.84	0.20268	liquid
150.00	66.175	428.76	0.0023323	72.918	227.26	0.55449	2.0600	3.1550	1558.9	-0.50141	107.93	0.20282	liquid
150.00	66.340	428.86	0.0023318	72.832	227.52	0.55366	2.0603	3.1545	1559.9	-0.50163	108.03	0.20296	liquid
150.00	66.505	428.96	0.0023312	72.746	227.78	0.55284	2.0606	3.1541	1560.8	-0.50184	108.12	0.20310	liquid
150.00	66.670	429.07	0.0023306	72.660	228.04	0.55202	2.0609	3.1536	1561.8	-0.50206	108.22	0.20324	liquid
150.00	66.835	429.17	0.0023301	72.574	228.30	0.55120	2.0612	3.1532	1562.8	-0.50227	108.32	0.20338	liquid
150.00	67.000	429.27	0.0023295	72.489	228.57	0.55038	2.0615	3.1527	1563.7	-0.50248	108.41	0.20352	liquid
150.00	67.165	429.38	0.0023290	72.403	228.83	0.54956	2.0618	3.1523	1564.7	-0.50270	108.51	0.20366	liquid
150.00	67.330	429.48	0.0023284	72.318	229.09	0.54874	2.0621	3.1518	1565.7	-0.50291	108.60	0.20379	liquid
150.00	67.495	429.58	0.0023278	72.233	229.35	0.54792	2.0624	3.1514	1566.6	-0.50312	108.70	0.20393	liquid
150.00	67.660	429.69	0.0023273	72.148	229.61	0.54711	2.0627	3.1509	1567.6	-0.50332	108.79	0.20407	liquid
150.00	67.825	429.79	0.0023267	72.064	229.87	0.54629	2.0630	3.1505	1568.5	-0.50353	108.89	0.20421	liquid
150.00	67.990	429.89	0.0023262	71.979	230.14	0.54548	2.0633	3.1500	1569.5	-0.50374	108.98	0.20435	liquid
150.00	68.155	429.99	0.0023256	71.895	230.40	0.54466	2.0636	3.1496	1570.5	-0.50394	109.08	0.20449	liquid
150.00	68.320	430.09	0.0023251	71.811	230.66	0.54385	2.0639	3.1492	1571.4	-0.50415	109.17	0.20463	liquid
150.00	68.485	430.20	0.0023245	71.727	230.92	0.54304	2.0642	3.1487	1572.4	-0.50435	109.27	0.20477	liquid
150.00	68.650	430.30	0.0023240	71.643	231.18	0.54223	2.0645	3.1483	1573.3	-0.50456	109.36	0.20490	liquid
150.00	68.815	430.40	0.0023234	71.559	231.45	0.54142	2.0648	3.1479	1574.3	-0.50476	109.46	0.20504	liquid
150.00	68.980	430.50	0.0023229	71.476	231.71	0.54062	2.0651	3.1474	1575.2	-0.50496	109.55	0.20518	liquid
150.00	69.145	430.60	0.0023223	71.393	231.97	0.53981	2.0654	3.1470	1576.2	-0.50516	109.65	0.20532	liquid
150.00	69.310	430.70	0.0023218	71.310	232.23	0.53900	2.0657	3.1466	1577.1	-0.50536	109.74	0.20546	liquid
150.00	69.475	430.80	0.0023212	71.227	232.49	0.53820	2.0660	3.1462	1578.1	-0.50556	109.84	0.20559	liquid
150.00	69.640	430.91	0.0023207	71.144	232.76	0.53740	2.0663	3.1458	1579.0	-0.50575	109.93	0.20573	liquid
150.00	69.805	431.01	0.0023202	71.062	233.02	0.53659	2.0666	3.1453	1580.0	-0.50595	110.03	0.20587	liquid
150.00	69.970	431.11	0.0023196	70.979	233.28	0.53579	2.0669	3.1449	1580.9	-0.50615	110.12	0.20601	liquid
150.00	70.135	431.21	0.0023191	70.897	233.55	0.53499	2.0672	3.1445	1581.8	-0.50634	110.21	0.20614	liquid
150.00	70.300	431.31	0.0023185	70.815	233.81	0.53419	2.0675	3.1441	1582.8	-0.50654	110.31	0.20628	liquid
150.00	70.465	431.41	0.0023180	70.733	234.07	0.53340	2.0677	3.1437	1583.7	-0.50673	110.40	0.20642	liquid
150.00	70.630	431.51	0.0023175	70.652	234.33	0.53260	2.0680	3.1433	1584.7	-0.50692	110.50	0.20656	liquid
150.00	70.795	431.61	0.0023169	70.570	234.60	0.53180	2.0683	3.1428	1585.6	-0.50711	110.59	0.20669	liquid
150.00	70.960	431.71	0.0023164	70.489	234.86	0.53101	2.0686	3.1424	1586.5	-0.50730	110.68	0.20683	liquid
150.00	71.125	431.81	0.0023159	70.408	235.12	0.53021	2.0689	3.1420	1587.5	-0.50749	110.78	0.20697	liquid
150.00	71.290	431.91	0.0023153	70.327	235.39	0.52942	2.0692	3.1416	1588.4	-0.50768	110.87	0.20710	liquid
150.00	71.455	432.01	0.0023148	70.246	235.65	0.52863	2.0695	3.1412	1589.3	-0.50787	110.96	0.20724	liquid
150.00	71.620	432.10	0.0023143	70.165	235.91	0.52784	2.0698	3.1408	1590.3	-0.50806	111.06	0.20738	liquid
150.00	71.785	432.20	0.0023137	70.085	236.18	0.52705	2.0701	3.1404	1591.2	-0.50824	111.15	0.20751	liquid
150.00	71.950	432.30	0.0023132	70.004	236.44	0.52626	2.0704	3.1400	1592.1	-0.50843	111.24	0.20765	liquid
150.00	72.115	432.40	0.0023127	69.924	236.70	0.52547	2.0707	3.1396	1593.0	-0.50861	111.34	0.20779	liquid
150.00	72.280	432.50	0.0023121	69.844	236.97	0.52469	2.0709	3.1392	1594.0	-0.50880	111.43	0.20792	liquid
150.00	72.445	432.60	0.0023116	69.764	237.23	0.52390	2.0712	3.1388	1594.9	-0.50898	111.52	0.20806	liquid
150.00	72.610	432.70	0.0023111	69.685	237.49	0.52311	2.0715	3.1384	1595.8	-0.50916	111.62	0.20819	liquid
150.00	72.775	432.79	0.0023106	69.605	237.76	0.52233	2.0718	3.1381	1596.7	-0.50934	111.71	0.20833	liquid
150.00	72.940	432.89	0.0023100	69.526	238.02	0.52155	2.0721	3.1377	1597.6	-0.50952	111.80	0.20847	liquid
150.00	73.105	432.99	0.0023095	69.446	238.28	0.52077	2.0724	3.1373	1598.6	-0.50970	111.90	0.20860	liquid
150.00	73.270	433.09	0.0023090	69.367	238.55	0.51998	2.0727	3.1369	1599.5	-0.50988	111.99	0.20874	liquid
150.00	73.435	433.18	0.0023085	69.289	238.81	0.51920	2.0730	3.1365	1600.4	-0.51006	112.08	0.20887	liquid
150.00	73.600	433.28	0.0023080	69.210	239.08	0.51843	2.0733	3.1361	1601.3	-0.51024	112.17	0.20901	liquid
150.00	73.765	433.38	0.0023074	69.131	239.34	0.51765	2.0735	3.1357	1602.2	-0.51041	112.27	0.20914	liquid
150.00	73.930	433.48	0.0023069	69.053	239.60	0.51687	2.0738	3.1354	1603.1	-0.51059	112.36	0.20928	liquid
150.00	74.095	433.57	0.0023064	68.975	239.87	0.51609	2.0741	3.1350	1604.1	-0.51076	112.45	0.20941	liquid
150.00	74.260	433.67	0.0023059	68.897	240.13	0.51532	2.0744	3.1346	1605.0	-0.51094	112.54	0.20955	liquid
150.00	74.425	433.77	0.0023054	68.819	240.40	0.51454	2.0747	3.1342	1605.9	-0.51111	112.64	0.20968	liquid
150.00	74.590	433.86	0.0023049	68.741	240.66	0.51377	2.0750	3.1339	1606.8	-0.51128	112.73	0.20982	liquid
150.00	74.755	433.96	0.0023044	68.663	240.93	0.51300	2.0753	3.1335	1607.7	-0.51146	112.82	0.20995	liquid
150.00	74.920	434.06	0.0023038	68.586	241.19	0.51223	2.0756	3.1331	1608.6	-0.51163	112.91	0.21009	liquid
150.00	75.085	434.15	0.0023033	68.509	241.45	0.51146	2.0758	3.1328	1609.5	-0.51180	113.00	0.21022	liquid
150.00	75.250	434.25	0.0023028	68.432	241.72	0.51069	2.0761	3.1324	1610.4	-0.51197	113.10	0.21036	liquid
150.00	75.415	434.34	0.0023023	68.355	241.98	0.50992	2.0764	3.1320	1611.3	-0.51214	113.19	0.21049	liquid
150.00	75.580	434.44	0.0023018	68.278	242.25	0.50915	2.0767	3.1317	1612.2	-0.51230	113.28	0.21063	liquid
150.00	75.745	434.54	0.0023013	68.201	242.51	0.50838	2.0770	3.1313	1613.1	-0.51247	113.37	0.21076	liquid
150.00	75.910	434.63	0.0023008	68.125	242.78	0.50762	2.0773	3.1309	1614.0	-0.51264	113.46	0.21090	liquid
150.00	76.075	434.73	0.0023003	68.048	243.04	0.50685	2.0775	3.1306	1614.9	-0.51280	113.56	0.21103	liquid
150.00	76.240	434.82	0.0022998	67.972	243.31	0.50609	2.0778	3.1302	1615.8	-0.51297	113.65	0.21116	liquid
150.00	76.405	434.92	0.0022993	67.896	243.57	0.50533	2.0781	3.1299	1616.7	-0.51313	113.74	0.21130	liquid
150.00	76.570	435.01	0.0022988	67.820	243.84	0.50456	2.0784	3.1295	1617.6	-0.51330	113.83	0.21143	liquid
150.00	76.735	435.11	0.0022983	67.744	244.10	0.50380	2.0787	3.1291	1618.5	-0.51346	113.92	0.21157	liquid
150.00	76.900	435.20	0.0022978	67.669	244.37	0.50304	2.0790	3.1288	1619.4	-0.51362	114.01	0.21170	liquid
150.00	77.065	435.30	0.0022973	67.593	244.63	0.50228	2.0792	3.1284	1620.3	-0.51378	114.10	0.21183	liquid
150.00	77.230	435.39	0.0022968	67.518	244.90	0.50153	2.0795	3.1281	1621.2	-0.51395	114.20	0.21197	liquid
150.00	77.395	435.49	0.0022963	67.443	245.16	0.50077	2.0798	3.1277	1622.0	-0.51411	114.29	0.21210	liquid
150.00	77.560	435.58	0.0022958	67.368	245.43	0.50001	2.0801	3.1274	1622.9	-0.51427	114.38	0.21223	liquid
150.00	77.725	435.67	0.0022953	67.293	245.69	0.49926	2.0804	3.1270	1623.8	-0.51442	114.47	0.21237	liquid
150.00	77.890	435.77	0.0022948	67.218	245.96	0.49850	2.0807	3.1267	1624.7	-0.51458	114.56	0.21250	liquid
150.00	78.055	435.86	0.0022943	67.144	246.23	0.49775	2.0809	3.1264	1625.6	-0.51474	114.65	0.21263	liquid
150.00	78.220	435.96	0.0022938	67.069	246.49	0.49699	2.0812	3.1260	1626.5	-0.51490	114.74	0.21277	liquid
150.00	78.385	436.05	0.0022933	66.995	246.76	0.49624	2.0815	3.1257	1627.4	-0.51505	114.83	0.21290	liquid
150.00	78.550	436.14	0.0022928	66.921	247.02	0.49549	2.0818	3.1253	1628.2	-0.51521	114.92	0.21303	liquid
150.00	78.715	436.24	0.0022923	66.847	247.29	0.49474	2.0821	3.1250	1629.1	-0.51536	115.01	0.21317	liquid
150.00	78.880	436.33	0.0022918	66.773	247.55	0.49399	2.0823	3.1247	1630.0	-0.51552	115.10	0.21330	liquid
150.00	79.045	436.42	0.0022914	66.699	247.82	0.49324	2.0826	3.1243	1630.9	-0.51567	115.20	0.21343	liquid
150.00	79.210	436.52	0.0022909	66.626	248.09	0.49249	2.0829	3.1240	1631.8	-0.51582	115.29	0.21356	liquid
150.00	79.375	436.61	0.0022904	66.552	248.35	0.49175	2.0832	3.1236	1632.6	-0.51598	115.38	0.21370	liquid
150.00	79.540	436.70	0.0022899	66.479	248.62	0.49100	2.0834	3.1233	1633.5	-0.51613	115.47	0.21383	liquid
150.00	79.705	436.79	0.0022894	66.406	248.88	0.49025	2.0837	3.1230	1634.4	-0.51628	115.56	0.21396	liquid
150.00	79.870	436.89	0.0022889	66.333	249.15	0.48951	2.0840	3.1227	1635.3	-0.51643	115.65	0.21409	liquid
150.00	80.035	436.98	0.0022884	66.260	249.42	0.48877	2.0843	3.1223	1636.1	-0.51658	115.74	0.21423	liquid
150.00	80.200	437.07	0.0022880	66.187	249.68	0.48802	2.0846	3.1220	1637.0	-0.51673	115.83	0.21436	liquid
150.00	80.365	437.16	0.0022875	66.115	249.95	0.48728	2.0848	3.1217	1637.9	-0.51687	115.92	0.21449	liquid
150.00	80.530	437.26	0.0022870	66.043	250.21	0.48654	2.0851	3.1213	1638.7	-0.51702	116.01	0.21462	liquid
150.00	80.695	437.35	0.0022865	65.970	250.48	0.48580	2.0854	3.1210	1639.6	-0.51717	116.10	0.21475	liquid
150.00	80.860	437.44	0.0022860	65.898	250.75	0.48506	2.0857	3.1207	1640.5	-0.51731	116.19	0.21489	liquid
150.00	81.025	437.53	0.0022856	65.826	251.01	0.48432	2.0859	3.1204	1641.3	-0.51746	116.28	0.21502	liquid
150.00	81.190	437.62	0.0022851	65.754	251.28	0.48359	2.0862	3.1201	1642.2	-0.51761	116.37	0.21515	liquid
150.00	81.355	437.71	0.0022846	65.683	251.55	0.48285	2.0865	3.1197	1643.1	-0.51775	116.46	0.21528	liquid
150.00	81.520	437.81	0.0022841	65.611	251.81	0.48211	2.0868	3.1194	1643.9	-0.51789	116.55	0.21541	liquid
150.00	81.685	437.90	0.0022836	65.540	252.08	0.48138	2.0870	3.1191	1644.8	-0.51804	116.64	0.21554	liquid
150.00	81.850	437.99	0.0022832	65.468	252.35	0.48064	2.0873	3.1188	1645.6	-0.51818	116.73	0.21567	liquid
150.00	82.015	438.08	0.0022827	65.397	252.61	0.47991	2.0876	3.1185	1646.5	-0.51832	116.82	0.21581	liquid
150.00	82.180	438.17	0.0022822	65.326	252.88	0.47918	2.0879	3.1182	1647.4	-0.51846	116.91	0.21594	liquid
150.00	82.345	438.26	0.0022818	65.255	253.15	0.47845	2.0881	3.1179	1648.2	-0.51860	116.99	0.21607	liquid
150.00	82.510	438.35	0.0022813	65.184	253.41	0.47772	2.0884	3.1175	1649.1	-0.51874	117.08	0.21620	liquid
150.00	82.675	438.44	0.0022808	65.114	253.68	0.47699	2.0887	3.1172	1649.9	-0.51888	117.17	0.21633	liquid
150.00	82.840	438.53	0.0022803	65.043	253.95	0.47626	2.0890	3.1169	1650.8	-0.51902	117.26	0.21646	liquid
150.00	83.005	438.62	0.0022799	64.973	254.21	0.47553	2.0892	3.1166	1651.6	-0.51916	117.35	0.21659	liquid
150.00	83.170	438.71	0.0022794	64.903	254.48	0.47480	2.0895	3.1163	1652.5	-0.51930	117.44	0.21672	liquid
150.00	83.335	438.80	0.0022789	64.833	254.75	0.47407	2.0898	3.1160	1653.3	-0.51944	117.53	0.21685	liquid
150.00	83.500	438.89	0.0022785	64.763	255.01	0.47335	2.0901	3.1157	1654.2	-0.51957	117.62	0.21698	liquid
150.00	83.665	438.98	0.0022780	64.693	255.28	0.47262	2.0903	3.1154	1655.0	-0.51971	117.71	0.21711	liquid
150.00	83.830	439.07	0.0022775	64.623	255.55	0.47190	2.0906	3.1151	1655.9	-0.51984	117.80	0.21724	liquid
150.00	83.995	439.16	0.0022771	64.554	255.82	0.47117	2.0909	3.1148	1656.7	-0.51998	117.89	0.21738	liquid
150.00	84.160	439.25	0.0022766	64.484	256.08	0.47045	2.0912	3.1145	1657.6	-0.52011	117.97	0.21751	liquid
150.00	84.325	439.34	0.0022761	64.415	256.35	0.46973	2.0914	3.1142	1658.4	-0.52025	118.06	0.21764	liquid
150.00	84.490	439.43	0.0022757	64.346	256.62	0.46901	2.0917	3.1139	1659.3	-0.52038	118.15	0.21777	liquid
150.00	84.655	439.52	0.0022752	64.277	256.89	0.46829	2.0920	3.1136	1660.1	-0.52051	118.24	0.21790	liquid
150.00	84.820	439.61	0.0022748	64.208	257.15	0.46757	2.0922	3.1133	1661.0	-0.52064	118.33	0.21803	liquid
150.00	84.985	439.70	0.0022743	64.139	257.42	0.46685	2.0925	3.1130	1661.8	-0.52078	118.42	0.21816	liquid
150.00	85.150	439.79	0.0022738	64.071	257.69	0.46613	2.0928	3.1127	1662.6	-0.52091	118.51	0.21829	liquid
150.00	85.315	439.87	0.0022734	64.002	257.96	0.46541	2.0931	3.1125	1663.5	-0.52104	118.60	0.21842	liquid
150.00	85.480	439.96	0.0022729	63.934	258.22	0.46470	2.0933	3.1122	1664.3	-0.52117	118.68	0.21855	liquid
150.00	85.645	440.05	0.0022725	63.866	258.49	0.46398	2.0936	3.1119	1665.2	-0.52130	118.77	0.21867	liquid
150.00	85.810	440.14	0.0022720	63.797	258.76	0.46327	2.0939	3.1116	1666.0	-0.52142	118.86	0.21880	liquid
150.00	85.975	440.23	0.0022716	63.730	259.03	0.46255	2.0941	3.1113	1666.8	-0.52155	118.95	0.21893	liquid
150.00	86.140	440.32	0.0022711	63.662	259.29	0.46184	2.0944	3.1110	1667.7	-0.52168	119.04	0.21906	liquid
150.00	86.305	440.40	0.0022706	63.594	259.56	0.46113	2.0947	3.1107	1668.5	-0.52181	119.13	0.21919	liquid
150.00	86.470	440.49	0.0022702	63.526	259.83	0.46042	2.0949	3.1104	1669.3	-0.52193	119.21	0.21932	liquid
150.00	86.635	440.58	0.0022697	63.459	260.10	0.45970	2.0952	3.1102	1670.2	-0.52206	119.30	0.21945	liquid
150.00	86.800	440.67	0.0022693	63.392	260.37	0.45899	2.0955	3.1099	1671.0	-0.52219	119.39	0.21958	liquid
150.00	86.965	440.76	0.0022688	63.324	260.63	0.45828	2.0957	3.1096	1671.8	-0.52231	119.48	0.21971	liquid
150.00	87.130	440.84	0.0022684	63.257	260.90	0.45758	2.0960	3.1093	1672.7	-0.52244	119.57	0.21984	liquid
150.00	87.295	440.93	0.0022679	63.190	261.17	0.45687	2.0963	3.1090	1673.5	-0.52256	119.65	0.21997	liquid
150.00	87.460	441.02	0.0022675	63.123	261.44	0.45616	2.0965	3.1088	1674.3	-0.52268	119.74	0.22010	liquid
150.00	87.625	441.10	0.0022670	63.057	261.71	0.45545	2.0968	3.1085	1675.1	-0.52281	119.83	0.22022	liquid
150.00	87.790	441.19	0.0022666	62.990	261.97	0.45475	2.0971	3.1082	1676.0	-0.52293	119.92	0.22035	liquid
150.00	87.955	441.28	0.0022661	62.924	262.24	0.45404	2.0973	3.1079	1676.8	-0.52305	120.01	0.22048	liquid
150.00	88.120	441.37	0.0022657	62.857	262.51	0.45334	2.0976	3.1077	1677.6	-0.52317	120.09	0.22061	liquid
150.00	88.285	441.45	0.0022652	62.791	262.78	0.45264	2.0979	3.1074	1678.4	-0.52329	120.18	0.22074	liquid
150.00	88.450	441.54	0.0022648	62.725	263.05	0.45193	2.0981	3.1071	1679.3	-0.52341	120.27	0.22087	liquid
150.00	88.615	441.63	0.0022644	62.659	263.32	0.45123	2.0984	3.1069	1680.1	-0.52353	120.36	0.22100	liquid
150.00	88.780	441.71	0.0022639	62.593	263.58	0.45053	2.0987	3.1066	1680.9	-0.52365	120.44	0.22112	liquid
150.00	88.945	441.80	0.0022635	62.527	263.85	0.44983	2.0989	3.1063	1681.7	-0.52377	120.53	0.22125	liquid
150.00	89.110	441.89	0.0022630	62.462	264.12	0.44913	2.0992	3.1061	1682.5	-0.52389	120.62	0.22138	liquid
150.00	89.275	441.97	0.0022626	62.396	264.39	0.44843	2.0995	3.1058	1683.4	-0.52401	120.71	0.22151	liquid
150.00	89.440	442.06	0.0022622	62.331	264.66	0.44773	2.0997	3.1055	1684.2	-0.52412	120.79	0.22164	liquid
150.00	89.605	442.14	0.0022617	62.266	264.93	0.44704	2.1000	3.1053	1685.0	-0.52424	120.88	0.22176	liquid
150.00	89.770	442.23	0.0022613	62.200	265.19	0.44634	2.1003	3.1050	1685.8	-0.52436	120.97	0.22189	liquid
150.00	89.935	442.31	0.0022608	62.135	265.46	0.44564	2.1005	3.1047	1686.6	-0.52447	121.05	0.22202	liquid
150.00	90.100	442.40	0.0022604	62.071	265.73	0.44495	2.1008	3.1045	1687.4	-0.52459	121.14	0.22215	liquid
150.00	90.265	442.49	0.0022600	62.006	266.00	0.44425	2.1011	3.1042	1688.3	-0.52470	121.23	0.22228	liquid
150.00	90.430	442.57	0.0022595	61.941	266.27	0.44356	2.1013	3.1040	1689.1	-0.52482	121.32	0.22240	liquid
150.00	90.595	442.66	0.0022591	61.877	266.54	0.44287	2.1016	3.1037	1689.9	-0.52493	121.40	0.22253	liquid
150.00	90.760	442.74	0.0022586	61.812	266.81	0.44217	2.1019	3.1034	1690.7	-0.52504	121.49	0.22266	liquid
150.00	90.925	442.83	0.0022582	61.748	267.08	0.44148	2.1021	3.1032	1691.5	-0.52516	121.58	0.22279	liquid
150.00	91.090	442.91	0.0022578	61.684	267.35	0.44079	2.1024	3.1029	1692.3	-0.52527	121.66	0.22291	liquid
150.00	91.255	443.00	0.0022573	61.620	267.61	0.44010	2.1026	3.1027	1693.1	-0.52538	121.75	0.22304	liquid
150.00	91.420	443.08	0.0022569	61.556	267.88	0.43941	2.1029	3.1024	1693.9	-0.52549	121.84	0.22317	liquid
150.00	91.585	443.17	0.0022565	61.492	268.15	0.43872	2.1032	3.1022	1694.7	-0.52560	121.92	0.22330	liquid
150.00	91.750	443.25	0.0022561	61.428	268.42	0.43803	2.1034	3.1019	1695.5	-0.52571	122.01	0.22342	liquid
150.00	91.915	443.34	0.0022556	61.365	268.69	0.43735	2.1037	3.1017	1696.3	-0.52582	122.10	0.22355	liquid
150.00	92.080	443.42	0.0022552	61.301	268.96	0.43666	2.1040	3.1014	1697.1	-0.52593	122.18	0.22368	liquid
150.00	92.245	443.51	0.0022548	61.238	269.23	0.43597	2.1042	3.1012	1697.9	-0.52604	122.27	0.22380	liquid
150.00	92.410	443.59	0.0022543	61.175	269.50	0.43529	2.1045	3.1009	1698.7	-0.52615	122.36	0.22393	liquid
150.00	92.575	443.67	0.0022539	61.111	269.77	0.43460	2.1047	3.1007	1699.5	-0.52626	122.44	0.22406	liquid
150.00	92.740	443.76	0.0022535	61.048	270.04	0.43392	2.1050	3.1004	1700.3	-0.52637	122.53	0.22418	liquid
150.00	92.905	443.84	0.0022531	60.985	270.31	0.43323	2.1053	3.1002	1701.1	-0.52648	122.62	0.22431	liquid
150.00	93.070	443.93	0.0022526	60.923	270.57	0.43255	2.1055	3.0999	1701.9	-0.52658	122.70	0.22444	liquid
150.00	93.235	444.01	0.0022522	60.860	270.84	0.43187	2.1058	3.0997	1702.7	-0.52669	122.79	0.22456	liquid
150.00	93.400	444.09	0.0022518	60.797	271.11	0.43119	2.1060	3.0994	1703.5	-0.52680	122.88	0.22469	liquid
150.00	93.565	444.18	0.0022514	60.735	271.38	0.43051	2.1063	3.0992	1704.3	-0.52690	122.96	0.22482	liquid
150.00	93.730	444.26	0.0022509	60.673	271.65	0.42983	2.1066	3.0990	1705.1	-0.52701	123.05	0.22494	liquid
150.00	93.895	444.34	0.0022505	60.610	271.92	0.42915	2.1068	3.0987	1705.9	-0.52711	123.14	0.22507	liquid
150.00	94.060	444.43	0.0022501	60.548	272.19	0.42847	2.1071	3.0985	1706.7	-0.52721	123.22	0.22519	liquid
150.00	94.225	444.51	0.0022497	60.486	272.46	0.42779	2.1073	3.0982	1707.5	-0.52732	123.31	0.22532	liquid
150.00	94.390	444.59	0.0022492	60.424	272.73	0.42712	2.1076	3.0980	1708.3	-0.52742	123.39	0.22545	liquid
150.00	94.555	444.68	0.0022488	60.363	273.00	0.42644	2.1078	3.0978	1709.1	-0.52753	123.48	0.22557	liquid
150.00	94.720	444.76	0.0022484	60.301	273.27	0.42576	2.1081	3.0975	1709.9	-0.52763	123.57	0.22570	liquid
150.00	94.885	444.84	0.0022480	60.239	273.54	0.42509	2.1084	3.0973	1710.7	-0.52773	123.65	0.22582	liquid
150.00	95.050	444.93	0.0022476	60.178	273.81	0.42441	2.1086	3.0971	1711.4	-0.52783	123.74	0.22595	liquid
150.00	95.215	445.01	0.0022471	60.117	274.08	0.42374	2.1089	3.0968	1712.2	-0.52793	123.82	0.22608	liquid
150.00	95.380	445.09	0.0022467	60.055	274.35	0.42307	2.1091	3.0966	1713.0	-0.52803	123.91	0.22620	liquid
150.00	95.545	445.17	0.0022463	59.994	274.62	0.42239	2.1094	3.0964	1713.8	-0.52813	124.00	0.22633	liquid
150.00	95.710	445.26	0.0022459	59.933	274.89	0.42172	2.1097	3.0961	1714.6	-0.52823	124.08	0.22645	liquid
150.00	95.875	445.34	0.0022455	59.872	275.16	0.42105	2.1099	3.0959	1715.4	-0.52833	124.17	0.22658	liquid
150.00	96.040	445.42	0.0022451	59.812	275.43	0.42038	2.1102	3.0957	1716.1	-0.52843	124.25	0.22670	liquid
150.00	96.205	445.50	0.0022447	59.751	275.70	0.41971	2.1104	3.0954	1716.9	-0.52853	124.34	0.22683	liquid
150.00	96.370	445.58	0.0022442	59.690	275.97	0.41904	2.1107	3.0952	1717.7	-0.52863	124.42	0.22696	liquid
150.00	96.535	445.67	0.0022438	59.630	276.24	0.41837	2.1109	3.0950	1718.5	-0.52873	124.51	0.22708	liquid
150.00	96.700	445.75	0.0022434	59.569	276.51	0.41771	2.1112	3.0948	1719.3	-0.52883	124.60	0.22721	liquid
150.00	96.865	445.83	0.0022430	59.509	276.78	0.41704	2.1114	3.0945	1720.1	-0.52892	124.68	0.22733	liquid
150.00	97.030	445.91	0.0022426	59.449	277.05	0.41637	2.1117	3.0943	1720.8	-0.52902	124.77	0.22746	liquid
150.00	97.195	445.99	0.0022422	59.389	277.32	0.41571	2.1120	3.0941	1721.6	-0.52912	124.85	0.22758	liquid
150.00	97.360	446.07	0.0022418	59.329	277.59	0.41504	2.1122	3.0939	1722.4	-0.52921	124.94	0.22771	liquid
150.00	97.525	446.16	0.0022414	59.269	277.86	0.41438	2.1125	3.0936	1723.2	-0.52931	125.02	0.22783	liquid
150.00	97.690	446.24	0.0022410	59.210	278.13	0.41371	2.1127	3.0934	1723.9	-0.52940	125.11	0.22796	liquid
150.00	97.855	446.32	0.0022405	59.150	278.40	0.41305	2.1130	3.0932	1724.7	-0.52950	125.19	0.22808	liquid
150.00	98.020	446.40	0.0022401	59.090	278.67	0.41239	2.1132	3.0930	1725.5	-0.52959	125.28	0.22821	liquid
150.00	98.185	446.48	0.0022397	59.031	278.94	0.41172	2.1135	3.0928	1726.3	-0.52969	125.36	0.22833	liquid
150.00	98.350	446.56	0.0022393	58.972	279.21	0.41106	2.1137	3.0925	1727.0	-0.52978	125.45	0.22845	liquid
150.00	98.515	446.64	0.0022389	58.913	279.48	0.41040	2.1140	3.0923	1727.8	-0.52987	125.54	0.22858	liquid
150.00	98.680	446.72	0.0022385	58.854	279.75	0.40974	2.1142	3.0921	1728.6	-0.52997	125.62	0.22870	liquid
150.00	98.845	446.80	0.0022381	58.795	280.02	0.40908	2.1145	3.0919	1729.3	-0.53006	125.71	0.22883	liquid
150.00	99.010	446.89	0.0022377	58.736	280.29	0.40842	2.1148	3.0917	1730.1	-0.53015	125.79	0.22895	liquid
150.00	99.175	446.97	0.0022373	58.677	280.56	0.40777	2.1150	3.0915	1730.9	-0.53024	125.88	0.22908	liquid
150.00	99.340	447.05	0.0022369	58.618	280.83	0.40711	2.1153	3.0913	1731.6	-0.53033	125.96	0.22920	liquid
150.00	99.505	447.13	0.0022365	58.560	281.10	0.40645	2.1155	3.0910	1732.4	-0.53042	126.05	0.22933	liquid
150.00	99.670	447.21	0.0022361	58.501	281.37	0.40579	2.1158	3.0908	1733.2	-0.53051	126.13	0.22945	liquid
150.00	99.835	447.29	0.0022357	58.443	281.64	0.40514	2.1160	3.0906	1733.9	-0.53060	126.22	0.22957	liquid
150.00	100.00	447.37	0.0022353	58.385	281.91	0.40448	2.1163	3.0904	1734.7	-0.53069	126.30	0.22970	liquid
