Temperature (K)	Pressure (MPa)	Density (kg/m3)	Volume (m3/kg)	Internal Energy (kJ/mol)	Enthalpy (kJ/mol)	Entropy (J/mol*K)	Cv (J/mol*K)	Cp (J/mol*K)	Sound Spd. (m/s)	Joule-Thomson (K/MPa)	Viscosity (uPa*s)	Therm. Cond. (W/m*K)	Phase
150.00	3.6794	363.96	0.0027476	2.1452	2.3074	16.609	30.842	62.321	974.64	-0.14764	59.352	0.13405	liquid
160.00	3.6794	343.25	0.0029133	2.7800	2.9520	20.767	30.500	67.028	853.00	0.034160	49.401	0.11973	liquid
170.00	3.6794	317.98	0.0031449	3.4764	3.6620	25.069	30.419	76.172	713.54	0.36043	40.621	0.10473	liquid
180.00	3.6794	281.50	0.0035524	4.3221	4.5318	30.033	31.172	105.18	530.09	1.1692	31.897	0.087643	liquid
183.49	3.6794	259.91	0.0038474	4.7318	4.9589	32.382	32.449	150.56	430.60	1.9736	28.102	0.080316	liquid
183.49	3.6794	73.631	0.013581	7.5413	8.3430	50.825	36.077	173.50	260.78	11.983	8.7921	0.039768	vapor
190.00	3.6794	59.190	0.016895	8.0587	9.0560	54.652	30.809	81.357	289.92	11.116	8.6916	0.033015	vapor
200.00	3.6794	49.690	0.020125	8.5474	9.7353	58.141	28.819	59.281	315.93	9.7897	8.8484	0.029219	vapor
210.00	3.6794	44.024	0.022715	8.9425	10.283	60.816	27.971	51.290	335.62	8.7326	9.0907	0.028786	vapor
220.00	3.6794	39.994	0.025004	9.2972	10.773	63.095	27.502	47.055	352.18	7.8705	9.3640	0.029072	vapor
230.00	3.6794	36.884	0.027112	9.6293	11.230	65.125	27.243	44.459	366.72	7.1478	9.6518	0.029671	vapor
240.00	3.6794	34.366	0.029098	9.9476	11.665	66.979	27.126	42.751	379.82	6.5294	9.9473	0.030448	vapor
250.00	3.6794	32.262	0.030996	10.257	12.087	68.699	27.114	41.587	391.80	5.9919	10.247	0.031344	vapor
260.00	3.6794	30.463	0.032826	10.560	12.498	70.314	27.184	40.786	402.90	5.5187	10.548	0.032328	vapor
270.00	3.6794	28.898	0.034604	10.861	12.903	71.842	27.322	40.244	413.25	5.0979	10.850	0.033383	vapor
280.00	3.6794	27.518	0.036340	11.159	13.304	73.299	27.517	39.894	422.99	4.7205	11.152	0.034501	vapor
290.00	3.6794	26.288	0.038041	11.456	13.701	74.695	27.762	39.693	432.19	4.3799	11.453	0.035676	vapor
300.00	3.6794	25.181	0.039712	11.754	14.098	76.039	28.051	39.611	440.93	4.0708	11.753	0.036903	vapor
310.00	3.6794	24.178	0.041359	12.053	14.494	77.338	28.379	39.627	449.25	3.7889	12.050	0.038179	vapor
320.00	3.6794	23.264	0.042985	12.353	14.891	78.597	28.742	39.723	457.22	3.5310	12.346	0.039503	vapor
330.00	3.6794	22.425	0.044593	12.657	15.289	79.822	29.136	39.888	464.87	3.2943	12.640	0.040872	vapor
340.00	3.6794	21.652	0.046185	12.962	15.689	81.016	29.558	40.110	472.23	3.0765	12.931	0.042284	vapor
350.00	3.6794	20.937	0.047763	13.272	16.091	82.182	30.006	40.383	479.33	2.8756	13.220	0.043739	vapor
360.00	3.6794	20.272	0.049329	13.585	16.496	83.324	30.476	40.698	486.21	2.6901	13.506	0.045235	vapor
370.00	3.6794	19.653	0.050883	13.902	16.905	84.444	30.966	41.051	492.87	2.5185	13.790	0.046770	vapor
380.00	3.6794	19.074	0.052428	14.223	17.318	85.544	31.473	41.436	499.35	2.3595	14.072	0.048343	vapor
390.00	3.6794	18.531	0.053964	14.549	17.734	86.625	31.996	41.849	505.65	2.2120	14.351	0.049952	vapor
400.00	3.6794	18.021	0.055491	14.879	18.155	87.690	32.533	42.287	511.81	2.0750	14.628	0.051597	vapor
410.00	3.6794	17.540	0.057012	15.215	18.580	88.740	33.081	42.746	517.81	1.9477	14.902	0.053274	vapor
420.00	3.6794	17.086	0.058526	15.555	19.010	89.776	33.639	43.223	523.69	1.8292	15.174	0.054984	vapor
430.00	3.6794	16.657	0.060034	15.901	19.444	90.799	34.206	43.716	529.45	1.7188	15.443	0.056724	vapor
440.00	3.6794	16.251	0.061536	16.252	19.884	91.810	34.780	44.223	535.10	1.6158	15.711	0.058494	vapor
450.00	3.6794	15.865	0.063033	16.608	20.329	92.809	35.361	44.741	540.64	1.5197	15.975	0.060292	vapor
460.00	3.6794	15.498	0.064526	16.970	20.779	93.798	35.946	45.270	546.10	1.4299	16.238	0.062116	vapor
470.00	3.6794	15.148	0.066014	17.338	21.234	94.778	36.535	45.806	551.46	1.3460	16.498	0.063966	vapor
480.00	3.6794	14.815	0.067499	17.711	21.695	95.748	37.127	46.350	556.74	1.2674	16.756	0.065841	vapor
490.00	3.6794	14.497	0.068979	18.090	22.161	96.709	37.722	46.900	561.95	1.1938	17.012	0.067738	vapor
500.00	3.6794	14.193	0.070457	18.474	22.633	97.662	38.318	47.455	567.08	1.1247	17.266	0.069658	vapor
510.00	3.6794	13.902	0.071931	18.864	23.110	98.607	38.915	48.013	572.14	1.0599	17.518	0.071599	vapor
520.00	3.6794	13.624	0.073402	19.261	23.593	99.545	39.512	48.574	577.14	0.99905	17.768	0.073561	vapor
530.00	3.6794	13.356	0.074870	19.662	24.082	100.48	40.109	49.138	582.08	0.94183	18.016	0.075541	vapor
540.00	3.6794	13.100	0.076336	20.070	24.576	101.40	40.706	49.703	586.97	0.88798	18.262	0.077541	vapor
550.00	3.6794	12.854	0.077800	20.484	25.076	102.32	41.301	50.269	591.79	0.83727	18.506	0.079557	vapor
560.00	3.6794	12.617	0.079261	20.903	25.581	103.23	41.895	50.836	596.57	0.78948	18.748	0.081591	vapor
570.00	3.6794	12.389	0.080720	21.328	26.093	104.13	42.487	51.403	601.29	0.74439	18.988	0.083641	vapor
580.00	3.6794	12.169	0.082177	21.759	26.609	105.03	43.077	51.969	605.97	0.70183	19.227	0.085706	vapor
590.00	3.6794	11.957	0.083632	22.195	27.132	105.92	43.665	52.534	610.60	0.66162	19.464	0.087786	vapor
600.00	3.6794	11.753	0.085085	22.638	27.660	106.81	44.251	53.098	615.19	0.62360	19.699	0.089879	vapor
