Temperature (K)	Pressure (MPa)	Density (kg/m3)	Volume (m3/kg)	Internal Energy (kJ/kg)	Enthalpy (kJ/kg)	Entropy (J/g*K)	Cv (J/g*K)	Cp (J/g*K)	Sound Spd. (m/s)	Joule-Thomson (K/MPa)	Viscosity (uPa*s)	Therm. Cond. (W/m*K)	Phase
150.00	3.6794	363.96	0.0027476	133.72	143.83	1.0353	1.9225	3.8847	974.64	-0.14764	59.352	0.13405	liquid
150.75	3.6794	362.51	0.0027585	136.60	146.75	1.0547	1.9205	3.9017	965.93	-0.13686	58.549	0.13299	liquid
151.50	3.6794	361.05	0.0027697	139.49	149.68	1.0741	1.9186	3.9194	957.16	-0.12570	57.757	0.13192	liquid
152.25	3.6794	359.57	0.0027811	142.39	152.63	1.0935	1.9168	3.9377	948.33	-0.11415	56.974	0.13086	liquid
153.00	3.6794	358.08	0.0027927	145.31	155.59	1.1129	1.9150	3.9568	939.44	-0.10218	56.202	0.12979	liquid
153.75	3.6794	356.57	0.0028045	148.24	158.56	1.1323	1.9132	3.9766	930.49	-0.089780	55.438	0.12872	liquid
154.50	3.6794	355.04	0.0028166	151.19	161.55	1.1517	1.9115	3.9972	921.47	-0.076918	54.683	0.12765	liquid
155.25	3.6794	353.50	0.0028289	154.15	164.56	1.1711	1.9099	4.0187	912.38	-0.063571	53.938	0.12658	liquid
156.00	3.6794	351.94	0.0028414	157.12	167.58	1.1905	1.9083	4.0410	903.22	-0.049712	53.200	0.12550	liquid
156.75	3.6794	350.35	0.0028543	160.12	170.62	1.2099	1.9068	4.0643	893.98	-0.035313	52.471	0.12443	liquid
157.50	3.6794	348.75	0.0028674	163.13	173.68	1.2294	1.9054	4.0887	884.66	-0.020341	51.750	0.12335	liquid
158.25	3.6794	347.13	0.0028808	166.15	176.75	1.2489	1.9040	4.1141	875.26	-0.0047624	51.037	0.12227	liquid
159.00	3.6794	345.48	0.0028945	169.20	179.85	1.2684	1.9027	4.1407	865.78	0.011459	50.331	0.12118	liquid
159.75	3.6794	343.81	0.0029085	172.26	182.96	1.2880	1.9015	4.1685	856.21	0.028365	49.632	0.12009	liquid
160.50	3.6794	342.12	0.0029229	175.35	186.10	1.3075	1.9004	4.1977	846.54	0.045998	48.940	0.11900	liquid
161.25	3.6794	340.41	0.0029377	178.45	189.26	1.3272	1.8994	4.2284	836.78	0.064408	48.254	0.11791	liquid
162.00	3.6794	338.66	0.0029528	181.58	192.44	1.3469	1.8984	4.2606	826.91	0.083645	47.575	0.11681	liquid
162.75	3.6794	336.89	0.0029683	184.73	195.65	1.3666	1.8976	4.2945	816.94	0.10377	46.901	0.11570	liquid
163.50	3.6794	335.09	0.0029843	187.91	198.89	1.3865	1.8968	4.3302	806.85	0.12484	46.233	0.11460	liquid
164.25	3.6794	333.26	0.0030007	191.11	202.15	1.4064	1.8962	4.3679	796.64	0.14694	45.570	0.11348	liquid
165.00	3.6794	331.40	0.0030175	194.34	205.44	1.4264	1.8957	4.4078	786.31	0.17013	44.912	0.11236	liquid
165.75	3.6794	329.50	0.0030349	197.59	208.76	1.4464	1.8953	4.4501	775.84	0.19450	44.259	0.11124	liquid
166.50	3.6794	327.56	0.0030529	200.88	212.11	1.4666	1.8951	4.4950	765.23	0.22016	43.610	0.11011	liquid
167.25	3.6794	325.59	0.0030714	204.20	215.50	1.4869	1.8950	4.5428	754.47	0.24721	42.964	0.10897	liquid
168.00	3.6794	323.57	0.0030905	207.56	218.93	1.5074	1.8951	4.5937	743.55	0.27577	42.322	0.10782	liquid
168.75	3.6794	321.51	0.0031103	210.95	222.39	1.5280	1.8953	4.6482	732.45	0.30598	41.682	0.10667	liquid
169.50	3.6794	319.41	0.0031308	214.38	225.90	1.5487	1.8957	4.7066	721.17	0.33799	41.045	0.10551	liquid
170.25	3.6794	317.25	0.0031521	217.86	229.45	1.5696	1.8964	4.7695	709.69	0.37199	40.409	0.10434	liquid
171.00	3.6794	315.04	0.0031742	221.38	233.06	1.5907	1.8973	4.8373	698.00	0.40819	39.775	0.10315	liquid
171.75	3.6794	312.77	0.0031973	224.95	236.71	1.6121	1.8984	4.9108	686.07	0.44680	39.141	0.10196	liquid
172.50	3.6794	310.43	0.0032213	228.57	240.43	1.6336	1.8998	4.9908	673.89	0.48812	38.507	0.10075	liquid
173.25	3.6794	308.02	0.0032465	232.26	244.20	1.6555	1.9015	5.0781	661.44	0.53247	37.872	0.099533	liquid
174.00	3.6794	305.54	0.0032729	236.00	248.04	1.6776	1.9036	5.1741	648.67	0.58023	37.235	0.098298	liquid
174.75	3.6794	302.97	0.0033007	239.82	251.96	1.7001	1.9061	5.2801	635.58	0.63184	36.595	0.097046	liquid
175.50	3.6794	300.31	0.0033299	243.72	255.97	1.7229	1.9091	5.3981	622.11	0.68787	35.951	0.095777	liquid
176.25	3.6794	297.54	0.0033609	247.70	260.06	1.7462	1.9126	5.5302	608.22	0.74898	35.301	0.094487	liquid
177.00	3.6794	294.65	0.0033939	251.78	264.27	1.7700	1.9168	5.6796	593.86	0.81600	34.644	0.093175	liquid
177.75	3.6794	291.62	0.0034291	255.97	268.59	1.7944	1.9217	5.8503	578.97	0.88997	33.978	0.091838	liquid
178.50	3.6794	288.44	0.0034669	260.29	273.05	1.8194	1.9276	6.0477	563.45	0.97222	33.301	0.090473	liquid
179.25	3.6794	285.08	0.0035078	264.76	277.67	1.8453	1.9346	6.2794	547.20	1.0645	32.608	0.089076	liquid
180.00	3.6794	281.50	0.0035524	269.41	282.48	1.8720	1.9430	6.5564	530.09	1.1692	31.897	0.087643	liquid
180.75	3.6794	277.65	0.0036016	274.27	287.52	1.9000	1.9534	6.8953	511.92	1.2895	31.161	0.086168	liquid
181.50	3.6794	273.48	0.0036566	279.39	292.84	1.9294	1.9662	7.3230	492.43	1.4302	30.394	0.084645	liquid
182.25	3.6794	268.88	0.0037191	284.85	298.54	1.9607	1.9826	7.8854	471.22	1.5987	29.583	0.083066	liquid
183.00	3.6794	263.70	0.0037922	290.78	304.73	1.9946	2.0043	8.6716	447.64	1.8072	28.712	0.081421	liquid
183.49	3.6794	259.91	0.0038474	294.95	309.10	2.0185	2.0227	9.3848	430.60	1.9736	28.102	0.080316	liquid
183.49	3.6794	73.631	0.013581	470.07	520.04	3.1681	2.2488	10.815	260.78	11.983	8.7921	0.039768	vapor
183.75	3.6794	72.565	0.013781	472.10	522.80	3.1831	2.2183	10.062	262.63	11.964	8.7754	0.039008	vapor
184.50	3.6794	69.991	0.014288	477.17	529.74	3.2208	2.1484	8.5634	267.28	11.890	8.7404	0.037364	vapor
185.25	3.6794	67.874	0.014733	481.56	535.77	3.2534	2.0952	7.5910	271.29	11.799	8.7176	0.036190	vapor
186.00	3.6794	66.065	0.015137	485.50	541.19	3.2826	2.0531	6.9005	274.87	11.699	8.7027	0.035302	vapor
186.75	3.6794	64.479	0.015509	489.10	546.17	3.3093	2.0186	6.3808	278.13	11.593	8.6933	0.034608	vapor
187.50	3.6794	63.063	0.015857	492.45	550.79	3.3340	1.9899	5.9731	281.14	11.484	8.6882	0.034057	vapor
188.25	3.6794	61.782	0.016186	495.59	555.15	3.3572	1.9654	5.6435	283.95	11.374	8.6863	0.033620	vapor
189.00	3.6794	60.611	0.016499	498.57	559.27	3.3791	1.9444	5.3706	286.60	11.263	8.6871	0.033284	vapor
189.75	3.6794	59.532	0.016798	501.41	563.21	3.3999	1.9260	5.1403	289.11	11.153	8.6902	0.033057	vapor
190.50	3.6794	58.530	0.017085	504.13	566.99	3.4198	1.9099	4.9430	291.51	11.044	8.6951	0.033064	vapor
191.25	3.6794	57.595	0.017363	506.75	570.63	3.4388	1.8955	4.7717	293.80	10.935	8.7016	0.032036	vapor
192.00	3.6794	56.718	0.017631	509.28	574.15	3.4572	1.8826	4.6214	296.01	10.828	8.7095	0.031462	vapor
192.75	3.6794	55.892	0.017892	511.74	577.57	3.4750	1.8709	4.4882	298.14	10.723	8.7186	0.031035	vapor
193.50	3.6794	55.112	0.018145	514.13	580.89	3.4922	1.8603	4.3693	300.20	10.619	8.7288	0.030691	vapor
194.25	3.6794	54.371	0.018392	516.46	584.13	3.5089	1.8507	4.2623	302.20	10.517	8.7400	0.030407	vapor
195.00	3.6794	53.667	0.018633	518.73	587.29	3.5251	1.8418	4.1655	304.14	10.416	8.7519	0.030166	vapor
195.75	3.6794	52.996	0.018869	520.95	590.38	3.5409	1.8335	4.0773	306.03	10.317	8.7647	0.029960	vapor
196.50	3.6794	52.355	0.019100	523.13	593.40	3.5564	1.8259	3.9967	307.87	10.220	8.7782	0.029783	vapor
197.25	3.6794	51.741	0.019327	525.26	596.37	3.5714	1.8188	3.9226	309.67	10.125	8.7923	0.029630	vapor
198.00	3.6794	51.152	0.019550	527.36	599.29	3.5862	1.8122	3.8542	311.43	10.031	8.8069	0.029496	vapor
198.75	3.6794	50.586	0.019768	529.42	602.16	3.6006	1.8059	3.7909	313.15	9.9394	8.8221	0.029380	vapor
199.50	3.6794	50.042	0.019983	531.45	604.98	3.6148	1.8001	3.7321	314.83	9.8491	8.8377	0.029279	vapor
200.25	3.6794	49.518	0.020195	533.45	607.76	3.6287	1.7946	3.6773	316.48	9.7603	8.8538	0.029191	vapor
201.00	3.6794	49.012	0.020403	535.42	610.49	3.6424	1.7894	3.6261	318.10	9.6730	8.8703	0.029115	vapor
201.75	3.6794	48.523	0.020609	537.37	613.20	3.6558	1.7844	3.5781	319.69	9.5873	8.8872	0.029049	vapor
202.50	3.6794	48.050	0.020812	539.29	615.86	3.6690	1.7798	3.5330	321.25	9.5030	8.9044	0.028993	vapor
203.25	3.6794	47.592	0.021012	541.19	618.50	3.6819	1.7753	3.4906	322.79	9.4202	8.9219	0.028945	vapor
204.00	3.6794	47.149	0.021209	543.06	621.10	3.6947	1.7711	3.4506	324.30	9.3387	8.9397	0.028904	vapor
204.75	3.6794	46.719	0.021405	544.92	623.67	3.7073	1.7671	3.4128	325.79	9.2586	8.9578	0.028871	vapor
205.50	3.6794	46.301	0.021598	546.75	626.22	3.7197	1.7632	3.3771	327.25	9.1798	8.9761	0.028843	vapor
206.25	3.6794	45.895	0.021789	548.57	628.74	3.7320	1.7596	3.3432	328.70	9.1023	8.9947	0.028822	vapor
207.00	3.6794	45.501	0.021978	550.37	631.23	3.7441	1.7561	3.3110	330.12	9.0260	9.0135	0.028805	vapor
207.75	3.6794	45.117	0.022165	552.15	633.70	3.7560	1.7527	3.2804	331.52	8.9509	9.0325	0.028794	vapor
208.50	3.6794	44.743	0.022350	553.92	636.15	3.7677	1.7495	3.2513	332.91	8.8770	9.0518	0.028787	vapor
209.25	3.6794	44.379	0.022533	555.67	638.58	3.7794	1.7465	3.2235	334.27	8.8043	9.0711	0.028784	vapor
210.00	3.6794	44.024	0.022715	557.41	640.99	3.7908	1.7435	3.1971	335.62	8.7326	9.0907	0.028786	vapor
210.75	3.6794	43.678	0.022895	559.14	643.38	3.8022	1.7407	3.1718	336.95	8.6620	9.1104	0.028790	vapor
211.50	3.6794	43.340	0.023073	560.85	645.75	3.8134	1.7380	3.1476	338.26	8.5925	9.1303	0.028798	vapor
212.25	3.6794	43.010	0.023250	562.55	648.10	3.8245	1.7355	3.1244	339.56	8.5240	9.1503	0.028810	vapor
213.00	3.6794	42.688	0.023426	564.24	650.43	3.8355	1.7330	3.1022	340.85	8.4565	9.1705	0.028824	vapor
213.75	3.6794	42.373	0.023600	565.92	652.75	3.8464	1.7306	3.0810	342.12	8.3900	9.1908	0.028841	vapor
214.50	3.6794	42.065	0.023773	567.59	655.06	3.8571	1.7283	3.0606	343.37	8.3244	9.2112	0.028861	vapor
215.25	3.6794	41.764	0.023944	569.24	657.34	3.8678	1.7262	3.0410	344.61	8.2598	9.2317	0.028883	vapor
216.00	3.6794	41.468	0.024115	570.89	659.62	3.8783	1.7241	3.0222	345.84	8.1961	9.2523	0.028907	vapor
216.75	3.6794	41.180	0.024284	572.53	661.88	3.8888	1.7221	3.0041	347.05	8.1332	9.2730	0.028934	vapor
217.50	3.6794	40.897	0.024452	574.16	664.12	3.8991	1.7201	2.9867	348.26	8.0712	9.2939	0.028962	vapor
218.25	3.6794	40.619	0.024619	575.78	666.36	3.9094	1.7183	2.9699	349.45	8.0100	9.3148	0.028993	vapor
219.00	3.6794	40.348	0.024785	577.39	668.58	3.9195	1.7165	2.9537	350.62	7.9497	9.3358	0.029026	vapor
219.75	3.6794	40.081	0.024949	578.99	670.79	3.9296	1.7149	2.9382	351.79	7.8901	9.3569	0.029060	vapor
220.50	3.6794	39.820	0.025113	580.59	672.99	3.9396	1.7132	2.9231	352.94	7.8314	9.3781	0.029096	vapor
221.25	3.6794	39.563	0.025276	582.17	675.17	3.9495	1.7117	2.9086	354.09	7.7734	9.3993	0.029134	vapor
222.00	3.6794	39.312	0.025438	583.75	677.35	3.9593	1.7102	2.8947	355.22	7.7161	9.4206	0.029173	vapor
222.75	3.6794	39.064	0.025599	585.33	679.52	3.9690	1.7088	2.8811	356.35	7.6596	9.4420	0.029213	vapor
223.50	3.6794	38.822	0.025759	586.90	681.67	3.9787	1.7074	2.8681	357.46	7.6038	9.4635	0.029255	vapor
224.25	3.6794	38.583	0.025918	588.46	683.82	3.9883	1.7062	2.8555	358.56	7.5487	9.4850	0.029299	vapor
225.00	3.6794	38.349	0.026076	590.01	685.95	3.9978	1.7049	2.8433	359.66	7.4942	9.5066	0.029344	vapor
225.75	3.6794	38.119	0.026234	591.56	688.08	4.0072	1.7038	2.8314	360.74	7.4405	9.5282	0.029390	vapor
226.50	3.6794	37.892	0.026391	593.10	690.20	4.0166	1.7027	2.8200	361.82	7.3874	9.5499	0.029437	vapor
227.25	3.6794	37.670	0.026547	594.64	692.31	4.0259	1.7016	2.8090	362.88	7.3349	9.5717	0.029485	vapor
228.00	3.6794	37.451	0.026702	596.17	694.42	4.0352	1.7006	2.7982	363.94	7.2831	9.5934	0.029534	vapor
228.75	3.6794	37.235	0.026856	597.70	696.51	4.0443	1.6996	2.7879	364.99	7.2318	9.6153	0.029585	vapor
229.50	3.6794	37.023	0.027010	599.22	698.60	4.0534	1.6987	2.7778	366.03	7.1812	9.6372	0.029636	vapor
230.25	3.6794	36.814	0.027163	600.73	700.68	4.0625	1.6979	2.7681	367.06	7.1312	9.6591	0.029689	vapor
231.00	3.6794	36.609	0.027316	602.25	702.75	4.0715	1.6971	2.7586	368.09	7.0817	9.6811	0.029742	vapor
231.75	3.6794	36.407	0.027468	603.75	704.82	4.0804	1.6963	2.7495	369.11	7.0328	9.7031	0.029797	vapor
232.50	3.6794	36.207	0.027619	605.25	706.87	4.0893	1.6956	2.7406	370.11	6.9845	9.7251	0.029852	vapor
233.25	3.6794	36.011	0.027769	606.75	708.93	4.0981	1.6950	2.7319	371.12	6.9367	9.7472	0.029908	vapor
234.00	3.6794	35.818	0.027919	608.25	710.97	4.1068	1.6944	2.7236	372.11	6.8894	9.7693	0.029965	vapor
234.75	3.6794	35.627	0.028068	609.74	713.01	4.1155	1.6938	2.7154	373.10	6.8427	9.7914	0.030023	vapor
235.50	3.6794	35.439	0.028217	611.22	715.04	4.1242	1.6932	2.7076	374.08	6.7965	9.8136	0.030082	vapor
236.25	3.6794	35.254	0.028365	612.71	717.07	4.1328	1.6928	2.6999	375.05	6.7508	9.8358	0.030141	vapor
237.00	3.6794	35.072	0.028513	614.19	719.09	4.1413	1.6923	2.6925	376.02	6.7055	9.8581	0.030201	vapor
237.75	3.6794	34.892	0.028660	615.66	721.11	4.1498	1.6919	2.6852	376.98	6.6608	9.8803	0.030262	vapor
238.50	3.6794	34.714	0.028807	617.13	723.12	4.1583	1.6915	2.6782	377.93	6.6165	9.9026	0.030323	vapor
239.25	3.6794	34.539	0.028953	618.60	725.13	4.1667	1.6912	2.6714	378.88	6.5728	9.9249	0.030386	vapor
240.00	3.6794	34.366	0.029098	620.07	727.13	4.1750	1.6909	2.6648	379.82	6.5294	9.9473	0.030448	vapor
240.75	3.6794	34.196	0.029243	621.53	729.13	4.1833	1.6906	2.6583	380.75	6.4865	9.9696	0.030512	vapor
241.50	3.6794	34.028	0.029388	622.99	731.12	4.1916	1.6904	2.6521	381.68	6.4441	9.9920	0.030576	vapor
242.25	3.6794	33.861	0.029532	624.45	733.10	4.1998	1.6902	2.6460	382.60	6.4021	10.014	0.030641	vapor
243.00	3.6794	33.698	0.029676	625.90	735.09	4.2080	1.6900	2.6401	383.52	6.3605	10.037	0.030706	vapor
243.75	3.6794	33.536	0.029819	627.35	737.06	4.2161	1.6899	2.6344	384.43	6.3194	10.059	0.030772	vapor
244.50	3.6794	33.376	0.029962	628.80	739.04	4.2242	1.6898	2.6288	385.33	6.2786	10.082	0.030839	vapor
245.25	3.6794	33.218	0.030104	630.24	741.01	4.2322	1.6898	2.6233	386.23	6.2383	10.104	0.030906	vapor
246.00	3.6794	33.062	0.030246	631.69	742.97	4.2402	1.6897	2.6180	387.13	6.1984	10.127	0.030974	vapor
246.75	3.6794	32.908	0.030387	633.13	744.93	4.2482	1.6897	2.6129	388.01	6.1588	10.149	0.031042	vapor
247.50	3.6794	32.756	0.030528	634.57	746.89	4.2561	1.6898	2.6079	388.90	6.1197	10.172	0.031111	vapor
248.25	3.6794	32.606	0.030669	636.00	748.85	4.2640	1.6899	2.6031	389.77	6.0809	10.194	0.031180	vapor
249.00	3.6794	32.458	0.030809	637.44	750.80	4.2718	1.6899	2.5983	390.65	6.0425	10.217	0.031250	vapor
249.75	3.6794	32.311	0.030949	638.87	752.74	4.2797	1.6901	2.5937	391.51	6.0045	10.239	0.031320	vapor
250.50	3.6794	32.166	0.031089	640.30	754.69	4.2874	1.6902	2.5893	392.38	5.9668	10.262	0.031391	vapor
251.25	3.6794	32.023	0.031228	641.73	756.63	4.2952	1.6904	2.5849	393.23	5.9295	10.284	0.031462	vapor
252.00	3.6794	31.881	0.031367	643.16	758.57	4.3029	1.6906	2.5807	394.09	5.8925	10.307	0.031534	vapor
252.75	3.6794	31.741	0.031505	644.58	760.50	4.3105	1.6909	2.5766	394.93	5.8559	10.330	0.031606	vapor
253.50	3.6794	31.602	0.031643	646.00	762.43	4.3181	1.6911	2.5726	395.78	5.8196	10.352	0.031679	vapor
254.25	3.6794	31.465	0.031781	647.42	764.36	4.3257	1.6914	2.5687	396.62	5.7837	10.375	0.031752	vapor
255.00	3.6794	31.330	0.031918	648.84	766.28	4.3333	1.6917	2.5649	397.45	5.7481	10.397	0.031826	vapor
255.75	3.6794	31.196	0.032056	650.26	768.21	4.3408	1.6921	2.5613	398.28	5.7128	10.420	0.031900	vapor
256.50	3.6794	31.063	0.032192	651.68	770.13	4.3483	1.6924	2.5577	399.10	5.6778	10.443	0.031974	vapor
257.25	3.6794	30.932	0.032329	653.09	772.04	4.3558	1.6928	2.5542	399.92	5.6431	10.465	0.032049	vapor
258.00	3.6794	30.803	0.032465	654.51	773.96	4.3632	1.6933	2.5509	400.74	5.6088	10.488	0.032125	vapor
258.75	3.6794	30.674	0.032601	655.92	775.87	4.3706	1.6937	2.5476	401.55	5.5748	10.511	0.032200	vapor
259.50	3.6794	30.547	0.032736	657.33	777.78	4.3780	1.6942	2.5444	402.36	5.5410	10.533	0.032277	vapor
260.25	3.6794	30.422	0.032871	658.74	779.69	4.3853	1.6947	2.5413	403.16	5.5076	10.556	0.032353	vapor
261.00	3.6794	30.297	0.033006	660.15	781.59	4.3926	1.6952	2.5383	403.96	5.4744	10.579	0.032430	vapor
261.75	3.6794	30.174	0.033141	661.56	783.49	4.3999	1.6957	2.5354	404.76	5.4415	10.601	0.032507	vapor
262.50	3.6794	30.052	0.033275	662.96	785.39	4.4072	1.6963	2.5326	405.55	5.4090	10.624	0.032585	vapor
263.25	3.6794	29.932	0.033409	664.37	787.29	4.4144	1.6969	2.5298	406.34	5.3767	10.647	0.032663	vapor
264.00	3.6794	29.812	0.033543	665.77	789.19	4.4216	1.6975	2.5272	407.12	5.3446	10.669	0.032742	vapor
264.75	3.6794	29.694	0.033677	667.17	791.08	4.4287	1.6981	2.5246	407.90	5.3129	10.692	0.032821	vapor
265.50	3.6794	29.577	0.033810	668.58	792.97	4.4359	1.6987	2.5221	408.67	5.2814	10.714	0.032900	vapor
266.25	3.6794	29.461	0.033943	669.98	794.87	4.4430	1.6994	2.5196	409.45	5.2502	10.737	0.032980	vapor
267.00	3.6794	29.346	0.034076	671.38	796.75	4.4501	1.7001	2.5173	410.22	5.2192	10.760	0.033060	vapor
267.75	3.6794	29.233	0.034208	672.78	798.64	4.4571	1.7008	2.5150	410.98	5.1885	10.782	0.033140	vapor
268.50	3.6794	29.120	0.034340	674.18	800.53	4.4642	1.7015	2.5128	411.74	5.1580	10.805	0.033221	vapor
269.25	3.6794	29.009	0.034472	675.57	802.41	4.4712	1.7023	2.5106	412.50	5.1278	10.828	0.033302	vapor
270.00	3.6794	28.898	0.034604	676.97	804.29	4.4782	1.7031	2.5085	413.25	5.0979	10.850	0.033383	vapor
270.75	3.6794	28.789	0.034736	678.37	806.17	4.4851	1.7039	2.5065	414.00	5.0682	10.873	0.033465	vapor
271.50	3.6794	28.680	0.034867	679.76	808.05	4.4920	1.7047	2.5046	414.75	5.0387	10.896	0.033547	vapor
272.25	3.6794	28.573	0.034998	681.16	809.93	4.4989	1.7055	2.5027	415.49	5.0095	10.918	0.033630	vapor
273.00	3.6794	28.467	0.035129	682.55	811.81	4.5058	1.7064	2.5009	416.23	4.9805	10.941	0.033713	vapor
273.75	3.6794	28.361	0.035260	683.95	813.68	4.5127	1.7072	2.4991	416.97	4.9517	10.964	0.033796	vapor
274.50	3.6794	28.257	0.035390	685.34	815.56	4.5195	1.7081	2.4974	417.70	4.9231	10.986	0.033879	vapor
275.25	3.6794	28.153	0.035520	686.74	817.43	4.5263	1.7090	2.4958	418.44	4.8948	11.009	0.033963	vapor
276.00	3.6794	28.050	0.035650	688.13	819.30	4.5331	1.7100	2.4942	419.16	4.8667	11.032	0.034047	vapor
276.75	3.6794	27.949	0.035780	689.52	821.17	4.5399	1.7109	2.4927	419.89	4.8389	11.054	0.034132	vapor
277.50	3.6794	27.848	0.035909	690.91	823.04	4.5466	1.7119	2.4912	420.61	4.8112	11.077	0.034216	vapor
278.25	3.6794	27.748	0.036039	692.31	824.91	4.5534	1.7129	2.4898	421.33	4.7838	11.099	0.034302	vapor
279.00	3.6794	27.649	0.036168	693.70	826.77	4.5601	1.7139	2.4884	422.04	4.7565	11.122	0.034387	vapor
279.75	3.6794	27.551	0.036297	695.09	828.64	4.5667	1.7149	2.4871	422.75	4.7295	11.145	0.034473	vapor
280.50	3.6794	27.453	0.036426	696.48	830.50	4.5734	1.7159	2.4859	423.46	4.7027	11.167	0.034559	vapor
281.25	3.6794	27.357	0.036554	697.87	832.37	4.5800	1.7170	2.4847	424.17	4.6761	11.190	0.034645	vapor
282.00	3.6794	27.261	0.036682	699.26	834.23	4.5866	1.7180	2.4835	424.87	4.6497	11.213	0.034732	vapor
282.75	3.6794	27.166	0.036811	700.65	836.09	4.5932	1.7191	2.4824	425.57	4.6235	11.235	0.034819	vapor
283.50	3.6794	27.072	0.036939	702.04	837.95	4.5998	1.7202	2.4814	426.27	4.5975	11.258	0.034906	vapor
284.25	3.6794	26.979	0.037066	703.43	839.81	4.6064	1.7214	2.4804	426.96	4.5716	11.280	0.034994	vapor
285.00	3.6794	26.886	0.037194	704.82	841.67	4.6129	1.7225	2.4794	427.65	4.5460	11.303	0.035082	vapor
285.75	3.6794	26.794	0.037322	706.21	843.53	4.6194	1.7237	2.4785	428.34	4.5206	11.325	0.035170	vapor
286.50	3.6794	26.703	0.037449	707.60	845.39	4.6259	1.7248	2.4777	429.02	4.4953	11.348	0.035259	vapor
287.25	3.6794	26.613	0.037576	708.99	847.25	4.6324	1.7260	2.4768	429.71	4.4703	11.370	0.035348	vapor
288.00	3.6794	26.523	0.037703	710.39	849.11	4.6388	1.7272	2.4761	430.39	4.4454	11.393	0.035437	vapor
288.75	3.6794	26.434	0.037830	711.78	850.96	4.6453	1.7284	2.4753	431.07	4.4207	11.416	0.035526	vapor
289.50	3.6794	26.346	0.037956	713.17	852.82	4.6517	1.7297	2.4746	431.74	4.3962	11.438	0.035616	vapor
290.25	3.6794	26.259	0.038083	714.56	854.68	4.6581	1.7309	2.4740	432.41	4.3718	11.461	0.035706	vapor
291.00	3.6794	26.172	0.038209	715.95	856.53	4.6645	1.7322	2.4734	433.08	4.3477	11.483	0.035796	vapor
291.75	3.6794	26.086	0.038335	717.34	858.39	4.6709	1.7335	2.4728	433.75	4.3237	11.506	0.035887	vapor
292.50	3.6794	26.000	0.038461	718.73	860.24	4.6772	1.7348	2.4723	434.41	4.2999	11.528	0.035978	vapor
293.25	3.6794	25.916	0.038587	720.12	862.09	4.6835	1.7361	2.4718	435.08	4.2762	11.551	0.036069	vapor
294.00	3.6794	25.831	0.038712	721.51	863.95	4.6899	1.7374	2.4714	435.74	4.2528	11.573	0.036161	vapor
294.75	3.6794	25.748	0.038838	722.90	865.80	4.6961	1.7387	2.4710	436.39	4.2294	11.596	0.036252	vapor
295.50	3.6794	25.665	0.038963	724.30	867.66	4.7024	1.7401	2.4706	437.05	4.2063	11.618	0.036344	vapor
296.25	3.6794	25.583	0.039088	725.69	869.51	4.7087	1.7414	2.4702	437.70	4.1833	11.640	0.036437	vapor
297.00	3.6794	25.501	0.039214	727.08	871.36	4.7149	1.7428	2.4700	438.35	4.1605	11.663	0.036529	vapor
297.75	3.6794	25.420	0.039338	728.47	873.21	4.7212	1.7442	2.4697	439.00	4.1378	11.685	0.036622	vapor
298.50	3.6794	25.340	0.039463	729.87	875.07	4.7274	1.7456	2.4695	439.64	4.1153	11.708	0.036716	vapor
299.25	3.6794	25.260	0.039588	731.26	876.92	4.7336	1.7471	2.4693	440.28	4.0930	11.730	0.036809	vapor
300.00	3.6794	25.181	0.039712	732.65	878.77	4.7398	1.7485	2.4691	440.93	4.0708	11.753	0.036903	vapor
300.75	3.6794	25.103	0.039837	734.05	880.62	4.7459	1.7499	2.4690	441.56	4.0487	11.775	0.036997	vapor
301.50	3.6794	25.025	0.039961	735.44	882.47	4.7521	1.7514	2.4689	442.20	4.0269	11.797	0.037091	vapor
302.25	3.6794	24.947	0.040085	736.84	884.32	4.7582	1.7529	2.4688	442.83	4.0051	11.820	0.037186	vapor
303.00	3.6794	24.870	0.040209	738.23	886.18	4.7643	1.7544	2.4688	443.46	3.9835	11.842	0.037281	vapor
303.75	3.6794	24.794	0.040333	739.63	888.03	4.7704	1.7559	2.4688	444.09	3.9621	11.864	0.037376	vapor
304.50	3.6794	24.718	0.040456	741.03	889.88	4.7765	1.7574	2.4689	444.72	3.9408	11.887	0.037471	vapor
305.25	3.6794	24.643	0.040580	742.42	891.73	4.7826	1.7589	2.4689	445.35	3.9196	11.909	0.037567	vapor
306.00	3.6794	24.568	0.040703	743.82	893.58	4.7886	1.7605	2.4690	445.97	3.8986	11.931	0.037663	vapor
306.75	3.6794	24.494	0.040827	745.22	895.43	4.7947	1.7620	2.4692	446.59	3.8777	11.954	0.037759	vapor
307.50	3.6794	24.420	0.040950	746.62	897.29	4.8007	1.7636	2.4693	447.21	3.8570	11.976	0.037855	vapor
308.25	3.6794	24.347	0.041073	748.02	899.14	4.8067	1.7652	2.4695	447.82	3.8364	11.998	0.037952	vapor
309.00	3.6794	24.274	0.041196	749.42	900.99	4.8127	1.7668	2.4697	448.44	3.8160	12.021	0.038049	vapor
309.75	3.6794	24.202	0.041319	750.82	902.84	4.8187	1.7684	2.4700	449.05	3.7957	12.043	0.038147	vapor
310.50	3.6794	24.131	0.041441	752.22	904.70	4.8247	1.7700	2.4703	449.66	3.7755	12.065	0.038244	vapor
311.25	3.6794	24.059	0.041564	753.62	906.55	4.8307	1.7716	2.4706	450.27	3.7554	12.087	0.038342	vapor
312.00	3.6794	23.989	0.041686	755.02	908.40	4.8366	1.7733	2.4709	450.87	3.7355	12.110	0.038440	vapor
312.75	3.6794	23.919	0.041809	756.43	910.25	4.8425	1.7749	2.4713	451.48	3.7157	12.132	0.038538	vapor
313.50	3.6794	23.849	0.041931	757.83	912.11	4.8485	1.7766	2.4716	452.08	3.6961	12.154	0.038637	vapor
314.25	3.6794	23.780	0.042053	759.23	913.96	4.8544	1.7783	2.4721	452.68	3.6765	12.176	0.038736	vapor
315.00	3.6794	23.711	0.042175	760.64	915.82	4.8603	1.7800	2.4725	453.28	3.6571	12.198	0.038835	vapor
315.75	3.6794	23.642	0.042297	762.05	917.67	4.8661	1.7817	2.4730	453.88	3.6379	12.221	0.038934	vapor
316.50	3.6794	23.575	0.042419	763.45	919.53	4.8720	1.7834	2.4735	454.47	3.6187	12.243	0.039034	vapor
317.25	3.6794	23.507	0.042540	764.86	921.38	4.8779	1.7851	2.4740	455.06	3.5997	12.265	0.039134	vapor
318.00	3.6794	23.440	0.042662	766.27	923.24	4.8837	1.7869	2.4745	455.65	3.5808	12.287	0.039234	vapor
318.75	3.6794	23.374	0.042783	767.68	925.09	4.8895	1.7886	2.4751	456.24	3.5620	12.309	0.039335	vapor
319.50	3.6794	23.308	0.042905	769.09	926.95	4.8953	1.7904	2.4757	456.83	3.5434	12.331	0.039435	vapor
320.25	3.6794	23.242	0.043026	770.50	928.81	4.9012	1.7921	2.4763	457.42	3.5248	12.353	0.039536	vapor
321.00	3.6794	23.177	0.043147	771.91	930.66	4.9069	1.7939	2.4769	458.00	3.5064	12.375	0.039637	vapor
321.75	3.6794	23.112	0.043268	773.32	932.52	4.9127	1.7957	2.4776	458.58	3.4881	12.397	0.039739	vapor
322.50	3.6794	23.047	0.043389	774.74	934.38	4.9185	1.7975	2.4783	459.16	3.4699	12.420	0.039841	vapor
323.25	3.6794	22.983	0.043510	776.15	936.24	4.9243	1.7993	2.4790	459.74	3.4519	12.442	0.039943	vapor
324.00	3.6794	22.920	0.043631	777.57	938.10	4.9300	1.8012	2.4797	460.32	3.4339	12.464	0.040045	vapor
324.75	3.6794	22.856	0.043751	778.98	939.96	4.9357	1.8030	2.4805	460.89	3.4161	12.486	0.040147	vapor
325.50	3.6794	22.794	0.043872	780.40	941.82	4.9415	1.8048	2.4812	461.46	3.3983	12.508	0.040250	vapor
326.25	3.6794	22.731	0.043992	781.82	943.68	4.9472	1.8067	2.4820	462.04	3.3807	12.530	0.040353	vapor
327.00	3.6794	22.669	0.044113	783.24	945.54	4.9529	1.8086	2.4828	462.61	3.3632	12.552	0.040456	vapor
327.75	3.6794	22.608	0.044233	784.66	947.40	4.9586	1.8104	2.4837	463.17	3.3458	12.574	0.040560	vapor
328.50	3.6794	22.546	0.044353	786.08	949.27	4.9642	1.8123	2.4845	463.74	3.3285	12.596	0.040663	vapor
329.25	3.6794	22.485	0.044473	787.50	951.13	4.9699	1.8142	2.4854	464.30	3.3113	12.618	0.040767	vapor
330.00	3.6794	22.425	0.044593	788.92	953.00	4.9756	1.8161	2.4863	464.87	3.2943	12.640	0.040872	vapor
330.75	3.6794	22.365	0.044713	790.34	954.86	4.9812	1.8180	2.4872	465.43	3.2773	12.661	0.040976	vapor
331.50	3.6794	22.305	0.044833	791.77	956.73	4.9868	1.8200	2.4882	465.99	3.2604	12.683	0.041081	vapor
332.25	3.6794	22.246	0.044953	793.20	958.59	4.9925	1.8219	2.4891	466.55	3.2437	12.705	0.041186	vapor
333.00	3.6794	22.187	0.045072	794.62	960.46	4.9981	1.8239	2.4901	467.10	3.2270	12.727	0.041291	vapor
333.75	3.6794	22.128	0.045192	796.05	962.33	5.0037	1.8258	2.4911	467.66	3.2105	12.749	0.041396	vapor
334.50	3.6794	22.069	0.045312	797.48	964.20	5.0093	1.8278	2.4922	468.21	3.1940	12.771	0.041502	vapor
335.25	3.6794	22.011	0.045431	798.91	966.07	5.0149	1.8297	2.4932	468.77	3.1777	12.793	0.041608	vapor
336.00	3.6794	21.954	0.045550	800.34	967.94	5.0204	1.8317	2.4942	469.32	3.1614	12.815	0.041714	vapor
336.75	3.6794	21.896	0.045669	801.77	969.81	5.0260	1.8337	2.4953	469.87	3.1453	12.836	0.041820	vapor
337.50	3.6794	21.839	0.045789	803.21	971.68	5.0315	1.8357	2.4964	470.41	3.1293	12.858	0.041927	vapor
338.25	3.6794	21.783	0.045908	804.64	973.55	5.0371	1.8377	2.4975	470.96	3.1133	12.880	0.042034	vapor
339.00	3.6794	21.727	0.046027	806.08	975.43	5.0426	1.8398	2.4987	471.50	3.0974	12.902	0.042141	vapor
339.75	3.6794	21.671	0.046146	807.51	977.30	5.0481	1.8418	2.4998	472.05	3.0817	12.924	0.042249	vapor
340.50	3.6794	21.615	0.046264	808.95	979.18	5.0537	1.8438	2.5010	472.59	3.0660	12.945	0.042356	vapor
341.25	3.6794	21.560	0.046383	810.39	981.05	5.0592	1.8459	2.5022	473.13	3.0505	12.967	0.042464	vapor
342.00	3.6794	21.505	0.046502	811.83	982.93	5.0647	1.8479	2.5034	473.67	3.0350	12.989	0.042572	vapor
342.75	3.6794	21.450	0.046620	813.27	984.81	5.0701	1.8500	2.5046	474.21	3.0196	13.010	0.042680	vapor
343.50	3.6794	21.395	0.046739	814.72	986.69	5.0756	1.8521	2.5058	474.74	3.0043	13.032	0.042789	vapor
344.25	3.6794	21.341	0.046857	816.16	988.57	5.0811	1.8541	2.5071	475.28	2.9891	13.054	0.042898	vapor
345.00	3.6794	21.288	0.046976	817.61	990.45	5.0865	1.8562	2.5083	475.81	2.9740	13.076	0.043007	vapor
345.75	3.6794	21.234	0.047094	819.05	992.33	5.0920	1.8583	2.5096	476.34	2.9590	13.097	0.043116	vapor
346.50	3.6794	21.181	0.047212	820.50	994.21	5.0974	1.8604	2.5109	476.87	2.9441	13.119	0.043225	vapor
347.25	3.6794	21.128	0.047330	821.95	996.09	5.1029	1.8625	2.5122	477.40	2.9293	13.141	0.043335	vapor
348.00	3.6794	21.075	0.047449	823.40	997.98	5.1083	1.8647	2.5136	477.93	2.9145	13.162	0.043445	vapor
348.75	3.6794	21.023	0.047567	824.85	999.87	5.1137	1.8668	2.5149	478.46	2.8999	13.184	0.043555	vapor
349.50	3.6794	20.971	0.047685	826.30	1001.8	5.1191	1.8689	2.5163	478.98	2.8853	13.205	0.043666	vapor
350.25	3.6794	20.919	0.047802	827.76	1003.6	5.1245	1.8711	2.5176	479.51	2.8708	13.227	0.043776	vapor
351.00	3.6794	20.868	0.047920	829.21	1005.5	5.1299	1.8732	2.5190	480.03	2.8564	13.248	0.043887	vapor
351.75	3.6794	20.817	0.048038	830.67	1007.4	5.1353	1.8754	2.5204	480.55	2.8421	13.270	0.043998	vapor
352.50	3.6794	20.766	0.048156	832.13	1009.3	5.1406	1.8776	2.5219	481.07	2.8279	13.292	0.044110	vapor
353.25	3.6794	20.715	0.048273	833.59	1011.2	5.1460	1.8797	2.5233	481.59	2.8137	13.313	0.044221	vapor
354.00	3.6794	20.665	0.048391	835.05	1013.1	5.1513	1.8819	2.5247	482.11	2.7997	13.335	0.044333	vapor
354.75	3.6794	20.615	0.048508	836.51	1015.0	5.1567	1.8841	2.5262	482.63	2.7857	13.356	0.044445	vapor
355.50	3.6794	20.565	0.048626	837.97	1016.9	5.1620	1.8863	2.5277	483.14	2.7718	13.378	0.044557	vapor
356.25	3.6794	20.516	0.048743	839.44	1018.8	5.1673	1.8885	2.5292	483.65	2.7580	13.399	0.044670	vapor
357.00	3.6794	20.467	0.048860	840.90	1020.7	5.1727	1.8907	2.5307	484.17	2.7443	13.421	0.044782	vapor
357.75	3.6794	20.418	0.048977	842.37	1022.6	5.1780	1.8929	2.5322	484.68	2.7306	13.442	0.044895	vapor
358.50	3.6794	20.369	0.049095	843.84	1024.5	5.1833	1.8952	2.5337	485.19	2.7170	13.463	0.045008	vapor
359.25	3.6794	20.320	0.049212	845.31	1026.4	5.1886	1.8974	2.5353	485.70	2.7035	13.485	0.045122	vapor
360.00	3.6794	20.272	0.049329	846.78	1028.3	5.1939	1.8997	2.5368	486.21	2.6901	13.506	0.045235	vapor
360.75	3.6794	20.224	0.049446	848.25	1030.2	5.1992	1.9019	2.5384	486.71	2.6768	13.528	0.045349	vapor
361.50	3.6794	20.177	0.049562	849.73	1032.1	5.2044	1.9042	2.5400	487.22	2.6635	13.549	0.045463	vapor
362.25	3.6794	20.129	0.049679	851.20	1034.0	5.2097	1.9064	2.5416	487.72	2.6503	13.570	0.045577	vapor
363.00	3.6794	20.082	0.049796	852.68	1035.9	5.2150	1.9087	2.5432	488.23	2.6372	13.592	0.045692	vapor
363.75	3.6794	20.035	0.049913	854.16	1037.8	5.2202	1.9110	2.5448	488.73	2.6242	13.613	0.045806	vapor
364.50	3.6794	19.988	0.050029	855.64	1039.7	5.2254	1.9133	2.5465	489.23	2.6112	13.634	0.045921	vapor
365.25	3.6794	19.942	0.050146	857.12	1041.6	5.2307	1.9155	2.5481	489.73	2.5984	13.656	0.046036	vapor
366.00	3.6794	19.896	0.050263	858.60	1043.5	5.2359	1.9178	2.5498	490.23	2.5856	13.677	0.046152	vapor
366.75	3.6794	19.850	0.050379	860.09	1045.5	5.2411	1.9201	2.5515	490.73	2.5728	13.698	0.046267	vapor
367.50	3.6794	19.804	0.050495	861.57	1047.4	5.2463	1.9224	2.5531	491.22	2.5602	13.720	0.046383	vapor
368.25	3.6794	19.758	0.050612	863.06	1049.3	5.2516	1.9248	2.5548	491.72	2.5476	13.741	0.046499	vapor
369.00	3.6794	19.713	0.050728	864.55	1051.2	5.2568	1.9271	2.5565	492.21	2.5351	13.762	0.046615	vapor
369.75	3.6794	19.668	0.050844	866.04	1053.1	5.2619	1.9294	2.5583	492.71	2.5226	13.783	0.046731	vapor
370.50	3.6794	19.623	0.050961	867.53	1055.0	5.2671	1.9317	2.5600	493.20	2.5103	13.804	0.046848	vapor
371.25	3.6794	19.578	0.051077	869.03	1057.0	5.2723	1.9341	2.5617	493.69	2.4980	13.826	0.046965	vapor
372.00	3.6794	19.534	0.051193	870.52	1058.9	5.2775	1.9364	2.5635	494.18	2.4857	13.847	0.047082	vapor
372.75	3.6794	19.490	0.051309	872.02	1060.8	5.2826	1.9388	2.5652	494.67	2.4736	13.868	0.047199	vapor
373.50	3.6794	19.446	0.051425	873.51	1062.7	5.2878	1.9411	2.5670	495.16	2.4615	13.889	0.047317	vapor
374.25	3.6794	19.402	0.051541	875.01	1064.7	5.2930	1.9435	2.5688	495.65	2.4494	13.910	0.047434	vapor
375.00	3.6794	19.359	0.051657	876.51	1066.6	5.2981	1.9459	2.5706	496.13	2.4375	13.931	0.047552	vapor
375.75	3.6794	19.315	0.051772	878.02	1068.5	5.3032	1.9483	2.5724	496.62	2.4256	13.953	0.047670	vapor
376.50	3.6794	19.272	0.051888	879.52	1070.4	5.3084	1.9506	2.5742	497.10	2.4138	13.974	0.047788	vapor
377.25	3.6794	19.229	0.052004	881.03	1072.4	5.3135	1.9530	2.5761	497.59	2.4020	13.995	0.047907	vapor
378.00	3.6794	19.187	0.052120	882.53	1074.3	5.3186	1.9554	2.5779	498.07	2.3903	14.016	0.048026	vapor
378.75	3.6794	19.144	0.052235	884.04	1076.2	5.3237	1.9578	2.5797	498.55	2.3787	14.037	0.048145	vapor
379.50	3.6794	19.102	0.052351	885.55	1078.2	5.3288	1.9602	2.5816	499.03	2.3672	14.058	0.048264	vapor
380.25	3.6794	19.060	0.052466	887.07	1080.1	5.3339	1.9626	2.5835	499.51	2.3557	14.079	0.048383	vapor
381.00	3.6794	19.018	0.052582	888.58	1082.0	5.3390	1.9650	2.5853	499.99	2.3442	14.100	0.048503	vapor
381.75	3.6794	18.976	0.052697	890.09	1084.0	5.3441	1.9675	2.5872	500.46	2.3329	14.121	0.048622	vapor
382.50	3.6794	18.935	0.052813	891.61	1085.9	5.3492	1.9699	2.5891	500.94	2.3216	14.142	0.048742	vapor
383.25	3.6794	18.894	0.052928	893.13	1087.9	5.3543	1.9723	2.5910	501.42	2.3103	14.163	0.048862	vapor
384.00	3.6794	18.853	0.053043	894.65	1089.8	5.3593	1.9748	2.5929	501.89	2.2992	14.184	0.048983	vapor
384.75	3.6794	18.812	0.053158	896.17	1091.8	5.3644	1.9772	2.5949	502.36	2.2881	14.205	0.049103	vapor
385.50	3.6794	18.771	0.053274	897.69	1093.7	5.3694	1.9796	2.5968	502.84	2.2770	14.226	0.049224	vapor
386.25	3.6794	18.731	0.053389	899.22	1095.7	5.3745	1.9821	2.5988	503.31	2.2660	14.247	0.049345	vapor
387.00	3.6794	18.690	0.053504	900.74	1097.6	5.3795	1.9846	2.6007	503.78	2.2551	14.268	0.049466	vapor
387.75	3.6794	18.650	0.053619	902.27	1099.6	5.3846	1.9870	2.6027	504.25	2.2442	14.288	0.049587	vapor
388.50	3.6794	18.610	0.053734	903.80	1101.5	5.3896	1.9895	2.6046	504.72	2.2334	14.309	0.049709	vapor
389.25	3.6794	18.571	0.053849	905.33	1103.5	5.3946	1.9919	2.6066	505.19	2.2227	14.330	0.049831	vapor
390.00	3.6794	18.531	0.053964	906.87	1105.4	5.3996	1.9944	2.6086	505.65	2.2120	14.351	0.049952	vapor
390.75	3.6794	18.492	0.054078	908.40	1107.4	5.4047	1.9969	2.6106	506.12	2.2014	14.372	0.050075	vapor
391.50	3.6794	18.452	0.054193	909.94	1109.3	5.4097	1.9994	2.6126	506.59	2.1908	14.393	0.050197	vapor
392.25	3.6794	18.414	0.054308	911.47	1111.3	5.4147	2.0019	2.6146	507.05	2.1803	14.414	0.050319	vapor
393.00	3.6794	18.375	0.054423	913.01	1113.3	5.4197	2.0044	2.6166	507.52	2.1699	14.434	0.050442	vapor
393.75	3.6794	18.336	0.054537	914.56	1115.2	5.4247	2.0069	2.6187	507.98	2.1595	14.455	0.050565	vapor
394.50	3.6794	18.298	0.054652	916.10	1117.2	5.4296	2.0094	2.6207	508.44	2.1491	14.476	0.050688	vapor
395.25	3.6794	18.259	0.054767	917.64	1119.1	5.4346	2.0119	2.6227	508.90	2.1388	14.497	0.050811	vapor
396.00	3.6794	18.221	0.054881	919.19	1121.1	5.4396	2.0144	2.6248	509.36	2.1286	14.517	0.050935	vapor
396.75	3.6794	18.183	0.054996	920.74	1123.1	5.4446	2.0169	2.6269	509.82	2.1185	14.538	0.051059	vapor
397.50	3.6794	18.145	0.055110	922.29	1125.1	5.4495	2.0194	2.6289	510.28	2.1083	14.559	0.051182	vapor
398.25	3.6794	18.108	0.055225	923.84	1127.0	5.4545	2.0220	2.6310	510.74	2.0983	14.580	0.051306	vapor
399.00	3.6794	18.070	0.055339	925.39	1129.0	5.4594	2.0245	2.6331	511.20	2.0883	14.600	0.051431	vapor
399.75	3.6794	18.033	0.055453	926.95	1131.0	5.4644	2.0270	2.6352	511.65	2.0783	14.621	0.051555	vapor
400.50	3.6794	17.996	0.055568	928.50	1133.0	5.4693	2.0296	2.6373	512.11	2.0684	14.642	0.051680	vapor
401.25	3.6794	17.959	0.055682	930.06	1134.9	5.4743	2.0321	2.6394	512.56	2.0586	14.662	0.051805	vapor
402.00	3.6794	17.922	0.055796	931.62	1136.9	5.4792	2.0346	2.6415	513.02	2.0488	14.683	0.051930	vapor
402.75	3.6794	17.886	0.055910	933.18	1138.9	5.4841	2.0372	2.6436	513.47	2.0391	14.703	0.052055	vapor
403.50	3.6794	17.849	0.056024	934.75	1140.9	5.4890	2.0397	2.6458	513.92	2.0294	14.724	0.052180	vapor
404.25	3.6794	17.813	0.056138	936.31	1142.9	5.4940	2.0423	2.6479	514.38	2.0198	14.745	0.052306	vapor
405.00	3.6794	17.777	0.056252	937.88	1144.9	5.4989	2.0449	2.6500	514.83	2.0102	14.765	0.052431	vapor
405.75	3.6794	17.741	0.056366	939.45	1146.8	5.5038	2.0474	2.6522	515.28	2.0007	14.786	0.052557	vapor
406.50	3.6794	17.705	0.056480	941.02	1148.8	5.5087	2.0500	2.6543	515.73	1.9912	14.806	0.052683	vapor
407.25	3.6794	17.670	0.056594	942.59	1150.8	5.5136	2.0526	2.6565	516.17	1.9818	14.827	0.052810	vapor
408.00	3.6794	17.634	0.056708	944.17	1152.8	5.5185	2.0552	2.6587	516.62	1.9724	14.847	0.052936	vapor
408.75	3.6794	17.599	0.056822	945.74	1154.8	5.5233	2.0577	2.6608	517.07	1.9631	14.868	0.053063	vapor
409.50	3.6794	17.564	0.056936	947.32	1156.8	5.5282	2.0603	2.6630	517.52	1.9538	14.888	0.053190	vapor
410.25	3.6794	17.529	0.057050	948.90	1158.8	5.5331	2.0629	2.6652	517.96	1.9446	14.909	0.053317	vapor
411.00	3.6794	17.494	0.057164	950.48	1160.8	5.5380	2.0655	2.6674	518.41	1.9355	14.929	0.053444	vapor
411.75	3.6794	17.459	0.057277	952.06	1162.8	5.5428	2.0681	2.6696	518.85	1.9263	14.950	0.053571	vapor
412.50	3.6794	17.424	0.057391	953.65	1164.8	5.5477	2.0707	2.6718	519.29	1.9173	14.970	0.053699	vapor
413.25	3.6794	17.390	0.057505	955.23	1166.8	5.5525	2.0733	2.6740	519.74	1.9082	14.991	0.053827	vapor
414.00	3.6794	17.356	0.057618	956.82	1168.8	5.5574	2.0759	2.6763	520.18	1.8993	15.011	0.053954	vapor
414.75	3.6794	17.321	0.057732	958.41	1170.8	5.5622	2.0785	2.6785	520.62	1.8903	15.031	0.054082	vapor
415.50	3.6794	17.287	0.057845	960.01	1172.8	5.5671	2.0811	2.6807	521.06	1.8815	15.052	0.054211	vapor
416.25	3.6794	17.254	0.057959	961.60	1174.8	5.5719	2.0837	2.6830	521.50	1.8726	15.072	0.054339	vapor
417.00	3.6794	17.220	0.058072	963.19	1176.9	5.5768	2.0863	2.6852	521.94	1.8638	15.093	0.054468	vapor
417.75	3.6794	17.186	0.058186	964.79	1178.9	5.5816	2.0890	2.6874	522.38	1.8551	15.113	0.054597	vapor
418.50	3.6794	17.153	0.058299	966.39	1180.9	5.5864	2.0916	2.6897	522.82	1.8464	15.133	0.054726	vapor
419.25	3.6794	17.120	0.058412	967.99	1182.9	5.5912	2.0942	2.6920	523.25	1.8378	15.154	0.054855	vapor
420.00	3.6794	17.086	0.058526	969.59	1184.9	5.5960	2.0968	2.6942	523.69	1.8292	15.174	0.054984	vapor
420.75	3.6794	17.053	0.058639	971.20	1187.0	5.6008	2.0995	2.6965	524.13	1.8206	15.194	0.055113	vapor
421.50	3.6794	17.021	0.058752	972.81	1189.0	5.6056	2.1021	2.6988	524.56	1.8121	15.215	0.055243	vapor
422.25	3.6794	16.988	0.058866	974.41	1191.0	5.6104	2.1048	2.7011	525.00	1.8037	15.235	0.055373	vapor
423.00	3.6794	16.955	0.058979	976.02	1193.0	5.6152	2.1074	2.7034	525.43	1.7952	15.255	0.055503	vapor
423.75	3.6794	16.923	0.059092	977.64	1195.1	5.6200	2.1100	2.7056	525.86	1.7869	15.275	0.055633	vapor
424.50	3.6794	16.890	0.059205	979.25	1197.1	5.6248	2.1127	2.7079	526.30	1.7785	15.295	0.055763	vapor
425.25	3.6794	16.858	0.059318	980.87	1199.1	5.6296	2.1153	2.7103	526.73	1.7702	15.316	0.055894	vapor
426.00	3.6794	16.826	0.059431	982.48	1201.2	5.6344	2.1180	2.7126	527.16	1.7620	15.336	0.056025	vapor
426.75	3.6794	16.794	0.059544	984.10	1203.2	5.6392	2.1206	2.7149	527.59	1.7538	15.356	0.056155	vapor
427.50	3.6794	16.762	0.059657	985.72	1205.2	5.6439	2.1233	2.7172	528.02	1.7456	15.376	0.056286	vapor
428.25	3.6794	16.731	0.059770	987.35	1207.3	5.6487	2.1260	2.7195	528.45	1.7375	15.396	0.056418	vapor
429.00	3.6794	16.699	0.059883	988.97	1209.3	5.6534	2.1286	2.7219	528.88	1.7295	15.417	0.056549	vapor
429.75	3.6794	16.668	0.059996	990.60	1211.3	5.6582	2.1313	2.7242	529.31	1.7214	15.437	0.056680	vapor
430.50	3.6794	16.636	0.060109	992.23	1213.4	5.6630	2.1340	2.7265	529.73	1.7135	15.457	0.056812	vapor
431.25	3.6794	16.605	0.060222	993.86	1215.4	5.6677	2.1366	2.7289	530.16	1.7055	15.477	0.056944	vapor
432.00	3.6794	16.574	0.060335	995.49	1217.5	5.6724	2.1393	2.7312	530.59	1.6976	15.497	0.057076	vapor
432.75	3.6794	16.543	0.060447	997.13	1219.5	5.6772	2.1420	2.7336	531.01	1.6897	15.517	0.057208	vapor
433.50	3.6794	16.513	0.060560	998.76	1221.6	5.6819	2.1447	2.7359	531.44	1.6819	15.537	0.057340	vapor
434.25	3.6794	16.482	0.060673	1000.4	1223.6	5.6867	2.1473	2.7383	531.86	1.6741	15.557	0.057473	vapor
435.00	3.6794	16.451	0.060785	1002.0	1225.7	5.6914	2.1500	2.7407	532.29	1.6664	15.577	0.057606	vapor
435.75	3.6794	16.421	0.060898	1003.7	1227.7	5.6961	2.1527	2.7430	532.71	1.6587	15.597	0.057738	vapor
436.50	3.6794	16.391	0.061011	1005.3	1229.8	5.7008	2.1554	2.7454	533.13	1.6510	15.617	0.057871	vapor
437.25	3.6794	16.360	0.061123	1007.0	1231.9	5.7055	2.1581	2.7478	533.56	1.6434	15.637	0.058005	vapor
438.00	3.6794	16.330	0.061236	1008.6	1233.9	5.7102	2.1608	2.7502	533.98	1.6358	15.657	0.058138	vapor
438.75	3.6794	16.300	0.061348	1010.3	1236.0	5.7150	2.1635	2.7526	534.40	1.6283	15.677	0.058271	vapor
439.50	3.6794	16.270	0.061461	1011.9	1238.1	5.7197	2.1662	2.7550	534.82	1.6208	15.697	0.058405	vapor
440.25	3.6794	16.241	0.061574	1013.6	1240.1	5.7244	2.1689	2.7573	535.24	1.6133	15.717	0.058539	vapor
441.00	3.6794	16.211	0.061686	1015.2	1242.2	5.7291	2.1716	2.7597	535.66	1.6059	15.737	0.058673	vapor
441.75	3.6794	16.182	0.061798	1016.9	1244.3	5.7337	2.1743	2.7622	536.08	1.5985	15.757	0.058807	vapor
442.50	3.6794	16.152	0.061911	1018.5	1246.3	5.7384	2.1770	2.7646	536.49	1.5912	15.777	0.058941	vapor
443.25	3.6794	16.123	0.062023	1020.2	1248.4	5.7431	2.1797	2.7670	536.91	1.5839	15.797	0.059075	vapor
444.00	3.6794	16.094	0.062136	1021.9	1250.5	5.7478	2.1824	2.7694	537.33	1.5766	15.817	0.059210	vapor
444.75	3.6794	16.065	0.062248	1023.5	1252.6	5.7525	2.1851	2.7718	537.74	1.5693	15.837	0.059345	vapor
445.50	3.6794	16.036	0.062360	1025.2	1254.6	5.7571	2.1878	2.7742	538.16	1.5621	15.857	0.059479	vapor
446.25	3.6794	16.007	0.062472	1026.9	1256.7	5.7618	2.1905	2.7767	538.58	1.5550	15.876	0.059614	vapor
447.00	3.6794	15.978	0.062585	1028.5	1258.8	5.7665	2.1933	2.7791	538.99	1.5479	15.896	0.059750	vapor
447.75	3.6794	15.950	0.062697	1030.2	1260.9	5.7711	2.1960	2.7815	539.40	1.5408	15.916	0.059885	vapor
448.50	3.6794	15.921	0.062809	1031.9	1263.0	5.7758	2.1987	2.7840	539.82	1.5337	15.936	0.060020	vapor
449.25	3.6794	15.893	0.062921	1033.6	1265.1	5.7805	2.2014	2.7864	540.23	1.5267	15.956	0.060156	vapor
450.00	3.6794	15.865	0.063033	1035.2	1267.2	5.7851	2.2041	2.7889	540.64	1.5197	15.975	0.060292	vapor
450.75	3.6794	15.836	0.063145	1036.9	1269.3	5.7897	2.2069	2.7913	541.06	1.5128	15.995	0.060428	vapor
451.50	3.6794	15.808	0.063258	1038.6	1271.3	5.7944	2.2096	2.7938	541.47	1.5059	16.015	0.060564	vapor
452.25	3.6794	15.780	0.063370	1040.3	1273.4	5.7990	2.2123	2.7962	541.88	1.4990	16.035	0.060700	vapor
453.00	3.6794	15.753	0.063482	1042.0	1275.5	5.8037	2.2151	2.7987	542.29	1.4921	16.054	0.060836	vapor
453.75	3.6794	15.725	0.063594	1043.7	1277.6	5.8083	2.2178	2.8011	542.70	1.4853	16.074	0.060973	vapor
454.50	3.6794	15.697	0.063706	1045.3	1279.7	5.8129	2.2205	2.8036	543.11	1.4786	16.094	0.061110	vapor
455.25	3.6794	15.670	0.063818	1047.0	1281.8	5.8175	2.2233	2.8061	543.52	1.4718	16.114	0.061246	vapor
456.00	3.6794	15.642	0.063929	1048.7	1284.0	5.8222	2.2260	2.8086	543.93	1.4651	16.133	0.061383	vapor
456.75	3.6794	15.615	0.064041	1050.4	1286.1	5.8268	2.2287	2.8110	544.33	1.4584	16.153	0.061520	vapor
457.50	3.6794	15.588	0.064153	1052.1	1288.2	5.8314	2.2315	2.8135	544.74	1.4518	16.173	0.061658	vapor
458.25	3.6794	15.561	0.064265	1053.8	1290.3	5.8360	2.2342	2.8160	545.15	1.4452	16.192	0.061795	vapor
459.00	3.6794	15.534	0.064377	1055.5	1292.4	5.8406	2.2370	2.8185	545.55	1.4386	16.212	0.061933	vapor
459.75	3.6794	15.507	0.064489	1057.2	1294.5	5.8452	2.2397	2.8210	545.96	1.4321	16.231	0.062070	vapor
460.50	3.6794	15.480	0.064601	1058.9	1296.6	5.8498	2.2425	2.8235	546.37	1.4256	16.251	0.062208	vapor
461.25	3.6794	15.453	0.064712	1060.6	1298.7	5.8544	2.2452	2.8260	546.77	1.4191	16.271	0.062346	vapor
462.00	3.6794	15.426	0.064824	1062.4	1300.9	5.8590	2.2479	2.8285	547.18	1.4127	16.290	0.062484	vapor
462.75	3.6794	15.400	0.064936	1064.1	1303.0	5.8636	2.2507	2.8310	547.58	1.4063	16.310	0.062623	vapor
463.50	3.6794	15.373	0.065047	1065.8	1305.1	5.8682	2.2535	2.8335	547.98	1.3999	16.329	0.062761	vapor
464.25	3.6794	15.347	0.065159	1067.5	1307.2	5.8728	2.2562	2.8360	548.39	1.3936	16.349	0.062899	vapor
465.00	3.6794	15.321	0.065271	1069.2	1309.4	5.8774	2.2590	2.8385	548.79	1.3872	16.368	0.063038	vapor
465.75	3.6794	15.295	0.065382	1070.9	1311.5	5.8819	2.2617	2.8410	549.19	1.3810	16.388	0.063177	vapor
466.50	3.6794	15.269	0.065494	1072.7	1313.6	5.8865	2.2645	2.8435	549.59	1.3747	16.407	0.063316	vapor
467.25	3.6794	15.243	0.065605	1074.4	1315.8	5.8911	2.2672	2.8460	549.99	1.3685	16.427	0.063455	vapor
468.00	3.6794	15.217	0.065717	1076.1	1317.9	5.8956	2.2700	2.8485	550.39	1.3623	16.446	0.063594	vapor
468.75	3.6794	15.191	0.065829	1077.8	1320.0	5.9002	2.2727	2.8511	550.79	1.3562	16.466	0.063734	vapor
469.50	3.6794	15.165	0.065940	1079.6	1322.2	5.9048	2.2755	2.8536	551.19	1.3500	16.485	0.063873	vapor
470.25	3.6794	15.140	0.066052	1081.3	1324.3	5.9093	2.2783	2.8561	551.59	1.3439	16.505	0.064013	vapor
471.00	3.6794	15.114	0.066163	1083.0	1326.5	5.9139	2.2810	2.8586	551.99	1.3379	16.524	0.064153	vapor
471.75	3.6794	15.089	0.066274	1084.8	1328.6	5.9184	2.2838	2.8612	552.39	1.3318	16.544	0.064293	vapor
472.50	3.6794	15.063	0.066386	1086.5	1330.7	5.9230	2.2866	2.8637	552.79	1.3258	16.563	0.064433	vapor
473.25	3.6794	15.038	0.066497	1088.2	1332.9	5.9275	2.2893	2.8662	553.18	1.3199	16.582	0.064573	vapor
474.00	3.6794	15.013	0.066609	1090.0	1335.0	5.9321	2.2921	2.8688	553.58	1.3139	16.602	0.064713	vapor
474.75	3.6794	14.988	0.066720	1091.7	1337.2	5.9366	2.2949	2.8713	553.98	1.3080	16.621	0.064854	vapor
475.50	3.6794	14.963	0.066831	1093.5	1339.4	5.9411	2.2976	2.8739	554.37	1.3021	16.641	0.064994	vapor
476.25	3.6794	14.938	0.066943	1095.2	1341.5	5.9457	2.3004	2.8764	554.77	1.2962	16.660	0.065135	vapor
477.00	3.6794	14.913	0.067054	1097.0	1343.7	5.9502	2.3032	2.8789	555.17	1.2904	16.679	0.065276	vapor
477.75	3.6794	14.889	0.067165	1098.7	1345.8	5.9547	2.3059	2.8815	555.56	1.2846	16.699	0.065417	vapor
478.50	3.6794	14.864	0.067276	1100.5	1348.0	5.9592	2.3087	2.8841	555.95	1.2788	16.718	0.065558	vapor
479.25	3.6794	14.840	0.067388	1102.2	1350.2	5.9638	2.3115	2.8866	556.35	1.2731	16.737	0.065699	vapor
480.00	3.6794	14.815	0.067499	1104.0	1352.3	5.9683	2.3143	2.8892	556.74	1.2674	16.756	0.065841	vapor
480.75	3.6794	14.791	0.067610	1105.7	1354.5	5.9728	2.3170	2.8917	557.13	1.2617	16.776	0.065982	vapor
481.50	3.6794	14.766	0.067721	1107.5	1356.7	5.9773	2.3198	2.8943	557.53	1.2560	16.795	0.066124	vapor
482.25	3.6794	14.742	0.067832	1109.3	1358.8	5.9818	2.3226	2.8968	557.92	1.2504	16.814	0.066266	vapor
483.00	3.6794	14.718	0.067943	1111.0	1361.0	5.9863	2.3254	2.8994	558.31	1.2448	16.833	0.066408	vapor
483.75	3.6794	14.694	0.068054	1112.8	1363.2	5.9908	2.3281	2.9020	558.70	1.2392	16.853	0.066550	vapor
484.50	3.6794	14.670	0.068166	1114.6	1365.4	5.9953	2.3309	2.9045	559.09	1.2337	16.872	0.066692	vapor
485.25	3.6794	14.646	0.068277	1116.3	1367.5	5.9998	2.3337	2.9071	559.48	1.2281	16.891	0.066834	vapor
486.00	3.6794	14.623	0.068388	1118.1	1369.7	6.0043	2.3365	2.9097	559.87	1.2226	16.910	0.066977	vapor
486.75	3.6794	14.599	0.068499	1119.9	1371.9	6.0088	2.3393	2.9123	560.26	1.2172	16.929	0.067119	vapor
487.50	3.6794	14.575	0.068610	1121.6	1374.1	6.0133	2.3420	2.9148	560.65	1.2117	16.949	0.067262	vapor
488.25	3.6794	14.552	0.068721	1123.4	1376.3	6.0177	2.3448	2.9174	561.04	1.2063	16.968	0.067405	vapor
489.00	3.6794	14.528	0.068832	1125.2	1378.5	6.0222	2.3476	2.9200	561.43	1.2009	16.987	0.067548	vapor
489.75	3.6794	14.505	0.068942	1127.0	1380.7	6.0267	2.3504	2.9226	561.82	1.1955	17.006	0.067691	vapor
490.50	3.6794	14.482	0.069053	1128.8	1382.8	6.0312	2.3532	2.9252	562.20	1.1902	17.025	0.067834	vapor
491.25	3.6794	14.458	0.069164	1130.6	1385.0	6.0356	2.3560	2.9277	562.59	1.1849	17.044	0.067977	vapor
492.00	3.6794	14.435	0.069275	1132.3	1387.2	6.0401	2.3587	2.9303	562.98	1.1796	17.063	0.068121	vapor
492.75	3.6794	14.412	0.069386	1134.1	1389.4	6.0446	2.3615	2.9329	563.36	1.1743	17.082	0.068264	vapor
493.50	3.6794	14.389	0.069497	1135.9	1391.6	6.0490	2.3643	2.9355	563.75	1.1691	17.102	0.068408	vapor
494.25	3.6794	14.366	0.069608	1137.7	1393.8	6.0535	2.3671	2.9381	564.14	1.1639	17.121	0.068552	vapor
495.00	3.6794	14.343	0.069719	1139.5	1396.0	6.0580	2.3699	2.9407	564.52	1.1587	17.140	0.068696	vapor
495.75	3.6794	14.321	0.069829	1141.3	1398.2	6.0624	2.3727	2.9433	564.91	1.1535	17.159	0.068840	vapor
496.50	3.6794	14.298	0.069940	1143.1	1400.5	6.0669	2.3755	2.9459	565.29	1.1484	17.178	0.068984	vapor
497.25	3.6794	14.275	0.070051	1144.9	1402.7	6.0713	2.3782	2.9485	565.67	1.1433	17.197	0.069128	vapor
498.00	3.6794	14.253	0.070162	1146.7	1404.9	6.0758	2.3810	2.9511	566.06	1.1382	17.216	0.069273	vapor
498.75	3.6794	14.230	0.070272	1148.5	1407.1	6.0802	2.3838	2.9537	566.44	1.1331	17.235	0.069417	vapor
499.50	3.6794	14.208	0.070383	1150.3	1409.3	6.0846	2.3866	2.9563	566.82	1.1281	17.254	0.069562	vapor
500.25	3.6794	14.186	0.070494	1152.2	1411.5	6.0891	2.3894	2.9589	567.21	1.1230	17.273	0.069707	vapor
501.00	3.6794	14.163	0.070604	1154.0	1413.7	6.0935	2.3922	2.9615	567.59	1.1180	17.292	0.069851	vapor
501.75	3.6794	14.141	0.070715	1155.8	1416.0	6.0979	2.3950	2.9641	567.97	1.1131	17.311	0.069996	vapor
502.50	3.6794	14.119	0.070826	1157.6	1418.2	6.1024	2.3978	2.9667	568.35	1.1081	17.329	0.070142	vapor
503.25	3.6794	14.097	0.070936	1159.4	1420.4	6.1068	2.4006	2.9693	568.73	1.1032	17.348	0.070287	vapor
504.00	3.6794	14.075	0.071047	1161.2	1422.6	6.1112	2.4033	2.9719	569.11	1.0983	17.367	0.070432	vapor
504.75	3.6794	14.053	0.071157	1163.1	1424.9	6.1156	2.4061	2.9745	569.49	1.0934	17.386	0.070578	vapor
505.50	3.6794	14.032	0.071268	1164.9	1427.1	6.1201	2.4089	2.9771	569.87	1.0886	17.405	0.070723	vapor
506.25	3.6794	14.010	0.071378	1166.7	1429.3	6.1245	2.4117	2.9797	570.25	1.0837	17.424	0.070869	vapor
507.00	3.6794	13.988	0.071489	1168.5	1431.6	6.1289	2.4145	2.9823	570.63	1.0789	17.443	0.071015	vapor
507.75	3.6794	13.967	0.071599	1170.4	1433.8	6.1333	2.4173	2.9850	571.01	1.0741	17.462	0.071161	vapor
508.50	3.6794	13.945	0.071710	1172.2	1436.1	6.1377	2.4201	2.9876	571.39	1.0694	17.481	0.071307	vapor
509.25	3.6794	13.924	0.071820	1174.0	1438.3	6.1421	2.4229	2.9902	571.77	1.0646	17.499	0.071453	vapor
510.00	3.6794	13.902	0.071931	1175.9	1440.5	6.1465	2.4257	2.9928	572.14	1.0599	17.518	0.071599	vapor
510.75	3.6794	13.881	0.072041	1177.7	1442.8	6.1509	2.4285	2.9954	572.52	1.0552	17.537	0.071746	vapor
511.50	3.6794	13.860	0.072152	1179.6	1445.0	6.1553	2.4313	2.9980	572.90	1.0505	17.556	0.071892	vapor
512.25	3.6794	13.839	0.072262	1181.4	1447.3	6.1597	2.4341	3.0007	573.27	1.0459	17.575	0.072039	vapor
513.00	3.6794	13.817	0.072373	1183.3	1449.5	6.1641	2.4368	3.0033	573.65	1.0413	17.593	0.072186	vapor
513.75	3.6794	13.796	0.072483	1185.1	1451.8	6.1685	2.4396	3.0059	574.03	1.0366	17.612	0.072333	vapor
514.50	3.6794	13.775	0.072593	1186.9	1454.0	6.1729	2.4424	3.0085	574.40	1.0321	17.631	0.072480	vapor
515.25	3.6794	13.754	0.072704	1188.8	1456.3	6.1773	2.4452	3.0112	574.78	1.0275	17.650	0.072627	vapor
516.00	3.6794	13.734	0.072814	1190.7	1458.6	6.1816	2.4480	3.0138	575.15	1.0229	17.668	0.072774	vapor
516.75	3.6794	13.713	0.072924	1192.5	1460.8	6.1860	2.4508	3.0164	575.53	1.0184	17.687	0.072921	vapor
517.50	3.6794	13.692	0.073035	1194.4	1463.1	6.1904	2.4536	3.0190	575.90	1.0139	17.706	0.073069	vapor
518.25	3.6794	13.672	0.073145	1196.2	1465.4	6.1948	2.4564	3.0217	576.27	1.0094	17.724	0.073216	vapor
519.00	3.6794	13.651	0.073255	1198.1	1467.6	6.1991	2.4592	3.0243	576.65	1.0050	17.743	0.073364	vapor
519.75	3.6794	13.630	0.073365	1200.0	1469.9	6.2035	2.4620	3.0269	577.02	1.0005	17.762	0.073512	vapor
520.50	3.6794	13.610	0.073476	1201.8	1472.2	6.2079	2.4648	3.0296	577.39	0.99610	17.780	0.073659	vapor
521.25	3.6794	13.590	0.073586	1203.7	1474.4	6.2122	2.4676	3.0322	577.76	0.99170	17.799	0.073807	vapor
522.00	3.6794	13.569	0.073696	1205.6	1476.7	6.2166	2.4704	3.0348	578.14	0.98732	17.818	0.073955	vapor
522.75	3.6794	13.549	0.073806	1207.4	1479.0	6.2210	2.4731	3.0374	578.51	0.98296	17.836	0.074104	vapor
523.50	3.6794	13.529	0.073916	1209.3	1481.3	6.2253	2.4759	3.0401	578.88	0.97862	17.855	0.074252	vapor
524.25	3.6794	13.509	0.074026	1211.2	1483.5	6.2297	2.4787	3.0427	579.25	0.97430	17.874	0.074400	vapor
525.00	3.6794	13.489	0.074137	1213.1	1485.8	6.2340	2.4815	3.0454	579.62	0.97000	17.892	0.074549	vapor
525.75	3.6794	13.469	0.074247	1214.9	1488.1	6.2384	2.4843	3.0480	579.99	0.96572	17.911	0.074697	vapor
526.50	3.6794	13.449	0.074357	1216.8	1490.4	6.2427	2.4871	3.0506	580.36	0.96146	17.929	0.074846	vapor
527.25	3.6794	13.429	0.074467	1218.7	1492.7	6.2471	2.4899	3.0533	580.73	0.95721	17.948	0.074995	vapor
528.00	3.6794	13.409	0.074577	1220.6	1495.0	6.2514	2.4927	3.0559	581.10	0.95299	17.966	0.075144	vapor
528.75	3.6794	13.389	0.074687	1222.5	1497.3	6.2558	2.4955	3.0585	581.47	0.94879	17.985	0.075293	vapor
529.50	3.6794	13.370	0.074797	1224.4	1499.6	6.2601	2.4983	3.0612	581.84	0.94460	18.003	0.075442	vapor
530.25	3.6794	13.350	0.074907	1226.3	1501.9	6.2644	2.5011	3.0638	582.21	0.94044	18.022	0.075591	vapor
531.00	3.6794	13.330	0.075017	1228.1	1504.2	6.2688	2.5038	3.0665	582.57	0.93629	18.040	0.075741	vapor
531.75	3.6794	13.311	0.075127	1230.0	1506.5	6.2731	2.5066	3.0691	582.94	0.93217	18.059	0.075890	vapor
532.50	3.6794	13.291	0.075237	1231.9	1508.8	6.2774	2.5094	3.0717	583.31	0.92806	18.077	0.076040	vapor
533.25	3.6794	13.272	0.075347	1233.8	1511.1	6.2817	2.5122	3.0744	583.68	0.92397	18.096	0.076189	vapor
534.00	3.6794	13.253	0.075457	1235.7	1513.4	6.2861	2.5150	3.0770	584.04	0.91990	18.114	0.076339	vapor
534.75	3.6794	13.233	0.075567	1237.7	1515.7	6.2904	2.5178	3.0797	584.41	0.91584	18.133	0.076489	vapor
535.50	3.6794	13.214	0.075677	1239.6	1518.0	6.2947	2.5206	3.0823	584.78	0.91181	18.151	0.076639	vapor
536.25	3.6794	13.195	0.075787	1241.5	1520.3	6.2990	2.5234	3.0849	585.14	0.90779	18.170	0.076789	vapor
537.00	3.6794	13.176	0.075897	1243.4	1522.6	6.3033	2.5262	3.0876	585.51	0.90379	18.188	0.076939	vapor
537.75	3.6794	13.157	0.076007	1245.3	1524.9	6.3076	2.5289	3.0902	585.87	0.89981	18.207	0.077089	vapor
538.50	3.6794	13.138	0.076117	1247.2	1527.3	6.3120	2.5317	3.0929	586.24	0.89585	18.225	0.077240	vapor
539.25	3.6794	13.119	0.076226	1249.1	1529.6	6.3163	2.5345	3.0955	586.60	0.89191	18.243	0.077390	vapor
540.00	3.6794	13.100	0.076336	1251.0	1531.9	6.3206	2.5373	3.0982	586.97	0.88798	18.262	0.077541	vapor
540.75	3.6794	13.081	0.076446	1253.0	1534.2	6.3249	2.5401	3.1008	587.33	0.88407	18.280	0.077691	vapor
541.50	3.6794	13.062	0.076556	1254.9	1536.6	6.3292	2.5429	3.1035	587.69	0.88018	18.298	0.077842	vapor
542.25	3.6794	13.044	0.076666	1256.8	1538.9	6.3335	2.5457	3.1061	588.06	0.87630	18.317	0.077993	vapor
543.00	3.6794	13.025	0.076776	1258.7	1541.2	6.3378	2.5484	3.1087	588.42	0.87245	18.335	0.078144	vapor
543.75	3.6794	13.006	0.076885	1260.7	1543.5	6.3420	2.5512	3.1114	588.78	0.86861	18.353	0.078295	vapor
544.50	3.6794	12.988	0.076995	1262.6	1545.9	6.3463	2.5540	3.1140	589.15	0.86479	18.372	0.078446	vapor
545.25	3.6794	12.969	0.077105	1264.5	1548.2	6.3506	2.5568	3.1167	589.51	0.86098	18.390	0.078597	vapor
546.00	3.6794	12.951	0.077215	1266.5	1550.6	6.3549	2.5596	3.1193	589.87	0.85719	18.408	0.078749	vapor
546.75	3.6794	12.933	0.077324	1268.4	1552.9	6.3592	2.5624	3.1220	590.23	0.85342	18.427	0.078900	vapor
547.50	3.6794	12.914	0.077434	1270.3	1555.2	6.3635	2.5652	3.1246	590.59	0.84967	18.445	0.079052	vapor
548.25	3.6794	12.896	0.077544	1272.3	1557.6	6.3678	2.5679	3.1273	590.95	0.84593	18.463	0.079203	vapor
549.00	3.6794	12.878	0.077653	1274.2	1559.9	6.3720	2.5707	3.1299	591.31	0.84221	18.481	0.079355	vapor
549.75	3.6794	12.860	0.077763	1276.2	1562.3	6.3763	2.5735	3.1326	591.67	0.83850	18.500	0.079507	vapor
550.50	3.6794	12.841	0.077873	1278.1	1564.6	6.3806	2.5763	3.1352	592.03	0.83481	18.518	0.079659	vapor
551.25	3.6794	12.823	0.077982	1280.1	1567.0	6.3849	2.5791	3.1379	592.39	0.83114	18.536	0.079811	vapor
552.00	3.6794	12.805	0.078092	1282.0	1569.3	6.3891	2.5818	3.1405	592.75	0.82749	18.554	0.079963	vapor
552.75	3.6794	12.787	0.078202	1284.0	1571.7	6.3934	2.5846	3.1432	593.11	0.82385	18.572	0.080115	vapor
553.50	3.6794	12.770	0.078311	1285.9	1574.1	6.3976	2.5874	3.1458	593.47	0.82022	18.591	0.080267	vapor
554.25	3.6794	12.752	0.078421	1287.9	1576.4	6.4019	2.5902	3.1485	593.83	0.81661	18.609	0.080420	vapor
555.00	3.6794	12.734	0.078530	1289.8	1578.8	6.4062	2.5929	3.1511	594.19	0.81302	18.627	0.080572	vapor
555.75	3.6794	12.716	0.078640	1291.8	1581.1	6.4104	2.5957	3.1538	594.55	0.80945	18.645	0.080725	vapor
556.50	3.6794	12.698	0.078750	1293.8	1583.5	6.4147	2.5985	3.1564	594.90	0.80589	18.663	0.080877	vapor
557.25	3.6794	12.681	0.078859	1295.7	1585.9	6.4189	2.6013	3.1591	595.26	0.80234	18.681	0.081030	vapor
558.00	3.6794	12.663	0.078969	1297.7	1588.2	6.4232	2.6041	3.1617	595.62	0.79881	18.700	0.081183	vapor
558.75	3.6794	12.646	0.079078	1299.7	1590.6	6.4274	2.6068	3.1644	595.97	0.79530	18.718	0.081336	vapor
559.50	3.6794	12.628	0.079188	1301.6	1593.0	6.4317	2.6096	3.1670	596.33	0.79180	18.736	0.081489	vapor
560.25	3.6794	12.611	0.079297	1303.6	1595.4	6.4359	2.6124	3.1697	596.69	0.78832	18.754	0.081642	vapor
561.00	3.6794	12.593	0.079407	1305.6	1597.7	6.4402	2.6151	3.1723	597.04	0.78485	18.772	0.081795	vapor
561.75	3.6794	12.576	0.079516	1307.6	1600.1	6.4444	2.6179	3.1750	597.40	0.78140	18.790	0.081949	vapor
562.50	3.6794	12.559	0.079626	1309.5	1602.5	6.4486	2.6207	3.1776	597.76	0.77796	18.808	0.082102	vapor
563.25	3.6794	12.542	0.079735	1311.5	1604.9	6.4529	2.6235	3.1803	598.11	0.77454	18.826	0.082255	vapor
564.00	3.6794	12.524	0.079845	1313.5	1607.3	6.4571	2.6262	3.1829	598.47	0.77113	18.844	0.082409	vapor
564.75	3.6794	12.507	0.079954	1315.5	1609.7	6.4613	2.6290	3.1856	598.82	0.76773	18.862	0.082563	vapor
565.50	3.6794	12.490	0.080063	1317.5	1612.1	6.4656	2.6318	3.1882	599.17	0.76436	18.880	0.082716	vapor
566.25	3.6794	12.473	0.080173	1319.5	1614.4	6.4698	2.6345	3.1909	599.53	0.76099	18.898	0.082870	vapor
567.00	3.6794	12.456	0.080282	1321.5	1616.8	6.4740	2.6373	3.1935	599.88	0.75764	18.916	0.083024	vapor
567.75	3.6794	12.439	0.080392	1323.4	1619.2	6.4783	2.6401	3.1962	600.24	0.75431	18.934	0.083178	vapor
568.50	3.6794	12.422	0.080501	1325.4	1621.6	6.4825	2.6428	3.1988	600.59	0.75099	18.952	0.083332	vapor
569.25	3.6794	12.405	0.080610	1327.4	1624.0	6.4867	2.6456	3.2015	600.94	0.74768	18.970	0.083486	vapor
570.00	3.6794	12.389	0.080720	1329.4	1626.4	6.4909	2.6484	3.2041	601.29	0.74439	18.988	0.083641	vapor
570.75	3.6794	12.372	0.080829	1331.4	1628.8	6.4951	2.6511	3.2067	601.65	0.74111	19.006	0.083795	vapor
571.50	3.6794	12.355	0.080938	1333.4	1631.2	6.4993	2.6539	3.2094	602.00	0.73785	19.024	0.083950	vapor
572.25	3.6794	12.338	0.081048	1335.5	1633.7	6.5035	2.6567	3.2120	602.35	0.73460	19.042	0.084104	vapor
573.00	3.6794	12.322	0.081157	1337.5	1636.1	6.5078	2.6594	3.2147	602.70	0.73137	19.060	0.084259	vapor
573.75	3.6794	12.305	0.081266	1339.5	1638.5	6.5120	2.6622	3.2173	603.05	0.72814	19.078	0.084413	vapor
574.50	3.6794	12.289	0.081376	1341.5	1640.9	6.5162	2.6649	3.2200	603.41	0.72494	19.096	0.084568	vapor
575.25	3.6794	12.272	0.081485	1343.5	1643.3	6.5204	2.6677	3.2226	603.76	0.72174	19.114	0.084723	vapor
576.00	3.6794	12.256	0.081594	1345.5	1645.7	6.5246	2.6705	3.2253	604.11	0.71856	19.132	0.084878	vapor
576.75	3.6794	12.239	0.081703	1347.5	1648.1	6.5288	2.6732	3.2279	604.46	0.71540	19.149	0.085033	vapor
577.50	3.6794	12.223	0.081813	1349.6	1650.6	6.5330	2.6760	3.2306	604.81	0.71224	19.167	0.085188	vapor
578.25	3.6794	12.207	0.081922	1351.6	1653.0	6.5372	2.6787	3.2332	605.16	0.70910	19.185	0.085343	vapor
579.00	3.6794	12.190	0.082031	1353.6	1655.4	6.5414	2.6815	3.2359	605.51	0.70598	19.203	0.085499	vapor
579.75	3.6794	12.174	0.082140	1355.6	1657.8	6.5455	2.6842	3.2385	605.86	0.70286	19.221	0.085654	vapor
580.50	3.6794	12.158	0.082250	1357.7	1660.3	6.5497	2.6870	3.2412	606.21	0.69976	19.239	0.085809	vapor
581.25	3.6794	12.142	0.082359	1359.7	1662.7	6.5539	2.6897	3.2438	606.55	0.69668	19.256	0.085965	vapor
582.00	3.6794	12.126	0.082468	1361.7	1665.1	6.5581	2.6925	3.2464	606.90	0.69360	19.274	0.086121	vapor
582.75	3.6794	12.110	0.082577	1363.7	1667.6	6.5623	2.6953	3.2491	607.25	0.69054	19.292	0.086276	vapor
583.50	3.6794	12.094	0.082686	1365.8	1670.0	6.5665	2.6980	3.2517	607.60	0.68750	19.310	0.086432	vapor
584.25	3.6794	12.078	0.082795	1367.8	1672.5	6.5706	2.7008	3.2544	607.95	0.68446	19.328	0.086588	vapor
585.00	3.6794	12.062	0.082905	1369.9	1674.9	6.5748	2.7035	3.2570	608.29	0.68144	19.345	0.086744	vapor
585.75	3.6794	12.046	0.083014	1371.9	1677.3	6.5790	2.7063	3.2597	608.64	0.67843	19.363	0.086900	vapor
586.50	3.6794	12.030	0.083123	1373.9	1679.8	6.5832	2.7090	3.2623	608.99	0.67543	19.381	0.087056	vapor
587.25	3.6794	12.015	0.083232	1376.0	1682.2	6.5873	2.7117	3.2649	609.34	0.67245	19.399	0.087212	vapor
588.00	3.6794	11.999	0.083341	1378.0	1684.7	6.5915	2.7145	3.2676	609.68	0.66948	19.416	0.087368	vapor
588.75	3.6794	11.983	0.083450	1380.1	1687.1	6.5957	2.7172	3.2702	610.03	0.66652	19.434	0.087525	vapor
589.50	3.6794	11.968	0.083559	1382.1	1689.6	6.5998	2.7200	3.2729	610.37	0.66357	19.452	0.087681	vapor
590.25	3.6794	11.952	0.083668	1384.2	1692.0	6.6040	2.7227	3.2755	610.72	0.66064	19.469	0.087838	vapor
591.00	3.6794	11.936	0.083777	1386.3	1694.5	6.6082	2.7255	3.2781	611.07	0.65772	19.487	0.087994	vapor
591.75	3.6794	11.921	0.083886	1388.3	1697.0	6.6123	2.7282	3.2808	611.41	0.65481	19.505	0.088151	vapor
592.50	3.6794	11.905	0.083995	1390.4	1699.4	6.6165	2.7309	3.2834	611.76	0.65191	19.522	0.088308	vapor
593.25	3.6794	11.890	0.084104	1392.4	1701.9	6.6206	2.7337	3.2861	612.10	0.64903	19.540	0.088464	vapor
594.00	3.6794	11.875	0.084213	1394.5	1704.4	6.6248	2.7364	3.2887	612.44	0.64615	19.558	0.088621	vapor
594.75	3.6794	11.859	0.084322	1396.6	1706.8	6.6289	2.7392	3.2913	612.79	0.64329	19.575	0.088778	vapor
595.50	3.6794	11.844	0.084431	1398.6	1709.3	6.6331	2.7419	3.2940	613.13	0.64044	19.593	0.088935	vapor
596.25	3.6794	11.829	0.084540	1400.7	1711.8	6.6372	2.7446	3.2966	613.48	0.63761	19.611	0.089092	vapor
597.00	3.6794	11.813	0.084649	1402.8	1714.2	6.6414	2.7474	3.2992	613.82	0.63478	19.628	0.089250	vapor
597.75	3.6794	11.798	0.084758	1404.9	1716.7	6.6455	2.7501	3.3019	614.16	0.63197	19.646	0.089407	vapor
598.50	3.6794	11.783	0.084867	1406.9	1719.2	6.6497	2.7528	3.3045	614.51	0.62917	19.664	0.089564	vapor
599.25	3.6794	11.768	0.084976	1409.0	1721.7	6.6538	2.7556	3.3072	614.85	0.62638	19.681	0.089722	vapor
600.00	3.6794	11.753	0.085085	1411.1	1724.1	6.6579	2.7583	3.3098	615.19	0.62360	19.699	0.089879	vapor
