Temperature (K)	Pressure (MPa)	Density (kg/m3)	Volume (m3/kg)	Internal Energy (kJ/kg)	Enthalpy (kJ/kg)	Entropy (J/g*K)	Cv (J/g*K)	Cp (J/g*K)	Sound Spd. (m/s)	Joule-Thomson (K/MPa)	Viscosity (uPa*s)	Therm. Cond. (W/m*K)	Phase
100.00	4.0000	441.84	0.0022633	-43.090	-34.037	-0.40707	2.1240	3.3798	1482.5	-0.46773	160.52	0.20339	liquid
101.00	4.0000	440.50	0.0022701	-39.735	-30.655	-0.37341	2.1189	3.3842	1473.4	-0.46512	156.61	0.20211	liquid
102.00	4.0000	439.16	0.0022771	-36.377	-27.268	-0.34005	2.1138	3.3887	1464.3	-0.46243	152.86	0.20082	liquid
103.00	4.0000	437.82	0.0022841	-33.014	-23.877	-0.30697	2.1087	3.3934	1455.1	-0.45965	149.27	0.19952	liquid
104.00	4.0000	436.46	0.0022911	-29.646	-20.482	-0.27416	2.1037	3.3981	1445.9	-0.45680	145.83	0.19822	liquid
105.00	4.0000	435.11	0.0022983	-26.274	-17.081	-0.24162	2.0988	3.4030	1436.7	-0.45387	142.52	0.19690	liquid
106.00	4.0000	433.75	0.0023055	-22.898	-13.676	-0.20934	2.0940	3.4080	1427.4	-0.45084	139.33	0.19558	liquid
107.00	4.0000	432.38	0.0023128	-19.516	-10.265	-0.17731	2.0892	3.4131	1418.1	-0.44773	136.25	0.19425	liquid
108.00	4.0000	431.00	0.0023202	-16.130	-6.8492	-0.14554	2.0844	3.4184	1408.8	-0.44453	133.29	0.19292	liquid
109.00	4.0000	429.62	0.0023276	-12.739	-3.4281	-0.11401	2.0797	3.4238	1399.4	-0.44124	130.42	0.19158	liquid
110.00	4.0000	428.24	0.0023351	-9.3421	-0.0015460	-0.082713	2.0750	3.4293	1390.0	-0.43785	127.65	0.19023	liquid
111.00	4.0000	426.85	0.0023428	-5.9405	3.4306	-0.051653	2.0704	3.4350	1380.6	-0.43436	124.97	0.18888	liquid
112.00	4.0000	425.45	0.0023505	-2.5334	6.8685	-0.020819	2.0658	3.4408	1371.1	-0.43077	122.37	0.18752	liquid
113.00	4.0000	424.04	0.0023583	0.87923	10.312	0.0097922	2.0612	3.4468	1361.6	-0.42708	119.85	0.18616	liquid
114.00	4.0000	422.62	0.0023662	4.2975	13.762	0.040187	2.0567	3.4529	1352.1	-0.42327	117.40	0.18479	liquid
115.00	4.0000	421.20	0.0023741	7.7216	17.218	0.070371	2.0522	3.4592	1342.5	-0.41935	115.02	0.18342	liquid
116.00	4.0000	419.78	0.0023822	11.152	20.681	0.10035	2.0478	3.4656	1332.9	-0.41532	112.72	0.18205	liquid
117.00	4.0000	418.34	0.0023904	14.588	24.149	0.13012	2.0434	3.4722	1323.3	-0.41116	110.47	0.18067	liquid
118.00	4.0000	416.89	0.0023987	18.030	27.625	0.15970	2.0390	3.4790	1313.6	-0.40687	108.29	0.17929	liquid
119.00	4.0000	415.44	0.0024071	21.479	31.107	0.18909	2.0347	3.4860	1303.9	-0.40245	106.16	0.17791	liquid
120.00	4.0000	413.98	0.0024156	24.935	34.597	0.21829	2.0304	3.4931	1294.2	-0.39789	104.09	0.17653	liquid
121.00	4.0000	412.51	0.0024242	28.397	38.094	0.24731	2.0262	3.5005	1284.4	-0.39319	102.07	0.17514	liquid
122.00	4.0000	411.03	0.0024329	31.866	41.598	0.27615	2.0220	3.5081	1274.6	-0.38835	100.11	0.17376	liquid
123.00	4.0000	409.55	0.0024417	35.343	45.110	0.30482	2.0178	3.5159	1264.8	-0.38335	98.188	0.17237	liquid
124.00	4.0000	408.05	0.0024507	38.827	48.630	0.33332	2.0136	3.5239	1254.9	-0.37819	96.318	0.17097	liquid
125.00	4.0000	406.55	0.0024598	42.319	52.158	0.36166	2.0096	3.5322	1245.0	-0.37286	94.492	0.16958	liquid
126.00	4.0000	405.03	0.0024690	45.818	55.694	0.38984	2.0055	3.5407	1235.0	-0.36736	92.710	0.16819	liquid
127.00	4.0000	403.50	0.0024783	49.326	59.239	0.41786	2.0015	3.5495	1225.0	-0.36167	90.969	0.16680	liquid
128.00	4.0000	401.97	0.0024878	52.842	62.793	0.44574	1.9975	3.5585	1215.0	-0.35580	89.269	0.16540	liquid
129.00	4.0000	400.42	0.0024974	56.367	66.356	0.47347	1.9936	3.5679	1204.9	-0.34973	87.607	0.16401	liquid
130.00	4.0000	398.86	0.0025071	59.901	69.929	0.50106	1.9897	3.5776	1194.8	-0.34345	85.984	0.16261	liquid
131.00	4.0000	397.29	0.0025171	63.444	73.512	0.52851	1.9859	3.5876	1184.6	-0.33696	84.396	0.16121	liquid
132.00	4.0000	395.71	0.0025271	66.996	77.104	0.55583	1.9821	3.5979	1174.4	-0.33024	82.843	0.15982	liquid
133.00	4.0000	394.11	0.0025373	70.558	80.708	0.58302	1.9783	3.6086	1164.1	-0.32328	81.324	0.15842	liquid
134.00	4.0000	392.51	0.0025477	74.131	84.322	0.61010	1.9746	3.6197	1153.8	-0.31608	79.838	0.15702	liquid
135.00	4.0000	390.89	0.0025583	77.714	87.947	0.63705	1.9710	3.6311	1143.5	-0.30863	78.383	0.15562	liquid
136.00	4.0000	389.25	0.0025690	81.308	91.584	0.66389	1.9674	3.6430	1133.1	-0.30090	76.959	0.15422	liquid
137.00	4.0000	387.60	0.0025800	84.913	95.233	0.69063	1.9638	3.6553	1122.6	-0.29289	75.564	0.15283	liquid
138.00	4.0000	385.94	0.0025911	88.531	98.895	0.71726	1.9603	3.6681	1112.1	-0.28458	74.198	0.15143	liquid
139.00	4.0000	384.26	0.0026024	92.160	102.57	0.74379	1.9569	3.6813	1101.5	-0.27596	72.860	0.15003	liquid
140.00	4.0000	382.57	0.0026139	95.802	106.26	0.77023	1.9535	3.6951	1090.8	-0.26701	71.549	0.14863	liquid
141.00	4.0000	380.86	0.0026256	99.457	109.96	0.79658	1.9501	3.7094	1080.1	-0.25771	70.264	0.14723	liquid
142.00	4.0000	379.13	0.0026376	103.13	113.68	0.82284	1.9469	3.7242	1069.4	-0.24805	69.004	0.14583	liquid
143.00	4.0000	377.39	0.0026498	106.81	117.41	0.84903	1.9437	3.7397	1058.6	-0.23801	67.769	0.14443	liquid
144.00	4.0000	375.63	0.0026622	110.51	121.16	0.87515	1.9405	3.7558	1047.7	-0.22757	66.557	0.14303	liquid
145.00	4.0000	373.85	0.0026749	114.22	124.92	0.90120	1.9374	3.7726	1036.7	-0.21670	65.368	0.14163	liquid
146.00	4.0000	372.05	0.0026878	117.95	128.70	0.92719	1.9344	3.7901	1025.6	-0.20538	64.201	0.14023	liquid
147.00	4.0000	370.23	0.0027010	121.70	132.50	0.95312	1.9315	3.8084	1014.5	-0.19359	63.056	0.13882	liquid
148.00	4.0000	368.39	0.0027145	125.46	136.32	0.97900	1.9286	3.8275	1003.3	-0.18129	61.931	0.13742	liquid
149.00	4.0000	366.52	0.0027284	129.24	140.16	1.0048	1.9258	3.8475	992.00	-0.16845	60.827	0.13601	liquid
150.00	4.0000	364.63	0.0027425	133.04	144.01	1.0307	1.9231	3.8684	980.62	-0.15505	59.741	0.13461	liquid
151.00	4.0000	362.72	0.0027569	136.87	147.89	1.0564	1.9204	3.8903	969.15	-0.14105	58.675	0.13320	liquid
152.00	4.0000	360.79	0.0027717	140.71	151.80	1.0822	1.9179	3.9133	957.58	-0.12640	57.627	0.13179	liquid
153.00	4.0000	358.82	0.0027869	144.57	155.72	1.1079	1.9154	3.9375	945.91	-0.11107	56.596	0.13038	liquid
154.00	4.0000	356.83	0.0028024	148.46	159.67	1.1337	1.9131	3.9628	934.13	-0.095007	55.582	0.12897	liquid
155.00	4.0000	354.81	0.0028184	152.37	163.65	1.1594	1.9108	3.9895	922.24	-0.078163	54.584	0.12755	liquid
156.00	4.0000	352.76	0.0028348	156.31	167.65	1.1851	1.9086	4.0177	910.23	-0.060480	53.601	0.12613	liquid
157.00	4.0000	350.67	0.0028516	160.28	171.68	1.2109	1.9066	4.0474	898.10	-0.041899	52.634	0.12471	liquid
158.00	4.0000	348.56	0.0028690	164.27	175.75	1.2367	1.9046	4.0788	885.84	-0.022349	51.681	0.12328	liquid
159.00	4.0000	346.40	0.0028868	168.29	179.84	1.2625	1.9028	4.1120	873.45	-0.0017567	50.741	0.12185	liquid
160.00	4.0000	344.21	0.0029052	172.35	183.97	1.2884	1.9011	4.1473	860.91	0.019963	49.814	0.12041	liquid
161.00	4.0000	341.98	0.0029242	176.44	188.14	1.3144	1.8996	4.1848	848.21	0.042904	48.900	0.11897	liquid
162.00	4.0000	339.70	0.0029438	180.57	192.34	1.3404	1.8982	4.2247	835.36	0.067171	47.997	0.11752	liquid
163.00	4.0000	337.38	0.0029640	184.73	196.59	1.3665	1.8970	4.2673	822.33	0.092882	47.105	0.11607	liquid
164.00	4.0000	335.01	0.0029850	188.94	200.88	1.3928	1.8959	4.3129	809.11	0.12017	46.223	0.11461	liquid
165.00	4.0000	332.58	0.0030068	193.19	205.21	1.4191	1.8950	4.3618	795.70	0.14919	45.351	0.11314	liquid
166.00	4.0000	330.10	0.0030294	197.48	209.60	1.4457	1.8944	4.4144	782.08	0.18011	44.487	0.11166	liquid
167.00	4.0000	327.56	0.0030529	201.83	214.04	1.4723	1.8939	4.4712	768.22	0.21314	43.631	0.11017	liquid
168.00	4.0000	324.95	0.0030774	206.24	218.55	1.4992	1.8937	4.5327	754.12	0.24849	42.782	0.10867	liquid
169.00	4.0000	322.27	0.0031030	210.70	223.11	1.5263	1.8938	4.5996	739.76	0.28645	41.939	0.10716	liquid
170.00	4.0000	319.52	0.0031297	215.23	227.75	1.5537	1.8942	4.6726	725.10	0.32731	41.100	0.10564	liquid
171.00	4.0000	316.67	0.0031578	219.83	232.46	1.5813	1.8949	4.7527	710.12	0.37146	40.266	0.10410	liquid
172.00	4.0000	313.74	0.0031874	224.50	237.25	1.6093	1.8960	4.8411	694.79	0.41933	39.433	0.10254	liquid
173.00	4.0000	310.70	0.0032186	229.27	242.14	1.6376	1.8975	4.9392	679.06	0.47144	38.602	0.10097	liquid
174.00	4.0000	307.54	0.0032516	234.13	247.14	1.6664	1.8996	5.0490	662.91	0.52845	37.770	0.099373	liquid
175.00	4.0000	304.26	0.0032867	239.10	252.25	1.6957	1.9022	5.1726	646.26	0.59115	36.936	0.097754	liquid
176.00	4.0000	300.82	0.0033242	244.19	257.49	1.7255	1.9056	5.3134	629.06	0.66052	36.096	0.096109	liquid
177.00	4.0000	297.22	0.0033645	249.42	262.88	1.7561	1.9097	5.4753	611.23	0.73782	35.249	0.094434	liquid
178.00	4.0000	293.42	0.0034080	254.82	268.45	1.7874	1.9149	5.6641	592.66	0.82470	34.391	0.092726	liquid
179.00	4.0000	289.39	0.0034555	260.40	274.22	1.8198	1.9214	5.8880	573.22	0.92332	33.518	0.090980	liquid
180.00	4.0000	285.08	0.0035077	266.21	280.24	1.8533	1.9295	6.1588	552.74	1.0367	32.625	0.089189	liquid
181.00	4.0000	280.43	0.0035659	272.30	286.56	1.8883	1.9397	6.4950	531.00	1.1689	31.703	0.087349	liquid
182.00	4.0000	275.35	0.0036317	278.73	293.26	1.9252	1.9529	6.9271	507.64	1.3264	30.743	0.085451	liquid
183.00	4.0000	269.70	0.0037079	285.63	300.46	1.9647	1.9704	7.5096	482.15	1.5191	29.728	0.083486	liquid
184.00	4.0000	263.24	0.0037989	293.17	308.37	2.0078	1.9946	8.3535	453.67	1.7642	28.632	0.081448	liquid
185.00	4.0000	255.53	0.0039134	301.69	317.34	2.0564	2.0305	9.7301	420.56	2.0963	27.406	0.079341	liquid
186.00	4.0000	245.53	0.0040729	312.00	328.29	2.1154	2.0923	12.589	378.83	2.6035	25.931	0.077254	liquid
186.11	4.0000	244.17	0.0040955	313.33	329.71	2.1231	2.1023	13.129	373.28	2.6798	25.740	0.077042	liquid
186.11	4.0000	86.337	0.011583	459.41	505.74	3.0689	2.3681	16.723	255.72	11.072	9.5284	0.048774	vapor
187.00	4.0000	80.873	0.012365	468.45	517.91	3.1342	2.2339	11.554	263.29	11.133	9.3592	0.043823	vapor
188.00	4.0000	76.702	0.013038	475.95	528.10	3.1885	2.1406	9.1115	269.66	11.102	9.2532	0.040969	vapor
189.00	4.0000	73.528	0.013600	482.08	536.48	3.2330	2.0760	7.7611	274.88	11.025	9.1867	0.039251	vapor
190.00	4.0000	70.942	0.014096	487.40	543.78	3.2715	2.0278	6.8870	279.41	10.925	9.1423	0.038224	vapor
191.00	4.0000	68.749	0.014546	492.16	550.34	3.3059	1.9901	6.2681	283.46	10.812	9.1121	0.036684	vapor
192.00	4.0000	66.840	0.014961	496.52	556.37	3.3374	1.9597	5.8035	287.17	10.693	9.0920	0.035096	vapor
193.00	4.0000	65.146	0.015350	500.58	561.98	3.3666	1.9346	5.4399	290.60	10.571	9.0792	0.034043	vapor
194.00	4.0000	63.623	0.015718	504.40	567.27	3.3939	1.9133	5.1466	293.82	10.447	9.0722	0.033256	vapor
195.00	4.0000	62.238	0.016067	508.02	572.29	3.4197	1.8951	4.9041	296.86	10.323	9.0697	0.032638	vapor
196.00	4.0000	60.967	0.016402	511.48	577.09	3.4443	1.8792	4.6997	299.75	10.200	9.0710	0.032140	vapor
197.00	4.0000	59.792	0.016725	514.80	581.70	3.4677	1.8652	4.5248	302.52	10.078	9.0753	0.031731	vapor
198.00	4.0000	58.700	0.017036	518.01	586.15	3.4903	1.8527	4.3732	305.17	9.9584	9.0823	0.031391	vapor
199.00	4.0000	57.680	0.017337	521.11	590.45	3.5119	1.8416	4.2402	307.73	9.8403	9.0915	0.031105	vapor
200.00	4.0000	56.723	0.017630	524.12	594.63	3.5329	1.8314	4.1224	310.20	9.7244	9.1026	0.030864	vapor
201.00	4.0000	55.821	0.017914	527.05	598.70	3.5532	1.8222	4.0174	312.60	9.6105	9.1153	0.030660	vapor
202.00	4.0000	54.969	0.018192	529.90	602.67	3.5729	1.8137	3.9230	314.92	9.4989	9.1295	0.030487	vapor
203.00	4.0000	54.160	0.018464	532.70	606.55	3.5920	1.8059	3.8376	317.18	9.3895	9.1450	0.030340	vapor
204.00	4.0000	53.392	0.018729	535.43	610.35	3.6107	1.7987	3.7599	319.38	9.2822	9.1617	0.030215	vapor
205.00	4.0000	52.660	0.018990	538.12	614.07	3.6289	1.7920	3.6890	321.52	9.1771	9.1794	0.030110	vapor
206.00	4.0000	51.962	0.019245	540.75	617.73	3.6467	1.7858	3.6238	323.62	9.0742	9.1980	0.030021	vapor
207.00	4.0000	51.293	0.019496	543.34	621.32	3.6641	1.7799	3.5638	325.67	8.9733	9.2174	0.029948	vapor
208.00	4.0000	50.652	0.019742	545.89	624.86	3.6812	1.7745	3.5083	327.67	8.8744	9.2375	0.029888	vapor
209.00	4.0000	50.037	0.019985	548.40	628.34	3.6979	1.7693	3.4569	329.64	8.7774	9.2583	0.029839	vapor
210.00	4.0000	49.446	0.020224	550.88	631.77	3.7142	1.7645	3.4089	331.56	8.6824	9.2797	0.029801	vapor
211.00	4.0000	48.877	0.020460	553.32	635.16	3.7303	1.7600	3.3643	333.45	8.5892	9.3017	0.029773	vapor
212.00	4.0000	48.328	0.020692	555.74	638.50	3.7461	1.7557	3.3225	335.31	8.4978	9.3242	0.029753	vapor
213.00	4.0000	47.798	0.020921	558.12	641.81	3.7617	1.7517	3.2833	337.13	8.4081	9.3472	0.029740	vapor
214.00	4.0000	47.286	0.021148	560.48	645.07	3.7770	1.7479	3.2465	338.92	8.3201	9.3706	0.029735	vapor
215.00	4.0000	46.791	0.021371	562.81	648.30	3.7920	1.7443	3.2119	340.68	8.2338	9.3944	0.029737	vapor
216.00	4.0000	46.312	0.021593	565.13	651.50	3.8068	1.7409	3.1793	342.42	8.1490	9.4186	0.029744	vapor
217.00	4.0000	45.848	0.021811	567.41	654.66	3.8215	1.7377	3.1485	344.12	8.0658	9.4431	0.029757	vapor
218.00	4.0000	45.397	0.022028	569.68	657.79	3.8359	1.7346	3.1193	345.80	7.9841	9.4679	0.029775	vapor
219.00	4.0000	44.960	0.022242	571.93	660.90	3.8501	1.7318	3.0918	347.46	7.9038	9.4930	0.029797	vapor
220.00	4.0000	44.535	0.022454	574.16	663.98	3.8641	1.7291	3.0656	349.09	7.8249	9.5184	0.029824	vapor
221.00	4.0000	44.123	0.022664	576.37	667.03	3.8780	1.7265	3.0408	350.70	7.7474	9.5441	0.029855	vapor
222.00	4.0000	43.721	0.022872	578.57	670.06	3.8916	1.7241	3.0172	352.29	7.6712	9.5700	0.029890	vapor
223.00	4.0000	43.330	0.023079	580.75	673.07	3.9051	1.7218	2.9948	353.86	7.5962	9.5961	0.029928	vapor
224.00	4.0000	42.949	0.023283	582.92	676.05	3.9185	1.7197	2.9734	355.40	7.5226	9.6224	0.029969	vapor
225.00	4.0000	42.578	0.023486	585.07	679.01	3.9317	1.7177	2.9530	356.93	7.4501	9.6490	0.030014	vapor
226.00	4.0000	42.216	0.023688	587.20	681.96	3.9447	1.7158	2.9336	358.44	7.3788	9.6757	0.030062	vapor
227.00	4.0000	41.863	0.023888	589.33	684.88	3.9577	1.7140	2.9150	359.93	7.3087	9.7025	0.030112	vapor
228.00	4.0000	41.518	0.024086	591.44	687.79	3.9704	1.7123	2.8973	361.40	7.2397	9.7296	0.030165	vapor
229.00	4.0000	41.181	0.024283	593.54	690.67	3.9831	1.7107	2.8804	362.86	7.1718	9.7568	0.030220	vapor
230.00	4.0000	40.852	0.024478	595.63	693.55	3.9956	1.7093	2.8641	364.30	7.1049	9.7841	0.030278	vapor
231.00	4.0000	40.531	0.024673	597.71	696.40	4.0080	1.7079	2.8486	365.72	7.0391	9.8116	0.030338	vapor
232.00	4.0000	40.216	0.024866	599.78	699.24	4.0202	1.7066	2.8337	367.13	6.9742	9.8392	0.030400	vapor
233.00	4.0000	39.908	0.025057	601.84	702.07	4.0324	1.7055	2.8195	368.52	6.9104	9.8669	0.030464	vapor
234.00	4.0000	39.607	0.025248	603.89	704.88	4.0444	1.7044	2.8058	369.90	6.8475	9.8948	0.030530	vapor
235.00	4.0000	39.312	0.025437	605.93	707.68	4.0564	1.7034	2.7927	371.26	6.7855	9.9227	0.030598	vapor
236.00	4.0000	39.023	0.025626	607.97	710.47	4.0682	1.7025	2.7801	372.61	6.7244	9.9508	0.030668	vapor
237.00	4.0000	38.740	0.025813	609.99	713.24	4.0799	1.7016	2.7680	373.95	6.6642	9.9789	0.030739	vapor
238.00	4.0000	38.463	0.025999	612.01	716.01	4.0916	1.7009	2.7564	375.27	6.6049	10.007	0.030812	vapor
239.00	4.0000	38.190	0.026185	614.02	718.76	4.1031	1.7002	2.7452	376.58	6.5464	10.036	0.030886	vapor
240.00	4.0000	37.924	0.026369	616.02	721.50	4.1146	1.6996	2.7345	377.88	6.4887	10.064	0.030962	vapor
241.00	4.0000	37.662	0.026552	618.02	724.23	4.1259	1.6990	2.7242	379.17	6.4318	10.092	0.031040	vapor
242.00	4.0000	37.405	0.026735	620.01	726.94	4.1372	1.6986	2.7142	380.44	6.3758	10.121	0.031118	vapor
243.00	4.0000	37.152	0.026916	621.99	729.65	4.1483	1.6982	2.7047	381.70	6.3204	10.150	0.031198	vapor
244.00	4.0000	36.905	0.027097	623.97	732.35	4.1594	1.6979	2.6955	382.95	6.2659	10.178	0.031280	vapor
245.00	4.0000	36.661	0.027277	625.94	735.05	4.1704	1.6976	2.6866	384.19	6.2120	10.207	0.031362	vapor
246.00	4.0000	36.422	0.027456	627.90	737.73	4.1814	1.6974	2.6781	385.42	6.1589	10.236	0.031446	vapor
247.00	4.0000	36.187	0.027634	629.87	740.40	4.1922	1.6972	2.6699	386.64	6.1065	10.265	0.031531	vapor
248.00	4.0000	35.956	0.027812	631.82	743.07	4.2030	1.6971	2.6620	387.85	6.0547	10.294	0.031617	vapor
249.00	4.0000	35.729	0.027988	633.77	745.73	4.2137	1.6971	2.6544	389.05	6.0036	10.323	0.031704	vapor
250.00	4.0000	35.506	0.028164	635.72	748.38	4.2243	1.6971	2.6470	390.24	5.9532	10.352	0.031793	vapor
251.00	4.0000	35.286	0.028340	637.66	751.02	4.2348	1.6972	2.6399	391.42	5.9034	10.381	0.031882	vapor
252.00	4.0000	35.070	0.028514	639.60	753.66	4.2453	1.6974	2.6331	392.59	5.8543	10.410	0.031972	vapor
253.00	4.0000	34.857	0.028688	641.53	756.29	4.2557	1.6976	2.6266	393.75	5.8057	10.439	0.032063	vapor
254.00	4.0000	34.648	0.028862	643.46	758.91	4.2661	1.6978	2.6202	394.90	5.7578	10.468	0.032156	vapor
255.00	4.0000	34.442	0.029034	645.39	761.53	4.2764	1.6981	2.6141	396.04	5.7104	10.497	0.032249	vapor
256.00	4.0000	34.239	0.029206	647.31	764.14	4.2866	1.6985	2.6083	397.18	5.6636	10.527	0.032343	vapor
257.00	4.0000	34.039	0.029378	649.23	766.74	4.2968	1.6988	2.6026	398.30	5.6174	10.556	0.032438	vapor
258.00	4.0000	33.842	0.029549	651.15	769.34	4.3069	1.6993	2.5972	399.42	5.5717	10.585	0.032534	vapor
259.00	4.0000	33.648	0.029719	653.06	771.94	4.3169	1.6998	2.5919	400.53	5.5266	10.614	0.032631	vapor
260.00	4.0000	33.457	0.029889	654.97	774.53	4.3269	1.7003	2.5869	401.63	5.4820	10.644	0.032728	vapor
261.00	4.0000	33.269	0.030058	656.88	777.11	4.3368	1.7009	2.5820	402.73	5.4379	10.673	0.032826	vapor
262.00	4.0000	33.083	0.030227	658.78	779.69	4.3467	1.7015	2.5773	403.81	5.3944	10.703	0.032926	vapor
263.00	4.0000	32.900	0.030395	660.69	782.27	4.3565	1.7022	2.5728	404.89	5.3513	10.732	0.033026	vapor
264.00	4.0000	32.720	0.030563	662.59	784.84	4.3662	1.7029	2.5684	405.96	5.3087	10.761	0.033126	vapor
265.00	4.0000	32.542	0.030730	664.48	787.40	4.3759	1.7036	2.5643	407.02	5.2666	10.791	0.033228	vapor
266.00	4.0000	32.366	0.030897	666.38	789.96	4.3856	1.7044	2.5602	408.08	5.2250	10.820	0.033330	vapor
267.00	4.0000	32.193	0.031063	668.27	792.52	4.3952	1.7052	2.5564	409.13	5.1839	10.850	0.033433	vapor
268.00	4.0000	32.022	0.031229	670.16	795.08	4.4047	1.7061	2.5526	410.17	5.1432	10.879	0.033537	vapor
269.00	4.0000	31.853	0.031394	672.05	797.63	4.4142	1.7070	2.5491	411.21	5.1030	10.909	0.033641	vapor
270.00	4.0000	31.687	0.031559	673.94	800.18	4.4237	1.7080	2.5456	412.23	5.0632	10.938	0.033746	vapor
271.00	4.0000	31.523	0.031723	675.83	802.72	4.4331	1.7090	2.5423	413.26	5.0238	10.968	0.033852	vapor
272.00	4.0000	31.361	0.031887	677.71	805.26	4.4424	1.7100	2.5392	414.27	4.9848	10.997	0.033959	vapor
273.00	4.0000	31.201	0.032051	679.60	807.80	4.4517	1.7110	2.5361	415.28	4.9463	11.027	0.034066	vapor
274.00	4.0000	31.043	0.032214	681.48	810.33	4.4610	1.7121	2.5332	416.28	4.9082	11.057	0.034174	vapor
275.00	4.0000	30.887	0.032377	683.36	812.86	4.4702	1.7133	2.5305	417.28	4.8705	11.086	0.034282	vapor
276.00	4.0000	30.732	0.032539	685.24	815.39	4.4794	1.7144	2.5278	418.27	4.8332	11.116	0.034391	vapor
277.00	4.0000	30.580	0.032701	687.12	817.92	4.4886	1.7156	2.5252	419.25	4.7963	11.145	0.034501	vapor
278.00	4.0000	30.430	0.032862	688.99	820.44	4.4977	1.7169	2.5228	420.23	4.7597	11.175	0.034612	vapor
279.00	4.0000	30.281	0.033024	690.87	822.97	4.5067	1.7181	2.5205	421.21	4.7236	11.204	0.034723	vapor
280.00	4.0000	30.135	0.033184	692.75	825.49	4.5157	1.7194	2.5183	422.17	4.6878	11.234	0.034834	vapor
281.00	4.0000	29.990	0.033345	694.62	828.00	4.5247	1.7208	2.5162	423.13	4.6523	11.263	0.034947	vapor
282.00	4.0000	29.846	0.033505	696.50	830.52	4.5336	1.7221	2.5141	424.09	4.6173	11.293	0.035060	vapor
283.00	4.0000	29.704	0.033665	698.37	833.03	4.5425	1.7235	2.5122	425.04	4.5826	11.323	0.035173	vapor
284.00	4.0000	29.564	0.033824	700.24	835.54	4.5514	1.7250	2.5104	425.98	4.5482	11.352	0.035287	vapor
285.00	4.0000	29.426	0.033984	702.12	838.05	4.5602	1.7264	2.5087	426.92	4.5142	11.382	0.035402	vapor
286.00	4.0000	29.289	0.034142	703.99	840.56	4.5690	1.7279	2.5071	427.86	4.4805	11.411	0.035517	vapor
287.00	4.0000	29.154	0.034301	705.86	843.07	4.5777	1.7294	2.5055	428.79	4.4471	11.441	0.035633	vapor
288.00	4.0000	29.020	0.034459	707.73	845.57	4.5864	1.7310	2.5041	429.71	4.4141	11.470	0.035749	vapor
289.00	4.0000	28.888	0.034617	709.61	848.07	4.5951	1.7325	2.5027	430.63	4.3814	11.500	0.035866	vapor
290.00	4.0000	28.757	0.034775	711.48	850.58	4.6038	1.7341	2.5015	431.54	4.3490	11.529	0.035984	vapor
291.00	4.0000	28.627	0.034932	713.35	853.08	4.6124	1.7358	2.5003	432.45	4.3170	11.559	0.036102	vapor
292.00	4.0000	28.499	0.035089	715.22	855.58	4.6210	1.7374	2.4991	433.36	4.2852	11.588	0.036221	vapor
293.00	4.0000	28.372	0.035245	717.09	858.08	4.6295	1.7391	2.4981	434.26	4.2537	11.618	0.036340	vapor
294.00	4.0000	28.247	0.035402	718.97	860.57	4.6380	1.7408	2.4972	435.15	4.2226	11.647	0.036460	vapor
295.00	4.0000	28.123	0.035558	720.84	863.07	4.6465	1.7426	2.4963	436.04	4.1917	11.677	0.036580	vapor
296.00	4.0000	28.000	0.035714	722.71	865.57	4.6549	1.7444	2.4955	436.93	4.1611	11.706	0.036701	vapor
297.00	4.0000	27.879	0.035870	724.58	868.06	4.6633	1.7462	2.4947	437.81	4.1309	11.736	0.036823	vapor
298.00	4.0000	27.759	0.036025	726.46	870.56	4.6717	1.7480	2.4941	438.69	4.1009	11.765	0.036944	vapor
299.00	4.0000	27.640	0.036180	728.33	873.05	4.6801	1.7498	2.4935	439.56	4.0711	11.795	0.037067	vapor
300.00	4.0000	27.522	0.036335	730.20	875.54	4.6884	1.7517	2.4929	440.43	4.0417	11.824	0.037190	vapor
301.00	4.0000	27.405	0.036489	732.08	878.03	4.6967	1.7536	2.4925	441.29	4.0125	11.854	0.037314	vapor
302.00	4.0000	27.290	0.036644	733.95	880.53	4.7050	1.7555	2.4921	442.15	3.9836	11.883	0.037438	vapor
303.00	4.0000	27.176	0.036798	735.83	883.02	4.7132	1.7575	2.4918	443.01	3.9550	11.913	0.037562	vapor
304.00	4.0000	27.062	0.036952	737.70	885.51	4.7214	1.7594	2.4915	443.86	3.9266	11.942	0.037687	vapor
305.00	4.0000	26.950	0.037105	739.58	888.00	4.7296	1.7614	2.4913	444.70	3.8984	11.971	0.037813	vapor
306.00	4.0000	26.839	0.037259	741.46	890.49	4.7378	1.7635	2.4911	445.55	3.8706	12.001	0.037939	vapor
307.00	4.0000	26.730	0.037412	743.34	892.98	4.7459	1.7655	2.4911	446.39	3.8429	12.030	0.038066	vapor
308.00	4.0000	26.621	0.037565	745.22	895.48	4.7540	1.7676	2.4910	447.22	3.8156	12.059	0.038193	vapor
309.00	4.0000	26.513	0.037717	747.10	897.97	4.7621	1.7697	2.4911	448.05	3.7884	12.089	0.038320	vapor
310.00	4.0000	26.406	0.037870	748.98	900.46	4.7701	1.7718	2.4911	448.88	3.7616	12.118	0.038448	vapor
311.00	4.0000	26.300	0.038022	750.86	902.95	4.7781	1.7739	2.4913	449.71	3.7349	12.147	0.038577	vapor
312.00	4.0000	26.196	0.038174	752.74	905.44	4.7861	1.7761	2.4915	450.53	3.7085	12.177	0.038706	vapor
313.00	4.0000	26.092	0.038326	754.63	907.93	4.7941	1.7782	2.4917	451.34	3.6823	12.206	0.038836	vapor
314.00	4.0000	25.989	0.038478	756.51	910.42	4.8020	1.7804	2.4920	452.16	3.6563	12.235	0.038966	vapor
315.00	4.0000	25.887	0.038629	758.40	912.92	4.8100	1.7827	2.4924	452.96	3.6306	12.264	0.039096	vapor
316.00	4.0000	25.786	0.038781	760.29	915.41	4.8179	1.7849	2.4928	453.77	3.6051	12.294	0.039228	vapor
317.00	4.0000	25.686	0.038932	762.18	917.90	4.8257	1.7872	2.4932	454.57	3.5798	12.323	0.039359	vapor
318.00	4.0000	25.587	0.039082	764.07	920.39	4.8336	1.7895	2.4937	455.37	3.5548	12.352	0.039491	vapor
319.00	4.0000	25.489	0.039233	765.96	922.89	4.8414	1.7918	2.4943	456.17	3.5299	12.381	0.039624	vapor
320.00	4.0000	25.391	0.039384	767.85	925.38	4.8492	1.7941	2.4949	456.96	3.5053	12.410	0.039757	vapor
321.00	4.0000	25.295	0.039534	769.74	927.88	4.8570	1.7964	2.4955	457.75	3.4808	12.439	0.039890	vapor
322.00	4.0000	25.199	0.039684	771.64	930.37	4.8648	1.7988	2.4962	458.53	3.4566	12.468	0.040024	vapor
323.00	4.0000	25.104	0.039834	773.53	932.87	4.8725	1.8012	2.4969	459.32	3.4326	12.498	0.040158	vapor
324.00	4.0000	25.010	0.039984	775.43	935.37	4.8802	1.8036	2.4977	460.09	3.4088	12.527	0.040293	vapor
325.00	4.0000	24.917	0.040133	777.33	937.87	4.8879	1.8060	2.4985	460.87	3.3852	12.556	0.040429	vapor
326.00	4.0000	24.824	0.040283	779.23	940.37	4.8956	1.8085	2.4994	461.64	3.3618	12.585	0.040564	vapor
327.00	4.0000	24.733	0.040432	781.14	942.87	4.9033	1.8109	2.5003	462.41	3.3386	12.614	0.040701	vapor
328.00	4.0000	24.642	0.040581	783.04	945.37	4.9109	1.8134	2.5012	463.18	3.3156	12.643	0.040837	vapor
329.00	4.0000	24.552	0.040730	784.95	947.87	4.9185	1.8159	2.5022	463.94	3.2927	12.672	0.040974	vapor
330.00	4.0000	24.463	0.040879	786.86	950.37	4.9261	1.8184	2.5032	464.70	3.2701	12.701	0.041112	vapor
331.00	4.0000	24.374	0.041027	788.76	952.87	4.9337	1.8210	2.5043	465.46	3.2476	12.730	0.041250	vapor
332.00	4.0000	24.286	0.041176	790.68	955.38	4.9413	1.8235	2.5054	466.21	3.2254	12.759	0.041389	vapor
333.00	4.0000	24.199	0.041324	792.59	957.88	4.9488	1.8261	2.5065	466.97	3.2033	12.787	0.041528	vapor
334.00	4.0000	24.112	0.041472	794.50	960.39	4.9563	1.8287	2.5077	467.72	3.1814	12.816	0.041667	vapor
335.00	4.0000	24.027	0.041620	796.42	962.90	4.9638	1.8313	2.5089	468.46	3.1597	12.845	0.041807	vapor
336.00	4.0000	23.942	0.041768	798.34	965.41	4.9713	1.8339	2.5102	469.20	3.1382	12.874	0.041947	vapor
337.00	4.0000	23.857	0.041916	800.26	967.92	4.9788	1.8365	2.5114	469.94	3.1168	12.903	0.042088	vapor
338.00	4.0000	23.774	0.042063	802.18	970.43	4.9862	1.8392	2.5128	470.68	3.0956	12.932	0.042229	vapor
339.00	4.0000	23.691	0.042211	804.10	972.95	4.9936	1.8418	2.5141	471.42	3.0746	12.960	0.042371	vapor
340.00	4.0000	23.608	0.042358	806.03	975.46	5.0010	1.8445	2.5155	472.15	3.0537	12.989	0.042513	vapor
341.00	4.0000	23.527	0.042505	807.96	977.98	5.0084	1.8472	2.5169	472.88	3.0331	13.018	0.042655	vapor
342.00	4.0000	23.446	0.042652	809.89	980.49	5.0158	1.8500	2.5184	473.61	3.0126	13.047	0.042798	vapor
343.00	4.0000	23.365	0.042799	811.82	983.01	5.0231	1.8527	2.5199	474.33	2.9922	13.075	0.042942	vapor
344.00	4.0000	23.285	0.042946	813.75	985.53	5.0305	1.8554	2.5214	475.05	2.9720	13.104	0.043085	vapor
345.00	4.0000	23.206	0.043092	815.69	988.06	5.0378	1.8582	2.5229	475.77	2.9520	13.133	0.043230	vapor
346.00	4.0000	23.128	0.043239	817.63	990.58	5.0451	1.8610	2.5245	476.49	2.9321	13.161	0.043374	vapor
347.00	4.0000	23.050	0.043385	819.57	993.11	5.0524	1.8638	2.5261	477.20	2.9124	13.190	0.043519	vapor
348.00	4.0000	22.972	0.043531	821.51	995.63	5.0597	1.8666	2.5277	477.91	2.8929	13.218	0.043665	vapor
349.00	4.0000	22.895	0.043677	823.45	998.16	5.0669	1.8694	2.5294	478.62	2.8735	13.247	0.043811	vapor
350.00	4.0000	22.819	0.043823	825.40	1000.7	5.0742	1.8722	2.5311	479.33	2.8543	13.276	0.043957	vapor
351.00	4.0000	22.743	0.043969	827.35	1003.2	5.0814	1.8751	2.5328	480.03	2.8352	13.304	0.044104	vapor
352.00	4.0000	22.668	0.044114	829.30	1005.8	5.0886	1.8780	2.5346	480.74	2.8163	13.333	0.044251	vapor
353.00	4.0000	22.594	0.044260	831.25	1008.3	5.0958	1.8808	2.5364	481.44	2.7975	13.361	0.044399	vapor
354.00	4.0000	22.520	0.044405	833.21	1010.8	5.1030	1.8837	2.5382	482.13	2.7788	13.390	0.044547	vapor
355.00	4.0000	22.446	0.044551	835.17	1013.4	5.1101	1.8866	2.5400	482.83	2.7603	13.418	0.044695	vapor
356.00	4.0000	22.373	0.044696	837.13	1015.9	5.1173	1.8896	2.5419	483.52	2.7420	13.446	0.044844	vapor
357.00	4.0000	22.301	0.044841	839.09	1018.5	5.1244	1.8925	2.5438	484.21	2.7238	13.475	0.044993	vapor
358.00	4.0000	22.229	0.044986	841.05	1021.0	5.1315	1.8954	2.5457	484.90	2.7057	13.503	0.045143	vapor
359.00	4.0000	22.158	0.045131	843.02	1023.5	5.1386	1.8984	2.5476	485.59	2.6878	13.532	0.045293	vapor
360.00	4.0000	22.087	0.045275	844.99	1026.1	5.1457	1.9014	2.5496	486.27	2.6700	13.560	0.045443	vapor
361.00	4.0000	22.017	0.045420	846.96	1028.6	5.1528	1.9044	2.5516	486.95	2.6524	13.588	0.045594	vapor
362.00	4.0000	21.947	0.045565	848.94	1031.2	5.1599	1.9074	2.5536	487.63	2.6349	13.616	0.045746	vapor
363.00	4.0000	21.878	0.045709	850.91	1033.8	5.1669	1.9104	2.5556	488.31	2.6175	13.645	0.045897	vapor
364.00	4.0000	21.809	0.045853	852.89	1036.3	5.1739	1.9134	2.5577	488.99	2.6003	13.673	0.046049	vapor
365.00	4.0000	21.740	0.045997	854.88	1038.9	5.1810	1.9164	2.5598	489.66	2.5832	13.701	0.046202	vapor
366.00	4.0000	21.672	0.046142	856.86	1041.4	5.1880	1.9195	2.5619	490.33	2.5662	13.729	0.046355	vapor
367.00	4.0000	21.605	0.046286	858.85	1044.0	5.1950	1.9225	2.5640	491.00	2.5494	13.758	0.046508	vapor
368.00	4.0000	21.538	0.046429	860.84	1046.6	5.2019	1.9256	2.5662	491.67	2.5327	13.786	0.046661	vapor
369.00	4.0000	21.472	0.046573	862.83	1049.1	5.2089	1.9287	2.5684	492.33	2.5161	13.814	0.046815	vapor
370.00	4.0000	21.406	0.046717	864.82	1051.7	5.2159	1.9318	2.5705	493.00	2.4996	13.842	0.046970	vapor
371.00	4.0000	21.340	0.046860	866.82	1054.3	5.2228	1.9349	2.5728	493.66	2.4833	13.870	0.047125	vapor
372.00	4.0000	21.275	0.047004	868.82	1056.8	5.2297	1.9380	2.5750	494.32	2.4671	13.898	0.047280	vapor
373.00	4.0000	21.210	0.047147	870.82	1059.4	5.2366	1.9411	2.5773	494.98	2.4510	13.926	0.047435	vapor
374.00	4.0000	21.146	0.047291	872.83	1062.0	5.2435	1.9443	2.5796	495.63	2.4350	13.954	0.047591	vapor
375.00	4.0000	21.082	0.047434	874.84	1064.6	5.2504	1.9474	2.5819	496.28	2.4192	13.982	0.047748	vapor
376.00	4.0000	21.019	0.047577	876.85	1067.2	5.2573	1.9506	2.5842	496.94	2.4034	14.010	0.047904	vapor
377.00	4.0000	20.956	0.047720	878.86	1069.7	5.2642	1.9537	2.5865	497.59	2.3878	14.038	0.048061	vapor
378.00	4.0000	20.893	0.047863	880.88	1072.3	5.2710	1.9569	2.5889	498.24	2.3723	14.066	0.048219	vapor
379.00	4.0000	20.831	0.048006	882.90	1074.9	5.2779	1.9601	2.5913	498.88	2.3570	14.094	0.048377	vapor
380.00	4.0000	20.769	0.048148	884.92	1077.5	5.2847	1.9633	2.5937	499.53	2.3417	14.122	0.048535	vapor
381.00	4.0000	20.708	0.048291	886.94	1080.1	5.2915	1.9665	2.5961	500.17	2.3266	14.149	0.048693	vapor
382.00	4.0000	20.647	0.048434	888.97	1082.7	5.2983	1.9697	2.5985	500.81	2.3115	14.177	0.048852	vapor
383.00	4.0000	20.586	0.048576	891.00	1085.3	5.3051	1.9729	2.6010	501.45	2.2966	14.205	0.049012	vapor
384.00	4.0000	20.526	0.048718	893.03	1087.9	5.3119	1.9762	2.6034	502.09	2.2818	14.233	0.049171	vapor
385.00	4.0000	20.466	0.048861	895.07	1090.5	5.3187	1.9794	2.6059	502.73	2.2671	14.261	0.049331	vapor
386.00	4.0000	20.407	0.049003	897.10	1093.1	5.3255	1.9827	2.6084	503.36	2.2525	14.288	0.049492	vapor
387.00	4.0000	20.348	0.049145	899.15	1095.7	5.3322	1.9859	2.6109	503.99	2.2381	14.316	0.049652	vapor
388.00	4.0000	20.289	0.049287	901.19	1098.3	5.3390	1.9892	2.6135	504.63	2.2237	14.344	0.049814	vapor
389.00	4.0000	20.231	0.049429	903.24	1101.0	5.3457	1.9925	2.6160	505.26	2.2094	14.371	0.049975	vapor
390.00	4.0000	20.173	0.049571	905.29	1103.6	5.3524	1.9958	2.6186	505.88	2.1953	14.399	0.050137	vapor
391.00	4.0000	20.116	0.049713	907.34	1106.2	5.3591	1.9991	2.6212	506.51	2.1812	14.427	0.050299	vapor
392.00	4.0000	20.058	0.049854	909.40	1108.8	5.3658	2.0024	2.6238	507.13	2.1673	14.454	0.050462	vapor
393.00	4.0000	20.002	0.049996	911.45	1111.4	5.3725	2.0057	2.6264	507.76	2.1534	14.482	0.050624	vapor
394.00	4.0000	19.945	0.050138	913.52	1114.1	5.3792	2.0090	2.6291	508.38	2.1397	14.509	0.050788	vapor
395.00	4.0000	19.889	0.050279	915.58	1116.7	5.3858	2.0123	2.6317	509.00	2.1260	14.537	0.050951	vapor
396.00	4.0000	19.833	0.050421	917.65	1119.3	5.3925	2.0157	2.6344	509.62	2.1125	14.564	0.051115	vapor
397.00	4.0000	19.778	0.050562	919.72	1122.0	5.3992	2.0190	2.6371	510.24	2.0990	14.592	0.051280	vapor
398.00	4.0000	19.723	0.050703	921.79	1124.6	5.4058	2.0224	2.6398	510.85	2.0857	14.619	0.051444	vapor
399.00	4.0000	19.668	0.050844	923.87	1127.2	5.4124	2.0257	2.6425	511.47	2.0724	14.647	0.051609	vapor
400.00	4.0000	19.613	0.050986	925.95	1129.9	5.4190	2.0291	2.6452	512.08	2.0593	14.674	0.051774	vapor
401.00	4.0000	19.559	0.051127	928.03	1132.5	5.4256	2.0325	2.6479	512.69	2.0462	14.702	0.051940	vapor
402.00	4.0000	19.506	0.051268	930.11	1135.2	5.4322	2.0359	2.6507	513.30	2.0332	14.729	0.052106	vapor
403.00	4.0000	19.452	0.051408	932.20	1137.8	5.4388	2.0393	2.6534	513.91	2.0204	14.756	0.052272	vapor
404.00	4.0000	19.399	0.051549	934.29	1140.5	5.4454	2.0427	2.6562	514.51	2.0076	14.784	0.052439	vapor
405.00	4.0000	19.346	0.051690	936.39	1143.1	5.4520	2.0461	2.6590	515.12	1.9949	14.811	0.052606	vapor
406.00	4.0000	19.294	0.051831	938.49	1145.8	5.4585	2.0495	2.6618	515.72	1.9823	14.838	0.052773	vapor
407.00	4.0000	19.241	0.051971	940.59	1148.5	5.4651	2.0529	2.6646	516.33	1.9698	14.865	0.052941	vapor
408.00	4.0000	19.189	0.052112	942.69	1151.1	5.4716	2.0563	2.6675	516.93	1.9574	14.893	0.053109	vapor
409.00	4.0000	19.138	0.052252	944.80	1153.8	5.4782	2.0598	2.6703	517.53	1.9450	14.920	0.053277	vapor
410.00	4.0000	19.087	0.052393	946.91	1156.5	5.4847	2.0632	2.6732	518.13	1.9328	14.947	0.053446	vapor
411.00	4.0000	19.036	0.052533	949.02	1159.2	5.4912	2.0666	2.6760	518.72	1.9207	14.974	0.053615	vapor
412.00	4.0000	18.985	0.052673	951.14	1161.8	5.4977	2.0701	2.6789	519.32	1.9086	15.001	0.053784	vapor
413.00	4.0000	18.934	0.052814	953.26	1164.5	5.5042	2.0736	2.6818	519.92	1.8966	15.028	0.053954	vapor
414.00	4.0000	18.884	0.052954	955.38	1167.2	5.5107	2.0770	2.6847	520.51	1.8847	15.055	0.054124	vapor
415.00	4.0000	18.835	0.053094	957.51	1169.9	5.5172	2.0805	2.6876	521.10	1.8729	15.082	0.054294	vapor
416.00	4.0000	18.785	0.053234	959.63	1172.6	5.5237	2.0840	2.6905	521.69	1.8612	15.110	0.054465	vapor
417.00	4.0000	18.736	0.053374	961.77	1175.3	5.5301	2.0874	2.6935	522.28	1.8496	15.137	0.054635	vapor
418.00	4.0000	18.687	0.053514	963.90	1178.0	5.5366	2.0909	2.6964	522.87	1.8380	15.164	0.054807	vapor
419.00	4.0000	18.638	0.053654	966.04	1180.7	5.5430	2.0944	2.6994	523.46	1.8265	15.190	0.054978	vapor
420.00	4.0000	18.590	0.053794	968.18	1183.4	5.5495	2.0979	2.7023	524.04	1.8151	15.217	0.055150	vapor
421.00	4.0000	18.541	0.053933	970.33	1186.1	5.5559	2.1014	2.7053	524.63	1.8038	15.244	0.055322	vapor
422.00	4.0000	18.494	0.054073	972.47	1188.8	5.5623	2.1049	2.7083	525.21	1.7926	15.271	0.055495	vapor
423.00	4.0000	18.446	0.054213	974.63	1191.5	5.5687	2.1085	2.7113	525.79	1.7814	15.298	0.055667	vapor
424.00	4.0000	18.399	0.054352	976.78	1194.2	5.5751	2.1120	2.7143	526.37	1.7703	15.325	0.055840	vapor
425.00	4.0000	18.351	0.054492	978.94	1196.9	5.5815	2.1155	2.7173	526.95	1.7593	15.352	0.056014	vapor
426.00	4.0000	18.305	0.054631	981.10	1199.6	5.5879	2.1190	2.7204	527.53	1.7484	15.379	0.056187	vapor
427.00	4.0000	18.258	0.054770	983.26	1202.3	5.5943	2.1226	2.7234	528.11	1.7376	15.405	0.056361	vapor
428.00	4.0000	18.212	0.054910	985.43	1205.1	5.6007	2.1261	2.7264	528.69	1.7268	15.432	0.056536	vapor
429.00	4.0000	18.166	0.055049	987.60	1207.8	5.6070	2.1296	2.7295	529.26	1.7161	15.459	0.056710	vapor
430.00	4.0000	18.120	0.055188	989.78	1210.5	5.6134	2.1332	2.7326	529.84	1.7055	15.486	0.056885	vapor
431.00	4.0000	18.074	0.055327	991.95	1213.3	5.6197	2.1367	2.7356	530.41	1.6950	15.512	0.057060	vapor
432.00	4.0000	18.029	0.055466	994.13	1216.0	5.6261	2.1403	2.7387	530.98	1.6845	15.539	0.057236	vapor
433.00	4.0000	17.984	0.055605	996.32	1218.7	5.6324	2.1439	2.7418	531.55	1.6741	15.566	0.057411	vapor
434.00	4.0000	17.939	0.055744	998.51	1221.5	5.6388	2.1474	2.7449	532.12	1.6637	15.592	0.057587	vapor
435.00	4.0000	17.894	0.055883	1000.7	1224.2	5.6451	2.1510	2.7480	532.69	1.6535	15.619	0.057764	vapor
436.00	4.0000	17.850	0.056022	1002.9	1227.0	5.6514	2.1546	2.7511	533.26	1.6433	15.645	0.057940	vapor
437.00	4.0000	17.806	0.056161	1005.1	1229.7	5.6577	2.1582	2.7543	533.82	1.6332	15.672	0.058117	vapor
438.00	4.0000	17.762	0.056300	1007.3	1232.5	5.6640	2.1617	2.7574	534.39	1.6231	15.699	0.058295	vapor
439.00	4.0000	17.718	0.056439	1009.5	1235.2	5.6703	2.1653	2.7605	534.95	1.6132	15.725	0.058472	vapor
440.00	4.0000	17.675	0.056577	1011.7	1238.0	5.6766	2.1689	2.7637	535.52	1.6033	15.752	0.058650	vapor
441.00	4.0000	17.632	0.056716	1013.9	1240.8	5.6828	2.1725	2.7668	536.08	1.5934	15.778	0.058828	vapor
442.00	4.0000	17.589	0.056855	1016.1	1243.5	5.6891	2.1761	2.7700	536.64	1.5837	15.805	0.059006	vapor
443.00	4.0000	17.546	0.056993	1018.3	1246.3	5.6954	2.1797	2.7732	537.20	1.5739	15.831	0.059185	vapor
444.00	4.0000	17.503	0.057132	1020.6	1249.1	5.7016	2.1833	2.7764	537.76	1.5643	15.857	0.059364	vapor
445.00	4.0000	17.461	0.057270	1022.8	1251.9	5.7079	2.1869	2.7795	538.32	1.5547	15.884	0.059543	vapor
446.00	4.0000	17.419	0.057408	1025.0	1254.6	5.7141	2.1905	2.7827	538.87	1.5452	15.910	0.059722	vapor
447.00	4.0000	17.377	0.057547	1027.2	1257.4	5.7204	2.1942	2.7859	539.43	1.5358	15.936	0.059902	vapor
448.00	4.0000	17.336	0.057685	1029.5	1260.2	5.7266	2.1978	2.7891	539.98	1.5264	15.963	0.060082	vapor
449.00	4.0000	17.294	0.057823	1031.7	1263.0	5.7328	2.2014	2.7924	540.54	1.5171	15.989	0.060262	vapor
450.00	4.0000	17.253	0.057961	1034.0	1265.8	5.7390	2.2050	2.7956	541.09	1.5078	16.015	0.060443	vapor
451.00	4.0000	17.212	0.058100	1036.2	1268.6	5.7452	2.2087	2.7988	541.64	1.4986	16.042	0.060624	vapor
452.00	4.0000	17.171	0.058238	1038.5	1271.4	5.7514	2.2123	2.8020	542.19	1.4895	16.068	0.060805	vapor
453.00	4.0000	17.130	0.058376	1040.7	1274.2	5.7576	2.2159	2.8053	542.74	1.4805	16.094	0.060986	vapor
454.00	4.0000	17.090	0.058514	1043.0	1277.0	5.7638	2.2196	2.8085	543.29	1.4715	16.120	0.061168	vapor
455.00	4.0000	17.050	0.058652	1045.2	1279.8	5.7700	2.2232	2.8118	543.84	1.4625	16.146	0.061350	vapor
456.00	4.0000	17.010	0.058790	1047.5	1282.6	5.7762	2.2269	2.8150	544.39	1.4536	16.172	0.061532	vapor
457.00	4.0000	16.970	0.058928	1049.7	1285.5	5.7824	2.2305	2.8183	544.94	1.4448	16.199	0.061714	vapor
458.00	4.0000	16.930	0.059065	1052.0	1288.3	5.7885	2.2342	2.8216	545.48	1.4360	16.225	0.061897	vapor
459.00	4.0000	16.891	0.059203	1054.3	1291.1	5.7947	2.2378	2.8248	546.03	1.4273	16.251	0.062080	vapor
460.00	4.0000	16.852	0.059341	1056.6	1293.9	5.8008	2.2415	2.8281	546.57	1.4187	16.277	0.062263	vapor
461.00	4.0000	16.813	0.059479	1058.8	1296.8	5.8070	2.2451	2.8314	547.11	1.4101	16.303	0.062447	vapor
462.00	4.0000	16.774	0.059616	1061.1	1299.6	5.8131	2.2488	2.8347	547.65	1.4016	16.329	0.062630	vapor
463.00	4.0000	16.735	0.059754	1063.4	1302.4	5.8192	2.2524	2.8380	548.19	1.3931	16.355	0.062814	vapor
464.00	4.0000	16.697	0.059891	1065.7	1305.3	5.8254	2.2561	2.8413	548.73	1.3847	16.381	0.062998	vapor
465.00	4.0000	16.659	0.060029	1068.0	1308.1	5.8315	2.2598	2.8446	549.27	1.3763	16.407	0.063183	vapor
466.00	4.0000	16.621	0.060166	1070.3	1311.0	5.8376	2.2634	2.8479	549.81	1.3680	16.433	0.063368	vapor
467.00	4.0000	16.583	0.060304	1072.6	1313.8	5.8437	2.2671	2.8512	550.35	1.3597	16.459	0.063553	vapor
468.00	4.0000	16.545	0.060441	1074.9	1316.7	5.8498	2.2708	2.8546	550.89	1.3515	16.484	0.063738	vapor
469.00	4.0000	16.507	0.060579	1077.2	1319.5	5.8559	2.2745	2.8579	551.42	1.3434	16.510	0.063923	vapor
470.00	4.0000	16.470	0.060716	1079.5	1322.4	5.8620	2.2781	2.8612	551.96	1.3353	16.536	0.064109	vapor
471.00	4.0000	16.433	0.060853	1081.8	1325.2	5.8681	2.2818	2.8646	552.49	1.3273	16.562	0.064295	vapor
472.00	4.0000	16.396	0.060991	1084.1	1328.1	5.8742	2.2855	2.8679	553.02	1.3193	16.588	0.064481	vapor
473.00	4.0000	16.359	0.061128	1086.5	1331.0	5.8802	2.2892	2.8713	553.56	1.3114	16.614	0.064668	vapor
474.00	4.0000	16.323	0.061265	1088.8	1333.8	5.8863	2.2929	2.8746	554.09	1.3035	16.639	0.064854	vapor
475.00	4.0000	16.286	0.061402	1091.1	1336.7	5.8924	2.2965	2.8780	554.62	1.2956	16.665	0.065041	vapor
476.00	4.0000	16.250	0.061539	1093.4	1339.6	5.8984	2.3002	2.8813	555.15	1.2879	16.691	0.065229	vapor
477.00	4.0000	16.214	0.061676	1095.8	1342.5	5.9045	2.3039	2.8847	555.68	1.2801	16.716	0.065416	vapor
478.00	4.0000	16.178	0.061813	1098.1	1345.4	5.9105	2.3076	2.8881	556.21	1.2725	16.742	0.065604	vapor
479.00	4.0000	16.142	0.061950	1100.5	1348.3	5.9166	2.3113	2.8914	556.73	1.2648	16.768	0.065792	vapor
480.00	4.0000	16.106	0.062087	1102.8	1351.1	5.9226	2.3150	2.8948	557.26	1.2573	16.793	0.065980	vapor
481.00	4.0000	16.071	0.062224	1105.1	1354.0	5.9286	2.3187	2.8982	557.79	1.2497	16.819	0.066168	vapor
482.00	4.0000	16.036	0.062361	1107.5	1356.9	5.9346	2.3224	2.9016	558.31	1.2423	16.845	0.066357	vapor
483.00	4.0000	16.001	0.062498	1109.9	1359.8	5.9407	2.3261	2.9050	558.84	1.2348	16.870	0.066545	vapor
484.00	4.0000	15.966	0.062635	1112.2	1362.8	5.9467	2.3298	2.9084	559.36	1.2274	16.896	0.066735	vapor
485.00	4.0000	15.931	0.062771	1114.6	1365.7	5.9527	2.3335	2.9118	559.88	1.2201	16.921	0.066924	vapor
486.00	4.0000	15.896	0.062908	1116.9	1368.6	5.9587	2.3372	2.9152	560.41	1.2128	16.947	0.067113	vapor
487.00	4.0000	15.862	0.063045	1119.3	1371.5	5.9647	2.3409	2.9186	560.93	1.2056	16.972	0.067303	vapor
488.00	4.0000	15.827	0.063182	1121.7	1374.4	5.9707	2.3446	2.9220	561.45	1.1984	16.998	0.067493	vapor
489.00	4.0000	15.793	0.063318	1124.1	1377.3	5.9767	2.3483	2.9254	561.97	1.1912	17.023	0.067683	vapor
490.00	4.0000	15.759	0.063455	1126.4	1380.3	5.9826	2.3520	2.9288	562.49	1.1841	17.048	0.067874	vapor
491.00	4.0000	15.725	0.063591	1128.8	1383.2	5.9886	2.3557	2.9322	563.01	1.1771	17.074	0.068064	vapor
492.00	4.0000	15.692	0.063728	1131.2	1386.1	5.9946	2.3594	2.9356	563.52	1.1701	17.099	0.068255	vapor
493.00	4.0000	15.658	0.063864	1133.6	1389.1	6.0005	2.3631	2.9390	564.04	1.1631	17.125	0.068446	vapor
494.00	4.0000	15.625	0.064001	1136.0	1392.0	6.0065	2.3669	2.9425	564.56	1.1562	17.150	0.068638	vapor
495.00	4.0000	15.592	0.064137	1138.4	1395.0	6.0125	2.3706	2.9459	565.07	1.1493	17.175	0.068829	vapor
496.00	4.0000	15.558	0.064274	1140.8	1397.9	6.0184	2.3743	2.9493	565.59	1.1425	17.201	0.069021	vapor
497.00	4.0000	15.526	0.064410	1143.2	1400.9	6.0243	2.3780	2.9528	566.10	1.1357	17.226	0.069213	vapor
498.00	4.0000	15.493	0.064546	1145.6	1403.8	6.0303	2.3817	2.9562	566.62	1.1290	17.251	0.069405	vapor
499.00	4.0000	15.460	0.064683	1148.0	1406.8	6.0362	2.3854	2.9596	567.13	1.1222	17.276	0.069598	vapor
500.00	4.0000	15.428	0.064819	1150.5	1409.7	6.0422	2.3891	2.9631	567.64	1.1156	17.302	0.069790	vapor
501.00	4.0000	15.395	0.064955	1152.9	1412.7	6.0481	2.3928	2.9665	568.15	1.1090	17.327	0.069983	vapor
502.00	4.0000	15.363	0.065091	1155.3	1415.7	6.0540	2.3966	2.9700	568.66	1.1024	17.352	0.070176	vapor
503.00	4.0000	15.331	0.065227	1157.7	1418.6	6.0599	2.4003	2.9734	569.17	1.0959	17.377	0.070369	vapor
504.00	4.0000	15.299	0.065364	1160.2	1421.6	6.0658	2.4040	2.9769	569.68	1.0894	17.402	0.070563	vapor
505.00	4.0000	15.267	0.065500	1162.6	1424.6	6.0717	2.4077	2.9803	570.19	1.0829	17.427	0.070757	vapor
506.00	4.0000	15.236	0.065636	1165.0	1427.6	6.0776	2.4114	2.9838	570.70	1.0765	17.452	0.070950	vapor
507.00	4.0000	15.204	0.065772	1167.5	1430.6	6.0835	2.4151	2.9872	571.21	1.0701	17.477	0.071145	vapor
508.00	4.0000	15.173	0.065908	1169.9	1433.5	6.0894	2.4189	2.9907	571.71	1.0638	17.503	0.071339	vapor
509.00	4.0000	15.141	0.066044	1172.4	1436.5	6.0953	2.4226	2.9942	572.22	1.0575	17.528	0.071533	vapor
510.00	4.0000	15.110	0.066180	1174.8	1439.5	6.1012	2.4263	2.9976	572.72	1.0512	17.553	0.071728	vapor
511.00	4.0000	15.079	0.066316	1177.3	1442.5	6.1070	2.4300	3.0011	573.23	1.0450	17.578	0.071923	vapor
512.00	4.0000	15.049	0.066452	1179.7	1445.5	6.1129	2.4337	3.0046	573.73	1.0388	17.603	0.072118	vapor
513.00	4.0000	15.018	0.066587	1182.2	1448.5	6.1188	2.4375	3.0080	574.24	1.0327	17.627	0.072314	vapor
514.00	4.0000	14.987	0.066723	1184.7	1451.5	6.1246	2.4412	3.0115	574.74	1.0266	17.652	0.072509	vapor
515.00	4.0000	14.957	0.066859	1187.1	1454.6	6.1305	2.4449	3.0150	575.24	1.0205	17.677	0.072705	vapor
516.00	4.0000	14.927	0.066995	1189.6	1457.6	6.1363	2.4486	3.0185	575.74	1.0145	17.702	0.072901	vapor
517.00	4.0000	14.896	0.067131	1192.1	1460.6	6.1422	2.4523	3.0219	576.24	1.0085	17.727	0.073097	vapor
518.00	4.0000	14.866	0.067266	1194.6	1463.6	6.1480	2.4561	3.0254	576.74	1.0026	17.752	0.073293	vapor
519.00	4.0000	14.836	0.067402	1197.0	1466.6	6.1539	2.4598	3.0289	577.24	0.99667	17.777	0.073490	vapor
520.00	4.0000	14.807	0.067538	1199.5	1469.7	6.1597	2.4635	3.0324	577.74	0.99079	17.802	0.073686	vapor
521.00	4.0000	14.777	0.067673	1202.0	1472.7	6.1655	2.4672	3.0359	578.24	0.98495	17.826	0.073883	vapor
522.00	4.0000	14.747	0.067809	1204.5	1475.8	6.1714	2.4709	3.0394	578.74	0.97914	17.851	0.074080	vapor
523.00	4.0000	14.718	0.067945	1207.0	1478.8	6.1772	2.4747	3.0429	579.23	0.97337	17.876	0.074278	vapor
524.00	4.0000	14.689	0.068080	1209.5	1481.8	6.1830	2.4784	3.0463	579.73	0.96764	17.901	0.074475	vapor
525.00	4.0000	14.659	0.068216	1212.0	1484.9	6.1888	2.4821	3.0498	580.23	0.96194	17.925	0.074673	vapor
526.00	4.0000	14.630	0.068351	1214.5	1487.9	6.1946	2.4858	3.0533	580.72	0.95628	17.950	0.074871	vapor
527.00	4.0000	14.601	0.068487	1217.0	1491.0	6.2004	2.4895	3.0568	581.22	0.95065	17.975	0.075069	vapor
528.00	4.0000	14.573	0.068622	1219.6	1494.1	6.2062	2.4933	3.0603	581.71	0.94505	17.999	0.075267	vapor
529.00	4.0000	14.544	0.068758	1222.1	1497.1	6.2120	2.4970	3.0638	582.20	0.93949	18.024	0.075466	vapor
530.00	4.0000	14.515	0.068893	1224.6	1500.2	6.2178	2.5007	3.0673	582.70	0.93396	18.049	0.075664	vapor
531.00	4.0000	14.487	0.069028	1227.1	1503.2	6.2236	2.5044	3.0708	583.19	0.92847	18.073	0.075863	vapor
532.00	4.0000	14.458	0.069164	1229.7	1506.3	6.2294	2.5081	3.0743	583.68	0.92300	18.098	0.076062	vapor
533.00	4.0000	14.430	0.069299	1232.2	1509.4	6.2351	2.5118	3.0778	584.17	0.91758	18.122	0.076261	vapor
534.00	4.0000	14.402	0.069434	1234.7	1512.5	6.2409	2.5156	3.0813	584.66	0.91218	18.147	0.076461	vapor
535.00	4.0000	14.374	0.069570	1237.3	1515.6	6.2467	2.5193	3.0848	585.15	0.90682	18.172	0.076660	vapor
536.00	4.0000	14.346	0.069705	1239.8	1518.6	6.2525	2.5230	3.0883	585.64	0.90149	18.196	0.076860	vapor
537.00	4.0000	14.318	0.069840	1242.4	1521.7	6.2582	2.5267	3.0918	586.13	0.89619	18.221	0.077060	vapor
538.00	4.0000	14.291	0.069975	1244.9	1524.8	6.2640	2.5304	3.0953	586.62	0.89092	18.245	0.077260	vapor
539.00	4.0000	14.263	0.070111	1247.5	1527.9	6.2697	2.5341	3.0988	587.11	0.88569	18.269	0.077460	vapor
540.00	4.0000	14.236	0.070246	1250.0	1531.0	6.2755	2.5378	3.1023	587.59	0.88048	18.294	0.077661	vapor
541.00	4.0000	14.208	0.070381	1252.6	1534.1	6.2812	2.5415	3.1059	588.08	0.87531	18.318	0.077861	vapor
542.00	4.0000	14.181	0.070516	1255.2	1537.2	6.2869	2.5453	3.1094	588.57	0.87017	18.343	0.078062	vapor
543.00	4.0000	14.154	0.070651	1257.7	1540.3	6.2927	2.5490	3.1129	589.05	0.86506	18.367	0.078263	vapor
544.00	4.0000	14.127	0.070786	1260.3	1543.5	6.2984	2.5527	3.1164	589.54	0.85998	18.391	0.078464	vapor
545.00	4.0000	14.100	0.070921	1262.9	1546.6	6.3041	2.5564	3.1199	590.02	0.85493	18.416	0.078666	vapor
546.00	4.0000	14.073	0.071056	1265.5	1549.7	6.3099	2.5601	3.1234	590.50	0.84991	18.440	0.078867	vapor
547.00	4.0000	14.047	0.071191	1268.1	1552.8	6.3156	2.5638	3.1269	590.99	0.84492	18.464	0.079069	vapor
548.00	4.0000	14.020	0.071326	1270.7	1556.0	6.3213	2.5675	3.1304	591.47	0.83995	18.489	0.079271	vapor
549.00	4.0000	13.994	0.071461	1273.2	1559.1	6.3270	2.5712	3.1339	591.95	0.83502	18.513	0.079473	vapor
550.00	4.0000	13.967	0.071596	1275.8	1562.2	6.3327	2.5749	3.1374	592.43	0.83012	18.537	0.079675	vapor
551.00	4.0000	13.941	0.071731	1278.4	1565.4	6.3384	2.5786	3.1410	592.92	0.82525	18.562	0.079877	vapor
552.00	4.0000	13.915	0.071866	1281.0	1568.5	6.3441	2.5823	3.1445	593.40	0.82040	18.586	0.080080	vapor
553.00	4.0000	13.889	0.072001	1283.7	1571.7	6.3498	2.5860	3.1480	593.88	0.81559	18.610	0.080282	vapor
554.00	4.0000	13.863	0.072135	1286.3	1574.8	6.3555	2.5897	3.1515	594.36	0.81080	18.634	0.080485	vapor
555.00	4.0000	13.837	0.072270	1288.9	1578.0	6.3612	2.5934	3.1550	594.84	0.80604	18.658	0.080688	vapor
556.00	4.0000	13.811	0.072405	1291.5	1581.1	6.3669	2.5971	3.1585	595.31	0.80130	18.682	0.080891	vapor
557.00	4.0000	13.786	0.072540	1294.1	1584.3	6.3725	2.6008	3.1620	595.79	0.79660	18.707	0.081095	vapor
558.00	4.0000	13.760	0.072674	1296.7	1587.4	6.3782	2.6045	3.1656	596.27	0.79192	18.731	0.081298	vapor
559.00	4.0000	13.735	0.072809	1299.4	1590.6	6.3839	2.6082	3.1691	596.75	0.78727	18.755	0.081502	vapor
560.00	4.0000	13.709	0.072944	1302.0	1593.8	6.3896	2.6119	3.1726	597.22	0.78265	18.779	0.081706	vapor
561.00	4.0000	13.684	0.073079	1304.6	1596.9	6.3952	2.6156	3.1761	597.70	0.77806	18.803	0.081910	vapor
562.00	4.0000	13.659	0.073213	1307.3	1600.1	6.4009	2.6193	3.1796	598.17	0.77349	18.827	0.082114	vapor
563.00	4.0000	13.634	0.073348	1309.9	1603.3	6.4065	2.6230	3.1831	598.65	0.76894	18.851	0.082318	vapor
564.00	4.0000	13.609	0.073483	1312.6	1606.5	6.4122	2.6267	3.1867	599.12	0.76443	18.875	0.082523	vapor
565.00	4.0000	13.584	0.073617	1315.2	1609.7	6.4178	2.6304	3.1902	599.60	0.75994	18.899	0.082728	vapor
566.00	4.0000	13.559	0.073752	1317.9	1612.9	6.4235	2.6341	3.1937	600.07	0.75547	18.923	0.082932	vapor
567.00	4.0000	13.534	0.073886	1320.5	1616.1	6.4291	2.6378	3.1972	600.54	0.75103	18.947	0.083137	vapor
568.00	4.0000	13.510	0.074021	1323.2	1619.3	6.4348	2.6415	3.2007	601.02	0.74662	18.971	0.083342	vapor
569.00	4.0000	13.485	0.074155	1325.9	1622.5	6.4404	2.6451	3.2042	601.49	0.74223	18.995	0.083548	vapor
570.00	4.0000	13.461	0.074290	1328.5	1625.7	6.4460	2.6488	3.2077	601.96	0.73787	19.019	0.083753	vapor
571.00	4.0000	13.436	0.074424	1331.2	1628.9	6.4516	2.6525	3.2113	602.43	0.73354	19.042	0.083959	vapor
572.00	4.0000	13.412	0.074559	1333.9	1632.1	6.4573	2.6562	3.2148	602.90	0.72922	19.066	0.084164	vapor
573.00	4.0000	13.388	0.074693	1336.5	1635.3	6.4629	2.6599	3.2183	603.37	0.72494	19.090	0.084370	vapor
574.00	4.0000	13.364	0.074828	1339.2	1638.5	6.4685	2.6635	3.2218	603.84	0.72067	19.114	0.084576	vapor
575.00	4.0000	13.340	0.074962	1341.9	1641.8	6.4741	2.6672	3.2253	604.31	0.71643	19.138	0.084783	vapor
576.00	4.0000	13.316	0.075096	1344.6	1645.0	6.4797	2.6709	3.2288	604.78	0.71222	19.162	0.084989	vapor
577.00	4.0000	13.292	0.075231	1347.3	1648.2	6.4853	2.6746	3.2323	605.25	0.70803	19.185	0.085195	vapor
578.00	4.0000	13.269	0.075365	1350.0	1651.5	6.4909	2.6782	3.2359	605.72	0.70386	19.209	0.085402	vapor
579.00	4.0000	13.245	0.075499	1352.7	1654.7	6.4965	2.6819	3.2394	606.18	0.69972	19.233	0.085609	vapor
580.00	4.0000	13.222	0.075634	1355.4	1657.9	6.5021	2.6856	3.2429	606.65	0.69560	19.257	0.085816	vapor
581.00	4.0000	13.198	0.075768	1358.1	1661.2	6.5077	2.6893	3.2464	607.12	0.69150	19.280	0.086023	vapor
582.00	4.0000	13.175	0.075902	1360.8	1664.4	6.5133	2.6929	3.2499	607.58	0.68743	19.304	0.086230	vapor
583.00	4.0000	13.152	0.076036	1363.5	1667.7	6.5189	2.6966	3.2534	608.05	0.68338	19.328	0.086438	vapor
584.00	4.0000	13.128	0.076171	1366.2	1670.9	6.5245	2.7003	3.2569	608.51	0.67935	19.351	0.086645	vapor
585.00	4.0000	13.105	0.076305	1369.0	1674.2	6.5300	2.7039	3.2604	608.98	0.67535	19.375	0.086853	vapor
586.00	4.0000	13.082	0.076439	1371.7	1677.5	6.5356	2.7076	3.2639	609.44	0.67137	19.398	0.087061	vapor
587.00	4.0000	13.059	0.076573	1374.4	1680.7	6.5412	2.7112	3.2675	609.90	0.66741	19.422	0.087269	vapor
588.00	4.0000	13.037	0.076707	1377.2	1684.0	6.5467	2.7149	3.2710	610.37	0.66347	19.446	0.087477	vapor
589.00	4.0000	13.014	0.076842	1379.9	1687.3	6.5523	2.7186	3.2745	610.83	0.65955	19.469	0.087685	vapor
590.00	4.0000	12.991	0.076976	1382.6	1690.5	6.5579	2.7222	3.2780	611.29	0.65566	19.493	0.087893	vapor
591.00	4.0000	12.969	0.077110	1385.4	1693.8	6.5634	2.7259	3.2815	611.75	0.65179	19.516	0.088102	vapor
592.00	4.0000	12.946	0.077244	1388.1	1697.1	6.5690	2.7295	3.2850	612.22	0.64794	19.540	0.088311	vapor
593.00	4.0000	12.924	0.077378	1390.9	1700.4	6.5745	2.7332	3.2885	612.68	0.64411	19.563	0.088519	vapor
594.00	4.0000	12.901	0.077512	1393.6	1703.7	6.5800	2.7368	3.2920	613.14	0.64030	19.587	0.088728	vapor
595.00	4.0000	12.879	0.077646	1396.4	1707.0	6.5856	2.7405	3.2955	613.60	0.63651	19.610	0.088938	vapor
596.00	4.0000	12.857	0.077780	1399.1	1710.3	6.5911	2.7441	3.2990	614.06	0.63275	19.634	0.089147	vapor
597.00	4.0000	12.835	0.077914	1401.9	1713.6	6.5967	2.7478	3.3025	614.52	0.62900	19.657	0.089356	vapor
598.00	4.0000	12.813	0.078048	1404.7	1716.9	6.6022	2.7514	3.3060	614.97	0.62528	19.681	0.089566	vapor
599.00	4.0000	12.791	0.078182	1407.5	1720.2	6.6077	2.7551	3.3095	615.43	0.62158	19.704	0.089775	vapor
600.00	4.0000	12.769	0.078316	1410.2	1723.5	6.6132	2.7587	3.3130	615.89	0.61790	19.727	0.089985	vapor
