Temperature (K)	Pressure (MPa)	Quality (l+v)	Internal Energy (l+v, kJ/mol)	Enthalpy (l+v, kJ/mol)	Entropy (l+v, J/mol*K)	Density (l, kg/m3)	Volume (l, m3/kg)	Internal Energy (l, kJ/mol)	Enthalpy (l, kJ/mol)	Entropy (l, J/mol*K)	Cv (l, J/mol*K)	Cp (l, J/mol*K)	Sound Spd. (l, m/s)	Joule-Thomson (l, K/MPa)	Viscosity (l, uPa*s)	Therm. Cond. (l, W/m*K)	Density (v, kg/m3)	Volume (v, m3/kg)	Internal Energy (v, kJ/mol)	Enthalpy (v, kJ/mol)	Entropy (v, J/mol*K)	Cv (v, J/mol*K)	Cp (v, J/mol*K)	Sound Spd. (v, m/s)	Joule-Thomson (v, K/MPa)	Viscosity (v, uPa*s)	Therm. Cond. (v, W/m*K)
150.00	0.69079	undefined	8.0588	9.1670	66.038	10.000	0.10000	8.0588	9.1670	66.038	26.736	39.772	300.04	16.907	5.8338	0.017035	10.000	0.10000	8.0588	9.1670	66.038	26.736	39.772	300.04	16.907	5.8338	0.017035
151.00	0.69651	undefined	8.0855	9.2029	66.215	10.000	0.10000	8.0855	9.2029	66.215	26.690	39.639	301.36	16.667	5.8766	0.017138	10.000	0.10000	8.0855	9.2029	66.215	26.690	39.639	301.36	16.667	5.8766	0.017138
152.00	0.70222	undefined	8.1122	9.2387	66.391	10.000	0.10000	8.1122	9.2387	66.391	26.646	39.512	302.67	16.433	5.9193	0.017243	10.000	0.10000	8.1122	9.2387	66.391	26.646	39.512	302.67	16.433	5.9193	0.017243
153.00	0.70793	undefined	8.1388	9.2745	66.566	10.000	0.10000	8.1388	9.2745	66.566	26.605	39.391	303.97	16.206	5.9617	0.017348	10.000	0.10000	8.1388	9.2745	66.566	26.605	39.391	303.97	16.206	5.9617	0.017348
154.00	0.71363	undefined	8.1654	9.3102	66.739	10.000	0.10000	8.1654	9.3102	66.739	26.565	39.275	305.26	15.984	6.0040	0.017453	10.000	0.10000	8.1654	9.3102	66.739	26.565	39.275	305.26	15.984	6.0040	0.017453
155.00	0.71932	undefined	8.1919	9.3459	66.911	10.000	0.10000	8.1919	9.3459	66.911	26.528	39.164	306.54	15.768	6.0462	0.017560	10.000	0.10000	8.1919	9.3459	66.911	26.528	39.164	306.54	15.768	6.0462	0.017560
156.00	0.72500	undefined	8.2184	9.3815	67.081	10.000	0.10000	8.2184	9.3815	67.081	26.493	39.058	307.82	15.557	6.0881	0.017667	10.000	0.10000	8.2184	9.3815	67.081	26.493	39.058	307.82	15.557	6.0881	0.017667
157.00	0.73068	undefined	8.2449	9.4171	67.250	10.000	0.10000	8.2449	9.4171	67.250	26.460	38.955	309.09	15.351	6.1300	0.017775	10.000	0.10000	8.2449	9.4171	67.250	26.460	38.955	309.09	15.351	6.1300	0.017775
158.00	0.73635	undefined	8.2713	9.4527	67.418	10.000	0.10000	8.2713	9.4527	67.418	26.428	38.856	310.35	15.150	6.1717	0.017883	10.000	0.10000	8.2713	9.4527	67.418	26.428	38.856	310.35	15.150	6.1717	0.017883
159.00	0.74201	undefined	8.2978	9.4881	67.585	10.000	0.10000	8.2978	9.4881	67.585	26.397	38.761	311.60	14.954	6.2133	0.017992	10.000	0.10000	8.2978	9.4881	67.585	26.397	38.761	311.60	14.954	6.2133	0.017992
160.00	0.74767	undefined	8.3241	9.5236	67.750	10.000	0.10000	8.3241	9.5236	67.750	26.368	38.669	312.85	14.762	6.2547	0.018102	10.000	0.10000	8.3241	9.5236	67.750	26.368	38.669	312.85	14.762	6.2547	0.018102
161.00	0.75332	undefined	8.3505	9.5590	67.915	10.000	0.10000	8.3505	9.5590	67.915	26.340	38.580	314.09	14.574	6.2960	0.018212	10.000	0.10000	8.3505	9.5590	67.915	26.340	38.580	314.09	14.574	6.2960	0.018212
162.00	0.75897	undefined	8.3768	9.5944	68.078	10.000	0.10000	8.3768	9.5944	68.078	26.313	38.494	315.33	14.390	6.3372	0.018323	10.000	0.10000	8.3768	9.5944	68.078	26.313	38.494	315.33	14.390	6.3372	0.018323
163.00	0.76461	undefined	8.4031	9.6298	68.239	10.000	0.10000	8.4031	9.6298	68.239	26.287	38.411	316.56	14.210	6.3783	0.018434	10.000	0.10000	8.4031	9.6298	68.239	26.287	38.411	316.56	14.210	6.3783	0.018434
164.00	0.77025	undefined	8.4294	9.6651	68.400	10.000	0.10000	8.4294	9.6651	68.400	26.263	38.331	317.78	14.034	6.4192	0.018546	10.000	0.10000	8.4294	9.6651	68.400	26.263	38.331	317.78	14.034	6.4192	0.018546
165.00	0.77588	undefined	8.4556	9.7004	68.560	10.000	0.10000	8.4556	9.7004	68.560	26.239	38.253	318.99	13.862	6.4600	0.018658	10.000	0.10000	8.4556	9.7004	68.560	26.239	38.253	318.99	13.862	6.4600	0.018658
166.00	0.78150	undefined	8.4819	9.7356	68.718	10.000	0.10000	8.4819	9.7356	68.718	26.216	38.178	320.20	13.693	6.5008	0.018770	10.000	0.10000	8.4819	9.7356	68.718	26.216	38.178	320.20	13.693	6.5008	0.018770
167.00	0.78713	undefined	8.5081	9.7708	68.876	10.000	0.10000	8.5081	9.7708	68.876	26.194	38.105	321.41	13.528	6.5414	0.018883	10.000	0.10000	8.5081	9.7708	68.876	26.194	38.105	321.41	13.528	6.5414	0.018883
168.00	0.79274	undefined	8.5343	9.8060	69.032	10.000	0.10000	8.5343	9.8060	69.032	26.174	38.034	322.60	13.366	6.5819	0.018997	10.000	0.10000	8.5343	9.8060	69.032	26.174	38.034	322.60	13.366	6.5819	0.018997
169.00	0.79835	undefined	8.5604	9.8412	69.187	10.000	0.10000	8.5604	9.8412	69.187	26.154	37.965	323.80	13.208	6.6223	0.019111	10.000	0.10000	8.5604	9.8412	69.187	26.154	37.965	323.80	13.208	6.6223	0.019111
170.00	0.80396	undefined	8.5866	9.8763	69.341	10.000	0.10000	8.5866	9.8763	69.341	26.134	37.899	324.98	13.052	6.6626	0.019225	10.000	0.10000	8.5866	9.8763	69.341	26.134	37.899	324.98	13.052	6.6626	0.019225
171.00	0.80956	undefined	8.6127	9.9115	69.495	10.000	0.10000	8.6127	9.9115	69.495	26.116	37.834	326.16	12.900	6.7029	0.019340	10.000	0.10000	8.6127	9.9115	69.495	26.116	37.834	326.16	12.900	6.7029	0.019340
172.00	0.81516	undefined	8.6388	9.9465	69.647	10.000	0.10000	8.6388	9.9465	69.647	26.098	37.772	327.34	12.750	6.7430	0.019455	10.000	0.10000	8.6388	9.9465	69.647	26.098	37.772	327.34	12.750	6.7430	0.019455
173.00	0.82076	undefined	8.6649	9.9816	69.798	10.000	0.10000	8.6649	9.9816	69.798	26.081	37.711	328.51	12.604	6.7830	0.019570	10.000	0.10000	8.6649	9.9816	69.798	26.081	37.711	328.51	12.604	6.7830	0.019570
174.00	0.82635	undefined	8.6910	10.017	69.948	10.000	0.10000	8.6910	10.017	69.948	26.065	37.652	329.67	12.460	6.8229	0.019686	10.000	0.10000	8.6910	10.017	69.948	26.065	37.652	329.67	12.460	6.8229	0.019686
175.00	0.83193	undefined	8.7170	10.052	70.098	10.000	0.10000	8.7170	10.052	70.098	26.050	37.595	330.83	12.319	6.8628	0.019803	10.000	0.10000	8.7170	10.052	70.098	26.050	37.595	330.83	12.319	6.8628	0.019803
176.00	0.83752	undefined	8.7431	10.087	70.246	10.000	0.10000	8.7431	10.087	70.246	26.035	37.540	331.98	12.180	6.9025	0.019920	10.000	0.10000	8.7431	10.087	70.246	26.035	37.540	331.98	12.180	6.9025	0.019920
177.00	0.84310	undefined	8.7691	10.122	70.394	10.000	0.10000	8.7691	10.122	70.394	26.021	37.486	333.13	12.045	6.9422	0.020037	10.000	0.10000	8.7691	10.122	70.394	26.021	37.486	333.13	12.045	6.9422	0.020037
178.00	0.84867	undefined	8.7951	10.157	70.540	10.000	0.10000	8.7951	10.157	70.540	26.008	37.434	334.27	11.911	6.9818	0.020155	10.000	0.10000	8.7951	10.157	70.540	26.008	37.434	334.27	11.911	6.9818	0.020155
179.00	0.85424	undefined	8.8211	10.192	70.686	10.000	0.10000	8.8211	10.192	70.686	25.995	37.384	335.41	11.780	7.0213	0.020273	10.000	0.10000	8.8211	10.192	70.686	25.995	37.384	335.41	11.780	7.0213	0.020273
180.00	0.85981	undefined	8.8471	10.226	70.831	10.000	0.10000	8.8471	10.226	70.831	25.983	37.334	336.54	11.652	7.0607	0.020392	10.000	0.10000	8.8471	10.226	70.831	25.983	37.334	336.54	11.652	7.0607	0.020392
181.00	0.86538	undefined	8.8731	10.261	70.974	10.000	0.10000	8.8731	10.261	70.974	25.971	37.287	337.67	11.526	7.1000	0.020511	10.000	0.10000	8.8731	10.261	70.974	25.971	37.287	337.67	11.526	7.1000	0.020511
182.00	0.87094	undefined	8.8990	10.296	71.118	10.000	0.10000	8.8990	10.296	71.118	25.960	37.241	338.80	11.402	7.1393	0.020631	10.000	0.10000	8.8990	10.296	71.118	25.960	37.241	338.80	11.402	7.1393	0.020631
183.00	0.87650	undefined	8.9250	10.331	71.260	10.000	0.10000	8.9250	10.331	71.260	25.950	37.196	339.91	11.280	7.1784	0.020752	10.000	0.10000	8.9250	10.331	71.260	25.950	37.196	339.91	11.280	7.1784	0.020752
184.00	0.88205	undefined	8.9509	10.366	71.401	10.000	0.10000	8.9509	10.366	71.401	25.940	37.152	341.03	11.160	7.2175	0.020874	10.000	0.10000	8.9509	10.366	71.401	25.940	37.152	341.03	11.160	7.2175	0.020874
185.00	0.88760	undefined	8.9769	10.401	71.542	10.000	0.10000	8.9769	10.401	71.542	25.931	37.110	342.14	11.042	7.2565	0.020996	10.000	0.10000	8.9769	10.401	71.542	25.931	37.110	342.14	11.042	7.2565	0.020996
186.00	0.89315	undefined	9.0028	10.436	71.681	10.000	0.10000	9.0028	10.436	71.681	25.922	37.069	343.24	10.927	7.2954	0.021121	10.000	0.10000	9.0028	10.436	71.681	25.922	37.069	343.24	10.927	7.2954	0.021121
187.00	0.89870	undefined	9.0287	10.470	71.820	10.000	0.10000	9.0287	10.470	71.820	25.914	37.030	344.34	10.813	7.3343	0.021246	10.000	0.10000	9.0287	10.470	71.820	25.914	37.030	344.34	10.813	7.3343	0.021246
188.00	0.90424	undefined	9.0546	10.505	71.959	10.000	0.10000	9.0546	10.505	71.959	25.907	36.991	345.43	10.701	7.3731	0.021375	10.000	0.10000	9.0546	10.505	71.959	25.907	36.991	345.43	10.701	7.3731	0.021375
189.00	0.90978	undefined	9.0805	10.540	72.096	10.000	0.10000	9.0805	10.540	72.096	25.900	36.954	346.52	10.592	7.4118	0.021507	10.000	0.10000	9.0805	10.540	72.096	25.900	36.954	346.52	10.592	7.4118	0.021507
190.00	0.91532	undefined	9.1064	10.575	72.233	10.000	0.10000	9.1064	10.575	72.233	25.893	36.918	347.61	10.483	7.4504	0.021649	10.000	0.10000	9.1064	10.575	72.233	25.893	36.918	347.61	10.483	7.4504	0.021649
191.00	0.92086	undefined	9.1323	10.610	72.369	10.000	0.10000	9.1323	10.610	72.369	25.887	36.883	348.69	10.377	7.4889	0.021762	10.000	0.10000	9.1323	10.610	72.369	25.887	36.883	348.69	10.377	7.4889	0.021762
192.00	0.92639	undefined	9.1582	10.644	72.504	10.000	0.10000	9.1582	10.644	72.504	25.882	36.850	349.77	10.273	7.5274	0.021847	10.000	0.10000	9.1582	10.644	72.504	25.882	36.850	349.77	10.273	7.5274	0.021847
193.00	0.93192	undefined	9.1841	10.679	72.638	10.000	0.10000	9.1841	10.679	72.638	25.877	36.817	350.84	10.170	7.5658	0.021944	10.000	0.10000	9.1841	10.679	72.638	25.877	36.817	350.84	10.170	7.5658	0.021944
194.00	0.93745	undefined	9.2100	10.714	72.772	10.000	0.10000	9.2100	10.714	72.772	25.873	36.785	351.91	10.069	7.6042	0.022046	10.000	0.10000	9.2100	10.714	72.772	25.873	36.785	351.91	10.069	7.6042	0.022046
195.00	0.94297	undefined	9.2358	10.749	72.905	10.000	0.10000	9.2358	10.749	72.905	25.869	36.755	352.97	9.9690	7.6424	0.022152	10.000	0.10000	9.2358	10.749	72.905	25.869	36.755	352.97	9.9690	7.6424	0.022152
196.00	0.94849	undefined	9.2617	10.783	73.037	10.000	0.10000	9.2617	10.783	73.037	25.865	36.725	354.03	9.8709	7.6806	0.022259	10.000	0.10000	9.2617	10.783	73.037	25.865	36.725	354.03	9.8709	7.6806	0.022259
197.00	0.95401	undefined	9.2876	10.818	73.169	10.000	0.10000	9.2876	10.818	73.169	25.862	36.696	355.08	9.7744	7.7188	0.022368	10.000	0.10000	9.2876	10.818	73.169	25.862	36.696	355.08	9.7744	7.7188	0.022368
198.00	0.95953	undefined	9.3134	10.853	73.300	10.000	0.10000	9.3134	10.853	73.300	25.860	36.669	356.13	9.6794	7.7568	0.022477	10.000	0.10000	9.3134	10.853	73.300	25.860	36.669	356.13	9.6794	7.7568	0.022477
199.00	0.96505	undefined	9.3393	10.887	73.430	10.000	0.10000	9.3393	10.887	73.430	25.858	36.642	357.18	9.5858	7.7948	0.022588	10.000	0.10000	9.3393	10.887	73.430	25.858	36.642	357.18	9.5858	7.7948	0.022588
200.00	0.97056	undefined	9.3651	10.922	73.560	10.000	0.10000	9.3651	10.922	73.560	25.856	36.616	358.22	9.4937	7.8328	0.022699	10.000	0.10000	9.3651	10.922	73.560	25.856	36.616	358.22	9.4937	7.8328	0.022699
201.00	0.97607	undefined	9.3910	10.957	73.689	10.000	0.10000	9.3910	10.957	73.689	25.855	36.592	359.26	9.4029	7.8706	0.022811	10.000	0.10000	9.3910	10.957	73.689	25.855	36.592	359.26	9.4029	7.8706	0.022811
202.00	0.98158	undefined	9.4168	10.992	73.817	10.000	0.10000	9.4168	10.992	73.817	25.855	36.568	360.30	9.3135	7.9084	0.022924	10.000	0.10000	9.4168	10.992	73.817	25.855	36.568	360.30	9.3135	7.9084	0.022924
203.00	0.98709	undefined	9.4427	11.026	73.945	10.000	0.10000	9.4427	11.026	73.945	25.855	36.545	361.33	9.2254	7.9461	0.023037	10.000	0.10000	9.4427	11.026	73.945	25.855	36.545	361.33	9.2254	7.9461	0.023037
204.00	0.99259	undefined	9.4686	11.061	74.072	10.000	0.10000	9.4686	11.061	74.072	25.855	36.522	362.35	9.1386	7.9838	0.023150	10.000	0.10000	9.4686	11.061	74.072	25.855	36.522	362.35	9.1386	7.9838	0.023150
205.00	0.99810	undefined	9.4944	11.096	74.198	10.000	0.10000	9.4944	11.096	74.198	25.856	36.501	363.38	9.0531	8.0214	0.023264	10.000	0.10000	9.4944	11.096	74.198	25.856	36.501	363.38	9.0531	8.0214	0.023264
206.00	1.0036	undefined	9.5203	11.130	74.324	10.000	0.10000	9.5203	11.130	74.324	25.857	36.481	364.39	8.9688	8.0589	0.023378	10.000	0.10000	9.5203	11.130	74.324	25.857	36.481	364.39	8.9688	8.0589	0.023378
207.00	1.0091	undefined	9.5461	11.165	74.449	10.000	0.10000	9.5461	11.165	74.449	25.858	36.461	365.41	8.8857	8.0964	0.023492	10.000	0.10000	9.5461	11.165	74.449	25.858	36.461	365.41	8.8857	8.0964	0.023492
208.00	1.0146	undefined	9.5720	11.200	74.574	10.000	0.10000	9.5720	11.200	74.574	25.861	36.442	366.42	8.8038	8.1338	0.023607	10.000	0.10000	9.5720	11.200	74.574	25.861	36.442	366.42	8.8038	8.1338	0.023607
209.00	1.0201	undefined	9.5978	11.234	74.698	10.000	0.10000	9.5978	11.234	74.698	25.863	36.424	367.43	8.7231	8.1712	0.023722	10.000	0.10000	9.5978	11.234	74.698	25.863	36.424	367.43	8.7231	8.1712	0.023722
210.00	1.0256	undefined	9.6237	11.269	74.821	10.000	0.10000	9.6237	11.269	74.821	25.866	36.407	368.43	8.6434	8.2085	0.023837	10.000	0.10000	9.6237	11.269	74.821	25.866	36.407	368.43	8.6434	8.2085	0.023837
211.00	1.0311	undefined	9.6496	11.304	74.944	10.000	0.10000	9.6496	11.304	74.944	25.869	36.391	369.43	8.5649	8.2457	0.023953	10.000	0.10000	9.6496	11.304	74.944	25.869	36.391	369.43	8.5649	8.2457	0.023953
212.00	1.0366	undefined	9.6754	11.338	75.067	10.000	0.10000	9.6754	11.338	75.067	25.873	36.375	370.42	8.4875	8.2828	0.024068	10.000	0.10000	9.6754	11.338	75.067	25.873	36.375	370.42	8.4875	8.2828	0.024068
213.00	1.0421	undefined	9.7013	11.373	75.188	10.000	0.10000	9.7013	11.373	75.188	25.877	36.360	371.41	8.4111	8.3199	0.024184	10.000	0.10000	9.7013	11.373	75.188	25.877	36.360	371.41	8.4111	8.3199	0.024184
214.00	1.0475	undefined	9.7272	11.408	75.309	10.000	0.10000	9.7272	11.408	75.309	25.882	36.346	372.40	8.3358	8.3570	0.024301	10.000	0.10000	9.7272	11.408	75.309	25.882	36.346	372.40	8.3358	8.3570	0.024301
215.00	1.0530	undefined	9.7531	11.442	75.430	10.000	0.10000	9.7531	11.442	75.430	25.887	36.332	373.39	8.2614	8.3939	0.024417	10.000	0.10000	9.7531	11.442	75.430	25.887	36.332	373.39	8.2614	8.3939	0.024417
216.00	1.0585	undefined	9.7790	11.477	75.550	10.000	0.10000	9.7790	11.477	75.550	25.893	36.320	374.37	8.1881	8.4309	0.024534	10.000	0.10000	9.7790	11.477	75.550	25.893	36.320	374.37	8.1881	8.4309	0.024534
217.00	1.0640	undefined	9.8049	11.512	75.670	10.000	0.10000	9.8049	11.512	75.670	25.898	36.308	375.34	8.1157	8.4677	0.024651	10.000	0.10000	9.8049	11.512	75.670	25.898	36.308	375.34	8.1157	8.4677	0.024651
218.00	1.0695	undefined	9.8308	11.547	75.789	10.000	0.10000	9.8308	11.547	75.789	25.905	36.296	376.32	8.0443	8.5045	0.024768	10.000	0.10000	9.8308	11.547	75.789	25.905	36.296	376.32	8.0443	8.5045	0.024768
219.00	1.0750	undefined	9.8567	11.581	75.908	10.000	0.10000	9.8567	11.581	75.908	25.911	36.286	377.29	7.9738	8.5412	0.024885	10.000	0.10000	9.8567	11.581	75.908	25.911	36.286	377.29	7.9738	8.5412	0.024885
220.00	1.0804	undefined	9.8826	11.616	76.026	10.000	0.10000	9.8826	11.616	76.026	25.919	36.276	378.25	7.9042	8.5779	0.025002	10.000	0.10000	9.8826	11.616	76.026	25.919	36.276	378.25	7.9042	8.5779	0.025002
221.00	1.0859	undefined	9.9085	11.651	76.143	10.000	0.10000	9.9085	11.651	76.143	25.926	36.266	379.21	7.8356	8.6145	0.025120	10.000	0.10000	9.9085	11.651	76.143	25.926	36.266	379.21	7.8356	8.6145	0.025120
222.00	1.0914	undefined	9.9344	11.685	76.260	10.000	0.10000	9.9344	11.685	76.260	25.934	36.258	380.17	7.7677	8.6511	0.025238	10.000	0.10000	9.9344	11.685	76.260	25.934	36.258	380.17	7.7677	8.6511	0.025238
223.00	1.0969	undefined	9.9604	11.720	76.377	10.000	0.10000	9.9604	11.720	76.377	25.942	36.250	381.13	7.7008	8.6876	0.025356	10.000	0.10000	9.9604	11.720	76.377	25.942	36.250	381.13	7.7008	8.6876	0.025356
224.00	1.1023	undefined	9.9863	11.755	76.493	10.000	0.10000	9.9863	11.755	76.493	25.951	36.243	382.08	7.6347	8.7240	0.025474	10.000	0.10000	9.9863	11.755	76.493	25.951	36.243	382.08	7.6347	8.7240	0.025474
225.00	1.1078	undefined	10.012	11.790	76.609	10.000	0.10000	10.012	11.790	76.609	25.960	36.236	383.03	7.5694	8.7604	0.025593	10.000	0.10000	10.012	11.790	76.609	25.960	36.236	383.03	7.5694	8.7604	0.025593
226.00	1.1133	undefined	10.038	11.824	76.724	10.000	0.10000	10.038	11.824	76.724	25.970	36.230	383.97	7.5049	8.7968	0.025712	10.000	0.10000	10.038	11.824	76.724	25.970	36.230	383.97	7.5049	8.7968	0.025712
227.00	1.1187	undefined	10.064	11.859	76.838	10.000	0.10000	10.064	11.859	76.838	25.980	36.225	384.92	7.4412	8.8330	0.025831	10.000	0.10000	10.064	11.859	76.838	25.980	36.225	384.92	7.4412	8.8330	0.025831
228.00	1.1242	undefined	10.090	11.894	76.953	10.000	0.10000	10.090	11.894	76.953	25.990	36.220	385.85	7.3783	8.8693	0.025950	10.000	0.10000	10.090	11.894	76.953	25.990	36.220	385.85	7.3783	8.8693	0.025950
229.00	1.1297	undefined	10.116	11.929	77.066	10.000	0.10000	10.116	11.929	77.066	26.001	36.216	386.79	7.3161	8.9054	0.026069	10.000	0.10000	10.116	11.929	77.066	26.001	36.216	386.79	7.3161	8.9054	0.026069
230.00	1.1351	undefined	10.142	11.963	77.180	10.000	0.10000	10.142	11.963	77.180	26.012	36.212	387.72	7.2547	8.9415	0.026188	10.000	0.10000	10.142	11.963	77.180	26.012	36.212	387.72	7.2547	8.9415	0.026188
231.00	1.1406	undefined	10.168	11.998	77.293	10.000	0.10000	10.168	11.998	77.293	26.023	36.210	388.65	7.1940	8.9776	0.026308	10.000	0.10000	10.168	11.998	77.293	26.023	36.210	388.65	7.1940	8.9776	0.026308
232.00	1.1461	undefined	10.194	12.033	77.405	10.000	0.10000	10.194	12.033	77.405	26.035	36.207	389.57	7.1341	9.0136	0.026428	10.000	0.10000	10.194	12.033	77.405	26.035	36.207	389.57	7.1341	9.0136	0.026428
233.00	1.1515	undefined	10.220	12.068	77.517	10.000	0.10000	10.220	12.068	77.517	26.048	36.206	390.49	7.0748	9.0495	0.026548	10.000	0.10000	10.220	12.068	77.517	26.048	36.206	390.49	7.0748	9.0495	0.026548
234.00	1.1570	undefined	10.246	12.102	77.629	10.000	0.10000	10.246	12.102	77.629	26.060	36.205	391.41	7.0163	9.0854	0.026669	10.000	0.10000	10.246	12.102	77.629	26.060	36.205	391.41	7.0163	9.0854	0.026669
235.00	1.1624	undefined	10.272	12.137	77.740	10.000	0.10000	10.272	12.137	77.740	26.073	36.204	392.33	6.9584	9.1212	0.026789	10.000	0.10000	10.272	12.137	77.740	26.073	36.204	392.33	6.9584	9.1212	0.026789
236.00	1.1679	undefined	10.299	12.172	77.850	10.000	0.10000	10.299	12.172	77.850	26.087	36.204	393.24	6.9012	9.1570	0.026910	10.000	0.10000	10.299	12.172	77.850	26.087	36.204	393.24	6.9012	9.1570	0.026910
237.00	1.1734	undefined	10.325	12.207	77.961	10.000	0.10000	10.325	12.207	77.961	26.101	36.205	394.15	6.8446	9.1927	0.027031	10.000	0.10000	10.325	12.207	77.961	26.101	36.205	394.15	6.8446	9.1927	0.027031
238.00	1.1788	undefined	10.351	12.242	78.071	10.000	0.10000	10.351	12.242	78.071	26.115	36.206	395.05	6.7887	9.2283	0.027152	10.000	0.10000	10.351	12.242	78.071	26.115	36.206	395.05	6.7887	9.2283	0.027152
239.00	1.1843	undefined	10.377	12.277	78.180	10.000	0.10000	10.377	12.277	78.180	26.130	36.208	395.95	6.7334	9.2640	0.027273	10.000	0.10000	10.377	12.277	78.180	26.130	36.208	395.95	6.7334	9.2640	0.027273
240.00	1.1897	undefined	10.403	12.312	78.289	10.000	0.10000	10.403	12.312	78.289	26.145	36.210	396.85	6.6788	9.2995	0.027395	10.000	0.10000	10.403	12.312	78.289	26.145	36.210	396.85	6.6788	9.2995	0.027395
241.00	1.1952	undefined	10.429	12.346	78.398	10.000	0.10000	10.429	12.346	78.398	26.160	36.213	397.75	6.6247	9.3350	0.027517	10.000	0.10000	10.429	12.346	78.398	26.160	36.213	397.75	6.6247	9.3350	0.027517
242.00	1.2006	undefined	10.455	12.381	78.506	10.000	0.10000	10.455	12.381	78.506	26.176	36.217	398.64	6.5713	9.3705	0.027639	10.000	0.10000	10.455	12.381	78.506	26.176	36.217	398.64	6.5713	9.3705	0.027639
243.00	1.2061	undefined	10.481	12.416	78.614	10.000	0.10000	10.481	12.416	78.614	26.192	36.221	399.53	6.5184	9.4059	0.027761	10.000	0.10000	10.481	12.416	78.614	26.192	36.221	399.53	6.5184	9.4059	0.027761
244.00	1.2115	undefined	10.508	12.451	78.722	10.000	0.10000	10.508	12.451	78.722	26.209	36.225	400.42	6.4661	9.4412	0.027884	10.000	0.10000	10.508	12.451	78.722	26.209	36.225	400.42	6.4661	9.4412	0.027884
245.00	1.2170	undefined	10.534	12.486	78.829	10.000	0.10000	10.534	12.486	78.829	26.225	36.230	401.30	6.4144	9.4765	0.028007	10.000	0.10000	10.534	12.486	78.829	26.225	36.230	401.30	6.4144	9.4765	0.028007
246.00	1.2224	undefined	10.560	12.521	78.936	10.000	0.10000	10.560	12.521	78.936	26.243	36.236	402.18	6.3633	9.5117	0.028130	10.000	0.10000	10.560	12.521	78.936	26.243	36.236	402.18	6.3633	9.5117	0.028130
247.00	1.2279	undefined	10.586	12.556	79.043	10.000	0.10000	10.586	12.556	79.043	26.260	36.242	403.06	6.3127	9.5469	0.028253	10.000	0.10000	10.586	12.556	79.043	26.260	36.242	403.06	6.3127	9.5469	0.028253
248.00	1.2333	undefined	10.613	12.591	79.149	10.000	0.10000	10.613	12.591	79.149	26.279	36.249	403.93	6.2626	9.5820	0.028376	10.000	0.10000	10.613	12.591	79.149	26.279	36.249	403.93	6.2626	9.5820	0.028376
249.00	1.2387	undefined	10.639	12.626	79.255	10.000	0.10000	10.639	12.626	79.255	26.297	36.256	404.80	6.2131	9.6171	0.028500	10.000	0.10000	10.639	12.626	79.255	26.297	36.256	404.80	6.2131	9.6171	0.028500
250.00	1.2442	undefined	10.665	12.661	79.360	10.000	0.10000	10.665	12.661	79.360	26.316	36.264	405.67	6.1641	9.6521	0.028624	10.000	0.10000	10.665	12.661	79.360	26.316	36.264	405.67	6.1641	9.6521	0.028624
251.00	1.2496	undefined	10.692	12.696	79.465	10.000	0.10000	10.692	12.696	79.465	26.335	36.272	406.54	6.1156	9.6871	0.028748	10.000	0.10000	10.692	12.696	79.465	26.335	36.272	406.54	6.1156	9.6871	0.028748
252.00	1.2551	undefined	10.718	12.731	79.570	10.000	0.10000	10.718	12.731	79.570	26.354	36.281	407.40	6.0676	9.7220	0.028873	10.000	0.10000	10.718	12.731	79.570	26.354	36.281	407.40	6.0676	9.7220	0.028873
253.00	1.2605	undefined	10.744	12.766	79.674	10.000	0.10000	10.744	12.766	79.674	26.374	36.290	408.26	6.0201	9.7569	0.028997	10.000	0.10000	10.744	12.766	79.674	26.374	36.290	408.26	6.0201	9.7569	0.028997
254.00	1.2659	undefined	10.771	12.802	79.778	10.000	0.10000	10.771	12.802	79.778	26.395	36.300	409.11	5.9731	9.7917	0.029122	10.000	0.10000	10.771	12.802	79.778	26.395	36.300	409.11	5.9731	9.7917	0.029122
255.00	1.2714	undefined	10.797	12.837	79.882	10.000	0.10000	10.797	12.837	79.882	26.415	36.310	409.97	5.9266	9.8265	0.029247	10.000	0.10000	10.797	12.837	79.882	26.415	36.310	409.97	5.9266	9.8265	0.029247
256.00	1.2768	undefined	10.823	12.872	79.986	10.000	0.10000	10.823	12.872	79.986	26.436	36.321	410.82	5.8806	9.8612	0.029373	10.000	0.10000	10.823	12.872	79.986	26.436	36.321	410.82	5.8806	9.8612	0.029373
257.00	1.2823	undefined	10.850	12.907	80.089	10.000	0.10000	10.850	12.907	80.089	26.458	36.332	411.66	5.8350	9.8959	0.029499	10.000	0.10000	10.850	12.907	80.089	26.458	36.332	411.66	5.8350	9.8959	0.029499
258.00	1.2877	undefined	10.876	12.942	80.191	10.000	0.10000	10.876	12.942	80.191	26.479	36.344	412.51	5.7899	9.9305	0.029625	10.000	0.10000	10.876	12.942	80.191	26.479	36.344	412.51	5.7899	9.9305	0.029625
259.00	1.2931	undefined	10.903	12.977	80.294	10.000	0.10000	10.903	12.977	80.294	26.502	36.356	413.35	5.7453	9.9651	0.029751	10.000	0.10000	10.903	12.977	80.294	26.502	36.356	413.35	5.7453	9.9651	0.029751
260.00	1.2986	undefined	10.929	13.013	80.396	10.000	0.10000	10.929	13.013	80.396	26.524	36.369	414.19	5.7011	9.9996	0.029877	10.000	0.10000	10.929	13.013	80.396	26.524	36.369	414.19	5.7011	9.9996	0.029877
261.00	1.3040	undefined	10.956	13.048	80.498	10.000	0.10000	10.956	13.048	80.498	26.547	36.382	415.03	5.6573	10.034	0.030004	10.000	0.10000	10.956	13.048	80.498	26.547	36.382	415.03	5.6573	10.034	0.030004
262.00	1.3094	undefined	10.982	13.083	80.599	10.000	0.10000	10.982	13.083	80.599	26.570	36.395	415.86	5.6140	10.069	0.030131	10.000	0.10000	10.982	13.083	80.599	26.570	36.395	415.86	5.6140	10.069	0.030131
263.00	1.3149	undefined	11.009	13.118	80.701	10.000	0.10000	11.009	13.118	80.701	26.594	36.410	416.69	5.5711	10.103	0.030258	10.000	0.10000	11.009	13.118	80.701	26.594	36.410	416.69	5.5711	10.103	0.030258
264.00	1.3203	undefined	11.036	13.154	80.802	10.000	0.10000	11.036	13.154	80.802	26.618	36.424	417.52	5.5286	10.137	0.030386	10.000	0.10000	11.036	13.154	80.802	26.618	36.424	417.52	5.5286	10.137	0.030386
265.00	1.3257	undefined	11.062	13.189	80.902	10.000	0.10000	11.062	13.189	80.902	26.642	36.439	418.34	5.4866	10.171	0.030514	10.000	0.10000	11.062	13.189	80.902	26.642	36.439	418.34	5.4866	10.171	0.030514
266.00	1.3312	undefined	11.089	13.225	81.003	10.000	0.10000	11.089	13.225	81.003	26.666	36.455	419.16	5.4449	10.206	0.030642	10.000	0.10000	11.089	13.225	81.003	26.666	36.455	419.16	5.4449	10.206	0.030642
267.00	1.3366	undefined	11.116	13.260	81.103	10.000	0.10000	11.116	13.260	81.103	26.691	36.471	419.98	5.4037	10.240	0.030770	10.000	0.10000	11.116	13.260	81.103	26.691	36.471	419.98	5.4037	10.240	0.030770
268.00	1.3420	undefined	11.142	13.295	81.203	10.000	0.10000	11.142	13.295	81.203	26.717	36.487	420.80	5.3628	10.274	0.030899	10.000	0.10000	11.142	13.295	81.203	26.717	36.487	420.80	5.3628	10.274	0.030899
269.00	1.3474	undefined	11.169	13.331	81.302	10.000	0.10000	11.169	13.331	81.302	26.742	36.504	421.62	5.3224	10.308	0.031028	10.000	0.10000	11.169	13.331	81.302	26.742	36.504	421.62	5.3224	10.308	0.031028
270.00	1.3529	undefined	11.196	13.366	81.402	10.000	0.10000	11.196	13.366	81.402	26.768	36.521	422.43	5.2823	10.342	0.031157	10.000	0.10000	11.196	13.366	81.402	26.768	36.521	422.43	5.2823	10.342	0.031157
271.00	1.3583	undefined	11.223	13.402	81.501	10.000	0.10000	11.223	13.402	81.501	26.795	36.539	423.24	5.2426	10.376	0.031287	10.000	0.10000	11.223	13.402	81.501	26.795	36.539	423.24	5.2426	10.376	0.031287
272.00	1.3637	undefined	11.249	13.437	81.599	10.000	0.10000	11.249	13.437	81.599	26.822	36.557	424.04	5.2033	10.410	0.031417	10.000	0.10000	11.249	13.437	81.599	26.822	36.557	424.04	5.2033	10.410	0.031417
273.00	1.3691	undefined	11.276	13.473	81.698	10.000	0.10000	11.276	13.473	81.698	26.849	36.576	424.85	5.1644	10.444	0.031547	10.000	0.10000	11.276	13.473	81.698	26.849	36.576	424.85	5.1644	10.444	0.031547
274.00	1.3746	undefined	11.303	13.508	81.796	10.000	0.10000	11.303	13.508	81.796	26.876	36.595	425.65	5.1258	10.478	0.031677	10.000	0.10000	11.303	13.508	81.796	26.876	36.595	425.65	5.1258	10.478	0.031677
275.00	1.3800	undefined	11.330	13.544	81.894	10.000	0.10000	11.330	13.544	81.894	26.904	36.615	426.45	5.0876	10.512	0.031808	10.000	0.10000	11.330	13.544	81.894	26.904	36.615	426.45	5.0876	10.512	0.031808
276.00	1.3854	undefined	11.357	13.580	81.992	10.000	0.10000	11.357	13.580	81.992	26.932	36.635	427.24	5.0498	10.545	0.031939	10.000	0.10000	11.357	13.580	81.992	26.932	36.635	427.24	5.0498	10.545	0.031939
277.00	1.3908	undefined	11.384	13.615	82.089	10.000	0.10000	11.384	13.615	82.089	26.960	36.655	428.04	5.0123	10.579	0.032070	10.000	0.10000	11.384	13.615	82.089	26.960	36.655	428.04	5.0123	10.579	0.032070
278.00	1.3963	undefined	11.411	13.651	82.186	10.000	0.10000	11.411	13.651	82.186	26.989	36.676	428.83	4.9751	10.613	0.032202	10.000	0.10000	11.411	13.651	82.186	26.989	36.676	428.83	4.9751	10.613	0.032202
279.00	1.4017	undefined	11.438	13.687	82.283	10.000	0.10000	11.438	13.687	82.283	27.018	36.697	429.62	4.9383	10.646	0.032334	10.000	0.10000	11.438	13.687	82.283	27.018	36.697	429.62	4.9383	10.646	0.032334
280.00	1.4071	undefined	11.465	13.722	82.380	10.000	0.10000	11.465	13.722	82.380	27.048	36.719	430.40	4.9018	10.680	0.032466	10.000	0.10000	11.465	13.722	82.380	27.048	36.719	430.40	4.9018	10.680	0.032466
281.00	1.4125	undefined	11.492	13.758	82.476	10.000	0.10000	11.492	13.758	82.476	27.077	36.741	431.18	4.8657	10.713	0.032599	10.000	0.10000	11.492	13.758	82.476	27.077	36.741	431.18	4.8657	10.713	0.032599
282.00	1.4179	undefined	11.519	13.794	82.573	10.000	0.10000	11.519	13.794	82.573	27.107	36.763	431.97	4.8299	10.747	0.032732	10.000	0.10000	11.519	13.794	82.573	27.107	36.763	431.97	4.8299	10.747	0.032732
283.00	1.4234	undefined	11.546	13.830	82.669	10.000	0.10000	11.546	13.830	82.669	27.138	36.786	432.74	4.7944	10.780	0.032865	10.000	0.10000	11.546	13.830	82.669	27.138	36.786	432.74	4.7944	10.780	0.032865
284.00	1.4288	undefined	11.573	13.865	82.765	10.000	0.10000	11.573	13.865	82.765	27.169	36.809	433.52	4.7592	10.814	0.032998	10.000	0.10000	11.573	13.865	82.765	27.169	36.809	433.52	4.7592	10.814	0.032998
285.00	1.4342	undefined	11.601	13.901	82.860	10.000	0.10000	11.601	13.901	82.860	27.200	36.833	434.29	4.7244	10.847	0.033132	10.000	0.10000	11.601	13.901	82.860	27.200	36.833	434.29	4.7244	10.847	0.033132
286.00	1.4396	undefined	11.628	13.937	82.955	10.000	0.10000	11.628	13.937	82.955	27.231	36.857	435.07	4.6898	10.880	0.033266	10.000	0.10000	11.628	13.937	82.955	27.231	36.857	435.07	4.6898	10.880	0.033266
287.00	1.4450	undefined	11.655	13.973	83.051	10.000	0.10000	11.655	13.973	83.051	27.263	36.882	435.83	4.6556	10.913	0.033401	10.000	0.10000	11.655	13.973	83.051	27.263	36.882	435.83	4.6556	10.913	0.033401
288.00	1.4504	undefined	11.682	14.009	83.145	10.000	0.10000	11.682	14.009	83.145	27.295	36.906	436.60	4.6217	10.947	0.033535	10.000	0.10000	11.682	14.009	83.145	27.295	36.906	436.60	4.6217	10.947	0.033535
289.00	1.4559	undefined	11.710	14.045	83.240	10.000	0.10000	11.710	14.045	83.240	27.327	36.932	437.36	4.5880	10.980	0.033670	10.000	0.10000	11.710	14.045	83.240	27.327	36.932	437.36	4.5880	10.980	0.033670
290.00	1.4613	undefined	11.737	14.081	83.335	10.000	0.10000	11.737	14.081	83.335	27.360	36.957	438.13	4.5547	11.013	0.033806	10.000	0.10000	11.737	14.081	83.335	27.360	36.957	438.13	4.5547	11.013	0.033806
291.00	1.4667	undefined	11.764	14.117	83.429	10.000	0.10000	11.764	14.117	83.429	27.393	36.983	438.89	4.5217	11.046	0.033941	10.000	0.10000	11.764	14.117	83.429	27.393	36.983	438.89	4.5217	11.046	0.033941
292.00	1.4721	undefined	11.792	14.153	83.523	10.000	0.10000	11.792	14.153	83.523	27.426	37.010	439.64	4.4890	11.079	0.034077	10.000	0.10000	11.792	14.153	83.523	27.426	37.010	439.64	4.4890	11.079	0.034077
293.00	1.4775	undefined	11.819	14.189	83.617	10.000	0.10000	11.819	14.189	83.617	27.460	37.037	440.40	4.4565	11.112	0.034214	10.000	0.10000	11.819	14.189	83.617	27.460	37.037	440.40	4.4565	11.112	0.034214
294.00	1.4829	undefined	11.847	14.226	83.710	10.000	0.10000	11.847	14.226	83.710	27.494	37.064	441.15	4.4243	11.145	0.034350	10.000	0.10000	11.847	14.226	83.710	27.494	37.064	441.15	4.4243	11.145	0.034350
295.00	1.4883	undefined	11.874	14.262	83.804	10.000	0.10000	11.874	14.262	83.804	27.528	37.091	441.90	4.3925	11.178	0.034487	10.000	0.10000	11.874	14.262	83.804	27.528	37.091	441.90	4.3925	11.178	0.034487
296.00	1.4938	undefined	11.902	14.298	83.897	10.000	0.10000	11.902	14.298	83.897	27.562	37.119	442.65	4.3609	11.210	0.034625	10.000	0.10000	11.902	14.298	83.897	27.562	37.119	442.65	4.3609	11.210	0.034625
297.00	1.4992	undefined	11.929	14.334	83.990	10.000	0.10000	11.929	14.334	83.990	27.597	37.148	443.39	4.3295	11.243	0.034762	10.000	0.10000	11.929	14.334	83.990	27.597	37.148	443.39	4.3295	11.243	0.034762
298.00	1.5046	undefined	11.957	14.371	84.083	10.000	0.10000	11.957	14.371	84.083	27.632	37.176	444.14	4.2985	11.276	0.034900	10.000	0.10000	11.957	14.371	84.083	27.632	37.176	444.14	4.2985	11.276	0.034900
299.00	1.5100	undefined	11.985	14.407	84.175	10.000	0.10000	11.985	14.407	84.175	27.668	37.205	444.88	4.2677	11.309	0.035038	10.000	0.10000	11.985	14.407	84.175	27.668	37.205	444.88	4.2677	11.309	0.035038
300.00	1.5154	undefined	12.012	14.443	84.268	10.000	0.10000	12.012	14.443	84.268	27.703	37.235	445.62	4.2371	11.341	0.035177	10.000	0.10000	12.012	14.443	84.268	27.703	37.235	445.62	4.2371	11.341	0.035177
301.00	1.5208	undefined	12.040	14.480	84.360	10.000	0.10000	12.040	14.480	84.360	27.740	37.264	446.36	4.2069	11.374	0.035316	10.000	0.10000	12.040	14.480	84.360	27.740	37.264	446.36	4.2069	11.374	0.035316
302.00	1.5262	undefined	12.068	14.516	84.452	10.000	0.10000	12.068	14.516	84.452	27.776	37.295	447.09	4.1769	11.407	0.035455	10.000	0.10000	12.068	14.516	84.452	27.776	37.295	447.09	4.1769	11.407	0.035455
303.00	1.5316	undefined	12.095	14.553	84.544	10.000	0.10000	12.095	14.553	84.544	27.812	37.325	447.82	4.1471	11.439	0.035595	10.000	0.10000	12.095	14.553	84.544	27.812	37.325	447.82	4.1471	11.439	0.035595
304.00	1.5370	undefined	12.123	14.589	84.636	10.000	0.10000	12.123	14.589	84.636	27.849	37.356	448.55	4.1176	11.472	0.035735	10.000	0.10000	12.123	14.589	84.636	27.849	37.356	448.55	4.1176	11.472	0.035735
305.00	1.5424	undefined	12.151	14.626	84.727	10.000	0.10000	12.151	14.626	84.727	27.887	37.387	449.28	4.0884	11.504	0.035875	10.000	0.10000	12.151	14.626	84.727	27.887	37.387	449.28	4.0884	11.504	0.035875
306.00	1.5478	undefined	12.179	14.662	84.819	10.000	0.10000	12.179	14.662	84.819	27.924	37.418	450.01	4.0594	11.536	0.036016	10.000	0.10000	12.179	14.662	84.819	27.924	37.418	450.01	4.0594	11.536	0.036016
307.00	1.5532	undefined	12.207	14.699	84.910	10.000	0.10000	12.207	14.699	84.910	27.962	37.450	450.73	4.0306	11.569	0.036157	10.000	0.10000	12.207	14.699	84.910	27.962	37.450	450.73	4.0306	11.569	0.036157
308.00	1.5587	undefined	12.235	14.736	85.001	10.000	0.10000	12.235	14.736	85.001	28.000	37.482	451.46	4.0021	11.601	0.036298	10.000	0.10000	12.235	14.736	85.001	28.000	37.482	451.46	4.0021	11.601	0.036298
309.00	1.5641	undefined	12.263	14.772	85.091	10.000	0.10000	12.263	14.772	85.091	28.038	37.515	452.18	3.9738	11.633	0.036439	10.000	0.10000	12.263	14.772	85.091	28.038	37.515	452.18	3.9738	11.633	0.036439
310.00	1.5695	undefined	12.291	14.809	85.182	10.000	0.10000	12.291	14.809	85.182	28.077	37.548	452.89	3.9458	11.666	0.036581	10.000	0.10000	12.291	14.809	85.182	28.077	37.548	452.89	3.9458	11.666	0.036581
311.00	1.5749	undefined	12.319	14.846	85.273	10.000	0.10000	12.319	14.846	85.273	28.116	37.581	453.61	3.9180	11.698	0.036724	10.000	0.10000	12.319	14.846	85.273	28.116	37.581	453.61	3.9180	11.698	0.036724
312.00	1.5803	undefined	12.347	14.882	85.363	10.000	0.10000	12.347	14.882	85.363	28.155	37.614	454.33	3.8904	11.730	0.036866	10.000	0.10000	12.347	14.882	85.363	28.155	37.614	454.33	3.8904	11.730	0.036866
313.00	1.5857	undefined	12.375	14.919	85.453	10.000	0.10000	12.375	14.919	85.453	28.194	37.648	455.04	3.8631	11.762	0.037009	10.000	0.10000	12.375	14.919	85.453	28.194	37.648	455.04	3.8631	11.762	0.037009
314.00	1.5911	undefined	12.404	14.956	85.543	10.000	0.10000	12.404	14.956	85.543	28.234	37.682	455.75	3.8359	11.794	0.037153	10.000	0.10000	12.404	14.956	85.543	28.234	37.682	455.75	3.8359	11.794	0.037153
315.00	1.5965	undefined	12.432	14.993	85.633	10.000	0.10000	12.432	14.993	85.633	28.274	37.717	456.46	3.8090	11.826	0.037296	10.000	0.10000	12.432	14.993	85.633	28.274	37.717	456.46	3.8090	11.826	0.037296
316.00	1.6019	undefined	12.460	15.030	85.723	10.000	0.10000	12.460	15.030	85.723	28.314	37.751	457.16	3.7824	11.858	0.037440	10.000	0.10000	12.460	15.030	85.723	28.314	37.751	457.16	3.7824	11.858	0.037440
317.00	1.6073	undefined	12.489	15.067	85.812	10.000	0.10000	12.489	15.067	85.812	28.354	37.787	457.87	3.7559	11.890	0.037585	10.000	0.10000	12.489	15.067	85.812	28.354	37.787	457.87	3.7559	11.890	0.037585
318.00	1.6127	undefined	12.517	15.104	85.902	10.000	0.10000	12.517	15.104	85.902	28.395	37.822	458.57	3.7297	11.922	0.037729	10.000	0.10000	12.517	15.104	85.902	28.395	37.822	458.57	3.7297	11.922	0.037729
319.00	1.6181	undefined	12.545	15.141	85.991	10.000	0.10000	12.545	15.141	85.991	28.436	37.858	459.27	3.7037	11.954	0.037874	10.000	0.10000	12.545	15.141	85.991	28.436	37.858	459.27	3.7037	11.954	0.037874
320.00	1.6235	undefined	12.574	15.178	86.080	10.000	0.10000	12.574	15.178	86.080	28.477	37.894	459.97	3.6779	11.985	0.038020	10.000	0.10000	12.574	15.178	86.080	28.477	37.894	459.97	3.6779	11.985	0.038020
321.00	1.6289	undefined	12.602	15.216	86.169	10.000	0.10000	12.602	15.216	86.169	28.519	37.930	460.66	3.6523	12.017	0.038165	10.000	0.10000	12.602	15.216	86.169	28.519	37.930	460.66	3.6523	12.017	0.038165
322.00	1.6343	undefined	12.631	15.253	86.257	10.000	0.10000	12.631	15.253	86.257	28.561	37.966	461.36	3.6269	12.049	0.038311	10.000	0.10000	12.631	15.253	86.257	28.561	37.966	461.36	3.6269	12.049	0.038311
323.00	1.6397	undefined	12.659	15.290	86.346	10.000	0.10000	12.659	15.290	86.346	28.603	38.003	462.05	3.6017	12.081	0.038458	10.000	0.10000	12.659	15.290	86.346	28.603	38.003	462.05	3.6017	12.081	0.038458
324.00	1.6451	undefined	12.688	15.327	86.435	10.000	0.10000	12.688	15.327	86.435	28.645	38.041	462.74	3.5768	12.112	0.038604	10.000	0.10000	12.688	15.327	86.435	28.645	38.041	462.74	3.5768	12.112	0.038604
325.00	1.6505	undefined	12.717	15.365	86.523	10.000	0.10000	12.717	15.365	86.523	28.687	38.078	463.43	3.5520	12.144	0.038752	10.000	0.10000	12.717	15.365	86.523	28.687	38.078	463.43	3.5520	12.144	0.038752
326.00	1.6559	undefined	12.745	15.402	86.611	10.000	0.10000	12.745	15.402	86.611	28.730	38.116	464.12	3.5274	12.175	0.038899	10.000	0.10000	12.745	15.402	86.611	28.730	38.116	464.12	3.5274	12.175	0.038899
327.00	1.6613	undefined	12.774	15.439	86.699	10.000	0.10000	12.774	15.439	86.699	28.773	38.154	464.81	3.5030	12.207	0.039047	10.000	0.10000	12.774	15.439	86.699	28.773	38.154	464.81	3.5030	12.207	0.039047
328.00	1.6667	undefined	12.803	15.477	86.787	10.000	0.10000	12.803	15.477	86.787	28.816	38.192	465.49	3.4789	12.238	0.039195	10.000	0.10000	12.803	15.477	86.787	28.816	38.192	465.49	3.4789	12.238	0.039195
329.00	1.6721	undefined	12.832	15.514	86.875	10.000	0.10000	12.832	15.514	86.875	28.860	38.231	466.17	3.4549	12.270	0.039343	10.000	0.10000	12.832	15.514	86.875	28.860	38.231	466.17	3.4549	12.270	0.039343
330.00	1.6775	undefined	12.861	15.552	86.963	10.000	0.10000	12.861	15.552	86.963	28.904	38.270	466.85	3.4311	12.301	0.039492	10.000	0.10000	12.861	15.552	86.963	28.904	38.270	466.85	3.4311	12.301	0.039492
331.00	1.6829	undefined	12.890	15.589	87.050	10.000	0.10000	12.890	15.589	87.050	28.947	38.309	467.53	3.4075	12.333	0.039641	10.000	0.10000	12.890	15.589	87.050	28.947	38.309	467.53	3.4075	12.333	0.039641
332.00	1.6883	undefined	12.919	15.627	87.137	10.000	0.10000	12.919	15.627	87.137	28.992	38.348	468.21	3.3841	12.364	0.039791	10.000	0.10000	12.919	15.627	87.137	28.992	38.348	468.21	3.3841	12.364	0.039791
333.00	1.6937	undefined	12.948	15.665	87.225	10.000	0.10000	12.948	15.665	87.225	29.036	38.388	468.88	3.3609	12.395	0.039940	10.000	0.10000	12.948	15.665	87.225	29.036	38.388	468.88	3.3609	12.395	0.039940
334.00	1.6991	undefined	12.977	15.702	87.312	10.000	0.10000	12.977	15.702	87.312	29.081	38.428	469.56	3.3378	12.427	0.040091	10.000	0.10000	12.977	15.702	87.312	29.081	38.428	469.56	3.3378	12.427	0.040091
335.00	1.7044	undefined	13.006	15.740	87.399	10.000	0.10000	13.006	15.740	87.399	29.126	38.468	470.23	3.3150	12.458	0.040241	10.000	0.10000	13.006	15.740	87.399	29.126	38.468	470.23	3.3150	12.458	0.040241
336.00	1.7098	undefined	13.035	15.778	87.486	10.000	0.10000	13.035	15.778	87.486	29.171	38.509	470.90	3.2923	12.489	0.040392	10.000	0.10000	13.035	15.778	87.486	29.171	38.509	470.90	3.2923	12.489	0.040392
337.00	1.7152	undefined	13.064	15.816	87.573	10.000	0.10000	13.064	15.816	87.573	29.216	38.549	471.57	3.2698	12.520	0.040543	10.000	0.10000	13.064	15.816	87.573	29.216	38.549	471.57	3.2698	12.520	0.040543
338.00	1.7206	undefined	13.093	15.854	87.659	10.000	0.10000	13.093	15.854	87.659	29.261	38.590	472.24	3.2475	12.551	0.040695	10.000	0.10000	13.093	15.854	87.659	29.261	38.590	472.24	3.2475	12.551	0.040695
339.00	1.7260	undefined	13.123	15.892	87.746	10.000	0.10000	13.123	15.892	87.746	29.307	38.632	472.90	3.2254	12.582	0.040846	10.000	0.10000	13.123	15.892	87.746	29.307	38.632	472.90	3.2254	12.582	0.040846
340.00	1.7314	undefined	13.152	15.930	87.832	10.000	0.10000	13.152	15.930	87.832	29.353	38.673	473.57	3.2034	12.613	0.040999	10.000	0.10000	13.152	15.930	87.832	29.353	38.673	473.57	3.2034	12.613	0.040999
341.00	1.7368	undefined	13.181	15.968	87.918	10.000	0.10000	13.181	15.968	87.918	29.399	38.715	474.23	3.1816	12.644	0.041151	10.000	0.10000	13.181	15.968	87.918	29.399	38.715	474.23	3.1816	12.644	0.041151
342.00	1.7422	undefined	13.211	16.006	88.004	10.000	0.10000	13.211	16.006	88.004	29.446	38.757	474.89	3.1600	12.675	0.041304	10.000	0.10000	13.211	16.006	88.004	29.446	38.757	474.89	3.1600	12.675	0.041304
343.00	1.7476	undefined	13.240	16.044	88.091	10.000	0.10000	13.240	16.044	88.091	29.492	38.799	475.55	3.1386	12.706	0.041457	10.000	0.10000	13.240	16.044	88.091	29.492	38.799	475.55	3.1386	12.706	0.041457
344.00	1.7530	undefined	13.270	16.082	88.176	10.000	0.10000	13.270	16.082	88.176	29.539	38.842	476.20	3.1173	12.737	0.041611	10.000	0.10000	13.270	16.082	88.176	29.539	38.842	476.20	3.1173	12.737	0.041611
345.00	1.7584	undefined	13.299	16.120	88.262	10.000	0.10000	13.299	16.120	88.262	29.586	38.884	476.86	3.0962	12.768	0.041765	10.000	0.10000	13.299	16.120	88.262	29.586	38.884	476.86	3.0962	12.768	0.041765
346.00	1.7638	undefined	13.329	16.158	88.348	10.000	0.10000	13.329	16.158	88.348	29.633	38.927	477.51	3.0752	12.798	0.041919	10.000	0.10000	13.329	16.158	88.348	29.633	38.927	477.51	3.0752	12.798	0.041919
347.00	1.7692	undefined	13.359	16.197	88.434	10.000	0.10000	13.359	16.197	88.434	29.681	38.970	478.17	3.0545	12.829	0.042074	10.000	0.10000	13.359	16.197	88.434	29.681	38.970	478.17	3.0545	12.829	0.042074
348.00	1.7746	undefined	13.388	16.235	88.519	10.000	0.10000	13.388	16.235	88.519	29.728	39.014	478.82	3.0338	12.860	0.042229	10.000	0.10000	13.388	16.235	88.519	29.728	39.014	478.82	3.0338	12.860	0.042229
349.00	1.7799	undefined	13.418	16.274	88.604	10.000	0.10000	13.418	16.274	88.604	29.776	39.058	479.47	3.0134	12.891	0.042384	10.000	0.10000	13.418	16.274	88.604	29.776	39.058	479.47	3.0134	12.891	0.042384
350.00	1.7853	undefined	13.448	16.312	88.690	10.000	0.10000	13.448	16.312	88.690	29.824	39.101	480.12	2.9931	12.921	0.042539	10.000	0.10000	13.448	16.312	88.690	29.824	39.101	480.12	2.9931	12.921	0.042539
351.00	1.7907	undefined	13.478	16.350	88.775	10.000	0.10000	13.478	16.350	88.775	29.872	39.146	480.76	2.9729	12.952	0.042695	10.000	0.10000	13.478	16.350	88.775	29.872	39.146	480.76	2.9729	12.952	0.042695
352.00	1.7961	undefined	13.508	16.389	88.860	10.000	0.10000	13.508	16.389	88.860	29.920	39.190	481.41	2.9529	12.982	0.042852	10.000	0.10000	13.508	16.389	88.860	29.920	39.190	481.41	2.9529	12.982	0.042852
353.00	1.8015	undefined	13.538	16.428	88.945	10.000	0.10000	13.538	16.428	88.945	29.969	39.234	482.05	2.9331	13.013	0.043008	10.000	0.10000	13.538	16.428	88.945	29.969	39.234	482.05	2.9331	13.013	0.043008
354.00	1.8069	undefined	13.568	16.466	89.030	10.000	0.10000	13.568	16.466	89.030	30.018	39.279	482.69	2.9134	13.043	0.043165	10.000	0.10000	13.568	16.466	89.030	30.018	39.279	482.69	2.9134	13.043	0.043165
355.00	1.8123	undefined	13.598	16.505	89.114	10.000	0.10000	13.598	16.505	89.114	30.067	39.324	483.33	2.8939	13.074	0.043322	10.000	0.10000	13.598	16.505	89.114	30.067	39.324	483.33	2.8939	13.074	0.043322
356.00	1.8177	undefined	13.628	16.544	89.199	10.000	0.10000	13.628	16.544	89.199	30.116	39.369	483.97	2.8745	13.104	0.043480	10.000	0.10000	13.628	16.544	89.199	30.116	39.369	483.97	2.8745	13.104	0.043480
357.00	1.8231	undefined	13.658	16.582	89.284	10.000	0.10000	13.658	16.582	89.284	30.165	39.415	484.61	2.8553	13.135	0.043638	10.000	0.10000	13.658	16.582	89.284	30.165	39.415	484.61	2.8553	13.135	0.043638
358.00	1.8284	undefined	13.688	16.621	89.368	10.000	0.10000	13.688	16.621	89.368	30.215	39.460	485.25	2.8362	13.165	0.043796	10.000	0.10000	13.688	16.621	89.368	30.215	39.460	485.25	2.8362	13.165	0.043796
359.00	1.8338	undefined	13.718	16.660	89.452	10.000	0.10000	13.718	16.660	89.452	30.264	39.506	485.88	2.8173	13.195	0.043955	10.000	0.10000	13.718	16.660	89.452	30.264	39.506	485.88	2.8173	13.195	0.043955
360.00	1.8392	undefined	13.749	16.699	89.537	10.000	0.10000	13.749	16.699	89.537	30.314	39.552	486.52	2.7985	13.226	0.044114	10.000	0.10000	13.749	16.699	89.537	30.314	39.552	486.52	2.7985	13.226	0.044114
361.00	1.8446	undefined	13.779	16.738	89.621	10.000	0.10000	13.779	16.738	89.621	30.364	39.599	487.15	2.7799	13.256	0.044273	10.000	0.10000	13.779	16.738	89.621	30.364	39.599	487.15	2.7799	13.256	0.044273
362.00	1.8500	undefined	13.809	16.777	89.705	10.000	0.10000	13.809	16.777	89.705	30.414	39.645	487.78	2.7614	13.286	0.044433	10.000	0.10000	13.809	16.777	89.705	30.414	39.645	487.78	2.7614	13.286	0.044433
363.00	1.8554	undefined	13.840	16.816	89.789	10.000	0.10000	13.840	16.816	89.789	30.464	39.692	488.41	2.7430	13.316	0.044593	10.000	0.10000	13.840	16.816	89.789	30.464	39.692	488.41	2.7430	13.316	0.044593
364.00	1.8608	undefined	13.870	16.855	89.873	10.000	0.10000	13.870	16.855	89.873	30.515	39.738	489.04	2.7248	13.346	0.044753	10.000	0.10000	13.870	16.855	89.873	30.515	39.738	489.04	2.7248	13.346	0.044753
365.00	1.8661	undefined	13.901	16.895	89.957	10.000	0.10000	13.901	16.895	89.957	30.566	39.785	489.66	2.7067	13.376	0.044914	10.000	0.10000	13.901	16.895	89.957	30.566	39.785	489.66	2.7067	13.376	0.044914
366.00	1.8715	undefined	13.931	16.934	90.040	10.000	0.10000	13.931	16.934	90.040	30.616	39.833	490.29	2.6887	13.406	0.045075	10.000	0.10000	13.931	16.934	90.040	30.616	39.833	490.29	2.6887	13.406	0.045075
367.00	1.8769	undefined	13.962	16.973	90.124	10.000	0.10000	13.962	16.973	90.124	30.667	39.880	490.91	2.6709	13.436	0.045236	10.000	0.10000	13.962	16.973	90.124	30.667	39.880	490.91	2.6709	13.436	0.045236
368.00	1.8823	undefined	13.993	17.012	90.207	10.000	0.10000	13.993	17.012	90.207	30.719	39.928	491.54	2.6533	13.466	0.045397	10.000	0.10000	13.993	17.012	90.207	30.719	39.928	491.54	2.6533	13.466	0.045397
369.00	1.8877	undefined	14.023	17.052	90.291	10.000	0.10000	14.023	17.052	90.291	30.770	39.975	492.16	2.6357	13.496	0.045559	10.000	0.10000	14.023	17.052	90.291	30.770	39.975	492.16	2.6357	13.496	0.045559
370.00	1.8931	undefined	14.054	17.091	90.374	10.000	0.10000	14.054	17.091	90.374	30.821	40.023	492.78	2.6183	13.526	0.045722	10.000	0.10000	14.054	17.091	90.374	30.821	40.023	492.78	2.6183	13.526	0.045722
371.00	1.8985	undefined	14.085	17.131	90.457	10.000	0.10000	14.085	17.131	90.457	30.873	40.072	493.40	2.6010	13.556	0.045884	10.000	0.10000	14.085	17.131	90.457	30.873	40.072	493.40	2.6010	13.556	0.045884
372.00	1.9038	undefined	14.116	17.170	90.541	10.000	0.10000	14.116	17.170	90.541	30.925	40.120	494.02	2.5839	13.586	0.046047	10.000	0.10000	14.116	17.170	90.541	30.925	40.120	494.02	2.5839	13.586	0.046047
373.00	1.9092	undefined	14.147	17.210	90.624	10.000	0.10000	14.147	17.210	90.624	30.977	40.168	494.63	2.5669	13.616	0.046210	10.000	0.10000	14.147	17.210	90.624	30.977	40.168	494.63	2.5669	13.616	0.046210
374.00	1.9146	undefined	14.178	17.249	90.707	10.000	0.10000	14.178	17.249	90.707	31.029	40.217	495.25	2.5500	13.646	0.046374	10.000	0.10000	14.178	17.249	90.707	31.029	40.217	495.25	2.5500	13.646	0.046374
375.00	1.9200	undefined	14.209	17.289	90.790	10.000	0.10000	14.209	17.289	90.790	31.081	40.266	495.86	2.5332	13.675	0.046538	10.000	0.10000	14.209	17.289	90.790	31.081	40.266	495.86	2.5332	13.675	0.046538
376.00	1.9254	undefined	14.240	17.329	90.872	10.000	0.10000	14.240	17.329	90.872	31.133	40.315	496.47	2.5166	13.705	0.046702	10.000	0.10000	14.240	17.329	90.872	31.133	40.315	496.47	2.5166	13.705	0.046702
377.00	1.9308	undefined	14.271	17.369	90.955	10.000	0.10000	14.271	17.369	90.955	31.186	40.364	497.09	2.5001	13.735	0.046866	10.000	0.10000	14.271	17.369	90.955	31.186	40.364	497.09	2.5001	13.735	0.046866
378.00	1.9361	undefined	14.302	17.409	91.038	10.000	0.10000	14.302	17.409	91.038	31.238	40.413	497.70	2.4837	13.764	0.047031	10.000	0.10000	14.302	17.409	91.038	31.238	40.413	497.70	2.4837	13.764	0.047031
379.00	1.9415	undefined	14.334	17.448	91.120	10.000	0.10000	14.334	17.448	91.120	31.291	40.463	498.31	2.4674	13.794	0.047196	10.000	0.10000	14.334	17.448	91.120	31.291	40.463	498.31	2.4674	13.794	0.047196
380.00	1.9469	undefined	14.365	17.488	91.203	10.000	0.10000	14.365	17.488	91.203	31.344	40.512	498.91	2.4513	13.823	0.047362	10.000	0.10000	14.365	17.488	91.203	31.344	40.512	498.91	2.4513	13.823	0.047362
381.00	1.9523	undefined	14.396	17.528	91.285	10.000	0.10000	14.396	17.528	91.285	31.397	40.562	499.52	2.4353	13.853	0.047527	10.000	0.10000	14.396	17.528	91.285	31.397	40.562	499.52	2.4353	13.853	0.047527
382.00	1.9577	undefined	14.428	17.568	91.368	10.000	0.10000	14.428	17.568	91.368	31.450	40.612	500.13	2.4194	13.882	0.047693	10.000	0.10000	14.428	17.568	91.368	31.450	40.612	500.13	2.4194	13.882	0.047693
383.00	1.9630	undefined	14.459	17.609	91.450	10.000	0.10000	14.459	17.609	91.450	31.504	40.662	500.73	2.4036	13.912	0.047860	10.000	0.10000	14.459	17.609	91.450	31.504	40.662	500.73	2.4036	13.912	0.047860
384.00	1.9684	undefined	14.491	17.649	91.532	10.000	0.10000	14.491	17.649	91.532	31.557	40.713	501.33	2.3879	13.941	0.048027	10.000	0.10000	14.491	17.649	91.532	31.557	40.713	501.33	2.3879	13.941	0.048027
385.00	1.9738	undefined	14.522	17.689	91.614	10.000	0.10000	14.522	17.689	91.614	31.611	40.763	501.94	2.3723	13.971	0.048194	10.000	0.10000	14.522	17.689	91.614	31.611	40.763	501.94	2.3723	13.971	0.048194
386.00	1.9792	undefined	14.554	17.729	91.697	10.000	0.10000	14.554	17.729	91.697	31.664	40.814	502.54	2.3569	14.000	0.048361	10.000	0.10000	14.554	17.729	91.697	31.664	40.814	502.54	2.3569	14.000	0.048361
387.00	1.9846	undefined	14.586	17.769	91.778	10.000	0.10000	14.586	17.769	91.778	31.718	40.864	503.14	2.3416	14.029	0.048529	10.000	0.10000	14.586	17.769	91.778	31.718	40.864	503.14	2.3416	14.029	0.048529
388.00	1.9899	undefined	14.617	17.810	91.860	10.000	0.10000	14.617	17.810	91.860	31.772	40.915	503.74	2.3264	14.059	0.048696	10.000	0.10000	14.617	17.810	91.860	31.772	40.915	503.74	2.3264	14.059	0.048696
389.00	1.9953	undefined	14.649	17.850	91.942	10.000	0.10000	14.649	17.850	91.942	31.826	40.966	504.33	2.3113	14.088	0.048865	10.000	0.10000	14.649	17.850	91.942	31.826	40.966	504.33	2.3113	14.088	0.048865
390.00	2.0007	undefined	14.681	17.891	92.024	10.000	0.10000	14.681	17.891	92.024	31.881	41.017	504.93	2.2963	14.117	0.049033	10.000	0.10000	14.681	17.891	92.024	31.881	41.017	504.93	2.2963	14.117	0.049033
391.00	2.0061	undefined	14.713	17.931	92.106	10.000	0.10000	14.713	17.931	92.106	31.935	41.069	505.53	2.2814	14.146	0.049202	10.000	0.10000	14.713	17.931	92.106	31.935	41.069	505.53	2.2814	14.146	0.049202
392.00	2.0115	undefined	14.745	17.972	92.187	10.000	0.10000	14.745	17.972	92.187	31.989	41.120	506.12	2.2667	14.176	0.049371	10.000	0.10000	14.745	17.972	92.187	31.989	41.120	506.12	2.2667	14.176	0.049371
393.00	2.0168	undefined	14.777	18.013	92.269	10.000	0.10000	14.777	18.013	92.269	32.044	41.172	506.71	2.2520	14.205	0.049541	10.000	0.10000	14.777	18.013	92.269	32.044	41.172	506.71	2.2520	14.205	0.049541
394.00	2.0222	undefined	14.809	18.053	92.350	10.000	0.10000	14.809	18.053	92.350	32.099	41.223	507.31	2.2374	14.234	0.049711	10.000	0.10000	14.809	18.053	92.350	32.099	41.223	507.31	2.2374	14.234	0.049711
395.00	2.0276	undefined	14.841	18.094	92.432	10.000	0.10000	14.841	18.094	92.432	32.153	41.275	507.90	2.2230	14.263	0.049881	10.000	0.10000	14.841	18.094	92.432	32.153	41.275	507.90	2.2230	14.263	0.049881
396.00	2.0330	undefined	14.873	18.135	92.513	10.000	0.10000	14.873	18.135	92.513	32.208	41.327	508.49	2.2087	14.292	0.050051	10.000	0.10000	14.873	18.135	92.513	32.208	41.327	508.49	2.2087	14.292	0.050051
397.00	2.0384	undefined	14.906	18.176	92.595	10.000	0.10000	14.906	18.176	92.595	32.263	41.379	509.08	2.1944	14.321	0.050222	10.000	0.10000	14.906	18.176	92.595	32.263	41.379	509.08	2.1944	14.321	0.050222
398.00	2.0437	undefined	14.938	18.217	92.676	10.000	0.10000	14.938	18.217	92.676	32.318	41.431	509.67	2.1803	14.350	0.050393	10.000	0.10000	14.938	18.217	92.676	32.318	41.431	509.67	2.1803	14.350	0.050393
399.00	2.0491	undefined	14.970	18.258	92.757	10.000	0.10000	14.970	18.258	92.757	32.374	41.484	510.25	2.1663	14.379	0.050564	10.000	0.10000	14.970	18.258	92.757	32.374	41.484	510.25	2.1663	14.379	0.050564
400.00	2.0545	undefined	15.003	18.299	92.838	10.000	0.10000	15.003	18.299	92.838	32.429	41.536	510.84	2.1523	14.408	0.050736	10.000	0.10000	15.003	18.299	92.838	32.429	41.536	510.84	2.1523	14.408	0.050736
401.00	2.0599	undefined	15.035	18.340	92.919	10.000	0.10000	15.035	18.340	92.919	32.484	41.589	511.42	2.1385	14.437	0.050907	10.000	0.10000	15.035	18.340	92.919	32.484	41.589	511.42	2.1385	14.437	0.050907
402.00	2.0652	undefined	15.068	18.381	93.000	10.000	0.10000	15.068	18.381	93.000	32.540	41.642	512.01	2.1248	14.465	0.051080	10.000	0.10000	15.068	18.381	93.000	32.540	41.642	512.01	2.1248	14.465	0.051080
403.00	2.0706	undefined	15.100	18.422	93.081	10.000	0.10000	15.100	18.422	93.081	32.596	41.694	512.59	2.1112	14.494	0.051252	10.000	0.10000	15.100	18.422	93.081	32.596	41.694	512.59	2.1112	14.494	0.051252
404.00	2.0760	undefined	15.133	18.463	93.162	10.000	0.10000	15.133	18.463	93.162	32.651	41.747	513.17	2.0976	14.523	0.051425	10.000	0.10000	15.133	18.463	93.162	32.651	41.747	513.17	2.0976	14.523	0.051425
405.00	2.0814	undefined	15.165	18.505	93.243	10.000	0.10000	15.165	18.505	93.243	32.707	41.801	513.75	2.0842	14.552	0.051598	10.000	0.10000	15.165	18.505	93.243	32.707	41.801	513.75	2.0842	14.552	0.051598
406.00	2.0867	undefined	15.198	18.546	93.323	10.000	0.10000	15.198	18.546	93.323	32.763	41.854	514.33	2.0709	14.580	0.051771	10.000	0.10000	15.198	18.546	93.323	32.763	41.854	514.33	2.0709	14.580	0.051771
407.00	2.0921	undefined	15.231	18.587	93.404	10.000	0.10000	15.231	18.587	93.404	32.819	41.907	514.91	2.0577	14.609	0.051945	10.000	0.10000	15.231	18.587	93.404	32.819	41.907	514.91	2.0577	14.609	0.051945
408.00	2.0975	undefined	15.264	18.629	93.485	10.000	0.10000	15.264	18.629	93.485	32.875	41.960	515.49	2.0445	14.638	0.052119	10.000	0.10000	15.264	18.629	93.485	32.875	41.960	515.49	2.0445	14.638	0.052119
409.00	2.1029	undefined	15.297	18.670	93.565	10.000	0.10000	15.297	18.670	93.565	32.931	42.014	516.07	2.0315	14.666	0.052293	10.000	0.10000	15.297	18.670	93.565	32.931	42.014	516.07	2.0315	14.666	0.052293
410.00	2.1083	undefined	15.330	18.712	93.646	10.000	0.10000	15.330	18.712	93.646	32.988	42.068	516.64	2.0185	14.695	0.052468	10.000	0.10000	15.330	18.712	93.646	32.988	42.068	516.64	2.0185	14.695	0.052468
411.00	2.1136	undefined	15.363	18.754	93.726	10.000	0.10000	15.363	18.754	93.726	33.044	42.121	517.22	2.0057	14.723	0.052642	10.000	0.10000	15.363	18.754	93.726	33.044	42.121	517.22	2.0057	14.723	0.052642
412.00	2.1190	undefined	15.396	18.795	93.806	10.000	0.10000	15.396	18.795	93.806	33.101	42.175	517.79	1.9929	14.752	0.052817	10.000	0.10000	15.396	18.795	93.806	33.101	42.175	517.79	1.9929	14.752	0.052817
413.00	2.1244	undefined	15.429	18.837	93.887	10.000	0.10000	15.429	18.837	93.887	33.157	42.229	518.37	1.9802	14.780	0.052993	10.000	0.10000	15.429	18.837	93.887	33.157	42.229	518.37	1.9802	14.780	0.052993
414.00	2.1298	undefined	15.462	18.879	93.967	10.000	0.10000	15.462	18.879	93.967	33.214	42.283	518.94	1.9677	14.809	0.053168	10.000	0.10000	15.462	18.879	93.967	33.214	42.283	518.94	1.9677	14.809	0.053168
415.00	2.1351	undefined	15.495	18.921	94.047	10.000	0.10000	15.495	18.921	94.047	33.270	42.337	519.51	1.9552	14.837	0.053344	10.000	0.10000	15.495	18.921	94.047	33.270	42.337	519.51	1.9552	14.837	0.053344
416.00	2.1405	undefined	15.529	18.963	94.127	10.000	0.10000	15.529	18.963	94.127	33.327	42.392	520.08	1.9428	14.866	0.053521	10.000	0.10000	15.529	18.963	94.127	33.327	42.392	520.08	1.9428	14.866	0.053521
417.00	2.1459	undefined	15.562	19.005	94.207	10.000	0.10000	15.562	19.005	94.207	33.384	42.446	520.65	1.9304	14.894	0.053697	10.000	0.10000	15.562	19.005	94.207	33.384	42.446	520.65	1.9304	14.894	0.053697
418.00	2.1512	undefined	15.595	19.047	94.288	10.000	0.10000	15.595	19.047	94.288	33.441	42.500	521.22	1.9182	14.922	0.053874	10.000	0.10000	15.595	19.047	94.288	33.441	42.500	521.22	1.9182	14.922	0.053874
419.00	2.1566	undefined	15.629	19.089	94.367	10.000	0.10000	15.629	19.089	94.367	33.498	42.555	521.79	1.9061	14.951	0.054051	10.000	0.10000	15.629	19.089	94.367	33.498	42.555	521.79	1.9061	14.951	0.054051
420.00	2.1620	undefined	15.662	19.131	94.447	10.000	0.10000	15.662	19.131	94.447	33.555	42.610	522.36	1.8940	14.979	0.054228	10.000	0.10000	15.662	19.131	94.447	33.555	42.610	522.36	1.8940	14.979	0.054228
421.00	2.1674	undefined	15.696	19.173	94.527	10.000	0.10000	15.696	19.173	94.527	33.613	42.664	522.92	1.8820	15.007	0.054406	10.000	0.10000	15.696	19.173	94.527	33.613	42.664	522.92	1.8820	15.007	0.054406
422.00	2.1727	undefined	15.730	19.215	94.607	10.000	0.10000	15.730	19.215	94.607	33.670	42.719	523.49	1.8702	15.036	0.054584	10.000	0.10000	15.730	19.215	94.607	33.670	42.719	523.49	1.8702	15.036	0.054584
423.00	2.1781	undefined	15.763	19.258	94.687	10.000	0.10000	15.763	19.258	94.687	33.727	42.774	524.05	1.8584	15.064	0.054762	10.000	0.10000	15.763	19.258	94.687	33.727	42.774	524.05	1.8584	15.064	0.054762
424.00	2.1835	undefined	15.797	19.300	94.767	10.000	0.10000	15.797	19.300	94.767	33.785	42.829	524.61	1.8466	15.092	0.054940	10.000	0.10000	15.797	19.300	94.767	33.785	42.829	524.61	1.8466	15.092	0.054940
425.00	2.1889	undefined	15.831	19.342	94.846	10.000	0.10000	15.831	19.342	94.846	33.842	42.884	525.18	1.8350	15.120	0.055119	10.000	0.10000	15.831	19.342	94.846	33.842	42.884	525.18	1.8350	15.120	0.055119
426.00	2.1942	undefined	15.865	19.385	94.926	10.000	0.10000	15.865	19.385	94.926	33.900	42.939	525.74	1.8235	15.148	0.055298	10.000	0.10000	15.865	19.385	94.926	33.900	42.939	525.74	1.8235	15.148	0.055298
427.00	2.1996	undefined	15.899	19.427	95.005	10.000	0.10000	15.899	19.427	95.005	33.957	42.994	526.30	1.8120	15.176	0.055477	10.000	0.10000	15.899	19.427	95.005	33.957	42.994	526.30	1.8120	15.176	0.055477
428.00	2.2050	undefined	15.933	19.470	95.085	10.000	0.10000	15.933	19.470	95.085	34.015	43.050	526.86	1.8006	15.204	0.055657	10.000	0.10000	15.933	19.470	95.085	34.015	43.050	526.86	1.8006	15.204	0.055657
429.00	2.2103	undefined	15.967	19.513	95.164	10.000	0.10000	15.967	19.513	95.164	34.073	43.105	527.42	1.7893	15.232	0.055836	10.000	0.10000	15.967	19.513	95.164	34.073	43.105	527.42	1.7893	15.232	0.055836
430.00	2.2157	undefined	16.001	19.555	95.244	10.000	0.10000	16.001	19.555	95.244	34.131	43.161	527.98	1.7781	15.260	0.056016	10.000	0.10000	16.001	19.555	95.244	34.131	43.161	527.98	1.7781	15.260	0.056016
431.00	2.2211	undefined	16.035	19.598	95.323	10.000	0.10000	16.035	19.598	95.323	34.189	43.216	528.54	1.7669	15.288	0.056197	10.000	0.10000	16.035	19.598	95.323	34.189	43.216	528.54	1.7669	15.288	0.056197
432.00	2.2265	undefined	16.069	19.641	95.402	10.000	0.10000	16.069	19.641	95.402	34.247	43.272	529.09	1.7558	15.316	0.056377	10.000	0.10000	16.069	19.641	95.402	34.247	43.272	529.09	1.7558	15.316	0.056377
433.00	2.2318	undefined	16.103	19.684	95.482	10.000	0.10000	16.103	19.684	95.482	34.305	43.328	529.65	1.7448	15.344	0.056558	10.000	0.10000	16.103	19.684	95.482	34.305	43.328	529.65	1.7448	15.344	0.056558
434.00	2.2372	undefined	16.138	19.727	95.561	10.000	0.10000	16.138	19.727	95.561	34.363	43.383	530.20	1.7339	15.372	0.056739	10.000	0.10000	16.138	19.727	95.561	34.363	43.383	530.20	1.7339	15.372	0.056739
435.00	2.2426	undefined	16.172	19.770	95.640	10.000	0.10000	16.172	19.770	95.640	34.421	43.439	530.76	1.7231	15.400	0.056921	10.000	0.10000	16.172	19.770	95.640	34.421	43.439	530.76	1.7231	15.400	0.056921
436.00	2.2479	undefined	16.207	19.813	95.719	10.000	0.10000	16.207	19.813	95.719	34.479	43.495	531.31	1.7123	15.427	0.057102	10.000	0.10000	16.207	19.813	95.719	34.479	43.495	531.31	1.7123	15.427	0.057102
437.00	2.2533	undefined	16.241	19.856	95.798	10.000	0.10000	16.241	19.856	95.798	34.537	43.551	531.86	1.7016	15.455	0.057284	10.000	0.10000	16.241	19.856	95.798	34.537	43.551	531.86	1.7016	15.455	0.057284
438.00	2.2587	undefined	16.276	19.899	95.877	10.000	0.10000	16.276	19.899	95.877	34.596	43.607	532.42	1.6910	15.483	0.057466	10.000	0.10000	16.276	19.899	95.877	34.596	43.607	532.42	1.6910	15.483	0.057466
439.00	2.2641	undefined	16.310	19.943	95.956	10.000	0.10000	16.310	19.943	95.956	34.654	43.663	532.97	1.6805	15.511	0.057649	10.000	0.10000	16.310	19.943	95.956	34.654	43.663	532.97	1.6805	15.511	0.057649
440.00	2.2694	undefined	16.345	19.986	96.035	10.000	0.10000	16.345	19.986	96.035	34.712	43.720	533.52	1.6700	15.538	0.057831	10.000	0.10000	16.345	19.986	96.035	34.712	43.720	533.52	1.6700	15.538	0.057831
441.00	2.2748	undefined	16.380	20.029	96.114	10.000	0.10000	16.380	20.029	96.114	34.771	43.776	534.07	1.6596	15.566	0.058014	10.000	0.10000	16.380	20.029	96.114	34.771	43.776	534.07	1.6596	15.566	0.058014
442.00	2.2802	undefined	16.415	20.073	96.193	10.000	0.10000	16.415	20.073	96.193	34.829	43.832	534.62	1.6493	15.594	0.058197	10.000	0.10000	16.415	20.073	96.193	34.829	43.832	534.62	1.6493	15.594	0.058197
443.00	2.2855	undefined	16.449	20.116	96.271	10.000	0.10000	16.449	20.116	96.271	34.888	43.889	535.17	1.6390	15.621	0.058381	10.000	0.10000	16.449	20.116	96.271	34.888	43.889	535.17	1.6390	15.621	0.058381
444.00	2.2909	undefined	16.484	20.160	96.350	10.000	0.10000	16.484	20.160	96.350	34.947	43.945	535.71	1.6288	15.649	0.058564	10.000	0.10000	16.484	20.160	96.350	34.947	43.945	535.71	1.6288	15.649	0.058564
445.00	2.2963	undefined	16.519	20.203	96.429	10.000	0.10000	16.519	20.203	96.429	35.005	44.002	536.26	1.6187	15.676	0.058748	10.000	0.10000	16.519	20.203	96.429	35.005	44.002	536.26	1.6187	15.676	0.058748
446.00	2.3016	undefined	16.554	20.247	96.508	10.000	0.10000	16.554	20.247	96.508	35.064	44.058	536.81	1.6087	15.704	0.058932	10.000	0.10000	16.554	20.247	96.508	35.064	44.058	536.81	1.6087	15.704	0.058932
447.00	2.3070	undefined	16.589	20.291	96.586	10.000	0.10000	16.589	20.291	96.586	35.123	44.115	537.35	1.5987	15.731	0.059117	10.000	0.10000	16.589	20.291	96.586	35.123	44.115	537.35	1.5987	15.731	0.059117
448.00	2.3124	undefined	16.625	20.334	96.665	10.000	0.10000	16.625	20.334	96.665	35.182	44.172	537.89	1.5888	15.759	0.059301	10.000	0.10000	16.625	20.334	96.665	35.182	44.172	537.89	1.5888	15.759	0.059301
449.00	2.3178	undefined	16.660	20.378	96.743	10.000	0.10000	16.660	20.378	96.743	35.240	44.228	538.44	1.5789	15.786	0.059486	10.000	0.10000	16.660	20.378	96.743	35.240	44.228	538.44	1.5789	15.786	0.059486
450.00	2.3231	undefined	16.695	20.422	96.822	10.000	0.10000	16.695	20.422	96.822	35.299	44.285	538.98	1.5692	15.814	0.059672	10.000	0.10000	16.695	20.422	96.822	35.299	44.285	538.98	1.5692	15.814	0.059672
451.00	2.3285	undefined	16.730	20.466	96.900	10.000	0.10000	16.730	20.466	96.900	35.358	44.342	539.52	1.5595	15.841	0.059857	10.000	0.10000	16.730	20.466	96.900	35.358	44.342	539.52	1.5595	15.841	0.059857
452.00	2.3339	undefined	16.766	20.510	96.978	10.000	0.10000	16.766	20.510	96.978	35.417	44.399	540.07	1.5498	15.868	0.060043	10.000	0.10000	16.766	20.510	96.978	35.417	44.399	540.07	1.5498	15.868	0.060043
453.00	2.3392	undefined	16.801	20.554	97.057	10.000	0.10000	16.801	20.554	97.057	35.476	44.456	540.61	1.5402	15.896	0.060228	10.000	0.10000	16.801	20.554	97.057	35.476	44.456	540.61	1.5402	15.896	0.060228
454.00	2.3446	undefined	16.837	20.598	97.135	10.000	0.10000	16.837	20.598	97.135	35.535	44.513	541.15	1.5307	15.923	0.060415	10.000	0.10000	16.837	20.598	97.135	35.535	44.513	541.15	1.5307	15.923	0.060415
455.00	2.3500	undefined	16.872	20.642	97.213	10.000	0.10000	16.872	20.642	97.213	35.595	44.570	541.69	1.5213	15.950	0.060601	10.000	0.10000	16.872	20.642	97.213	35.595	44.570	541.69	1.5213	15.950	0.060601
456.00	2.3553	undefined	16.908	20.687	97.292	10.000	0.10000	16.908	20.687	97.292	35.654	44.627	542.22	1.5119	15.978	0.060787	10.000	0.10000	16.908	20.687	97.292	35.654	44.627	542.22	1.5119	15.978	0.060787
457.00	2.3607	undefined	16.944	20.731	97.370	10.000	0.10000	16.944	20.731	97.370	35.713	44.684	542.76	1.5026	16.005	0.060974	10.000	0.10000	16.944	20.731	97.370	35.713	44.684	542.76	1.5026	16.005	0.060974
458.00	2.3661	undefined	16.979	20.775	97.448	10.000	0.10000	16.979	20.775	97.448	35.772	44.742	543.30	1.4933	16.032	0.061161	10.000	0.10000	16.979	20.775	97.448	35.772	44.742	543.30	1.4933	16.032	0.061161
459.00	2.3714	undefined	17.015	20.820	97.526	10.000	0.10000	17.015	20.820	97.526	35.831	44.799	543.84	1.4841	16.059	0.061349	10.000	0.10000	17.015	20.820	97.526	35.831	44.799	543.84	1.4841	16.059	0.061349
460.00	2.3768	undefined	17.051	20.864	97.604	10.000	0.10000	17.051	20.864	97.604	35.891	44.856	544.37	1.4750	16.086	0.061536	10.000	0.10000	17.051	20.864	97.604	35.891	44.856	544.37	1.4750	16.086	0.061536
461.00	2.3822	undefined	17.087	20.909	97.682	10.000	0.10000	17.087	20.909	97.682	35.950	44.914	544.91	1.4659	16.113	0.061724	10.000	0.10000	17.087	20.909	97.682	35.950	44.914	544.91	1.4659	16.113	0.061724
462.00	2.3875	undefined	17.123	20.953	97.760	10.000	0.10000	17.123	20.953	97.760	36.009	44.971	545.44	1.4569	16.140	0.061912	10.000	0.10000	17.123	20.953	97.760	36.009	44.971	545.44	1.4569	16.140	0.061912
463.00	2.3929	undefined	17.159	20.998	97.838	10.000	0.10000	17.159	20.998	97.838	36.069	45.028	545.98	1.4480	16.167	0.062100	10.000	0.10000	17.159	20.998	97.838	36.069	45.028	545.98	1.4480	16.167	0.062100
464.00	2.3983	undefined	17.195	21.043	97.916	10.000	0.10000	17.195	21.043	97.916	36.128	45.086	546.51	1.4391	16.195	0.062289	10.000	0.10000	17.195	21.043	97.916	36.128	45.086	546.51	1.4391	16.195	0.062289
465.00	2.4036	undefined	17.231	21.087	97.994	10.000	0.10000	17.231	21.087	97.994	36.188	45.143	547.04	1.4303	16.222	0.062477	10.000	0.10000	17.231	21.087	97.994	36.188	45.143	547.04	1.4303	16.222	0.062477
466.00	2.4090	undefined	17.267	21.132	98.071	10.000	0.10000	17.267	21.132	98.071	36.247	45.201	547.57	1.4215	16.248	0.062666	10.000	0.10000	17.267	21.132	98.071	36.247	45.201	547.57	1.4215	16.248	0.062666
467.00	2.4144	undefined	17.304	21.177	98.149	10.000	0.10000	17.304	21.177	98.149	36.307	45.259	548.10	1.4128	16.275	0.062856	10.000	0.10000	17.304	21.177	98.149	36.307	45.259	548.10	1.4128	16.275	0.062856
468.00	2.4197	undefined	17.340	21.222	98.227	10.000	0.10000	17.340	21.222	98.227	36.366	45.316	548.64	1.4042	16.302	0.063045	10.000	0.10000	17.340	21.222	98.227	36.366	45.316	548.64	1.4042	16.302	0.063045
469.00	2.4251	undefined	17.376	21.267	98.305	10.000	0.10000	17.376	21.267	98.305	36.426	45.374	549.17	1.3956	16.329	0.063235	10.000	0.10000	17.376	21.267	98.305	36.426	45.374	549.17	1.3956	16.329	0.063235
470.00	2.4305	undefined	17.413	21.312	98.382	10.000	0.10000	17.413	21.312	98.382	36.485	45.432	549.69	1.3870	16.356	0.063424	10.000	0.10000	17.413	21.312	98.382	36.485	45.432	549.69	1.3870	16.356	0.063424
471.00	2.4358	undefined	17.449	21.357	98.460	10.000	0.10000	17.449	21.357	98.460	36.545	45.489	550.22	1.3785	16.383	0.063614	10.000	0.10000	17.449	21.357	98.460	36.545	45.489	550.22	1.3785	16.383	0.063614
472.00	2.4412	undefined	17.486	21.402	98.537	10.000	0.10000	17.486	21.402	98.537	36.604	45.547	550.75	1.3701	16.410	0.063805	10.000	0.10000	17.486	21.402	98.537	36.604	45.547	550.75	1.3701	16.410	0.063805
473.00	2.4466	undefined	17.523	21.448	98.615	10.000	0.10000	17.523	21.448	98.615	36.664	45.605	551.28	1.3618	16.437	0.063995	10.000	0.10000	17.523	21.448	98.615	36.664	45.605	551.28	1.3618	16.437	0.063995
474.00	2.4519	undefined	17.559	21.493	98.692	10.000	0.10000	17.559	21.493	98.692	36.724	45.663	551.81	1.3534	16.463	0.064186	10.000	0.10000	17.559	21.493	98.692	36.724	45.663	551.81	1.3534	16.463	0.064186
475.00	2.4573	undefined	17.596	21.538	98.770	10.000	0.10000	17.596	21.538	98.770	36.784	45.721	552.33	1.3452	16.490	0.064377	10.000	0.10000	17.596	21.538	98.770	36.784	45.721	552.33	1.3452	16.490	0.064377
476.00	2.4627	undefined	17.633	21.584	98.847	10.000	0.10000	17.633	21.584	98.847	36.843	45.779	552.86	1.3370	16.517	0.064568	10.000	0.10000	17.633	21.584	98.847	36.843	45.779	552.86	1.3370	16.517	0.064568
477.00	2.4680	undefined	17.670	21.629	98.925	10.000	0.10000	17.670	21.629	98.925	36.903	45.837	553.38	1.3288	16.543	0.064760	10.000	0.10000	17.670	21.629	98.925	36.903	45.837	553.38	1.3288	16.543	0.064760
478.00	2.4734	undefined	17.707	21.675	99.002	10.000	0.10000	17.707	21.675	99.002	36.963	45.895	553.91	1.3207	16.570	0.064951	10.000	0.10000	17.707	21.675	99.002	36.963	45.895	553.91	1.3207	16.570	0.064951
479.00	2.4788	undefined	17.744	21.720	99.079	10.000	0.10000	17.744	21.720	99.079	37.023	45.953	554.43	1.3127	16.597	0.065143	10.000	0.10000	17.744	21.720	99.079	37.023	45.953	554.43	1.3127	16.597	0.065143
480.00	2.4841	undefined	17.781	21.766	99.157	10.000	0.10000	17.781	21.766	99.157	37.082	46.011	554.95	1.3047	16.623	0.065335	10.000	0.10000	17.781	21.766	99.157	37.082	46.011	554.95	1.3047	16.623	0.065335
481.00	2.4895	undefined	17.818	21.812	99.234	10.000	0.10000	17.818	21.812	99.234	37.142	46.069	555.48	1.2968	16.650	0.065527	10.000	0.10000	17.818	21.812	99.234	37.142	46.069	555.48	1.2968	16.650	0.065527
482.00	2.4948	undefined	17.855	21.857	99.311	10.000	0.10000	17.855	21.857	99.311	37.202	46.127	556.00	1.2889	16.676	0.065720	10.000	0.10000	17.855	21.857	99.311	37.202	46.127	556.00	1.2889	16.676	0.065720
483.00	2.5002	undefined	17.892	21.903	99.388	10.000	0.10000	17.892	21.903	99.388	37.262	46.185	556.52	1.2811	16.703	0.065912	10.000	0.10000	17.892	21.903	99.388	37.262	46.185	556.52	1.2811	16.703	0.065912
484.00	2.5056	undefined	17.930	21.949	99.465	10.000	0.10000	17.930	21.949	99.465	37.322	46.243	557.04	1.2733	16.730	0.066105	10.000	0.10000	17.930	21.949	99.465	37.322	46.243	557.04	1.2733	16.730	0.066105
485.00	2.5109	undefined	17.967	21.995	99.542	10.000	0.10000	17.967	21.995	99.542	37.382	46.301	557.56	1.2656	16.756	0.066298	10.000	0.10000	17.967	21.995	99.542	37.382	46.301	557.56	1.2656	16.756	0.066298
486.00	2.5163	undefined	18.004	22.041	99.619	10.000	0.10000	18.004	22.041	99.619	37.442	46.360	558.08	1.2579	16.782	0.066492	10.000	0.10000	18.004	22.041	99.619	37.442	46.360	558.08	1.2579	16.782	0.066492
487.00	2.5217	undefined	18.042	22.087	99.697	10.000	0.10000	18.042	22.087	99.697	37.502	46.418	558.60	1.2503	16.809	0.066685	10.000	0.10000	18.042	22.087	99.697	37.502	46.418	558.60	1.2503	16.809	0.066685
488.00	2.5270	undefined	18.079	22.133	99.773	10.000	0.10000	18.079	22.133	99.773	37.561	46.476	559.12	1.2427	16.835	0.066879	10.000	0.10000	18.079	22.133	99.773	37.561	46.476	559.12	1.2427	16.835	0.066879
489.00	2.5324	undefined	18.117	22.180	99.850	10.000	0.10000	18.117	22.180	99.850	37.621	46.534	559.63	1.2351	16.862	0.067073	10.000	0.10000	18.117	22.180	99.850	37.621	46.534	559.63	1.2351	16.862	0.067073
490.00	2.5378	undefined	18.155	22.226	99.927	10.000	0.10000	18.155	22.226	99.927	37.681	46.593	560.15	1.2277	16.888	0.067267	10.000	0.10000	18.155	22.226	99.927	37.681	46.593	560.15	1.2277	16.888	0.067267
491.00	2.5431	undefined	18.192	22.272	100.00	10.000	0.10000	18.192	22.272	100.00	37.741	46.651	560.67	1.2202	16.914	0.067461	10.000	0.10000	18.192	22.272	100.00	37.741	46.651	560.67	1.2202	16.914	0.067461
492.00	2.5485	undefined	18.230	22.319	100.08	10.000	0.10000	18.230	22.319	100.08	37.801	46.709	561.18	1.2129	16.941	0.067656	10.000	0.10000	18.230	22.319	100.08	37.801	46.709	561.18	1.2129	16.941	0.067656
493.00	2.5538	undefined	18.268	22.365	100.16	10.000	0.10000	18.268	22.365	100.16	37.861	46.767	561.70	1.2055	16.967	0.067851	10.000	0.10000	18.268	22.365	100.16	37.861	46.767	561.70	1.2055	16.967	0.067851
494.00	2.5592	undefined	18.306	22.411	100.23	10.000	0.10000	18.306	22.411	100.23	37.921	46.826	562.21	1.1982	16.993	0.068046	10.000	0.10000	18.306	22.411	100.23	37.921	46.826	562.21	1.1982	16.993	0.068046
495.00	2.5646	undefined	18.344	22.458	100.31	10.000	0.10000	18.344	22.458	100.31	37.981	46.884	562.73	1.1910	17.019	0.068241	10.000	0.10000	18.344	22.458	100.31	37.981	46.884	562.73	1.1910	17.019	0.068241
496.00	2.5699	undefined	18.382	22.505	100.39	10.000	0.10000	18.382	22.505	100.39	38.041	46.943	563.24	1.1838	17.046	0.068436	10.000	0.10000	18.382	22.505	100.39	38.041	46.943	563.24	1.1838	17.046	0.068436
497.00	2.5753	undefined	18.420	22.551	100.46	10.000	0.10000	18.420	22.551	100.46	38.101	47.001	563.75	1.1766	17.072	0.068632	10.000	0.10000	18.420	22.551	100.46	38.101	47.001	563.75	1.1766	17.072	0.068632
498.00	2.5807	undefined	18.458	22.598	100.54	10.000	0.10000	18.458	22.598	100.54	38.161	47.059	564.27	1.1695	17.098	0.068828	10.000	0.10000	18.458	22.598	100.54	38.161	47.059	564.27	1.1695	17.098	0.068828
499.00	2.5860	undefined	18.496	22.645	100.62	10.000	0.10000	18.496	22.645	100.62	38.221	47.118	564.78	1.1625	17.124	0.069024	10.000	0.10000	18.496	22.645	100.62	38.221	47.118	564.78	1.1625	17.124	0.069024
500.00	2.5914	undefined	18.534	22.692	100.69	10.000	0.10000	18.534	22.692	100.69	38.281	47.176	565.29	1.1555	17.150	0.069220	10.000	0.10000	18.534	22.692	100.69	38.281	47.176	565.29	1.1555	17.150	0.069220
501.00	2.5967	undefined	18.573	22.739	100.77	10.000	0.10000	18.573	22.739	100.77	38.342	47.235	565.80	1.1485	17.176	0.069416	10.000	0.10000	18.573	22.739	100.77	38.342	47.235	565.80	1.1485	17.176	0.069416
502.00	2.6021	undefined	18.611	22.786	100.85	10.000	0.10000	18.611	22.786	100.85	38.402	47.293	566.31	1.1416	17.202	0.069613	10.000	0.10000	18.611	22.786	100.85	38.402	47.293	566.31	1.1416	17.202	0.069613
503.00	2.6075	undefined	18.650	22.833	100.92	10.000	0.10000	18.650	22.833	100.92	38.462	47.352	566.82	1.1347	17.228	0.069809	10.000	0.10000	18.650	22.833	100.92	38.462	47.352	566.82	1.1347	17.228	0.069809
504.00	2.6128	undefined	18.688	22.880	101.00	10.000	0.10000	18.688	22.880	101.00	38.522	47.410	567.33	1.1279	17.254	0.070006	10.000	0.10000	18.688	22.880	101.00	38.522	47.410	567.33	1.1279	17.254	0.070006
505.00	2.6182	undefined	18.727	22.927	101.08	10.000	0.10000	18.727	22.927	101.08	38.582	47.469	567.84	1.1211	17.280	0.070203	10.000	0.10000	18.727	22.927	101.08	38.582	47.469	567.84	1.1211	17.280	0.070203
506.00	2.6236	undefined	18.765	22.974	101.15	10.000	0.10000	18.765	22.974	101.15	38.642	47.527	568.35	1.1143	17.306	0.070401	10.000	0.10000	18.765	22.974	101.15	38.642	47.527	568.35	1.1143	17.306	0.070401
507.00	2.6289	undefined	18.804	23.021	101.23	10.000	0.10000	18.804	23.021	101.23	38.702	47.586	568.85	1.1076	17.332	0.070598	10.000	0.10000	18.804	23.021	101.23	38.702	47.586	568.85	1.1076	17.332	0.070598
508.00	2.6343	undefined	18.843	23.069	101.31	10.000	0.10000	18.843	23.069	101.31	38.762	47.644	569.36	1.1010	17.358	0.070796	10.000	0.10000	18.843	23.069	101.31	38.762	47.644	569.36	1.1010	17.358	0.070796
509.00	2.6396	undefined	18.881	23.116	101.38	10.000	0.10000	18.881	23.116	101.38	38.822	47.703	569.87	1.0943	17.384	0.070994	10.000	0.10000	18.881	23.116	101.38	38.822	47.703	569.87	1.0943	17.384	0.070994
510.00	2.6450	undefined	18.920	23.164	101.46	10.000	0.10000	18.920	23.164	101.46	38.882	47.762	570.37	1.0878	17.410	0.071192	10.000	0.10000	18.920	23.164	101.46	38.882	47.762	570.37	1.0878	17.410	0.071192
511.00	2.6504	undefined	18.959	23.211	101.53	10.000	0.10000	18.959	23.211	101.53	38.942	47.820	570.88	1.0812	17.436	0.071390	10.000	0.10000	18.959	23.211	101.53	38.942	47.820	570.88	1.0812	17.436	0.071390
512.00	2.6557	undefined	18.998	23.259	101.61	10.000	0.10000	18.998	23.259	101.61	39.002	47.879	571.38	1.0747	17.462	0.071589	10.000	0.10000	18.998	23.259	101.61	39.002	47.879	571.38	1.0747	17.462	0.071589
513.00	2.6611	undefined	19.037	23.306	101.69	10.000	0.10000	19.037	23.306	101.69	39.062	47.937	571.89	1.0683	17.488	0.071787	10.000	0.10000	19.037	23.306	101.69	39.062	47.937	571.89	1.0683	17.488	0.071787
514.00	2.6664	undefined	19.076	23.354	101.76	10.000	0.10000	19.076	23.354	101.76	39.122	47.996	572.39	1.0619	17.513	0.071986	10.000	0.10000	19.076	23.354	101.76	39.122	47.996	572.39	1.0619	17.513	0.071986
515.00	2.6718	undefined	19.115	23.402	101.84	10.000	0.10000	19.115	23.402	101.84	39.182	48.054	572.90	1.0555	17.539	0.072185	10.000	0.10000	19.115	23.402	101.84	39.182	48.054	572.90	1.0555	17.539	0.072185
516.00	2.6772	undefined	19.155	23.450	101.92	10.000	0.10000	19.155	23.450	101.92	39.243	48.113	573.40	1.0491	17.565	0.072384	10.000	0.10000	19.155	23.450	101.92	39.243	48.113	573.40	1.0491	17.565	0.072384
517.00	2.6825	undefined	19.194	23.497	101.99	10.000	0.10000	19.194	23.497	101.99	39.303	48.172	573.90	1.0428	17.590	0.072584	10.000	0.10000	19.194	23.497	101.99	39.303	48.172	573.90	1.0428	17.590	0.072584
518.00	2.6879	undefined	19.233	23.545	102.07	10.000	0.10000	19.233	23.545	102.07	39.363	48.230	574.40	1.0366	17.616	0.072783	10.000	0.10000	19.233	23.545	102.07	39.363	48.230	574.40	1.0366	17.616	0.072783
519.00	2.6932	undefined	19.273	23.593	102.14	10.000	0.10000	19.273	23.593	102.14	39.423	48.289	574.90	1.0304	17.642	0.072983	10.000	0.10000	19.273	23.593	102.14	39.423	48.289	574.90	1.0304	17.642	0.072983
520.00	2.6986	undefined	19.312	23.641	102.22	10.000	0.10000	19.312	23.641	102.22	39.483	48.347	575.41	1.0242	17.667	0.073183	10.000	0.10000	19.312	23.641	102.22	39.483	48.347	575.41	1.0242	17.667	0.073183
521.00	2.7040	undefined	19.352	23.689	102.30	10.000	0.10000	19.352	23.689	102.30	39.543	48.406	575.91	1.0181	17.693	0.073383	10.000	0.10000	19.352	23.689	102.30	39.543	48.406	575.91	1.0181	17.693	0.073383
522.00	2.7093	undefined	19.391	23.738	102.37	10.000	0.10000	19.391	23.738	102.37	39.603	48.465	576.41	1.0120	17.719	0.073584	10.000	0.10000	19.391	23.738	102.37	39.603	48.465	576.41	1.0120	17.719	0.073584
523.00	2.7147	undefined	19.431	23.786	102.45	10.000	0.10000	19.431	23.786	102.45	39.663	48.523	576.91	1.0059	17.744	0.073784	10.000	0.10000	19.431	23.786	102.45	39.663	48.523	576.91	1.0059	17.744	0.073784
524.00	2.7200	undefined	19.470	23.834	102.52	10.000	0.10000	19.470	23.834	102.52	39.723	48.582	577.40	0.99987	17.770	0.073985	10.000	0.10000	19.470	23.834	102.52	39.723	48.582	577.40	0.99987	17.770	0.073985
525.00	2.7254	undefined	19.510	23.883	102.60	10.000	0.10000	19.510	23.883	102.60	39.783	48.641	577.90	0.99388	17.795	0.074186	10.000	0.10000	19.510	23.883	102.60	39.783	48.641	577.90	0.99388	17.795	0.074186
526.00	2.7308	undefined	19.550	23.931	102.67	10.000	0.10000	19.550	23.931	102.67	39.843	48.699	578.40	0.98793	17.821	0.074387	10.000	0.10000	19.550	23.931	102.67	39.843	48.699	578.40	0.98793	17.821	0.074387
527.00	2.7361	undefined	19.590	23.979	102.75	10.000	0.10000	19.590	23.979	102.75	39.903	48.758	578.90	0.98202	17.846	0.074588	10.000	0.10000	19.590	23.979	102.75	39.903	48.758	578.90	0.98202	17.846	0.074588
528.00	2.7415	undefined	19.630	24.028	102.83	10.000	0.10000	19.630	24.028	102.83	39.963	48.816	579.39	0.97614	17.872	0.074789	10.000	0.10000	19.630	24.028	102.83	39.963	48.816	579.39	0.97614	17.872	0.074789
529.00	2.7468	undefined	19.670	24.077	102.90	10.000	0.10000	19.670	24.077	102.90	40.023	48.875	579.89	0.97030	17.897	0.074991	10.000	0.10000	19.670	24.077	102.90	40.023	48.875	579.89	0.97030	17.897	0.074991
530.00	2.7522	undefined	19.710	24.125	102.98	10.000	0.10000	19.710	24.125	102.98	40.083	48.934	580.39	0.96449	17.923	0.075192	10.000	0.10000	19.710	24.125	102.98	40.083	48.934	580.39	0.96449	17.923	0.075192
531.00	2.7576	undefined	19.750	24.174	103.05	10.000	0.10000	19.750	24.174	103.05	40.143	48.992	580.88	0.95872	17.948	0.075394	10.000	0.10000	19.750	24.174	103.05	40.143	48.992	580.88	0.95872	17.948	0.075394
532.00	2.7629	undefined	19.790	24.223	103.13	10.000	0.10000	19.790	24.223	103.13	40.203	49.051	581.38	0.95299	17.973	0.075596	10.000	0.10000	19.790	24.223	103.13	40.203	49.051	581.38	0.95299	17.973	0.075596
533.00	2.7683	undefined	19.830	24.271	103.20	10.000	0.10000	19.830	24.271	103.20	40.263	49.109	581.87	0.94729	17.999	0.075798	10.000	0.10000	19.830	24.271	103.20	40.263	49.109	581.87	0.94729	17.999	0.075798
534.00	2.7736	undefined	19.871	24.320	103.28	10.000	0.10000	19.871	24.320	103.28	40.323	49.168	582.37	0.94162	18.024	0.076001	10.000	0.10000	19.871	24.320	103.28	40.323	49.168	582.37	0.94162	18.024	0.076001
535.00	2.7790	undefined	19.911	24.369	103.36	10.000	0.10000	19.911	24.369	103.36	40.383	49.227	582.86	0.93599	18.049	0.076203	10.000	0.10000	19.911	24.369	103.36	40.383	49.227	582.86	0.93599	18.049	0.076203
536.00	2.7844	undefined	19.951	24.418	103.43	10.000	0.10000	19.951	24.418	103.43	40.443	49.285	583.35	0.93039	18.075	0.076406	10.000	0.10000	19.951	24.418	103.43	40.443	49.285	583.35	0.93039	18.075	0.076406
537.00	2.7897	undefined	19.992	24.467	103.51	10.000	0.10000	19.992	24.467	103.51	40.503	49.344	583.85	0.92483	18.100	0.076609	10.000	0.10000	19.992	24.467	103.51	40.503	49.344	583.85	0.92483	18.100	0.076609
538.00	2.7951	undefined	20.032	24.517	103.58	10.000	0.10000	20.032	24.517	103.58	40.562	49.402	584.34	0.91931	18.125	0.076812	10.000	0.10000	20.032	24.517	103.58	40.562	49.402	584.34	0.91931	18.125	0.076812
539.00	2.8004	undefined	20.073	24.566	103.66	10.000	0.10000	20.073	24.566	103.66	40.622	49.461	584.83	0.91381	18.150	0.077015	10.000	0.10000	20.073	24.566	103.66	40.622	49.461	584.83	0.91381	18.150	0.077015
540.00	2.8058	undefined	20.114	24.615	103.73	10.000	0.10000	20.114	24.615	103.73	40.682	49.520	585.32	0.90835	18.176	0.077219	10.000	0.10000	20.114	24.615	103.73	40.682	49.520	585.32	0.90835	18.176	0.077219
541.00	2.8112	undefined	20.154	24.664	103.81	10.000	0.10000	20.154	24.664	103.81	40.742	49.578	585.81	0.90292	18.201	0.077422	10.000	0.10000	20.154	24.664	103.81	40.742	49.578	585.81	0.90292	18.201	0.077422
542.00	2.8165	undefined	20.195	24.714	103.88	10.000	0.10000	20.195	24.714	103.88	40.802	49.637	586.30	0.89753	18.226	0.077626	10.000	0.10000	20.195	24.714	103.88	40.802	49.637	586.30	0.89753	18.226	0.077626
543.00	2.8219	undefined	20.236	24.763	103.96	10.000	0.10000	20.236	24.763	103.96	40.862	49.695	586.79	0.89216	18.251	0.077830	10.000	0.10000	20.236	24.763	103.96	40.862	49.695	586.79	0.89216	18.251	0.077830
544.00	2.8272	undefined	20.277	24.813	104.03	10.000	0.10000	20.277	24.813	104.03	40.922	49.754	587.28	0.88683	18.276	0.078034	10.000	0.10000	20.277	24.813	104.03	40.922	49.754	587.28	0.88683	18.276	0.078034
545.00	2.8326	undefined	20.318	24.862	104.11	10.000	0.10000	20.318	24.862	104.11	40.981	49.812	587.77	0.88154	18.301	0.078238	10.000	0.10000	20.318	24.862	104.11	40.981	49.812	587.77	0.88154	18.301	0.078238
546.00	2.8379	undefined	20.359	24.912	104.18	10.000	0.10000	20.359	24.912	104.18	41.041	49.871	588.26	0.87627	18.326	0.078442	10.000	0.10000	20.359	24.912	104.18	41.041	49.871	588.26	0.87627	18.326	0.078442
547.00	2.8433	undefined	20.400	24.961	104.26	10.000	0.10000	20.400	24.961	104.26	41.101	49.929	588.75	0.87104	18.351	0.078647	10.000	0.10000	20.400	24.961	104.26	41.101	49.929	588.75	0.87104	18.351	0.078647
548.00	2.8487	undefined	20.441	25.011	104.33	10.000	0.10000	20.441	25.011	104.33	41.161	49.988	589.23	0.86583	18.376	0.078852	10.000	0.10000	20.441	25.011	104.33	41.161	49.988	589.23	0.86583	18.376	0.078852
549.00	2.8540	undefined	20.482	25.061	104.41	10.000	0.10000	20.482	25.061	104.41	41.220	50.046	589.72	0.86066	18.401	0.079056	10.000	0.10000	20.482	25.061	104.41	41.220	50.046	589.72	0.86066	18.401	0.079056
550.00	2.8594	undefined	20.524	25.111	104.48	10.000	0.10000	20.524	25.111	104.48	41.280	50.105	590.21	0.85552	18.426	0.079261	10.000	0.10000	20.524	25.111	104.48	41.280	50.105	590.21	0.85552	18.426	0.079261
551.00	2.8647	undefined	20.565	25.161	104.56	10.000	0.10000	20.565	25.161	104.56	41.340	50.163	590.69	0.85041	18.451	0.079467	10.000	0.10000	20.565	25.161	104.56	41.340	50.163	590.69	0.85041	18.451	0.079467
552.00	2.8701	undefined	20.606	25.211	104.63	10.000	0.10000	20.606	25.211	104.63	41.400	50.222	591.18	0.84533	18.476	0.079672	10.000	0.10000	20.606	25.211	104.63	41.400	50.222	591.18	0.84533	18.476	0.079672
553.00	2.8754	undefined	20.648	25.261	104.71	10.000	0.10000	20.648	25.261	104.71	41.459	50.280	591.67	0.84028	18.501	0.079877	10.000	0.10000	20.648	25.261	104.71	41.459	50.280	591.67	0.84028	18.501	0.079877
554.00	2.8808	undefined	20.689	25.311	104.78	10.000	0.10000	20.689	25.311	104.78	41.519	50.339	592.15	0.83526	18.526	0.080083	10.000	0.10000	20.689	25.311	104.78	41.519	50.339	592.15	0.83526	18.526	0.080083
555.00	2.8862	undefined	20.731	25.361	104.86	10.000	0.10000	20.731	25.361	104.86	41.579	50.397	592.64	0.83027	18.551	0.080289	10.000	0.10000	20.731	25.361	104.86	41.579	50.397	592.64	0.83027	18.551	0.080289
556.00	2.8915	undefined	20.772	25.411	104.93	10.000	0.10000	20.772	25.411	104.93	41.638	50.455	593.12	0.82531	18.576	0.080495	10.000	0.10000	20.772	25.411	104.93	41.638	50.455	593.12	0.82531	18.576	0.080495
557.00	2.8969	undefined	20.814	25.461	105.01	10.000	0.10000	20.814	25.461	105.01	41.698	50.514	593.60	0.82038	18.601	0.080701	10.000	0.10000	20.814	25.461	105.01	41.698	50.514	593.60	0.82038	18.601	0.080701
558.00	2.9022	undefined	20.856	25.512	105.08	10.000	0.10000	20.856	25.512	105.08	41.757	50.572	594.09	0.81548	18.625	0.080907	10.000	0.10000	20.856	25.512	105.08	41.757	50.572	594.09	0.81548	18.625	0.080907
559.00	2.9076	undefined	20.897	25.562	105.16	10.000	0.10000	20.897	25.562	105.16	41.817	50.631	594.57	0.81061	18.650	0.081114	10.000	0.10000	20.897	25.562	105.16	41.817	50.631	594.57	0.81061	18.650	0.081114
560.00	2.9129	undefined	20.939	25.612	105.23	10.000	0.10000	20.939	25.612	105.23	41.877	50.689	595.05	0.80577	18.675	0.081320	10.000	0.10000	20.939	25.612	105.23	41.877	50.689	595.05	0.80577	18.675	0.081320
561.00	2.9183	undefined	20.981	25.663	105.31	10.000	0.10000	20.981	25.663	105.31	41.936	50.747	595.53	0.80095	18.700	0.081527	10.000	0.10000	20.981	25.663	105.31	41.936	50.747	595.53	0.80095	18.700	0.081527
562.00	2.9237	undefined	21.023	25.714	105.38	10.000	0.10000	21.023	25.714	105.38	41.996	50.806	596.02	0.79617	18.725	0.081734	10.000	0.10000	21.023	25.714	105.38	41.996	50.806	596.02	0.79617	18.725	0.081734
563.00	2.9290	undefined	21.065	25.764	105.46	10.000	0.10000	21.065	25.764	105.46	42.055	50.864	596.50	0.79141	18.749	0.081941	10.000	0.10000	21.065	25.764	105.46	42.055	50.864	596.50	0.79141	18.749	0.081941
564.00	2.9344	undefined	21.107	25.815	105.53	10.000	0.10000	21.107	25.815	105.53	42.115	50.922	596.98	0.78668	18.774	0.082148	10.000	0.10000	21.107	25.815	105.53	42.115	50.922	596.98	0.78668	18.774	0.082148
565.00	2.9397	undefined	21.149	25.866	105.61	10.000	0.10000	21.149	25.866	105.61	42.174	50.981	597.46	0.78197	18.799	0.082355	10.000	0.10000	21.149	25.866	105.61	42.174	50.981	597.46	0.78197	18.799	0.082355
566.00	2.9451	undefined	21.192	25.916	105.68	10.000	0.10000	21.192	25.916	105.68	42.233	51.039	597.94	0.77730	18.823	0.082562	10.000	0.10000	21.192	25.916	105.68	42.233	51.039	597.94	0.77730	18.823	0.082562
567.00	2.9504	undefined	21.234	25.967	105.76	10.000	0.10000	21.234	25.967	105.76	42.293	51.097	598.42	0.77265	18.848	0.082770	10.000	0.10000	21.234	25.967	105.76	42.293	51.097	598.42	0.77265	18.848	0.082770
568.00	2.9558	undefined	21.276	26.018	105.83	10.000	0.10000	21.276	26.018	105.83	42.352	51.155	598.90	0.76803	18.873	0.082978	10.000	0.10000	21.276	26.018	105.83	42.352	51.155	598.90	0.76803	18.873	0.082978
569.00	2.9612	undefined	21.319	26.069	105.91	10.000	0.10000	21.319	26.069	105.91	42.412	51.214	599.37	0.76344	18.897	0.083186	10.000	0.10000	21.319	26.069	105.91	42.412	51.214	599.37	0.76344	18.897	0.083186
570.00	2.9665	undefined	21.361	26.120	105.98	10.000	0.10000	21.361	26.120	105.98	42.471	51.272	599.85	0.75887	18.922	0.083394	10.000	0.10000	21.361	26.120	105.98	42.471	51.272	599.85	0.75887	18.922	0.083394
571.00	2.9719	undefined	21.404	26.171	106.05	10.000	0.10000	21.404	26.171	106.05	42.530	51.330	600.33	0.75433	18.946	0.083602	10.000	0.10000	21.404	26.171	106.05	42.530	51.330	600.33	0.75433	18.946	0.083602
572.00	2.9772	undefined	21.446	26.222	106.13	10.000	0.10000	21.446	26.222	106.13	42.590	51.388	600.81	0.74982	18.971	0.083810	10.000	0.10000	21.446	26.222	106.13	42.590	51.388	600.81	0.74982	18.971	0.083810
573.00	2.9826	undefined	21.489	26.274	106.20	10.000	0.10000	21.489	26.274	106.20	42.649	51.446	601.28	0.74533	18.995	0.084019	10.000	0.10000	21.489	26.274	106.20	42.649	51.446	601.28	0.74533	18.995	0.084019
574.00	2.9879	undefined	21.531	26.325	106.28	10.000	0.10000	21.531	26.325	106.28	42.708	51.504	601.76	0.74087	19.020	0.084227	10.000	0.10000	21.531	26.325	106.28	42.708	51.504	601.76	0.74087	19.020	0.084227
575.00	2.9933	undefined	21.574	26.376	106.35	10.000	0.10000	21.574	26.376	106.35	42.767	51.563	602.24	0.73643	19.044	0.084436	10.000	0.10000	21.574	26.376	106.35	42.767	51.563	602.24	0.73643	19.044	0.084436
576.00	2.9986	undefined	21.617	26.428	106.43	10.000	0.10000	21.617	26.428	106.43	42.827	51.621	602.71	0.73202	19.069	0.084645	10.000	0.10000	21.617	26.428	106.43	42.827	51.621	602.71	0.73202	19.069	0.084645
577.00	3.0040	undefined	21.660	26.479	106.50	10.000	0.10000	21.660	26.479	106.50	42.886	51.679	603.19	0.72764	19.093	0.084854	10.000	0.10000	21.660	26.479	106.50	42.886	51.679	603.19	0.72764	19.093	0.084854
578.00	3.0094	undefined	21.703	26.531	106.57	10.000	0.10000	21.703	26.531	106.57	42.945	51.737	603.66	0.72328	19.118	0.085063	10.000	0.10000	21.703	26.531	106.57	42.945	51.737	603.66	0.72328	19.118	0.085063
579.00	3.0147	undefined	21.746	26.582	106.65	10.000	0.10000	21.746	26.582	106.65	43.004	51.795	604.14	0.71894	19.142	0.085272	10.000	0.10000	21.746	26.582	106.65	43.004	51.795	604.14	0.71894	19.142	0.085272
580.00	3.0201	undefined	21.789	26.634	106.72	10.000	0.10000	21.789	26.634	106.72	43.063	51.853	604.61	0.71463	19.166	0.085482	10.000	0.10000	21.789	26.634	106.72	43.063	51.853	604.61	0.71463	19.166	0.085482
581.00	3.0254	undefined	21.832	26.685	106.80	10.000	0.10000	21.832	26.685	106.80	43.122	51.911	605.09	0.71035	19.191	0.085691	10.000	0.10000	21.832	26.685	106.80	43.122	51.911	605.09	0.71035	19.191	0.085691
582.00	3.0308	undefined	21.875	26.737	106.87	10.000	0.10000	21.875	26.737	106.87	43.181	51.969	605.56	0.70609	19.215	0.085901	10.000	0.10000	21.875	26.737	106.87	43.181	51.969	605.56	0.70609	19.215	0.085901
583.00	3.0361	undefined	21.918	26.789	106.95	10.000	0.10000	21.918	26.789	106.95	43.240	52.027	606.03	0.70185	19.239	0.086111	10.000	0.10000	21.918	26.789	106.95	43.240	52.027	606.03	0.70185	19.239	0.086111
584.00	3.0415	undefined	21.961	26.841	107.02	10.000	0.10000	21.961	26.841	107.02	43.299	52.085	606.50	0.69764	19.264	0.086321	10.000	0.10000	21.961	26.841	107.02	43.299	52.085	606.50	0.69764	19.264	0.086321
585.00	3.0468	undefined	22.005	26.893	107.09	10.000	0.10000	22.005	26.893	107.09	43.358	52.143	606.98	0.69345	19.288	0.086531	10.000	0.10000	22.005	26.893	107.09	43.358	52.143	606.98	0.69345	19.288	0.086531
586.00	3.0522	undefined	22.048	26.945	107.17	10.000	0.10000	22.048	26.945	107.17	43.417	52.201	607.45	0.68929	19.312	0.086741	10.000	0.10000	22.048	26.945	107.17	43.417	52.201	607.45	0.68929	19.312	0.086741
587.00	3.0575	undefined	22.092	26.997	107.24	10.000	0.10000	22.092	26.997	107.24	43.476	52.258	607.92	0.68515	19.336	0.086952	10.000	0.10000	22.092	26.997	107.24	43.476	52.258	607.92	0.68515	19.336	0.086952
588.00	3.0629	undefined	22.135	27.049	107.32	10.000	0.10000	22.135	27.049	107.32	43.535	52.316	608.39	0.68103	19.361	0.087162	10.000	0.10000	22.135	27.049	107.32	43.535	52.316	608.39	0.68103	19.361	0.087162
589.00	3.0683	undefined	22.179	27.101	107.39	10.000	0.10000	22.179	27.101	107.39	43.594	52.374	608.86	0.67694	19.385	0.087373	10.000	0.10000	22.179	27.101	107.39	43.594	52.374	608.86	0.67694	19.385	0.087373
590.00	3.0736	undefined	22.222	27.153	107.46	10.000	0.10000	22.222	27.153	107.46	43.653	52.432	609.33	0.67287	19.409	0.087584	10.000	0.10000	22.222	27.153	107.46	43.653	52.432	609.33	0.67287	19.409	0.087584
591.00	3.0790	undefined	22.266	27.205	107.54	10.000	0.10000	22.266	27.205	107.54	43.712	52.490	609.80	0.66883	19.433	0.087795	10.000	0.10000	22.266	27.205	107.54	43.712	52.490	609.80	0.66883	19.433	0.087795
592.00	3.0843	undefined	22.310	27.258	107.61	10.000	0.10000	22.310	27.258	107.61	43.771	52.548	610.27	0.66480	19.457	0.088006	10.000	0.10000	22.310	27.258	107.61	43.771	52.548	610.27	0.66480	19.457	0.088006
593.00	3.0897	undefined	22.354	27.310	107.69	10.000	0.10000	22.354	27.310	107.69	43.829	52.605	610.74	0.66080	19.481	0.088217	10.000	0.10000	22.354	27.310	107.69	43.829	52.605	610.74	0.66080	19.481	0.088217
594.00	3.0950	undefined	22.397	27.363	107.76	10.000	0.10000	22.397	27.363	107.76	43.888	52.663	611.21	0.65682	19.506	0.088428	10.000	0.10000	22.397	27.363	107.76	43.888	52.663	611.21	0.65682	19.506	0.088428
595.00	3.1004	undefined	22.441	27.415	107.83	10.000	0.10000	22.441	27.415	107.83	43.947	52.721	611.68	0.65287	19.530	0.088640	10.000	0.10000	22.441	27.415	107.83	43.947	52.721	611.68	0.65287	19.530	0.088640
596.00	3.1057	undefined	22.485	27.468	107.91	10.000	0.10000	22.485	27.468	107.91	44.006	52.778	612.14	0.64893	19.554	0.088851	10.000	0.10000	22.485	27.468	107.91	44.006	52.778	612.14	0.64893	19.554	0.088851
597.00	3.1111	undefined	22.529	27.520	107.98	10.000	0.10000	22.529	27.520	107.98	44.064	52.836	612.61	0.64502	19.578	0.089063	10.000	0.10000	22.529	27.520	107.98	44.064	52.836	612.61	0.64502	19.578	0.089063
598.00	3.1164	undefined	22.573	27.573	108.06	10.000	0.10000	22.573	27.573	108.06	44.123	52.894	613.08	0.64113	19.602	0.089275	10.000	0.10000	22.573	27.573	108.06	44.123	52.894	613.08	0.64113	19.602	0.089275
599.00	3.1218	undefined	22.618	27.626	108.13	10.000	0.10000	22.618	27.626	108.13	44.182	52.951	613.55	0.63726	19.626	0.089487	10.000	0.10000	22.618	27.626	108.13	44.182	52.951	613.55	0.63726	19.626	0.089487
600.00	3.1272	undefined	22.662	27.679	108.20	10.000	0.10000	22.662	27.679	108.20	44.240	53.009	614.01	0.63342	19.650	0.089699	10.000	0.10000	22.662	27.679	108.20	44.240	53.009	614.01	0.63342	19.650	0.089699
