Temperature (K)	Pressure (MPa)	Quality (l+v)	Internal Energy (l+v, kJ/mol)	Enthalpy (l+v, kJ/mol)	Entropy (l+v, J/mol*K)	Density (l, kg/m3)	Volume (l, m3/kg)	Internal Energy (l, kJ/mol)	Enthalpy (l, kJ/mol)	Entropy (l, J/mol*K)	Cv (l, J/mol*K)	Cp (l, J/mol*K)	Sound Spd. (l, m/s)	Joule-Thomson (l, K/MPa)	Viscosity (l, uPa*s)	Therm. Cond. (l, W/m*K)	Density (v, kg/m3)	Volume (v, m3/kg)	Internal Energy (v, kJ/mol)	Enthalpy (v, kJ/mol)	Entropy (v, J/mol*K)	Cv (v, J/mol*K)	Cp (v, J/mol*K)	Sound Spd. (v, m/s)	Joule-Thomson (v, K/MPa)	Viscosity (v, uPa*s)	Therm. Cond. (v, W/m*K)
150.00	1.0400	0.80760	6.7997	7.6339	52.901	357.90	0.0027941	2.2418	2.2884	17.264	30.780	64.932	920.85	-0.075032	55.984	0.12918	16.328	0.061246	7.8856	8.9074	61.391	28.439	46.657	285.97	17.870	5.8236	0.018344
151.00	1.0878	0.84688	7.0373	7.9099	54.479	355.88	0.0028100	2.3048	2.3538	17.684	30.746	65.414	908.74	-0.057267	54.962	0.12776	17.085	0.058532	7.8930	8.9144	61.132	28.543	47.279	285.81	17.697	5.8703	0.018596
152.00	1.1372	0.88789	7.2796	8.1918	56.079	353.83	0.0028262	2.3681	2.4196	18.104	30.714	65.922	896.54	-0.038660	53.960	0.12633	17.871	0.055956	7.8998	8.9206	60.874	28.649	47.936	285.63	17.528	5.9179	0.018854
153.00	1.1882	0.93072	7.5268	8.4798	57.699	351.75	0.0028429	2.4317	2.4859	18.523	30.684	66.456	884.25	-0.019154	52.975	0.12491	18.688	0.053510	7.9060	8.9260	60.616	28.759	48.631	285.41	17.361	5.9663	0.019119
154.00	1.2408	0.97547	7.7788	8.7740	59.341	349.64	0.0028601	2.4957	2.5527	18.943	30.656	67.019	871.87	0.0013101	52.008	0.12349	19.537	0.051185	7.9116	8.9305	60.357	28.872	49.365	285.16	17.196	6.0157	0.019390
155.00	1.2752	undefined	7.9279	8.9508	60.308	20.000	0.050000	7.9279	8.9508	60.308	28.846	49.503	285.77	16.980	6.0667	0.019569	20.000	0.050000	7.9279	8.9508	60.308	28.846	49.503	285.77	16.980	6.0667	0.019569
156.00	1.2878	undefined	7.9566	8.9896	60.492	20.000	0.050000	7.9566	8.9896	60.492	28.675	48.969	287.36	16.710	6.1180	0.019638	20.000	0.050000	7.9566	8.9896	60.492	28.675	48.969	287.36	16.710	6.1180	0.019638
157.00	1.3003	undefined	7.9852	9.0282	60.675	20.000	0.050000	7.9852	9.0282	60.675	28.523	48.481	288.93	16.449	6.1684	0.019709	20.000	0.050000	7.9852	9.0282	60.675	28.523	48.481	288.93	16.449	6.1684	0.019709
158.00	1.3127	undefined	8.0137	9.0667	60.856	20.000	0.050000	8.0137	9.0667	60.856	28.386	48.034	290.48	16.197	6.2181	0.019783	20.000	0.050000	8.0137	9.0667	60.856	28.386	48.034	290.48	16.197	6.2181	0.019783
159.00	1.3251	undefined	8.0420	9.1050	61.035	20.000	0.050000	8.0420	9.1050	61.035	28.263	47.621	292.01	15.953	6.2671	0.019860	20.000	0.050000	8.0420	9.1050	61.035	28.263	47.621	292.01	15.953	6.2671	0.019860
160.00	1.3375	undefined	8.0702	9.1431	61.211	20.000	0.050000	8.0702	9.1431	61.211	28.151	47.238	293.52	15.716	6.3154	0.019939	20.000	0.050000	8.0702	9.1431	61.211	28.151	47.238	293.52	15.716	6.3154	0.019939
161.00	1.3498	undefined	8.0983	9.1811	61.386	20.000	0.050000	8.0983	9.1811	61.386	28.049	46.881	295.02	15.486	6.3633	0.020020	20.000	0.050000	8.0983	9.1811	61.386	28.049	46.881	295.02	15.486	6.3633	0.020020
162.00	1.3622	undefined	8.1263	9.2190	61.560	20.000	0.050000	8.1263	9.2190	61.560	27.956	46.548	296.51	15.262	6.4106	0.020104	20.000	0.050000	8.1263	9.2190	61.560	27.956	46.548	296.51	15.262	6.4106	0.020104
163.00	1.3744	undefined	8.1542	9.2567	61.732	20.000	0.050000	8.1542	9.2567	61.732	27.870	46.235	297.98	15.045	6.4575	0.020189	20.000	0.050000	8.1542	9.2567	61.732	27.870	46.235	297.98	15.045	6.4575	0.020189
164.00	1.3867	undefined	8.1821	9.2944	61.902	20.000	0.050000	8.1821	9.2944	61.902	27.791	45.941	299.43	14.834	6.5040	0.020276	20.000	0.050000	8.1821	9.2944	61.902	27.791	45.941	299.43	14.834	6.5040	0.020276
165.00	1.3989	undefined	8.2098	9.3319	62.071	20.000	0.050000	8.2098	9.3319	62.071	27.717	45.663	300.88	14.628	6.5501	0.020365	20.000	0.050000	8.2098	9.3319	62.071	27.717	45.663	300.88	14.628	6.5501	0.020365
166.00	1.4111	undefined	8.2375	9.3694	62.238	20.000	0.050000	8.2375	9.3694	62.238	27.649	45.400	302.31	14.428	6.5959	0.020455	20.000	0.050000	8.2375	9.3694	62.238	27.649	45.400	302.31	14.428	6.5959	0.020455
167.00	1.4233	undefined	8.2651	9.4068	62.404	20.000	0.050000	8.2651	9.4068	62.404	27.585	45.150	303.73	14.233	6.6413	0.020548	20.000	0.050000	8.2651	9.4068	62.404	27.585	45.150	303.73	14.233	6.6413	0.020548
168.00	1.4354	undefined	8.2927	9.4441	62.568	20.000	0.050000	8.2927	9.4441	62.568	27.525	44.912	305.14	14.042	6.6864	0.020641	20.000	0.050000	8.2927	9.4441	62.568	27.525	44.912	305.14	14.042	6.6864	0.020641
169.00	1.4475	undefined	8.3202	9.4813	62.731	20.000	0.050000	8.3202	9.4813	62.731	27.468	44.684	306.55	13.857	6.7312	0.020737	20.000	0.050000	8.3202	9.4813	62.731	27.468	44.684	306.55	13.857	6.7312	0.020737
170.00	1.4596	undefined	8.3476	9.5184	62.893	20.000	0.050000	8.3476	9.5184	62.893	27.415	44.467	307.94	13.675	6.7757	0.020833	20.000	0.050000	8.3476	9.5184	62.893	27.415	44.467	307.94	13.675	6.7757	0.020833
171.00	1.4717	undefined	8.3750	9.5555	63.054	20.000	0.050000	8.3750	9.5555	63.054	27.364	44.259	309.32	13.498	6.8199	0.020931	20.000	0.050000	8.3750	9.5555	63.054	27.364	44.259	309.32	13.498	6.8199	0.020931
172.00	1.4838	undefined	8.4023	9.5925	63.213	20.000	0.050000	8.4023	9.5925	63.213	27.316	44.059	310.69	13.325	6.8639	0.021031	20.000	0.050000	8.4023	9.5925	63.213	27.316	44.059	310.69	13.325	6.8639	0.021031
173.00	1.4958	undefined	8.4296	9.6295	63.372	20.000	0.050000	8.4296	9.6295	63.372	27.271	43.868	312.05	13.156	6.9077	0.021132	20.000	0.050000	8.4296	9.6295	63.372	27.271	43.868	312.05	13.156	6.9077	0.021132
174.00	1.5078	undefined	8.4569	9.6664	63.529	20.000	0.050000	8.4569	9.6664	63.529	27.227	43.683	313.41	12.990	6.9513	0.021234	20.000	0.050000	8.4569	9.6664	63.529	27.227	43.683	313.41	12.990	6.9513	0.021234
175.00	1.5198	undefined	8.4841	9.7032	63.685	20.000	0.050000	8.4841	9.7032	63.685	27.186	43.506	314.75	12.828	6.9946	0.021337	20.000	0.050000	8.4841	9.7032	63.685	27.186	43.506	314.75	12.828	6.9946	0.021337
176.00	1.5318	undefined	8.5113	9.7400	63.839	20.000	0.050000	8.5113	9.7400	63.839	27.146	43.334	316.09	12.670	7.0377	0.021442	20.000	0.050000	8.5113	9.7400	63.839	27.146	43.334	316.09	12.670	7.0377	0.021442
177.00	1.5438	undefined	8.5384	9.7767	63.993	20.000	0.050000	8.5384	9.7767	63.993	27.109	43.169	317.42	12.515	7.0806	0.021548	20.000	0.050000	8.5384	9.7767	63.993	27.109	43.169	317.42	12.515	7.0806	0.021548
178.00	1.5558	undefined	8.5655	9.8134	64.146	20.000	0.050000	8.5655	9.8134	64.146	27.072	43.010	318.74	12.363	7.1233	0.021655	20.000	0.050000	8.5655	9.8134	64.146	27.072	43.010	318.74	12.363	7.1233	0.021655
179.00	1.5677	undefined	8.5925	9.8501	64.297	20.000	0.050000	8.5925	9.8501	64.297	27.038	42.855	320.06	12.214	7.1658	0.021764	20.000	0.050000	8.5925	9.8501	64.297	27.038	42.855	320.06	12.214	7.1658	0.021764
180.00	1.5796	undefined	8.6196	9.8866	64.448	20.000	0.050000	8.6196	9.8866	64.448	27.004	42.706	321.36	12.068	7.2082	0.021874	20.000	0.050000	8.6196	9.8866	64.448	27.004	42.706	321.36	12.068	7.2082	0.021874
181.00	1.5915	undefined	8.6465	9.9232	64.597	20.000	0.050000	8.6465	9.9232	64.597	26.972	42.562	322.66	11.925	7.2503	0.021985	20.000	0.050000	8.6465	9.9232	64.597	26.972	42.562	322.66	11.925	7.2503	0.021985
182.00	1.6034	undefined	8.6735	9.9597	64.746	20.000	0.050000	8.6735	9.9597	64.746	26.942	42.422	323.95	11.785	7.2923	0.022098	20.000	0.050000	8.6735	9.9597	64.746	26.942	42.422	323.95	11.785	7.2923	0.022098
183.00	1.6153	undefined	8.7004	9.9961	64.893	20.000	0.050000	8.7004	9.9961	64.893	26.912	42.287	325.24	11.648	7.3342	0.022213	20.000	0.050000	8.7004	9.9961	64.893	26.912	42.287	325.24	11.648	7.3342	0.022213
184.00	1.6272	undefined	8.7273	10.033	65.040	20.000	0.050000	8.7273	10.033	65.040	26.884	42.156	326.51	11.513	7.3759	0.022330	20.000	0.050000	8.7273	10.033	65.040	26.884	42.156	326.51	11.513	7.3759	0.022330
185.00	1.6390	undefined	8.7542	10.069	65.186	20.000	0.050000	8.7542	10.069	65.186	26.857	42.029	327.79	11.381	7.4174	0.022449	20.000	0.050000	8.7542	10.069	65.186	26.857	42.029	327.79	11.381	7.4174	0.022449
186.00	1.6509	undefined	8.7810	10.105	65.330	20.000	0.050000	8.7810	10.105	65.330	26.831	41.906	329.05	11.252	7.4587	0.022571	20.000	0.050000	8.7810	10.105	65.330	26.831	41.906	329.05	11.252	7.4587	0.022571
187.00	1.6627	undefined	8.8079	10.142	65.474	20.000	0.050000	8.8079	10.142	65.474	26.806	41.786	330.30	11.124	7.4999	0.022696	20.000	0.050000	8.8079	10.142	65.474	26.806	41.786	330.30	11.124	7.4999	0.022696
188.00	1.6745	undefined	8.8347	10.178	65.617	20.000	0.050000	8.8347	10.178	65.617	26.782	41.670	331.55	11.000	7.5410	0.022826	20.000	0.050000	8.8347	10.178	65.617	26.782	41.670	331.55	11.000	7.5410	0.022826
189.00	1.6863	undefined	8.8614	10.214	65.759	20.000	0.050000	8.8614	10.214	65.759	26.759	41.558	332.80	10.877	7.5819	0.022964	20.000	0.050000	8.8614	10.214	65.759	26.759	41.558	332.80	10.877	7.5819	0.022964
190.00	1.6981	undefined	8.8882	10.250	65.900	20.000	0.050000	8.8882	10.250	65.900	26.737	41.449	334.04	10.757	7.6227	0.023119	20.000	0.050000	8.8882	10.250	65.900	26.737	41.449	334.04	10.757	7.6227	0.023119
191.00	1.7099	undefined	8.9149	10.286	66.040	20.000	0.050000	8.9149	10.286	66.040	26.717	41.343	335.27	10.639	7.6634	0.023205	20.000	0.050000	8.9149	10.286	66.040	26.717	41.343	335.27	10.639	7.6634	0.023205
192.00	1.7217	undefined	8.9416	10.323	66.180	20.000	0.050000	8.9416	10.323	66.180	26.696	41.240	336.49	10.523	7.7039	0.023250	20.000	0.050000	8.9416	10.323	66.180	26.696	41.240	336.49	10.523	7.7039	0.023250
193.00	1.7334	undefined	8.9683	10.359	66.319	20.000	0.050000	8.9683	10.359	66.319	26.677	41.140	337.71	10.409	7.7443	0.023323	20.000	0.050000	8.9683	10.359	66.319	26.677	41.140	337.71	10.409	7.7443	0.023323
194.00	1.7452	undefined	8.9950	10.395	66.456	20.000	0.050000	8.9950	10.395	66.456	26.659	41.043	338.92	10.297	7.7846	0.023407	20.000	0.050000	8.9950	10.395	66.456	26.659	41.043	338.92	10.297	7.7846	0.023407
195.00	1.7569	undefined	9.0216	10.431	66.593	20.000	0.050000	9.0216	10.431	66.593	26.641	40.948	340.13	10.187	7.8248	0.023497	20.000	0.050000	9.0216	10.431	66.593	26.641	40.948	340.13	10.187	7.8248	0.023497
196.00	1.7687	undefined	9.0482	10.467	66.730	20.000	0.050000	9.0482	10.467	66.730	26.625	40.857	341.33	10.078	7.8648	0.023591	20.000	0.050000	9.0482	10.467	66.730	26.625	40.857	341.33	10.078	7.8648	0.023591
197.00	1.7804	undefined	9.0749	10.503	66.865	20.000	0.050000	9.0749	10.503	66.865	26.609	40.768	342.52	9.9721	7.9047	0.023688	20.000	0.050000	9.0749	10.503	66.865	26.609	40.768	342.52	9.9721	7.9047	0.023688
198.00	1.7921	undefined	9.1015	10.539	67.000	20.000	0.050000	9.1015	10.539	67.000	26.594	40.681	343.71	9.8675	7.9445	0.023787	20.000	0.050000	9.1015	10.539	67.000	26.594	40.681	343.71	9.8675	7.9445	0.023787
199.00	1.8038	undefined	9.1280	10.575	67.134	20.000	0.050000	9.1280	10.575	67.134	26.580	40.597	344.89	9.7647	7.9842	0.023889	20.000	0.050000	9.1280	10.575	67.134	26.580	40.597	344.89	9.7647	7.9842	0.023889
200.00	1.8155	undefined	9.1546	10.611	67.267	20.000	0.050000	9.1546	10.611	67.267	26.566	40.516	346.07	9.6636	8.0238	0.023992	20.000	0.050000	9.1546	10.611	67.267	26.566	40.516	346.07	9.6636	8.0238	0.023992
201.00	1.8272	undefined	9.1812	10.647	67.399	20.000	0.050000	9.1812	10.647	67.399	26.554	40.436	347.24	9.5642	8.0632	0.024096	20.000	0.050000	9.1812	10.647	67.399	26.554	40.436	347.24	9.5642	8.0632	0.024096
202.00	1.8388	undefined	9.2077	10.683	67.531	20.000	0.050000	9.2077	10.683	67.531	26.542	40.359	348.40	9.4664	8.1026	0.024201	20.000	0.050000	9.2077	10.683	67.531	26.542	40.359	348.40	9.4664	8.1026	0.024201
203.00	1.8505	undefined	9.2343	10.719	67.662	20.000	0.050000	9.2343	10.719	67.662	26.531	40.284	349.56	9.3701	8.1419	0.024308	20.000	0.050000	9.2343	10.719	67.662	26.531	40.284	349.56	9.3701	8.1419	0.024308
204.00	1.8622	undefined	9.2608	10.755	67.793	20.000	0.050000	9.2608	10.755	67.793	26.520	40.212	350.72	9.2754	8.1810	0.024415	20.000	0.050000	9.2608	10.755	67.793	26.520	40.212	350.72	9.2754	8.1810	0.024415
205.00	1.8738	undefined	9.2873	10.790	67.922	20.000	0.050000	9.2873	10.790	67.922	26.510	40.141	351.87	9.1822	8.2201	0.024523	20.000	0.050000	9.2873	10.790	67.922	26.510	40.141	351.87	9.1822	8.2201	0.024523
206.00	1.8854	undefined	9.3138	10.826	68.051	20.000	0.050000	9.3138	10.826	68.051	26.501	40.073	353.01	9.0905	8.2590	0.024632	20.000	0.050000	9.3138	10.826	68.051	26.501	40.073	353.01	9.0905	8.2590	0.024632
207.00	1.8971	undefined	9.3403	10.862	68.179	20.000	0.050000	9.3403	10.862	68.179	26.493	40.006	354.15	9.0002	8.2979	0.024741	20.000	0.050000	9.3403	10.862	68.179	26.493	40.006	354.15	9.0002	8.2979	0.024741
208.00	1.9087	undefined	9.3668	10.898	68.307	20.000	0.050000	9.3668	10.898	68.307	26.485	39.941	355.29	8.9112	8.3366	0.024851	20.000	0.050000	9.3668	10.898	68.307	26.485	39.941	355.29	8.9112	8.3366	0.024851
209.00	1.9203	undefined	9.3933	10.934	68.434	20.000	0.050000	9.3933	10.934	68.434	26.478	39.878	356.41	8.8237	8.3753	0.024961	20.000	0.050000	9.3933	10.934	68.434	26.478	39.878	356.41	8.8237	8.3753	0.024961
210.00	1.9319	undefined	9.4198	10.969	68.561	20.000	0.050000	9.4198	10.969	68.561	26.472	39.817	357.54	8.7375	8.4139	0.025072	20.000	0.050000	9.4198	10.969	68.561	26.472	39.817	357.54	8.7375	8.4139	0.025072
211.00	1.9435	undefined	9.4462	11.005	68.686	20.000	0.050000	9.4462	11.005	68.686	26.466	39.758	358.66	8.6525	8.4524	0.025184	20.000	0.050000	9.4462	11.005	68.686	26.466	39.758	358.66	8.6525	8.4524	0.025184
212.00	1.9551	undefined	9.4727	11.041	68.811	20.000	0.050000	9.4727	11.041	68.811	26.461	39.701	359.77	8.5689	8.4908	0.025295	20.000	0.050000	9.4727	11.041	68.811	26.461	39.701	359.77	8.5689	8.4908	0.025295
213.00	1.9667	undefined	9.4991	11.077	68.936	20.000	0.050000	9.4991	11.077	68.936	26.456	39.645	360.88	8.4865	8.5291	0.025408	20.000	0.050000	9.4991	11.077	68.936	26.456	39.645	360.88	8.4865	8.5291	0.025408
214.00	1.9783	undefined	9.5256	11.112	69.060	20.000	0.050000	9.5256	11.112	69.060	26.453	39.591	361.98	8.4053	8.5673	0.025520	20.000	0.050000	9.5256	11.112	69.060	26.453	39.591	361.98	8.4053	8.5673	0.025520
215.00	1.9899	undefined	9.5521	11.148	69.183	20.000	0.050000	9.5521	11.148	69.183	26.449	39.538	363.08	8.3253	8.6054	0.025633	20.000	0.050000	9.5521	11.148	69.183	26.449	39.538	363.08	8.3253	8.6054	0.025633
216.00	2.0014	undefined	9.5785	11.184	69.306	20.000	0.050000	9.5785	11.184	69.306	26.447	39.487	364.17	8.2464	8.6434	0.025747	20.000	0.050000	9.5785	11.184	69.306	26.447	39.487	364.17	8.2464	8.6434	0.025747
217.00	2.0130	undefined	9.6049	11.220	69.428	20.000	0.050000	9.6049	11.220	69.428	26.445	39.438	365.26	8.1687	8.6814	0.025861	20.000	0.050000	9.6049	11.220	69.428	26.445	39.438	365.26	8.1687	8.6814	0.025861
218.00	2.0245	undefined	9.6314	11.255	69.550	20.000	0.050000	9.6314	11.255	69.550	26.443	39.390	366.35	8.0920	8.7193	0.025975	20.000	0.050000	9.6314	11.255	69.550	26.443	39.390	366.35	8.0920	8.7193	0.025975
219.00	2.0361	undefined	9.6578	11.291	69.671	20.000	0.050000	9.6578	11.291	69.671	26.442	39.344	367.43	8.0165	8.7570	0.026089	20.000	0.050000	9.6578	11.291	69.671	26.442	39.344	367.43	8.0165	8.7570	0.026089
220.00	2.0476	undefined	9.6843	11.327	69.791	20.000	0.050000	9.6843	11.327	69.791	26.442	39.299	368.50	7.9420	8.7948	0.026204	20.000	0.050000	9.6843	11.327	69.791	26.442	39.299	368.50	7.9420	8.7948	0.026204
221.00	2.0592	undefined	9.7107	11.362	69.911	20.000	0.050000	9.7107	11.362	69.911	26.442	39.255	369.57	7.8686	8.8324	0.026319	20.000	0.050000	9.7107	11.362	69.911	26.442	39.255	369.57	7.8686	8.8324	0.026319
222.00	2.0707	undefined	9.7372	11.398	70.030	20.000	0.050000	9.7372	11.398	70.030	26.443	39.213	370.64	7.7962	8.8699	0.026434	20.000	0.050000	9.7372	11.398	70.030	26.443	39.213	370.64	7.7962	8.8699	0.026434
223.00	2.0822	undefined	9.7636	11.434	70.149	20.000	0.050000	9.7636	11.434	70.149	26.445	39.172	371.70	7.7247	8.9074	0.026550	20.000	0.050000	9.7636	11.434	70.149	26.445	39.172	371.70	7.7247	8.9074	0.026550
224.00	2.0937	undefined	9.7900	11.470	70.268	20.000	0.050000	9.7900	11.470	70.268	26.447	39.133	372.76	7.6543	8.9448	0.026665	20.000	0.050000	9.7900	11.470	70.268	26.447	39.133	372.76	7.6543	8.9448	0.026665
225.00	2.1052	undefined	9.8165	11.505	70.385	20.000	0.050000	9.8165	11.505	70.385	26.449	39.094	373.81	7.5847	8.9821	0.026782	20.000	0.050000	9.8165	11.505	70.385	26.449	39.094	373.81	7.5847	8.9821	0.026782
226.00	2.1167	undefined	9.8429	11.541	70.503	20.000	0.050000	9.8429	11.541	70.503	26.452	39.057	374.86	7.5162	9.0193	0.026898	20.000	0.050000	9.8429	11.541	70.503	26.452	39.057	374.86	7.5162	9.0193	0.026898
227.00	2.1282	undefined	9.8694	11.577	70.619	20.000	0.050000	9.8694	11.577	70.619	26.456	39.022	375.90	7.4485	9.0565	0.027015	20.000	0.050000	9.8694	11.577	70.619	26.456	39.022	375.90	7.4485	9.0565	0.027015
228.00	2.1397	undefined	9.8959	11.612	70.736	20.000	0.050000	9.8959	11.612	70.736	26.460	38.987	376.94	7.3817	9.0936	0.027132	20.000	0.050000	9.8959	11.612	70.736	26.460	38.987	376.94	7.3817	9.0936	0.027132
229.00	2.1512	undefined	9.9223	11.648	70.852	20.000	0.050000	9.9223	11.648	70.852	26.465	38.954	377.97	7.3158	9.1306	0.027249	20.000	0.050000	9.9223	11.648	70.852	26.465	38.954	377.97	7.3158	9.1306	0.027249
230.00	2.1627	undefined	9.9488	11.684	70.967	20.000	0.050000	9.9488	11.684	70.967	26.470	38.922	379.01	7.2508	9.1676	0.027367	20.000	0.050000	9.9488	11.684	70.967	26.470	38.922	379.01	7.2508	9.1676	0.027367
231.00	2.1742	undefined	9.9753	11.719	71.082	20.000	0.050000	9.9753	11.719	71.082	26.476	38.891	380.03	7.1866	9.2044	0.027484	20.000	0.050000	9.9753	11.719	71.082	26.476	38.891	380.03	7.1866	9.2044	0.027484
232.00	2.1857	undefined	10.002	11.755	71.196	20.000	0.050000	10.002	11.755	71.196	26.482	38.862	381.05	7.1232	9.2412	0.027602	20.000	0.050000	10.002	11.755	71.196	26.482	38.862	381.05	7.1232	9.2412	0.027602
233.00	2.1972	undefined	10.028	11.791	71.310	20.000	0.050000	10.028	11.791	71.310	26.489	38.833	382.07	7.0606	9.2780	0.027721	20.000	0.050000	10.028	11.791	71.310	26.489	38.833	382.07	7.0606	9.2780	0.027721
234.00	2.2086	undefined	10.055	11.826	71.423	20.000	0.050000	10.055	11.826	71.423	26.496	38.806	383.09	6.9988	9.3146	0.027839	20.000	0.050000	10.055	11.826	71.423	26.496	38.806	383.09	6.9988	9.3146	0.027839
235.00	2.2201	undefined	10.081	11.862	71.536	20.000	0.050000	10.081	11.862	71.536	26.504	38.779	384.10	6.9378	9.3512	0.027958	20.000	0.050000	10.081	11.862	71.536	26.504	38.779	384.10	6.9378	9.3512	0.027958
236.00	2.2315	undefined	10.108	11.898	71.649	20.000	0.050000	10.108	11.898	71.649	26.512	38.754	385.10	6.8775	9.3877	0.028077	20.000	0.050000	10.108	11.898	71.649	26.512	38.754	385.10	6.8775	9.3877	0.028077
237.00	2.2430	undefined	10.134	11.933	71.761	20.000	0.050000	10.134	11.933	71.761	26.521	38.729	386.10	6.8180	9.4242	0.028197	20.000	0.050000	10.134	11.933	71.761	26.521	38.729	386.10	6.8180	9.4242	0.028197
238.00	2.2544	undefined	10.161	11.969	71.873	20.000	0.050000	10.161	11.969	71.873	26.530	38.706	387.10	6.7592	9.4606	0.028316	20.000	0.050000	10.161	11.969	71.873	26.530	38.706	387.10	6.7592	9.4606	0.028316
239.00	2.2659	undefined	10.187	12.005	71.984	20.000	0.050000	10.187	12.005	71.984	26.540	38.684	388.10	6.7012	9.4969	0.028436	20.000	0.050000	10.187	12.005	71.984	26.540	38.684	388.10	6.7012	9.4969	0.028436
240.00	2.2773	undefined	10.214	12.041	72.095	20.000	0.050000	10.214	12.041	72.095	26.550	38.663	389.09	6.6438	9.5331	0.028556	20.000	0.050000	10.214	12.041	72.095	26.550	38.663	389.09	6.6438	9.5331	0.028556
241.00	2.2888	undefined	10.240	12.076	72.205	20.000	0.050000	10.240	12.076	72.205	26.561	38.642	390.07	6.5872	9.5693	0.028677	20.000	0.050000	10.240	12.076	72.205	26.561	38.642	390.07	6.5872	9.5693	0.028677
242.00	2.3002	undefined	10.267	12.112	72.315	20.000	0.050000	10.267	12.112	72.315	26.572	38.623	391.05	6.5312	9.6054	0.028797	20.000	0.050000	10.267	12.112	72.315	26.572	38.623	391.05	6.5312	9.6054	0.028797
243.00	2.3116	undefined	10.294	12.148	72.425	20.000	0.050000	10.294	12.148	72.425	26.584	38.605	392.03	6.4759	9.6415	0.028918	20.000	0.050000	10.294	12.148	72.425	26.584	38.605	392.03	6.4759	9.6415	0.028918
244.00	2.3230	undefined	10.320	12.184	72.534	20.000	0.050000	10.320	12.184	72.534	26.596	38.587	393.01	6.4212	9.6775	0.029039	20.000	0.050000	10.320	12.184	72.534	26.596	38.587	393.01	6.4212	9.6775	0.029039
245.00	2.3345	undefined	10.347	12.219	72.643	20.000	0.050000	10.347	12.219	72.643	26.608	38.571	393.98	6.3672	9.7134	0.029161	20.000	0.050000	10.347	12.219	72.643	26.608	38.571	393.98	6.3672	9.7134	0.029161
246.00	2.3459	undefined	10.373	12.255	72.751	20.000	0.050000	10.373	12.255	72.751	26.621	38.555	394.94	6.3138	9.7493	0.029282	20.000	0.050000	10.373	12.255	72.751	26.621	38.555	394.94	6.3138	9.7493	0.029282
247.00	2.3573	undefined	10.400	12.291	72.859	20.000	0.050000	10.400	12.291	72.859	26.635	38.540	395.91	6.2610	9.7851	0.029404	20.000	0.050000	10.400	12.291	72.859	26.635	38.540	395.91	6.2610	9.7851	0.029404
248.00	2.3687	undefined	10.427	12.327	72.967	20.000	0.050000	10.427	12.327	72.967	26.649	38.526	396.87	6.2088	9.8208	0.029527	20.000	0.050000	10.427	12.327	72.967	26.649	38.526	396.87	6.2088	9.8208	0.029527
249.00	2.3801	undefined	10.453	12.362	73.074	20.000	0.050000	10.453	12.362	73.074	26.663	38.513	397.82	6.1572	9.8565	0.029649	20.000	0.050000	10.453	12.362	73.074	26.663	38.513	397.82	6.1572	9.8565	0.029649
250.00	2.3915	undefined	10.480	12.398	73.181	20.000	0.050000	10.480	12.398	73.181	26.678	38.501	398.78	6.1062	9.8921	0.029772	20.000	0.050000	10.480	12.398	73.181	26.678	38.501	398.78	6.1062	9.8921	0.029772
251.00	2.4029	undefined	10.507	12.434	73.288	20.000	0.050000	10.507	12.434	73.288	26.693	38.490	399.72	6.0558	9.9276	0.029895	20.000	0.050000	10.507	12.434	73.288	26.693	38.490	399.72	6.0558	9.9276	0.029895
252.00	2.4143	undefined	10.533	12.470	73.394	20.000	0.050000	10.533	12.470	73.394	26.709	38.479	400.67	6.0060	9.9631	0.030018	20.000	0.050000	10.533	12.470	73.394	26.709	38.479	400.67	6.0060	9.9631	0.030018
253.00	2.4257	undefined	10.560	12.506	73.500	20.000	0.050000	10.560	12.506	73.500	26.725	38.470	401.61	5.9567	9.9986	0.030142	20.000	0.050000	10.560	12.506	73.500	26.725	38.470	401.61	5.9567	9.9986	0.030142
254.00	2.4371	undefined	10.587	12.542	73.605	20.000	0.050000	10.587	12.542	73.605	26.742	38.461	402.55	5.9079	10.034	0.030266	20.000	0.050000	10.587	12.542	73.605	26.742	38.461	402.55	5.9079	10.034	0.030266
255.00	2.4484	undefined	10.614	12.578	73.710	20.000	0.050000	10.614	12.578	73.710	26.759	38.453	403.48	5.8597	10.069	0.030390	20.000	0.050000	10.614	12.578	73.710	26.759	38.453	403.48	5.8597	10.069	0.030390
256.00	2.4598	undefined	10.640	12.613	73.815	20.000	0.050000	10.640	12.613	73.815	26.777	38.446	404.41	5.8120	10.104	0.030514	20.000	0.050000	10.640	12.613	73.815	26.777	38.446	404.41	5.8120	10.104	0.030514
257.00	2.4712	undefined	10.667	12.649	73.919	20.000	0.050000	10.667	12.649	73.919	26.794	38.439	405.34	5.7649	10.140	0.030639	20.000	0.050000	10.667	12.649	73.919	26.794	38.439	405.34	5.7649	10.140	0.030639
258.00	2.4826	undefined	10.694	12.685	74.024	20.000	0.050000	10.694	12.685	74.024	26.813	38.434	406.26	5.7182	10.175	0.030764	20.000	0.050000	10.694	12.685	74.024	26.813	38.434	406.26	5.7182	10.175	0.030764
259.00	2.4939	undefined	10.721	12.721	74.127	20.000	0.050000	10.721	12.721	74.127	26.832	38.429	407.18	5.6721	10.210	0.030889	20.000	0.050000	10.721	12.721	74.127	26.832	38.429	407.18	5.6721	10.210	0.030889
260.00	2.5053	undefined	10.748	12.757	74.231	20.000	0.050000	10.748	12.757	74.231	26.851	38.424	408.10	5.6264	10.245	0.031015	20.000	0.050000	10.748	12.757	74.231	26.851	38.424	408.10	5.6264	10.245	0.031015
261.00	2.5167	undefined	10.774	12.793	74.334	20.000	0.050000	10.774	12.793	74.334	26.870	38.421	409.01	5.5813	10.280	0.031141	20.000	0.050000	10.774	12.793	74.334	26.870	38.421	409.01	5.5813	10.280	0.031141
262.00	2.5280	undefined	10.801	12.829	74.437	20.000	0.050000	10.801	12.829	74.437	26.890	38.418	409.92	5.5366	10.315	0.031267	20.000	0.050000	10.801	12.829	74.437	26.890	38.418	409.92	5.5366	10.315	0.031267
263.00	2.5394	undefined	10.828	12.865	74.539	20.000	0.050000	10.828	12.865	74.539	26.911	38.416	410.83	5.4924	10.350	0.031393	20.000	0.050000	10.828	12.865	74.539	26.911	38.416	410.83	5.4924	10.350	0.031393
264.00	2.5507	undefined	10.855	12.901	74.641	20.000	0.050000	10.855	12.901	74.641	26.932	38.415	411.73	5.4486	10.384	0.031520	20.000	0.050000	10.855	12.901	74.641	26.932	38.415	411.73	5.4486	10.384	0.031520
265.00	2.5621	undefined	10.882	12.937	74.743	20.000	0.050000	10.882	12.937	74.743	26.953	38.414	412.63	5.4053	10.419	0.031647	20.000	0.050000	10.882	12.937	74.743	26.953	38.414	412.63	5.4053	10.419	0.031647
266.00	2.5735	undefined	10.909	12.973	74.845	20.000	0.050000	10.909	12.973	74.845	26.975	38.414	413.53	5.3625	10.454	0.031774	20.000	0.050000	10.909	12.973	74.845	26.975	38.414	413.53	5.3625	10.454	0.031774
267.00	2.5848	undefined	10.936	13.009	74.946	20.000	0.050000	10.936	13.009	74.946	26.997	38.415	414.43	5.3201	10.488	0.031902	20.000	0.050000	10.936	13.009	74.946	26.997	38.415	414.43	5.3201	10.488	0.031902
268.00	2.5961	undefined	10.963	13.045	75.047	20.000	0.050000	10.963	13.045	75.047	27.019	38.417	415.32	5.2781	10.523	0.032030	20.000	0.050000	10.963	13.045	75.047	27.019	38.417	415.32	5.2781	10.523	0.032030
269.00	2.6075	undefined	10.990	13.082	75.148	20.000	0.050000	10.990	13.082	75.148	27.042	38.419	416.20	5.2366	10.558	0.032158	20.000	0.050000	10.990	13.082	75.148	27.042	38.419	416.20	5.2366	10.558	0.032158
270.00	2.6188	undefined	11.017	13.118	75.248	20.000	0.050000	11.017	13.118	75.248	27.065	38.422	417.09	5.1955	10.592	0.032286	20.000	0.050000	11.017	13.118	75.248	27.065	38.422	417.09	5.1955	10.592	0.032286
271.00	2.6302	undefined	11.044	13.154	75.348	20.000	0.050000	11.044	13.154	75.348	27.089	38.425	417.97	5.1548	10.626	0.032415	20.000	0.050000	11.044	13.154	75.348	27.089	38.425	417.97	5.1548	10.626	0.032415
272.00	2.6415	undefined	11.071	13.190	75.448	20.000	0.050000	11.071	13.190	75.448	27.113	38.429	418.85	5.1145	10.661	0.032544	20.000	0.050000	11.071	13.190	75.448	27.113	38.429	418.85	5.1145	10.661	0.032544
273.00	2.6528	undefined	11.098	13.226	75.547	20.000	0.050000	11.098	13.226	75.547	27.138	38.434	419.72	5.0746	10.695	0.032674	20.000	0.050000	11.098	13.226	75.547	27.138	38.434	419.72	5.0746	10.695	0.032674
274.00	2.6641	undefined	11.126	13.263	75.647	20.000	0.050000	11.126	13.263	75.647	27.162	38.439	420.59	5.0352	10.729	0.032803	20.000	0.050000	11.126	13.263	75.647	27.162	38.439	420.59	5.0352	10.729	0.032803
275.00	2.6755	undefined	11.153	13.299	75.746	20.000	0.050000	11.153	13.299	75.746	27.188	38.445	421.46	4.9961	10.763	0.032933	20.000	0.050000	11.153	13.299	75.746	27.188	38.445	421.46	4.9961	10.763	0.032933
276.00	2.6868	undefined	11.180	13.335	75.844	20.000	0.050000	11.180	13.335	75.844	27.213	38.452	422.33	4.9574	10.798	0.033064	20.000	0.050000	11.180	13.335	75.844	27.213	38.452	422.33	4.9574	10.798	0.033064
277.00	2.6981	undefined	11.207	13.371	75.943	20.000	0.050000	11.207	13.371	75.943	27.239	38.459	423.19	4.9191	10.832	0.033194	20.000	0.050000	11.207	13.371	75.943	27.239	38.459	423.19	4.9191	10.832	0.033194
278.00	2.7094	undefined	11.234	13.408	76.041	20.000	0.050000	11.234	13.408	76.041	27.265	38.467	424.05	4.8811	10.866	0.033325	20.000	0.050000	11.234	13.408	76.041	27.265	38.467	424.05	4.8811	10.866	0.033325
279.00	2.7207	undefined	11.262	13.444	76.139	20.000	0.050000	11.262	13.444	76.139	27.292	38.475	424.91	4.8435	10.900	0.033457	20.000	0.050000	11.262	13.444	76.139	27.292	38.475	424.91	4.8435	10.900	0.033457
280.00	2.7321	undefined	11.289	13.480	76.237	20.000	0.050000	11.289	13.480	76.237	27.319	38.484	425.76	4.8063	10.934	0.033588	20.000	0.050000	11.289	13.480	76.237	27.319	38.484	425.76	4.8063	10.934	0.033588
281.00	2.7434	undefined	11.316	13.517	76.334	20.000	0.050000	11.316	13.517	76.334	27.347	38.494	426.61	4.7695	10.967	0.033720	20.000	0.050000	11.316	13.517	76.334	27.347	38.494	426.61	4.7695	10.967	0.033720
282.00	2.7547	undefined	11.344	13.553	76.431	20.000	0.050000	11.344	13.553	76.431	27.375	38.504	427.46	4.7330	11.001	0.033852	20.000	0.050000	11.344	13.553	76.431	27.375	38.504	427.46	4.7330	11.001	0.033852
283.00	2.7660	undefined	11.371	13.590	76.528	20.000	0.050000	11.371	13.590	76.528	27.403	38.515	428.30	4.6969	11.035	0.033985	20.000	0.050000	11.371	13.590	76.528	27.403	38.515	428.30	4.6969	11.035	0.033985
284.00	2.7773	undefined	11.398	13.626	76.625	20.000	0.050000	11.398	13.626	76.625	27.431	38.526	429.14	4.6611	11.069	0.034118	20.000	0.050000	11.398	13.626	76.625	27.431	38.526	429.14	4.6611	11.069	0.034118
285.00	2.7886	undefined	11.426	13.663	76.722	20.000	0.050000	11.426	13.663	76.722	27.460	38.538	429.98	4.6256	11.102	0.034251	20.000	0.050000	11.426	13.663	76.722	27.460	38.538	429.98	4.6256	11.102	0.034251
286.00	2.7999	undefined	11.453	13.699	76.818	20.000	0.050000	11.453	13.699	76.818	27.489	38.551	430.82	4.5905	11.136	0.034384	20.000	0.050000	11.453	13.699	76.818	27.489	38.551	430.82	4.5905	11.136	0.034384
287.00	2.8112	undefined	11.481	13.736	76.914	20.000	0.050000	11.481	13.736	76.914	27.519	38.563	431.65	4.5557	11.170	0.034518	20.000	0.050000	11.481	13.736	76.914	27.519	38.563	431.65	4.5557	11.170	0.034518
288.00	2.8225	undefined	11.508	13.772	77.010	20.000	0.050000	11.508	13.772	77.010	27.549	38.577	432.48	4.5213	11.203	0.034652	20.000	0.050000	11.508	13.772	77.010	27.549	38.577	432.48	4.5213	11.203	0.034652
289.00	2.8338	undefined	11.536	13.809	77.105	20.000	0.050000	11.536	13.809	77.105	27.579	38.591	433.31	4.4871	11.237	0.034787	20.000	0.050000	11.536	13.809	77.105	27.579	38.591	433.31	4.4871	11.237	0.034787
290.00	2.8450	undefined	11.564	13.846	77.200	20.000	0.050000	11.564	13.846	77.200	27.610	38.606	434.14	4.4533	11.270	0.034921	20.000	0.050000	11.564	13.846	77.200	27.610	38.606	434.14	4.4533	11.270	0.034921
291.00	2.8563	undefined	11.591	13.882	77.296	20.000	0.050000	11.591	13.882	77.296	27.641	38.621	434.96	4.4198	11.303	0.035057	20.000	0.050000	11.591	13.882	77.296	27.641	38.621	434.96	4.4198	11.303	0.035057
292.00	2.8676	undefined	11.619	13.919	77.390	20.000	0.050000	11.619	13.919	77.390	27.672	38.636	435.78	4.3866	11.337	0.035192	20.000	0.050000	11.619	13.919	77.390	27.672	38.636	435.78	4.3866	11.337	0.035192
293.00	2.8789	undefined	11.647	13.956	77.485	20.000	0.050000	11.647	13.956	77.485	27.704	38.653	436.60	4.3537	11.370	0.035328	20.000	0.050000	11.647	13.956	77.485	27.704	38.653	436.60	4.3537	11.370	0.035328
294.00	2.8902	undefined	11.674	13.993	77.579	20.000	0.050000	11.674	13.993	77.579	27.736	38.669	437.41	4.3212	11.403	0.035464	20.000	0.050000	11.674	13.993	77.579	27.736	38.669	437.41	4.3212	11.403	0.035464
295.00	2.9015	undefined	11.702	14.029	77.674	20.000	0.050000	11.702	14.029	77.674	27.768	38.686	438.22	4.2889	11.436	0.035600	20.000	0.050000	11.702	14.029	77.674	27.768	38.686	438.22	4.2889	11.436	0.035600
296.00	2.9127	undefined	11.730	14.066	77.768	20.000	0.050000	11.730	14.066	77.768	27.801	38.704	439.03	4.2569	11.470	0.035737	20.000	0.050000	11.730	14.066	77.768	27.801	38.704	439.03	4.2569	11.470	0.035737
297.00	2.9240	undefined	11.758	14.103	77.862	20.000	0.050000	11.758	14.103	77.862	27.834	38.722	439.84	4.2252	11.503	0.035874	20.000	0.050000	11.758	14.103	77.862	27.834	38.722	439.84	4.2252	11.503	0.035874
298.00	2.9353	undefined	11.786	14.140	77.955	20.000	0.050000	11.786	14.140	77.955	27.867	38.741	440.64	4.1938	11.536	0.036012	20.000	0.050000	11.786	14.140	77.955	27.867	38.741	440.64	4.1938	11.536	0.036012
299.00	2.9466	undefined	11.813	14.177	78.049	20.000	0.050000	11.813	14.177	78.049	27.901	38.760	441.45	4.1627	11.569	0.036150	20.000	0.050000	11.813	14.177	78.049	27.901	38.760	441.45	4.1627	11.569	0.036150
300.00	2.9578	undefined	11.841	14.214	78.142	20.000	0.050000	11.841	14.214	78.142	27.935	38.779	442.24	4.1319	11.602	0.036288	20.000	0.050000	11.841	14.214	78.142	27.935	38.779	442.24	4.1319	11.602	0.036288
301.00	2.9691	undefined	11.869	14.251	78.235	20.000	0.050000	11.869	14.251	78.235	27.969	38.800	443.04	4.1013	11.635	0.036426	20.000	0.050000	11.869	14.251	78.235	27.969	38.800	443.04	4.1013	11.635	0.036426
302.00	2.9804	undefined	11.897	14.288	78.328	20.000	0.050000	11.897	14.288	78.328	28.004	38.820	443.84	4.0710	11.667	0.036565	20.000	0.050000	11.897	14.288	78.328	28.004	38.820	443.84	4.0710	11.667	0.036565
303.00	2.9916	undefined	11.925	14.325	78.420	20.000	0.050000	11.925	14.325	78.420	28.039	38.841	444.63	4.0410	11.700	0.036704	20.000	0.050000	11.925	14.325	78.420	28.039	38.841	444.63	4.0410	11.700	0.036704
304.00	3.0029	undefined	11.953	14.362	78.513	20.000	0.050000	11.953	14.362	78.513	28.074	38.863	445.42	4.0113	11.733	0.036844	20.000	0.050000	11.953	14.362	78.513	28.074	38.863	445.42	4.0113	11.733	0.036844
305.00	3.0142	undefined	11.981	14.399	78.605	20.000	0.050000	11.981	14.399	78.605	28.109	38.884	446.20	3.9818	11.766	0.036983	20.000	0.050000	11.981	14.399	78.605	28.109	38.884	446.20	3.9818	11.766	0.036983
306.00	3.0254	undefined	12.010	14.436	78.697	20.000	0.050000	12.010	14.436	78.697	28.145	38.907	446.99	3.9526	11.798	0.037124	20.000	0.050000	12.010	14.436	78.697	28.145	38.907	446.99	3.9526	11.798	0.037124
307.00	3.0367	undefined	12.038	14.474	78.789	20.000	0.050000	12.038	14.474	78.789	28.181	38.930	447.77	3.9236	11.831	0.037264	20.000	0.050000	12.038	14.474	78.789	28.181	38.930	447.77	3.9236	11.831	0.037264
308.00	3.0479	undefined	12.066	14.511	78.881	20.000	0.050000	12.066	14.511	78.881	28.218	38.953	448.55	3.8949	11.863	0.037405	20.000	0.050000	12.066	14.511	78.881	28.218	38.953	448.55	3.8949	11.863	0.037405
309.00	3.0592	undefined	12.094	14.548	78.972	20.000	0.050000	12.094	14.548	78.972	28.255	38.977	449.32	3.8664	11.896	0.037546	20.000	0.050000	12.094	14.548	78.972	28.255	38.977	449.32	3.8664	11.896	0.037546
310.00	3.0704	undefined	12.122	14.585	79.064	20.000	0.050000	12.122	14.585	79.064	28.292	39.001	450.10	3.8382	11.928	0.037688	20.000	0.050000	12.122	14.585	79.064	28.292	39.001	450.10	3.8382	11.928	0.037688
311.00	3.0817	undefined	12.151	14.623	79.155	20.000	0.050000	12.151	14.623	79.155	28.329	39.025	450.87	3.8103	11.961	0.037829	20.000	0.050000	12.151	14.623	79.155	28.329	39.025	450.87	3.8103	11.961	0.037829
312.00	3.0929	undefined	12.179	14.660	79.246	20.000	0.050000	12.179	14.660	79.246	28.367	39.050	451.64	3.7825	11.993	0.037972	20.000	0.050000	12.179	14.660	79.246	28.367	39.050	451.64	3.7825	11.993	0.037972
313.00	3.1042	undefined	12.207	14.697	79.337	20.000	0.050000	12.207	14.697	79.337	28.405	39.076	452.41	3.7551	12.026	0.038114	20.000	0.050000	12.207	14.697	79.337	28.405	39.076	452.41	3.7551	12.026	0.038114
314.00	3.1154	undefined	12.236	14.735	79.427	20.000	0.050000	12.236	14.735	79.427	28.443	39.101	453.17	3.7278	12.058	0.038257	20.000	0.050000	12.236	14.735	79.427	28.443	39.101	453.17	3.7278	12.058	0.038257
315.00	3.1267	undefined	12.264	14.772	79.518	20.000	0.050000	12.264	14.772	79.518	28.481	39.128	453.94	3.7008	12.090	0.038400	20.000	0.050000	12.264	14.772	79.518	28.481	39.128	453.94	3.7008	12.090	0.038400
316.00	3.1379	undefined	12.293	14.810	79.608	20.000	0.050000	12.293	14.810	79.608	28.520	39.154	454.70	3.6741	12.122	0.038544	20.000	0.050000	12.293	14.810	79.608	28.520	39.154	454.70	3.6741	12.122	0.038544
317.00	3.1491	undefined	12.321	14.847	79.698	20.000	0.050000	12.321	14.847	79.698	28.559	39.181	455.46	3.6475	12.155	0.038688	20.000	0.050000	12.321	14.847	79.698	28.559	39.181	455.46	3.6475	12.155	0.038688
318.00	3.1604	undefined	12.350	14.885	79.788	20.000	0.050000	12.350	14.885	79.788	28.599	39.209	456.21	3.6212	12.187	0.038832	20.000	0.050000	12.350	14.885	79.788	28.599	39.209	456.21	3.6212	12.187	0.038832
319.00	3.1716	undefined	12.379	14.923	79.878	20.000	0.050000	12.379	14.923	79.878	28.638	39.236	456.97	3.5951	12.219	0.038977	20.000	0.050000	12.379	14.923	79.878	28.638	39.236	456.97	3.5951	12.219	0.038977
320.00	3.1829	undefined	12.407	14.960	79.968	20.000	0.050000	12.407	14.960	79.968	28.678	39.264	457.72	3.5693	12.251	0.039122	20.000	0.050000	12.407	14.960	79.968	28.678	39.264	457.72	3.5693	12.251	0.039122
321.00	3.1941	undefined	12.436	14.998	80.057	20.000	0.050000	12.436	14.998	80.057	28.718	39.293	458.47	3.5436	12.283	0.039267	20.000	0.050000	12.436	14.998	80.057	28.718	39.293	458.47	3.5436	12.283	0.039267
322.00	3.2053	undefined	12.465	15.036	80.147	20.000	0.050000	12.465	15.036	80.147	28.759	39.322	459.22	3.5182	12.315	0.039413	20.000	0.050000	12.465	15.036	80.147	28.759	39.322	459.22	3.5182	12.315	0.039413
323.00	3.2165	undefined	12.493	15.074	80.236	20.000	0.050000	12.493	15.074	80.236	28.799	39.351	459.96	3.4930	12.347	0.039559	20.000	0.050000	12.493	15.074	80.236	28.799	39.351	459.96	3.4930	12.347	0.039559
324.00	3.2278	undefined	12.522	15.111	80.325	20.000	0.050000	12.522	15.111	80.325	28.840	39.381	460.71	3.4680	12.379	0.039705	20.000	0.050000	12.522	15.111	80.325	28.840	39.381	460.71	3.4680	12.379	0.039705
325.00	3.2390	undefined	12.551	15.149	80.414	20.000	0.050000	12.551	15.149	80.414	28.882	39.411	461.45	3.4432	12.410	0.039852	20.000	0.050000	12.551	15.149	80.414	28.882	39.411	461.45	3.4432	12.410	0.039852
326.00	3.2502	undefined	12.580	15.187	80.503	20.000	0.050000	12.580	15.187	80.503	28.923	39.442	462.19	3.4187	12.442	0.039999	20.000	0.050000	12.580	15.187	80.503	28.923	39.442	462.19	3.4187	12.442	0.039999
327.00	3.2615	undefined	12.609	15.225	80.591	20.000	0.050000	12.609	15.225	80.591	28.965	39.472	462.92	3.3943	12.474	0.040146	20.000	0.050000	12.609	15.225	80.591	28.965	39.472	462.92	3.3943	12.474	0.040146
328.00	3.2727	undefined	12.638	15.263	80.680	20.000	0.050000	12.638	15.263	80.680	29.007	39.503	463.66	3.3701	12.506	0.040294	20.000	0.050000	12.638	15.263	80.680	29.007	39.503	463.66	3.3701	12.506	0.040294
329.00	3.2839	undefined	12.667	15.301	80.768	20.000	0.050000	12.667	15.301	80.768	29.049	39.535	464.39	3.3462	12.537	0.040442	20.000	0.050000	12.667	15.301	80.768	29.049	39.535	464.39	3.3462	12.537	0.040442
330.00	3.2951	undefined	12.696	15.339	80.857	20.000	0.050000	12.696	15.339	80.857	29.092	39.567	465.12	3.3224	12.569	0.040591	20.000	0.050000	12.696	15.339	80.857	29.092	39.567	465.12	3.3224	12.569	0.040591
331.00	3.3063	undefined	12.725	15.377	80.945	20.000	0.050000	12.725	15.377	80.945	29.134	39.599	465.85	3.2988	12.600	0.040740	20.000	0.050000	12.725	15.377	80.945	29.134	39.599	465.85	3.2988	12.600	0.040740
332.00	3.3176	undefined	12.754	15.415	81.033	20.000	0.050000	12.754	15.415	81.033	29.177	39.632	466.58	3.2755	12.632	0.040889	20.000	0.050000	12.754	15.415	81.033	29.177	39.632	466.58	3.2755	12.632	0.040889
333.00	3.3288	undefined	12.784	15.454	81.120	20.000	0.050000	12.784	15.454	81.120	29.221	39.664	467.31	3.2523	12.663	0.041038	20.000	0.050000	12.784	15.454	81.120	29.221	39.664	467.31	3.2523	12.663	0.041038
334.00	3.3400	undefined	12.813	15.492	81.208	20.000	0.050000	12.813	15.492	81.208	29.264	39.698	468.03	3.2293	12.695	0.041188	20.000	0.050000	12.813	15.492	81.208	29.264	39.698	468.03	3.2293	12.695	0.041188
335.00	3.3512	undefined	12.842	15.530	81.296	20.000	0.050000	12.842	15.530	81.296	29.308	39.731	468.75	3.2065	12.726	0.041338	20.000	0.050000	12.842	15.530	81.296	29.308	39.731	468.75	3.2065	12.726	0.041338
336.00	3.3624	undefined	12.871	15.569	81.383	20.000	0.050000	12.871	15.569	81.383	29.352	39.765	469.47	3.1839	12.758	0.041489	20.000	0.050000	12.871	15.569	81.383	29.352	39.765	469.47	3.1839	12.758	0.041489
337.00	3.3736	undefined	12.901	15.607	81.470	20.000	0.050000	12.901	15.607	81.470	29.396	39.799	470.19	3.1615	12.789	0.041640	20.000	0.050000	12.901	15.607	81.470	29.396	39.799	470.19	3.1615	12.789	0.041640
338.00	3.3848	undefined	12.930	15.645	81.557	20.000	0.050000	12.930	15.645	81.557	29.440	39.834	470.90	3.1393	12.820	0.041791	20.000	0.050000	12.930	15.645	81.557	29.440	39.834	470.90	3.1393	12.820	0.041791
339.00	3.3961	undefined	12.960	15.684	81.645	20.000	0.050000	12.960	15.684	81.645	29.485	39.869	471.62	3.1172	12.851	0.041942	20.000	0.050000	12.960	15.684	81.645	29.485	39.869	471.62	3.1172	12.851	0.041942
340.00	3.4073	undefined	12.989	15.722	81.731	20.000	0.050000	12.989	15.722	81.731	29.530	39.904	472.33	3.0953	12.883	0.042094	20.000	0.050000	12.989	15.722	81.731	29.530	39.904	472.33	3.0953	12.883	0.042094
341.00	3.4185	undefined	13.019	15.761	81.818	20.000	0.050000	13.019	15.761	81.818	29.575	39.939	473.04	3.0736	12.914	0.042247	20.000	0.050000	13.019	15.761	81.818	29.575	39.939	473.04	3.0736	12.914	0.042247
342.00	3.4297	undefined	13.048	15.799	81.905	20.000	0.050000	13.048	15.799	81.905	29.620	39.975	473.75	3.0521	12.945	0.042399	20.000	0.050000	13.048	15.799	81.905	29.620	39.975	473.75	3.0521	12.945	0.042399
343.00	3.4409	undefined	13.078	15.838	81.991	20.000	0.050000	13.078	15.838	81.991	29.666	40.011	474.45	3.0308	12.976	0.042552	20.000	0.050000	13.078	15.838	81.991	29.666	40.011	474.45	3.0308	12.976	0.042552
344.00	3.4521	undefined	13.108	15.877	82.078	20.000	0.050000	13.108	15.877	82.078	29.712	40.047	475.16	3.0096	13.007	0.042705	20.000	0.050000	13.108	15.877	82.078	29.712	40.047	475.16	3.0096	13.007	0.042705
345.00	3.4633	undefined	13.137	15.915	82.164	20.000	0.050000	13.137	15.915	82.164	29.758	40.084	475.86	2.9886	13.038	0.042859	20.000	0.050000	13.137	15.915	82.164	29.758	40.084	475.86	2.9886	13.038	0.042859
346.00	3.4745	undefined	13.167	15.954	82.250	20.000	0.050000	13.167	15.954	82.250	29.804	40.121	476.56	2.9678	13.069	0.043013	20.000	0.050000	13.167	15.954	82.250	29.804	40.121	476.56	2.9678	13.069	0.043013
347.00	3.4857	undefined	13.197	15.993	82.336	20.000	0.050000	13.197	15.993	82.336	29.850	40.158	477.26	2.9471	13.100	0.043167	20.000	0.050000	13.197	15.993	82.336	29.850	40.158	477.26	2.9471	13.100	0.043167
348.00	3.4969	undefined	13.227	16.032	82.422	20.000	0.050000	13.227	16.032	82.422	29.897	40.196	477.96	2.9266	13.131	0.043322	20.000	0.050000	13.227	16.032	82.422	29.897	40.196	477.96	2.9266	13.131	0.043322
349.00	3.5081	undefined	13.257	16.071	82.508	20.000	0.050000	13.257	16.071	82.508	29.944	40.234	478.66	2.9063	13.162	0.043477	20.000	0.050000	13.257	16.071	82.508	29.944	40.234	478.66	2.9063	13.162	0.043477
350.00	3.5193	undefined	13.287	16.110	82.594	20.000	0.050000	13.287	16.110	82.594	29.991	40.272	479.35	2.8861	13.192	0.043632	20.000	0.050000	13.287	16.110	82.594	29.991	40.272	479.35	2.8861	13.192	0.043632
351.00	3.5305	undefined	13.317	16.149	82.680	20.000	0.050000	13.317	16.149	82.680	30.038	40.310	480.04	2.8661	13.223	0.043788	20.000	0.050000	13.317	16.149	82.680	30.038	40.310	480.04	2.8661	13.223	0.043788
352.00	3.5417	undefined	13.347	16.188	82.765	20.000	0.050000	13.347	16.188	82.765	30.085	40.349	480.73	2.8463	13.254	0.043944	20.000	0.050000	13.347	16.188	82.765	30.085	40.349	480.73	2.8463	13.254	0.043944
353.00	3.5528	undefined	13.377	16.227	82.851	20.000	0.050000	13.377	16.227	82.851	30.133	40.388	481.42	2.8266	13.285	0.044100	20.000	0.050000	13.377	16.227	82.851	30.133	40.388	481.42	2.8266	13.285	0.044100
354.00	3.5640	undefined	13.407	16.266	82.936	20.000	0.050000	13.407	16.266	82.936	30.181	40.427	482.11	2.8071	13.315	0.044257	20.000	0.050000	13.407	16.266	82.936	30.181	40.427	482.11	2.8071	13.315	0.044257
355.00	3.5752	undefined	13.437	16.305	83.021	20.000	0.050000	13.437	16.305	83.021	30.229	40.466	482.80	2.7877	13.346	0.044414	20.000	0.050000	13.437	16.305	83.021	30.229	40.466	482.80	2.7877	13.346	0.044414
356.00	3.5864	undefined	13.468	16.344	83.106	20.000	0.050000	13.468	16.344	83.106	30.277	40.506	483.48	2.7685	13.376	0.044571	20.000	0.050000	13.468	16.344	83.106	30.277	40.506	483.48	2.7685	13.376	0.044571
357.00	3.5976	undefined	13.498	16.384	83.191	20.000	0.050000	13.498	16.384	83.191	30.325	40.546	484.16	2.7494	13.407	0.044729	20.000	0.050000	13.498	16.384	83.191	30.325	40.546	484.16	2.7494	13.407	0.044729
358.00	3.6088	undefined	13.528	16.423	83.276	20.000	0.050000	13.528	16.423	83.276	30.374	40.586	484.84	2.7305	13.437	0.044887	20.000	0.050000	13.528	16.423	83.276	30.374	40.586	484.84	2.7305	13.437	0.044887
359.00	3.6200	undefined	13.559	16.462	83.361	20.000	0.050000	13.559	16.462	83.361	30.423	40.627	485.52	2.7117	13.468	0.045046	20.000	0.050000	13.559	16.462	83.361	30.423	40.627	485.52	2.7117	13.468	0.045046
360.00	3.6312	undefined	13.589	16.502	83.446	20.000	0.050000	13.589	16.502	83.446	30.472	40.667	486.20	2.6931	13.498	0.045204	20.000	0.050000	13.589	16.502	83.446	30.472	40.667	486.20	2.6931	13.498	0.045204
361.00	3.6423	undefined	13.620	16.541	83.530	20.000	0.050000	13.620	16.541	83.530	30.521	40.708	486.88	2.6746	13.529	0.045363	20.000	0.050000	13.620	16.541	83.530	30.521	40.708	486.88	2.6746	13.529	0.045363
362.00	3.6535	undefined	13.650	16.581	83.615	20.000	0.050000	13.650	16.581	83.615	30.570	40.750	487.55	2.6563	13.559	0.045523	20.000	0.050000	13.650	16.581	83.615	30.570	40.750	487.55	2.6563	13.559	0.045523
363.00	3.6647	undefined	13.681	16.620	83.699	20.000	0.050000	13.681	16.620	83.699	30.620	40.791	488.22	2.6381	13.589	0.045682	20.000	0.050000	13.681	16.620	83.699	30.620	40.791	488.22	2.6381	13.589	0.045682
364.00	3.6759	undefined	13.711	16.660	83.783	20.000	0.050000	13.711	16.660	83.783	30.669	40.833	488.90	2.6201	13.620	0.045842	20.000	0.050000	13.711	16.660	83.783	30.669	40.833	488.90	2.6201	13.620	0.045842
365.00	3.6871	undefined	13.742	16.700	83.868	20.000	0.050000	13.742	16.700	83.868	30.719	40.875	489.57	2.6022	13.650	0.046003	20.000	0.050000	13.742	16.700	83.868	30.719	40.875	489.57	2.6022	13.650	0.046003
366.00	3.6982	undefined	13.773	16.739	83.952	20.000	0.050000	13.773	16.739	83.952	30.769	40.917	490.23	2.5844	13.680	0.046163	20.000	0.050000	13.773	16.739	83.952	30.769	40.917	490.23	2.5844	13.680	0.046163
367.00	3.7094	undefined	13.804	16.779	84.036	20.000	0.050000	13.804	16.779	84.036	30.819	40.959	490.90	2.5668	13.710	0.046325	20.000	0.050000	13.804	16.779	84.036	30.819	40.959	490.90	2.5668	13.710	0.046325
368.00	3.7206	undefined	13.834	16.819	84.120	20.000	0.050000	13.834	16.819	84.120	30.870	41.002	491.57	2.5493	13.740	0.046486	20.000	0.050000	13.834	16.819	84.120	30.870	41.002	491.57	2.5493	13.740	0.046486
369.00	3.7318	undefined	13.865	16.859	84.204	20.000	0.050000	13.865	16.859	84.204	30.920	41.045	492.23	2.5320	13.770	0.046648	20.000	0.050000	13.865	16.859	84.204	30.920	41.045	492.23	2.5320	13.770	0.046648
370.00	3.7429	undefined	13.896	16.899	84.287	20.000	0.050000	13.896	16.899	84.287	30.971	41.088	492.89	2.5148	13.800	0.046810	20.000	0.050000	13.896	16.899	84.287	30.971	41.088	492.89	2.5148	13.800	0.046810
371.00	3.7541	undefined	13.927	16.939	84.371	20.000	0.050000	13.927	16.939	84.371	31.022	41.131	493.55	2.4977	13.830	0.046972	20.000	0.050000	13.927	16.939	84.371	31.022	41.131	493.55	2.4977	13.830	0.046972
372.00	3.7653	undefined	13.958	16.979	84.454	20.000	0.050000	13.958	16.979	84.454	31.073	41.175	494.21	2.4807	13.860	0.047135	20.000	0.050000	13.958	16.979	84.454	31.073	41.175	494.21	2.4807	13.860	0.047135
373.00	3.7765	undefined	13.989	17.019	84.538	20.000	0.050000	13.989	17.019	84.538	31.124	41.219	494.87	2.4639	13.890	0.047298	20.000	0.050000	13.989	17.019	84.538	31.124	41.219	494.87	2.4639	13.890	0.047298
374.00	3.7876	undefined	14.021	17.059	84.621	20.000	0.050000	14.021	17.059	84.621	31.175	41.263	495.53	2.4473	13.920	0.047461	20.000	0.050000	14.021	17.059	84.621	31.175	41.263	495.53	2.4473	13.920	0.047461
375.00	3.7988	undefined	14.052	17.099	84.705	20.000	0.050000	14.052	17.099	84.705	31.226	41.307	496.19	2.4307	13.950	0.047625	20.000	0.050000	14.052	17.099	84.705	31.226	41.307	496.19	2.4307	13.950	0.047625
376.00	3.8100	undefined	14.083	17.139	84.788	20.000	0.050000	14.083	17.139	84.788	31.278	41.351	496.84	2.4143	13.980	0.047789	20.000	0.050000	14.083	17.139	84.788	31.278	41.351	496.84	2.4143	13.980	0.047789
377.00	3.8211	undefined	14.114	17.179	84.871	20.000	0.050000	14.114	17.179	84.871	31.330	41.396	497.49	2.3980	14.010	0.047953	20.000	0.050000	14.114	17.179	84.871	31.330	41.396	497.49	2.3980	14.010	0.047953
378.00	3.8323	undefined	14.146	17.220	84.954	20.000	0.050000	14.146	17.220	84.954	31.382	41.441	498.14	2.3818	14.040	0.048117	20.000	0.050000	14.146	17.220	84.954	31.382	41.441	498.14	2.3818	14.040	0.048117
379.00	3.8435	undefined	14.177	17.260	85.037	20.000	0.050000	14.177	17.260	85.037	31.434	41.486	498.79	2.3657	14.069	0.048282	20.000	0.050000	14.177	17.260	85.037	31.434	41.486	498.79	2.3657	14.069	0.048282
380.00	3.8546	undefined	14.209	17.300	85.120	20.000	0.050000	14.209	17.300	85.120	31.486	41.531	499.44	2.3498	14.099	0.048448	20.000	0.050000	14.209	17.300	85.120	31.486	41.531	499.44	2.3498	14.099	0.048448
381.00	3.8658	undefined	14.240	17.341	85.203	20.000	0.050000	14.240	17.341	85.203	31.538	41.576	500.09	2.3340	14.129	0.048613	20.000	0.050000	14.240	17.341	85.203	31.538	41.576	500.09	2.3340	14.129	0.048613
382.00	3.8770	undefined	14.272	17.381	85.286	20.000	0.050000	14.272	17.381	85.286	31.591	41.622	500.74	2.3183	14.158	0.048779	20.000	0.050000	14.272	17.381	85.286	31.591	41.622	500.74	2.3183	14.158	0.048779
383.00	3.8881	undefined	14.303	17.422	85.368	20.000	0.050000	14.303	17.422	85.368	31.643	41.667	501.38	2.3027	14.188	0.048945	20.000	0.050000	14.303	17.422	85.368	31.643	41.667	501.38	2.3027	14.188	0.048945
384.00	3.8993	undefined	14.335	17.463	85.451	20.000	0.050000	14.335	17.463	85.451	31.696	41.713	502.02	2.2873	14.217	0.049112	20.000	0.050000	14.335	17.463	85.451	31.696	41.713	502.02	2.2873	14.217	0.049112
385.00	3.9104	undefined	14.367	17.503	85.533	20.000	0.050000	14.367	17.503	85.533	31.749	41.760	502.67	2.2720	14.247	0.049279	20.000	0.050000	14.367	17.503	85.533	31.749	41.760	502.67	2.2720	14.247	0.049279
386.00	3.9216	undefined	14.398	17.544	85.616	20.000	0.050000	14.398	17.544	85.616	31.802	41.806	503.31	2.2568	14.276	0.049446	20.000	0.050000	14.398	17.544	85.616	31.802	41.806	503.31	2.2568	14.276	0.049446
387.00	3.9328	undefined	14.430	17.585	85.698	20.000	0.050000	14.430	17.585	85.698	31.855	41.852	503.95	2.2417	14.306	0.049613	20.000	0.050000	14.430	17.585	85.698	31.855	41.852	503.95	2.2417	14.306	0.049613
388.00	3.9439	undefined	14.462	17.626	85.780	20.000	0.050000	14.462	17.626	85.780	31.909	41.899	504.58	2.2267	14.335	0.049781	20.000	0.050000	14.462	17.626	85.780	31.909	41.899	504.58	2.2267	14.335	0.049781
389.00	3.9551	undefined	14.494	17.667	85.863	20.000	0.050000	14.494	17.667	85.863	31.962	41.946	505.22	2.2118	14.365	0.049949	20.000	0.050000	14.494	17.667	85.863	31.962	41.946	505.22	2.2118	14.365	0.049949
390.00	3.9662	undefined	14.526	17.707	85.945	20.000	0.050000	14.526	17.707	85.945	32.016	41.993	505.86	2.1970	14.394	0.050117	20.000	0.050000	14.526	17.707	85.945	32.016	41.993	505.86	2.1970	14.394	0.050117
391.00	3.9774	undefined	14.558	17.748	86.027	20.000	0.050000	14.558	17.748	86.027	32.069	42.040	506.49	2.1824	14.423	0.050286	20.000	0.050000	14.558	17.748	86.027	32.069	42.040	506.49	2.1824	14.423	0.050286
392.00	3.9885	undefined	14.590	17.790	86.109	20.000	0.050000	14.590	17.790	86.109	32.123	42.088	507.13	2.1678	14.453	0.050455	20.000	0.050000	14.590	17.790	86.109	32.123	42.088	507.13	2.1678	14.453	0.050455
393.00	3.9997	undefined	14.622	17.831	86.191	20.000	0.050000	14.622	17.831	86.191	32.177	42.135	507.76	2.1534	14.482	0.050624	20.000	0.050000	14.622	17.831	86.191	32.177	42.135	507.76	2.1534	14.482	0.050624
394.00	4.0108	undefined	14.654	17.872	86.272	20.000	0.050000	14.654	17.872	86.272	32.231	42.183	508.39	2.1391	14.511	0.050794	20.000	0.050000	14.654	17.872	86.272	32.231	42.183	508.39	2.1391	14.511	0.050794
395.00	4.0220	undefined	14.687	17.913	86.354	20.000	0.050000	14.687	17.913	86.354	32.285	42.231	509.02	2.1249	14.540	0.050964	20.000	0.050000	14.687	17.913	86.354	32.285	42.231	509.02	2.1249	14.540	0.050964
396.00	4.0332	undefined	14.719	17.954	86.436	20.000	0.050000	14.719	17.954	86.436	32.339	42.279	509.65	2.1108	14.569	0.051134	20.000	0.050000	14.719	17.954	86.436	32.339	42.279	509.65	2.1108	14.569	0.051134
397.00	4.0443	undefined	14.751	17.996	86.518	20.000	0.050000	14.751	17.996	86.518	32.394	42.327	510.27	2.0968	14.598	0.051305	20.000	0.050000	14.751	17.996	86.518	32.394	42.327	510.27	2.0968	14.598	0.051305
398.00	4.0555	undefined	14.784	18.037	86.599	20.000	0.050000	14.784	18.037	86.599	32.448	42.375	510.90	2.0829	14.627	0.051475	20.000	0.050000	14.784	18.037	86.599	32.448	42.375	510.90	2.0829	14.627	0.051475
399.00	4.0666	undefined	14.816	18.078	86.681	20.000	0.050000	14.816	18.078	86.681	32.503	42.424	511.52	2.0691	14.657	0.051647	20.000	0.050000	14.816	18.078	86.681	32.503	42.424	511.52	2.0691	14.657	0.051647
400.00	4.0777	undefined	14.849	18.120	86.762	20.000	0.050000	14.849	18.120	86.762	32.558	42.472	512.15	2.0554	14.686	0.051818	20.000	0.050000	14.849	18.120	86.762	32.558	42.472	512.15	2.0554	14.686	0.051818
401.00	4.0889	undefined	14.881	18.161	86.843	20.000	0.050000	14.881	18.161	86.843	32.612	42.521	512.77	2.0418	14.715	0.051990	20.000	0.050000	14.881	18.161	86.843	32.612	42.521	512.77	2.0418	14.715	0.051990
402.00	4.1000	undefined	14.914	18.203	86.925	20.000	0.050000	14.914	18.203	86.925	32.667	42.570	513.39	2.0283	14.743	0.052162	20.000	0.050000	14.914	18.203	86.925	32.667	42.570	513.39	2.0283	14.743	0.052162
403.00	4.1112	undefined	14.947	18.245	87.006	20.000	0.050000	14.947	18.245	87.006	32.722	42.619	514.01	2.0149	14.772	0.052334	20.000	0.050000	14.947	18.245	87.006	32.722	42.619	514.01	2.0149	14.772	0.052334
404.00	4.1223	undefined	14.980	18.286	87.087	20.000	0.050000	14.980	18.286	87.087	32.778	42.669	514.63	2.0017	14.801	0.052507	20.000	0.050000	14.980	18.286	87.087	32.778	42.669	514.63	2.0017	14.801	0.052507
405.00	4.1335	undefined	15.012	18.328	87.168	20.000	0.050000	15.012	18.328	87.168	32.833	42.718	515.25	1.9885	14.830	0.052679	20.000	0.050000	15.012	18.328	87.168	32.833	42.718	515.25	1.9885	14.830	0.052679
406.00	4.1446	undefined	15.045	18.370	87.249	20.000	0.050000	15.045	18.370	87.249	32.888	42.768	515.87	1.9754	14.859	0.052853	20.000	0.050000	15.045	18.370	87.249	32.888	42.768	515.87	1.9754	14.859	0.052853
407.00	4.1558	undefined	15.078	18.412	87.330	20.000	0.050000	15.078	18.412	87.330	32.944	42.817	516.48	1.9624	14.888	0.053026	20.000	0.050000	15.078	18.412	87.330	32.944	42.817	516.48	1.9624	14.888	0.053026
408.00	4.1669	undefined	15.111	18.454	87.411	20.000	0.050000	15.111	18.454	87.411	32.999	42.867	517.10	1.9495	14.916	0.053200	20.000	0.050000	15.111	18.454	87.411	32.999	42.867	517.10	1.9495	14.916	0.053200
409.00	4.1780	undefined	15.144	18.495	87.492	20.000	0.050000	15.144	18.495	87.492	33.055	42.917	517.71	1.9367	14.945	0.053374	20.000	0.050000	15.144	18.495	87.492	33.055	42.917	517.71	1.9367	14.945	0.053374
410.00	4.1892	undefined	15.177	18.538	87.573	20.000	0.050000	15.177	18.538	87.573	33.111	42.967	518.33	1.9240	14.974	0.053548	20.000	0.050000	15.177	18.538	87.573	33.111	42.967	518.33	1.9240	14.974	0.053548
411.00	4.2003	undefined	15.210	18.580	87.653	20.000	0.050000	15.210	18.580	87.653	33.166	43.017	518.94	1.9113	15.002	0.053723	20.000	0.050000	15.210	18.580	87.653	33.166	43.017	518.94	1.9113	15.002	0.053723
412.00	4.2115	undefined	15.244	18.622	87.734	20.000	0.050000	15.244	18.622	87.734	33.222	43.068	519.55	1.8988	15.031	0.053898	20.000	0.050000	15.244	18.622	87.734	33.222	43.068	519.55	1.8988	15.031	0.053898
413.00	4.2226	undefined	15.277	18.664	87.815	20.000	0.050000	15.277	18.664	87.815	33.278	43.118	520.16	1.8864	15.060	0.054073	20.000	0.050000	15.277	18.664	87.815	33.278	43.118	520.16	1.8864	15.060	0.054073
414.00	4.2337	undefined	15.310	18.706	87.895	20.000	0.050000	15.310	18.706	87.895	33.334	43.169	520.77	1.8740	15.088	0.054249	20.000	0.050000	15.310	18.706	87.895	33.334	43.169	520.77	1.8740	15.088	0.054249
415.00	4.2449	undefined	15.343	18.748	87.976	20.000	0.050000	15.343	18.748	87.976	33.391	43.219	521.37	1.8618	15.117	0.054424	20.000	0.050000	15.343	18.748	87.976	33.391	43.219	521.37	1.8618	15.117	0.054424
416.00	4.2560	undefined	15.377	18.791	88.056	20.000	0.050000	15.377	18.791	88.056	33.447	43.270	521.98	1.8496	15.145	0.054600	20.000	0.050000	15.377	18.791	88.056	33.447	43.270	521.98	1.8496	15.145	0.054600
417.00	4.2671	undefined	15.410	18.833	88.137	20.000	0.050000	15.410	18.833	88.137	33.503	43.321	522.58	1.8375	15.174	0.054777	20.000	0.050000	15.410	18.833	88.137	33.503	43.321	522.58	1.8375	15.174	0.054777
418.00	4.2783	undefined	15.444	18.876	88.217	20.000	0.050000	15.444	18.876	88.217	33.560	43.372	523.19	1.8256	15.202	0.054953	20.000	0.050000	15.444	18.876	88.217	33.560	43.372	523.19	1.8256	15.202	0.054953
419.00	4.2894	undefined	15.477	18.918	88.297	20.000	0.050000	15.477	18.918	88.297	33.616	43.424	523.79	1.8137	15.231	0.055130	20.000	0.050000	15.477	18.918	88.297	33.616	43.424	523.79	1.8137	15.231	0.055130
420.00	4.3005	undefined	15.511	18.961	88.377	20.000	0.050000	15.511	18.961	88.377	33.673	43.475	524.39	1.8018	15.259	0.055308	20.000	0.050000	15.511	18.961	88.377	33.673	43.475	524.39	1.8018	15.259	0.055308
421.00	4.3117	undefined	15.545	19.003	88.458	20.000	0.050000	15.545	19.003	88.458	33.730	43.526	525.00	1.7901	15.287	0.055485	20.000	0.050000	15.545	19.003	88.458	33.730	43.526	525.00	1.7901	15.287	0.055485
422.00	4.3228	undefined	15.579	19.046	88.538	20.000	0.050000	15.579	19.046	88.538	33.786	43.578	525.60	1.7785	15.316	0.055663	20.000	0.050000	15.579	19.046	88.538	33.786	43.578	525.60	1.7785	15.316	0.055663
423.00	4.3339	undefined	15.612	19.089	88.618	20.000	0.050000	15.612	19.089	88.618	33.843	43.630	526.20	1.7669	15.344	0.055841	20.000	0.050000	15.612	19.089	88.618	33.843	43.630	526.20	1.7669	15.344	0.055841
424.00	4.3451	undefined	15.646	19.132	88.698	20.000	0.050000	15.646	19.132	88.698	33.900	43.681	526.79	1.7554	15.372	0.056019	20.000	0.050000	15.646	19.132	88.698	33.900	43.681	526.79	1.7554	15.372	0.056019
425.00	4.3562	undefined	15.680	19.174	88.778	20.000	0.050000	15.680	19.174	88.778	33.957	43.733	527.39	1.7441	15.400	0.056198	20.000	0.050000	15.680	19.174	88.778	33.957	43.733	527.39	1.7441	15.400	0.056198
426.00	4.3673	undefined	15.714	19.217	88.857	20.000	0.050000	15.714	19.217	88.857	34.014	43.785	527.99	1.7327	15.429	0.056376	20.000	0.050000	15.714	19.217	88.857	34.014	43.785	527.99	1.7327	15.429	0.056376
427.00	4.3785	undefined	15.748	19.260	88.937	20.000	0.050000	15.748	19.260	88.937	34.071	43.837	528.58	1.7215	15.457	0.056555	20.000	0.050000	15.748	19.260	88.937	34.071	43.837	528.58	1.7215	15.457	0.056555
428.00	4.3896	undefined	15.782	19.303	89.017	20.000	0.050000	15.782	19.303	89.017	34.128	43.890	529.18	1.7104	15.485	0.056735	20.000	0.050000	15.782	19.303	89.017	34.128	43.890	529.18	1.7104	15.485	0.056735
429.00	4.4007	undefined	15.816	19.346	89.097	20.000	0.050000	15.816	19.346	89.097	34.186	43.942	529.77	1.6993	15.513	0.056914	20.000	0.050000	15.816	19.346	89.097	34.186	43.942	529.77	1.6993	15.513	0.056914
430.00	4.4118	undefined	15.851	19.390	89.176	20.000	0.050000	15.851	19.390	89.176	34.243	43.994	530.36	1.6883	15.541	0.057094	20.000	0.050000	15.851	19.390	89.176	34.243	43.994	530.36	1.6883	15.541	0.057094
431.00	4.4230	undefined	15.885	19.433	89.256	20.000	0.050000	15.885	19.433	89.256	34.301	44.047	530.96	1.6774	15.569	0.057275	20.000	0.050000	15.885	19.433	89.256	34.301	44.047	530.96	1.6774	15.569	0.057275
432.00	4.4341	undefined	15.919	19.476	89.336	20.000	0.050000	15.919	19.476	89.336	34.358	44.099	531.55	1.6666	15.597	0.057455	20.000	0.050000	15.919	19.476	89.336	34.358	44.099	531.55	1.6666	15.597	0.057455
433.00	4.4452	undefined	15.954	19.519	89.415	20.000	0.050000	15.954	19.519	89.415	34.416	44.152	532.14	1.6558	15.625	0.057636	20.000	0.050000	15.954	19.519	89.415	34.416	44.152	532.14	1.6558	15.625	0.057636
434.00	4.4563	undefined	15.988	19.563	89.495	20.000	0.050000	15.988	19.563	89.495	34.473	44.205	532.73	1.6451	15.653	0.057817	20.000	0.050000	15.988	19.563	89.495	34.473	44.205	532.73	1.6451	15.653	0.057817
435.00	4.4675	undefined	16.023	19.606	89.574	20.000	0.050000	16.023	19.606	89.574	34.531	44.258	533.31	1.6345	15.681	0.057998	20.000	0.050000	16.023	19.606	89.574	34.531	44.258	533.31	1.6345	15.681	0.057998
436.00	4.4786	undefined	16.057	19.650	89.653	20.000	0.050000	16.057	19.650	89.653	34.589	44.311	533.90	1.6240	15.709	0.058179	20.000	0.050000	16.057	19.650	89.653	34.589	44.311	533.90	1.6240	15.709	0.058179
437.00	4.4897	undefined	16.092	19.693	89.733	20.000	0.050000	16.092	19.693	89.733	34.646	44.364	534.49	1.6135	15.737	0.058361	20.000	0.050000	16.092	19.693	89.733	34.646	44.364	534.49	1.6135	15.737	0.058361
438.00	4.5008	undefined	16.126	19.737	89.812	20.000	0.050000	16.126	19.737	89.812	34.704	44.417	535.07	1.6032	15.764	0.058543	20.000	0.050000	16.126	19.737	89.812	34.704	44.417	535.07	1.6032	15.764	0.058543
439.00	4.5120	undefined	16.161	19.780	89.891	20.000	0.050000	16.161	19.780	89.891	34.762	44.470	535.66	1.5928	15.792	0.058725	20.000	0.050000	16.161	19.780	89.891	34.762	44.470	535.66	1.5928	15.792	0.058725
440.00	4.5231	undefined	16.196	19.824	89.970	20.000	0.050000	16.196	19.824	89.970	34.820	44.524	536.24	1.5826	15.820	0.058908	20.000	0.050000	16.196	19.824	89.970	34.820	44.524	536.24	1.5826	15.820	0.058908
441.00	4.5342	undefined	16.231	19.868	90.049	20.000	0.050000	16.231	19.868	90.049	34.878	44.577	536.83	1.5724	15.848	0.059091	20.000	0.050000	16.231	19.868	90.049	34.878	44.577	536.83	1.5724	15.848	0.059091
442.00	4.5453	undefined	16.266	19.912	90.128	20.000	0.050000	16.266	19.912	90.128	34.936	44.631	537.41	1.5624	15.875	0.059274	20.000	0.050000	16.266	19.912	90.128	34.936	44.631	537.41	1.5624	15.875	0.059274
443.00	4.5564	undefined	16.301	19.956	90.207	20.000	0.050000	16.301	19.956	90.207	34.994	44.684	537.99	1.5523	15.903	0.059457	20.000	0.050000	16.301	19.956	90.207	34.994	44.684	537.99	1.5523	15.903	0.059457
444.00	4.5675	undefined	16.336	20.000	90.286	20.000	0.050000	16.336	20.000	90.286	35.053	44.738	538.57	1.5424	15.931	0.059641	20.000	0.050000	16.336	20.000	90.286	35.053	44.738	538.57	1.5424	15.931	0.059641
445.00	4.5787	undefined	16.371	20.044	90.365	20.000	0.050000	16.371	20.044	90.365	35.111	44.792	539.15	1.5325	15.958	0.059824	20.000	0.050000	16.371	20.044	90.365	35.111	44.792	539.15	1.5325	15.958	0.059824
446.00	4.5898	undefined	16.406	20.088	90.444	20.000	0.050000	16.406	20.088	90.444	35.169	44.845	539.73	1.5227	15.986	0.060008	20.000	0.050000	16.406	20.088	90.444	35.169	44.845	539.73	1.5227	15.986	0.060008
447.00	4.6009	undefined	16.441	20.132	90.523	20.000	0.050000	16.441	20.132	90.523	35.228	44.899	540.30	1.5130	16.014	0.060193	20.000	0.050000	16.441	20.132	90.523	35.228	44.899	540.30	1.5130	16.014	0.060193
448.00	4.6120	undefined	16.476	20.176	90.602	20.000	0.050000	16.476	20.176	90.602	35.286	44.953	540.88	1.5033	16.041	0.060377	20.000	0.050000	16.476	20.176	90.602	35.286	44.953	540.88	1.5033	16.041	0.060377
449.00	4.6231	undefined	16.512	20.220	90.681	20.000	0.050000	16.512	20.220	90.681	35.344	45.007	541.46	1.4937	16.069	0.060562	20.000	0.050000	16.512	20.220	90.681	35.344	45.007	541.46	1.4937	16.069	0.060562
450.00	4.6342	undefined	16.547	20.264	90.759	20.000	0.050000	16.547	20.264	90.759	35.403	45.061	542.03	1.4841	16.096	0.060747	20.000	0.050000	16.547	20.264	90.759	35.403	45.061	542.03	1.4841	16.096	0.060747
451.00	4.6454	undefined	16.583	20.309	90.838	20.000	0.050000	16.583	20.309	90.838	35.461	45.116	542.61	1.4747	16.124	0.060932	20.000	0.050000	16.583	20.309	90.838	35.461	45.116	542.61	1.4747	16.124	0.060932
452.00	4.6565	undefined	16.618	20.353	90.916	20.000	0.050000	16.618	20.353	90.916	35.520	45.170	543.18	1.4653	16.151	0.061118	20.000	0.050000	16.618	20.353	90.916	35.520	45.170	543.18	1.4653	16.151	0.061118
453.00	4.6676	undefined	16.654	20.398	90.995	20.000	0.050000	16.654	20.398	90.995	35.579	45.224	543.75	1.4559	16.178	0.061304	20.000	0.050000	16.654	20.398	90.995	35.579	45.224	543.75	1.4559	16.178	0.061304
454.00	4.6787	undefined	16.689	20.442	91.074	20.000	0.050000	16.689	20.442	91.074	35.637	45.279	544.33	1.4466	16.206	0.061490	20.000	0.050000	16.689	20.442	91.074	35.637	45.279	544.33	1.4466	16.206	0.061490
455.00	4.6898	undefined	16.725	20.487	91.152	20.000	0.050000	16.725	20.487	91.152	35.696	45.333	544.90	1.4374	16.233	0.061676	20.000	0.050000	16.725	20.487	91.152	35.696	45.333	544.90	1.4374	16.233	0.061676
456.00	4.7009	undefined	16.761	20.531	91.230	20.000	0.050000	16.761	20.531	91.230	35.755	45.388	545.47	1.4283	16.260	0.061862	20.000	0.050000	16.761	20.531	91.230	35.755	45.388	545.47	1.4283	16.260	0.061862
457.00	4.7120	undefined	16.796	20.576	91.309	20.000	0.050000	16.796	20.576	91.309	35.813	45.442	546.04	1.4192	16.288	0.062049	20.000	0.050000	16.796	20.576	91.309	35.813	45.442	546.04	1.4192	16.288	0.062049
458.00	4.7231	undefined	16.832	20.621	91.387	20.000	0.050000	16.832	20.621	91.387	35.872	45.497	546.61	1.4102	16.315	0.062236	20.000	0.050000	16.832	20.621	91.387	35.872	45.497	546.61	1.4102	16.315	0.062236
459.00	4.7342	undefined	16.868	20.666	91.466	20.000	0.050000	16.868	20.666	91.466	35.931	45.552	547.18	1.4012	16.342	0.062423	20.000	0.050000	16.868	20.666	91.466	35.931	45.552	547.18	1.4012	16.342	0.062423
460.00	4.7454	undefined	16.904	20.711	91.544	20.000	0.050000	16.904	20.711	91.544	35.990	45.606	547.74	1.3923	16.369	0.062611	20.000	0.050000	16.904	20.711	91.544	35.990	45.606	547.74	1.3923	16.369	0.062611
461.00	4.7565	undefined	16.940	20.755	91.622	20.000	0.050000	16.940	20.755	91.622	36.049	45.661	548.31	1.3835	16.397	0.062798	20.000	0.050000	16.940	20.755	91.622	36.049	45.661	548.31	1.3835	16.397	0.062798
462.00	4.7676	undefined	16.976	20.800	91.700	20.000	0.050000	16.976	20.800	91.700	36.108	45.716	548.88	1.3747	16.424	0.062986	20.000	0.050000	16.976	20.800	91.700	36.108	45.716	548.88	1.3747	16.424	0.062986
463.00	4.7787	undefined	17.012	20.845	91.778	20.000	0.050000	17.012	20.845	91.778	36.167	45.771	549.44	1.3660	16.451	0.063174	20.000	0.050000	17.012	20.845	91.778	36.167	45.771	549.44	1.3660	16.451	0.063174
464.00	4.7898	undefined	17.048	20.891	91.856	20.000	0.050000	17.048	20.891	91.856	36.226	45.826	550.01	1.3573	16.478	0.063363	20.000	0.050000	17.048	20.891	91.856	36.226	45.826	550.01	1.3573	16.478	0.063363
465.00	4.8009	undefined	17.085	20.936	91.934	20.000	0.050000	17.085	20.936	91.934	36.285	45.881	550.57	1.3487	16.505	0.063551	20.000	0.050000	17.085	20.936	91.934	36.285	45.881	550.57	1.3487	16.505	0.063551
466.00	4.8120	undefined	17.121	20.981	92.012	20.000	0.050000	17.121	20.981	92.012	36.344	45.936	551.13	1.3402	16.532	0.063740	20.000	0.050000	17.121	20.981	92.012	36.344	45.936	551.13	1.3402	16.532	0.063740
467.00	4.8231	undefined	17.157	21.026	92.090	20.000	0.050000	17.157	21.026	92.090	36.403	45.991	551.69	1.3317	16.559	0.063929	20.000	0.050000	17.157	21.026	92.090	36.403	45.991	551.69	1.3317	16.559	0.063929
468.00	4.8342	undefined	17.194	21.072	92.168	20.000	0.050000	17.194	21.072	92.168	36.462	46.047	552.26	1.3233	16.586	0.064118	20.000	0.050000	17.194	21.072	92.168	36.462	46.047	552.26	1.3233	16.586	0.064118
469.00	4.8453	undefined	17.230	21.117	92.246	20.000	0.050000	17.230	21.117	92.246	36.522	46.102	552.82	1.3149	16.613	0.064308	20.000	0.050000	17.230	21.117	92.246	36.522	46.102	552.82	1.3149	16.613	0.064308
470.00	4.8564	undefined	17.267	21.162	92.324	20.000	0.050000	17.267	21.162	92.324	36.581	46.157	553.38	1.3066	16.640	0.064498	20.000	0.050000	17.267	21.162	92.324	36.581	46.157	553.38	1.3066	16.640	0.064498
471.00	4.8675	undefined	17.304	21.208	92.402	20.000	0.050000	17.304	21.208	92.402	36.640	46.213	553.94	1.2983	16.667	0.064688	20.000	0.050000	17.304	21.208	92.402	36.640	46.213	553.94	1.2983	16.667	0.064688
472.00	4.8786	undefined	17.340	21.254	92.480	20.000	0.050000	17.340	21.254	92.480	36.699	46.268	554.49	1.2901	16.694	0.064878	20.000	0.050000	17.340	21.254	92.480	36.699	46.268	554.49	1.2901	16.694	0.064878
473.00	4.8897	undefined	17.377	21.299	92.557	20.000	0.050000	17.377	21.299	92.557	36.759	46.324	555.05	1.2820	16.721	0.065068	20.000	0.050000	17.377	21.299	92.557	36.759	46.324	555.05	1.2820	16.721	0.065068
474.00	4.9008	undefined	17.414	21.345	92.635	20.000	0.050000	17.414	21.345	92.635	36.818	46.379	555.61	1.2739	16.747	0.065259	20.000	0.050000	17.414	21.345	92.635	36.818	46.379	555.61	1.2739	16.747	0.065259
475.00	4.9119	undefined	17.451	21.391	92.713	20.000	0.050000	17.451	21.391	92.713	36.877	46.435	556.17	1.2659	16.774	0.065450	20.000	0.050000	17.451	21.391	92.713	36.877	46.435	556.17	1.2659	16.774	0.065450
476.00	4.9230	undefined	17.487	21.436	92.790	20.000	0.050000	17.487	21.436	92.790	36.937	46.490	556.72	1.2579	16.801	0.065641	20.000	0.050000	17.487	21.436	92.790	36.937	46.490	556.72	1.2579	16.801	0.065641
477.00	4.9341	undefined	17.524	21.482	92.868	20.000	0.050000	17.524	21.482	92.868	36.996	46.546	557.28	1.2500	16.828	0.065832	20.000	0.050000	17.524	21.482	92.868	36.996	46.546	557.28	1.2500	16.828	0.065832
478.00	4.9452	undefined	17.561	21.528	92.946	20.000	0.050000	17.561	21.528	92.946	37.056	46.602	557.83	1.2421	16.854	0.066024	20.000	0.050000	17.561	21.528	92.946	37.056	46.602	557.83	1.2421	16.854	0.066024
479.00	4.9563	undefined	17.599	21.574	93.023	20.000	0.050000	17.599	21.574	93.023	37.115	46.657	558.38	1.2343	16.881	0.066215	20.000	0.050000	17.599	21.574	93.023	37.115	46.657	558.38	1.2343	16.881	0.066215
480.00	4.9674	undefined	17.636	21.620	93.100	20.000	0.050000	17.636	21.620	93.100	37.174	46.713	558.94	1.2265	16.908	0.066407	20.000	0.050000	17.636	21.620	93.100	37.174	46.713	558.94	1.2265	16.908	0.066407
481.00	4.9785	undefined	17.673	21.666	93.178	20.000	0.050000	17.673	21.666	93.178	37.234	46.769	559.49	1.2188	16.934	0.066600	20.000	0.050000	17.673	21.666	93.178	37.234	46.769	559.49	1.2188	16.934	0.066600
482.00	4.9896	undefined	17.710	21.713	93.255	20.000	0.050000	17.710	21.713	93.255	37.293	46.825	560.04	1.2111	16.961	0.066792	20.000	0.050000	17.710	21.713	93.255	37.293	46.825	560.04	1.2111	16.961	0.066792
483.00	5.0007	undefined	17.747	21.759	93.333	20.000	0.050000	17.747	21.759	93.333	37.353	46.881	560.59	1.2035	16.988	0.066984	20.000	0.050000	17.747	21.759	93.333	37.353	46.881	560.59	1.2035	16.988	0.066984
484.00	5.0118	undefined	17.785	21.805	93.410	20.000	0.050000	17.785	21.805	93.410	37.413	46.937	561.14	1.1960	17.014	0.067177	20.000	0.050000	17.785	21.805	93.410	37.413	46.937	561.14	1.1960	17.014	0.067177
485.00	5.0229	undefined	17.822	21.851	93.487	20.000	0.050000	17.822	21.851	93.487	37.472	46.993	561.69	1.1884	17.041	0.067370	20.000	0.050000	17.822	21.851	93.487	37.472	46.993	561.69	1.1884	17.041	0.067370
486.00	5.0340	undefined	17.860	21.898	93.564	20.000	0.050000	17.860	21.898	93.564	37.532	47.049	562.24	1.1810	17.067	0.067564	20.000	0.050000	17.860	21.898	93.564	37.532	47.049	562.24	1.1810	17.067	0.067564
487.00	5.0451	undefined	17.897	21.944	93.642	20.000	0.050000	17.897	21.944	93.642	37.591	47.105	562.79	1.1736	17.094	0.067757	20.000	0.050000	17.897	21.944	93.642	37.591	47.105	562.79	1.1736	17.094	0.067757
488.00	5.0562	undefined	17.935	21.991	93.719	20.000	0.050000	17.935	21.991	93.719	37.651	47.161	563.34	1.1662	17.120	0.067951	20.000	0.050000	17.935	21.991	93.719	37.651	47.161	563.34	1.1662	17.120	0.067951
489.00	5.0673	undefined	17.973	22.037	93.796	20.000	0.050000	17.973	22.037	93.796	37.710	47.217	563.88	1.1589	17.147	0.068144	20.000	0.050000	17.973	22.037	93.796	37.710	47.217	563.88	1.1589	17.147	0.068144
490.00	5.0784	undefined	18.010	22.084	93.873	20.000	0.050000	18.010	22.084	93.873	37.770	47.273	564.43	1.1516	17.173	0.068339	20.000	0.050000	18.010	22.084	93.873	37.770	47.273	564.43	1.1516	17.173	0.068339
491.00	5.0895	undefined	18.048	22.131	93.950	20.000	0.050000	18.048	22.131	93.950	37.830	47.330	564.97	1.1444	17.200	0.068533	20.000	0.050000	18.048	22.131	93.950	37.830	47.330	564.97	1.1444	17.200	0.068533
492.00	5.1006	undefined	18.086	22.177	94.027	20.000	0.050000	18.086	22.177	94.027	37.889	47.386	565.52	1.1372	17.226	0.068727	20.000	0.050000	18.086	22.177	94.027	37.889	47.386	565.52	1.1372	17.226	0.068727
493.00	5.1117	undefined	18.124	22.224	94.104	20.000	0.050000	18.124	22.224	94.104	37.949	47.442	566.06	1.1301	17.252	0.068922	20.000	0.050000	18.124	22.224	94.104	37.949	47.442	566.06	1.1301	17.252	0.068922
494.00	5.1228	undefined	18.162	22.271	94.181	20.000	0.050000	18.162	22.271	94.181	38.009	47.498	566.61	1.1230	17.279	0.069117	20.000	0.050000	18.162	22.271	94.181	38.009	47.498	566.61	1.1230	17.279	0.069117
495.00	5.1339	undefined	18.200	22.318	94.258	20.000	0.050000	18.200	22.318	94.258	38.068	47.555	567.15	1.1160	17.305	0.069312	20.000	0.050000	18.200	22.318	94.258	38.068	47.555	567.15	1.1160	17.305	0.069312
496.00	5.1450	undefined	18.238	22.365	94.335	20.000	0.050000	18.238	22.365	94.335	38.128	47.611	567.69	1.1090	17.331	0.069507	20.000	0.050000	18.238	22.365	94.335	38.128	47.611	567.69	1.1090	17.331	0.069507
497.00	5.1561	undefined	18.276	22.412	94.412	20.000	0.050000	18.276	22.412	94.412	38.188	47.667	568.24	1.1021	17.357	0.069703	20.000	0.050000	18.276	22.412	94.412	38.188	47.667	568.24	1.1021	17.357	0.069703
498.00	5.1671	undefined	18.314	22.459	94.489	20.000	0.050000	18.314	22.459	94.489	38.248	47.724	568.78	1.0952	17.384	0.069898	20.000	0.050000	18.314	22.459	94.489	38.248	47.724	568.78	1.0952	17.384	0.069898
499.00	5.1782	undefined	18.353	22.506	94.565	20.000	0.050000	18.353	22.506	94.565	38.307	47.780	569.32	1.0883	17.410	0.070094	20.000	0.050000	18.353	22.506	94.565	38.307	47.780	569.32	1.0883	17.410	0.070094
500.00	5.1893	undefined	18.391	22.554	94.642	20.000	0.050000	18.391	22.554	94.642	38.367	47.837	569.86	1.0815	17.436	0.070290	20.000	0.050000	18.391	22.554	94.642	38.367	47.837	569.86	1.0815	17.436	0.070290
501.00	5.2004	undefined	18.429	22.601	94.719	20.000	0.050000	18.429	22.601	94.719	38.427	47.893	570.40	1.0748	17.462	0.070487	20.000	0.050000	18.429	22.601	94.719	38.427	47.893	570.40	1.0748	17.462	0.070487
502.00	5.2115	undefined	18.468	22.648	94.796	20.000	0.050000	18.468	22.648	94.796	38.487	47.950	570.94	1.0680	17.488	0.070683	20.000	0.050000	18.468	22.648	94.796	38.487	47.950	570.94	1.0680	17.488	0.070683
503.00	5.2226	undefined	18.506	22.696	94.872	20.000	0.050000	18.506	22.696	94.872	38.546	48.006	571.47	1.0614	17.514	0.070880	20.000	0.050000	18.506	22.696	94.872	38.546	48.006	571.47	1.0614	17.514	0.070880
504.00	5.2337	undefined	18.545	22.743	94.949	20.000	0.050000	18.545	22.743	94.949	38.606	48.063	572.01	1.0547	17.540	0.071077	20.000	0.050000	18.545	22.743	94.949	38.606	48.063	572.01	1.0547	17.540	0.071077
505.00	5.2448	undefined	18.584	22.791	95.025	20.000	0.050000	18.584	22.791	95.025	38.666	48.119	572.55	1.0481	17.566	0.071274	20.000	0.050000	18.584	22.791	95.025	38.666	48.119	572.55	1.0481	17.566	0.071274
506.00	5.2559	undefined	18.622	22.838	95.102	20.000	0.050000	18.622	22.838	95.102	38.726	48.176	573.08	1.0416	17.592	0.071471	20.000	0.050000	18.622	22.838	95.102	38.726	48.176	573.08	1.0416	17.592	0.071471
507.00	5.2669	undefined	18.661	22.886	95.178	20.000	0.050000	18.661	22.886	95.178	38.785	48.232	573.62	1.0351	17.618	0.071668	20.000	0.050000	18.661	22.886	95.178	38.785	48.232	573.62	1.0351	17.618	0.071668
508.00	5.2780	undefined	18.700	22.934	95.255	20.000	0.050000	18.700	22.934	95.255	38.845	48.289	574.15	1.0286	17.644	0.071866	20.000	0.050000	18.700	22.934	95.255	38.845	48.289	574.15	1.0286	17.644	0.071866
509.00	5.2891	undefined	18.739	22.981	95.331	20.000	0.050000	18.739	22.981	95.331	38.905	48.346	574.69	1.0222	17.670	0.072064	20.000	0.050000	18.739	22.981	95.331	38.905	48.346	574.69	1.0222	17.670	0.072064
510.00	5.3002	undefined	18.778	23.029	95.408	20.000	0.050000	18.778	23.029	95.408	38.965	48.402	575.22	1.0158	17.696	0.072262	20.000	0.050000	18.778	23.029	95.408	38.965	48.402	575.22	1.0158	17.696	0.072262
511.00	5.3113	undefined	18.817	23.077	95.484	20.000	0.050000	18.817	23.077	95.484	39.024	48.459	575.76	1.0095	17.722	0.072460	20.000	0.050000	18.817	23.077	95.484	39.024	48.459	575.76	1.0095	17.722	0.072460
512.00	5.3224	undefined	18.856	23.125	95.561	20.000	0.050000	18.856	23.125	95.561	39.084	48.516	576.29	1.0032	17.748	0.072658	20.000	0.050000	18.856	23.125	95.561	39.084	48.516	576.29	1.0032	17.748	0.072658
513.00	5.3335	undefined	18.895	23.173	95.637	20.000	0.050000	18.895	23.173	95.637	39.144	48.572	576.82	0.99695	17.774	0.072857	20.000	0.050000	18.895	23.173	95.637	39.144	48.572	576.82	0.99695	17.774	0.072857
514.00	5.3445	undefined	18.934	23.221	95.713	20.000	0.050000	18.934	23.221	95.713	39.204	48.629	577.35	0.99074	17.800	0.073056	20.000	0.050000	18.934	23.221	95.713	39.204	48.629	577.35	0.99074	17.800	0.073056
515.00	5.3556	undefined	18.973	23.269	95.789	20.000	0.050000	18.973	23.269	95.789	39.264	48.686	577.88	0.98456	17.826	0.073255	20.000	0.050000	18.973	23.269	95.789	39.264	48.686	577.88	0.98456	17.826	0.073255
516.00	5.3667	undefined	19.013	23.317	95.866	20.000	0.050000	19.013	23.317	95.866	39.323	48.743	578.41	0.97842	17.851	0.073454	20.000	0.050000	19.013	23.317	95.866	39.323	48.743	578.41	0.97842	17.851	0.073454
517.00	5.3778	undefined	19.052	23.366	95.942	20.000	0.050000	19.052	23.366	95.942	39.383	48.799	578.94	0.97233	17.877	0.073653	20.000	0.050000	19.052	23.366	95.942	39.383	48.799	578.94	0.97233	17.877	0.073653
518.00	5.3889	undefined	19.091	23.414	96.018	20.000	0.050000	19.091	23.414	96.018	39.443	48.856	579.47	0.96627	17.903	0.073853	20.000	0.050000	19.091	23.414	96.018	39.443	48.856	579.47	0.96627	17.903	0.073853
519.00	5.4000	undefined	19.131	23.462	96.094	20.000	0.050000	19.131	23.462	96.094	39.503	48.913	580.00	0.96025	17.929	0.074052	20.000	0.050000	19.131	23.462	96.094	39.503	48.913	580.00	0.96025	17.929	0.074052
520.00	5.4110	undefined	19.170	23.511	96.170	20.000	0.050000	19.170	23.511	96.170	39.562	48.970	580.53	0.95426	17.954	0.074252	20.000	0.050000	19.170	23.511	96.170	39.562	48.970	580.53	0.95426	17.954	0.074252
521.00	5.4221	undefined	19.210	23.559	96.246	20.000	0.050000	19.210	23.559	96.246	39.622	49.027	581.06	0.94832	17.980	0.074452	20.000	0.050000	19.210	23.559	96.246	39.622	49.027	581.06	0.94832	17.980	0.074452
522.00	5.4332	undefined	19.250	23.608	96.322	20.000	0.050000	19.250	23.608	96.322	39.682	49.083	581.59	0.94241	18.006	0.074652	20.000	0.050000	19.250	23.608	96.322	39.682	49.083	581.59	0.94241	18.006	0.074652
523.00	5.4443	undefined	19.289	23.656	96.398	20.000	0.050000	19.289	23.656	96.398	39.742	49.140	582.11	0.93654	18.031	0.074853	20.000	0.050000	19.289	23.656	96.398	39.742	49.140	582.11	0.93654	18.031	0.074853
524.00	5.4554	undefined	19.329	23.705	96.474	20.000	0.050000	19.329	23.705	96.474	39.802	49.197	582.64	0.93071	18.057	0.075053	20.000	0.050000	19.329	23.705	96.474	39.802	49.197	582.64	0.93071	18.057	0.075053
525.00	5.4665	undefined	19.369	23.754	96.550	20.000	0.050000	19.369	23.754	96.550	39.861	49.254	583.16	0.92491	18.082	0.075254	20.000	0.050000	19.369	23.754	96.550	39.861	49.254	583.16	0.92491	18.082	0.075254
526.00	5.4775	undefined	19.409	23.803	96.626	20.000	0.050000	19.409	23.803	96.626	39.921	49.311	583.69	0.91915	18.108	0.075455	20.000	0.050000	19.409	23.803	96.626	39.921	49.311	583.69	0.91915	18.108	0.075455
527.00	5.4886	undefined	19.449	23.851	96.702	20.000	0.050000	19.449	23.851	96.702	39.981	49.368	584.21	0.91343	18.133	0.075656	20.000	0.050000	19.449	23.851	96.702	39.981	49.368	584.21	0.91343	18.133	0.075656
528.00	5.4997	undefined	19.489	23.900	96.778	20.000	0.050000	19.489	23.900	96.778	40.040	49.425	584.74	0.90774	18.159	0.075858	20.000	0.050000	19.489	23.900	96.778	40.040	49.425	584.74	0.90774	18.159	0.075858
529.00	5.5108	undefined	19.529	23.949	96.854	20.000	0.050000	19.529	23.949	96.854	40.100	49.482	585.26	0.90208	18.184	0.076059	20.000	0.050000	19.529	23.949	96.854	40.100	49.482	585.26	0.90208	18.184	0.076059
530.00	5.5218	undefined	19.569	23.998	96.930	20.000	0.050000	19.569	23.998	96.930	40.160	49.538	585.78	0.89647	18.210	0.076261	20.000	0.050000	19.569	23.998	96.930	40.160	49.538	585.78	0.89647	18.210	0.076261
531.00	5.5329	undefined	19.609	24.047	97.005	20.000	0.050000	19.609	24.047	97.005	40.220	49.595	586.31	0.89088	18.235	0.076462	20.000	0.050000	19.609	24.047	97.005	40.220	49.595	586.31	0.89088	18.235	0.076462
532.00	5.5440	undefined	19.649	24.097	97.081	20.000	0.050000	19.649	24.097	97.081	40.279	49.652	586.83	0.88534	18.261	0.076664	20.000	0.050000	19.649	24.097	97.081	40.279	49.652	586.83	0.88534	18.261	0.076664
533.00	5.5551	undefined	19.690	24.146	97.157	20.000	0.050000	19.690	24.146	97.157	40.339	49.709	587.35	0.87982	18.286	0.076867	20.000	0.050000	19.690	24.146	97.157	40.339	49.709	587.35	0.87982	18.286	0.076867
534.00	5.5662	undefined	19.730	24.195	97.232	20.000	0.050000	19.730	24.195	97.232	40.399	49.766	587.87	0.87435	18.312	0.077069	20.000	0.050000	19.730	24.195	97.232	40.399	49.766	587.87	0.87435	18.312	0.077069
535.00	5.5772	undefined	19.771	24.244	97.308	20.000	0.050000	19.771	24.244	97.308	40.458	49.823	588.39	0.86890	18.337	0.077271	20.000	0.050000	19.771	24.244	97.308	40.458	49.823	588.39	0.86890	18.337	0.077271
536.00	5.5883	undefined	19.811	24.294	97.384	20.000	0.050000	19.811	24.294	97.384	40.518	49.880	588.91	0.86349	18.362	0.077474	20.000	0.050000	19.811	24.294	97.384	40.518	49.880	588.91	0.86349	18.362	0.077474
537.00	5.5994	undefined	19.852	24.343	97.459	20.000	0.050000	19.852	24.343	97.459	40.578	49.937	589.43	0.85811	18.388	0.077677	20.000	0.050000	19.852	24.343	97.459	40.578	49.937	589.43	0.85811	18.388	0.077677
538.00	5.6105	undefined	19.892	24.393	97.535	20.000	0.050000	19.892	24.393	97.535	40.637	49.994	589.95	0.85277	18.413	0.077880	20.000	0.050000	19.892	24.393	97.535	40.637	49.994	589.95	0.85277	18.413	0.077880
539.00	5.6215	undefined	19.933	24.442	97.610	20.000	0.050000	19.933	24.442	97.610	40.697	50.051	590.46	0.84746	18.438	0.078083	20.000	0.050000	19.933	24.442	97.610	40.697	50.051	590.46	0.84746	18.438	0.078083
540.00	5.6326	undefined	19.974	24.492	97.686	20.000	0.050000	19.974	24.492	97.686	40.757	50.108	590.98	0.84218	18.463	0.078286	20.000	0.050000	19.974	24.492	97.686	40.757	50.108	590.98	0.84218	18.463	0.078286
541.00	5.6437	undefined	20.014	24.541	97.761	20.000	0.050000	20.014	24.541	97.761	40.816	50.165	591.50	0.83693	18.489	0.078490	20.000	0.050000	20.014	24.541	97.761	40.816	50.165	591.50	0.83693	18.489	0.078490
542.00	5.6548	undefined	20.055	24.591	97.837	20.000	0.050000	20.055	24.591	97.837	40.876	50.222	592.01	0.83172	18.514	0.078693	20.000	0.050000	20.055	24.591	97.837	40.876	50.222	592.01	0.83172	18.514	0.078693
543.00	5.6658	undefined	20.096	24.641	97.912	20.000	0.050000	20.096	24.641	97.912	40.935	50.279	592.53	0.82654	18.539	0.078897	20.000	0.050000	20.096	24.641	97.912	40.935	50.279	592.53	0.82654	18.539	0.078897
544.00	5.6769	undefined	20.137	24.691	97.987	20.000	0.050000	20.137	24.691	97.987	40.995	50.335	593.05	0.82139	18.564	0.079101	20.000	0.050000	20.137	24.691	97.987	40.995	50.335	593.05	0.82139	18.564	0.079101
545.00	5.6880	undefined	20.178	24.741	98.063	20.000	0.050000	20.178	24.741	98.063	41.055	50.392	593.56	0.81627	18.589	0.079305	20.000	0.050000	20.178	24.741	98.063	41.055	50.392	593.56	0.81627	18.589	0.079305
546.00	5.6991	undefined	20.219	24.791	98.138	20.000	0.050000	20.219	24.791	98.138	41.114	50.449	594.08	0.81118	18.614	0.079510	20.000	0.050000	20.219	24.791	98.138	41.114	50.449	594.08	0.81118	18.614	0.079510
547.00	5.7101	undefined	20.260	24.841	98.213	20.000	0.050000	20.260	24.841	98.213	41.174	50.506	594.59	0.80613	18.639	0.079714	20.000	0.050000	20.260	24.841	98.213	41.174	50.506	594.59	0.80613	18.639	0.079714
548.00	5.7212	undefined	20.302	24.891	98.289	20.000	0.050000	20.302	24.891	98.289	41.233	50.563	595.10	0.80110	18.664	0.079919	20.000	0.050000	20.302	24.891	98.289	41.233	50.563	595.10	0.80110	18.664	0.079919
549.00	5.7323	undefined	20.343	24.941	98.364	20.000	0.050000	20.343	24.941	98.364	41.293	50.620	595.62	0.79611	18.690	0.080124	20.000	0.050000	20.343	24.941	98.364	41.293	50.620	595.62	0.79611	18.690	0.080124
550.00	5.7433	undefined	20.384	24.991	98.439	20.000	0.050000	20.384	24.991	98.439	41.352	50.677	596.13	0.79114	18.715	0.080328	20.000	0.050000	20.384	24.991	98.439	41.352	50.677	596.13	0.79114	18.715	0.080328
551.00	5.7544	undefined	20.426	25.041	98.514	20.000	0.050000	20.426	25.041	98.514	41.412	50.734	596.64	0.78621	18.740	0.080534	20.000	0.050000	20.426	25.041	98.514	41.412	50.734	596.64	0.78621	18.740	0.080534
552.00	5.7655	undefined	20.467	25.092	98.589	20.000	0.050000	20.467	25.092	98.589	41.471	50.791	597.15	0.78130	18.765	0.080739	20.000	0.050000	20.467	25.092	98.589	41.471	50.791	597.15	0.78130	18.765	0.080739
553.00	5.7766	undefined	20.508	25.142	98.664	20.000	0.050000	20.508	25.142	98.664	41.531	50.848	597.66	0.77643	18.789	0.080944	20.000	0.050000	20.508	25.142	98.664	41.531	50.848	597.66	0.77643	18.789	0.080944
554.00	5.7876	undefined	20.550	25.193	98.740	20.000	0.050000	20.550	25.193	98.740	41.590	50.905	598.17	0.77158	18.814	0.081150	20.000	0.050000	20.550	25.193	98.740	41.590	50.905	598.17	0.77158	18.814	0.081150
555.00	5.7987	undefined	20.592	25.243	98.815	20.000	0.050000	20.592	25.243	98.815	41.649	50.962	598.68	0.76677	18.839	0.081356	20.000	0.050000	20.592	25.243	98.815	41.649	50.962	598.68	0.76677	18.839	0.081356
556.00	5.8098	undefined	20.633	25.294	98.890	20.000	0.050000	20.633	25.294	98.890	41.709	51.019	599.19	0.76198	18.864	0.081561	20.000	0.050000	20.633	25.294	98.890	41.709	51.019	599.19	0.76198	18.864	0.081561
557.00	5.8208	undefined	20.675	25.344	98.965	20.000	0.050000	20.675	25.344	98.965	41.768	51.076	599.70	0.75722	18.889	0.081767	20.000	0.050000	20.675	25.344	98.965	41.768	51.076	599.70	0.75722	18.889	0.081767
558.00	5.8319	undefined	20.717	25.395	99.040	20.000	0.050000	20.717	25.395	99.040	41.828	51.132	600.21	0.75249	18.914	0.081974	20.000	0.050000	20.717	25.395	99.040	41.828	51.132	600.21	0.75249	18.914	0.081974
559.00	5.8430	undefined	20.759	25.446	99.115	20.000	0.050000	20.759	25.446	99.115	41.887	51.189	600.72	0.74779	18.939	0.082180	20.000	0.050000	20.759	25.446	99.115	41.887	51.189	600.72	0.74779	18.939	0.082180
560.00	5.8540	undefined	20.801	25.496	99.189	20.000	0.050000	20.801	25.496	99.189	41.946	51.246	601.23	0.74312	18.964	0.082386	20.000	0.050000	20.801	25.496	99.189	41.946	51.246	601.23	0.74312	18.964	0.082386
561.00	5.8651	undefined	20.843	25.547	99.264	20.000	0.050000	20.843	25.547	99.264	42.006	51.303	601.73	0.73847	18.988	0.082593	20.000	0.050000	20.843	25.547	99.264	42.006	51.303	601.73	0.73847	18.988	0.082593
562.00	5.8762	undefined	20.885	25.598	99.339	20.000	0.050000	20.885	25.598	99.339	42.065	51.360	602.24	0.73386	19.013	0.082800	20.000	0.050000	20.885	25.598	99.339	42.065	51.360	602.24	0.73386	19.013	0.082800
563.00	5.8873	undefined	20.927	25.649	99.414	20.000	0.050000	20.927	25.649	99.414	42.124	51.417	602.75	0.72927	19.038	0.083007	20.000	0.050000	20.927	25.649	99.414	42.124	51.417	602.75	0.72927	19.038	0.083007
564.00	5.8983	undefined	20.969	25.700	99.489	20.000	0.050000	20.969	25.700	99.489	42.183	51.474	603.25	0.72470	19.063	0.083214	20.000	0.050000	20.969	25.700	99.489	42.183	51.474	603.25	0.72470	19.063	0.083214
565.00	5.9094	undefined	21.011	25.751	99.564	20.000	0.050000	21.011	25.751	99.564	42.243	51.531	603.76	0.72017	19.087	0.083421	20.000	0.050000	21.011	25.751	99.564	42.243	51.531	603.76	0.72017	19.087	0.083421
566.00	5.9205	undefined	21.053	25.802	99.638	20.000	0.050000	21.053	25.802	99.638	42.302	51.587	604.26	0.71566	19.112	0.083629	20.000	0.050000	21.053	25.802	99.638	42.302	51.587	604.26	0.71566	19.112	0.083629
567.00	5.9315	undefined	21.096	25.854	99.713	20.000	0.050000	21.096	25.854	99.713	42.361	51.644	604.77	0.71118	19.137	0.083836	20.000	0.050000	21.096	25.854	99.713	42.361	51.644	604.77	0.71118	19.137	0.083836
568.00	5.9426	undefined	21.138	25.905	99.788	20.000	0.050000	21.138	25.905	99.788	42.420	51.701	605.27	0.70673	19.161	0.084044	20.000	0.050000	21.138	25.905	99.788	42.420	51.701	605.27	0.70673	19.161	0.084044
569.00	5.9537	undefined	21.181	25.956	99.863	20.000	0.050000	21.181	25.956	99.863	42.479	51.758	605.77	0.70230	19.186	0.084252	20.000	0.050000	21.181	25.956	99.863	42.479	51.758	605.77	0.70230	19.186	0.084252
570.00	5.9647	undefined	21.223	26.008	99.937	20.000	0.050000	21.223	26.008	99.937	42.538	51.815	606.28	0.69790	19.211	0.084460	20.000	0.050000	21.223	26.008	99.937	42.538	51.815	606.28	0.69790	19.211	0.084460
571.00	5.9758	undefined	21.266	26.059	100.01	20.000	0.050000	21.266	26.059	100.01	42.598	51.872	606.78	0.69352	19.235	0.084668	20.000	0.050000	21.266	26.059	100.01	42.598	51.872	606.78	0.69352	19.235	0.084668
572.00	5.9869	undefined	21.308	26.111	100.09	20.000	0.050000	21.308	26.111	100.09	42.657	51.928	607.28	0.68917	19.260	0.084876	20.000	0.050000	21.308	26.111	100.09	42.657	51.928	607.28	0.68917	19.260	0.084876
573.00	5.9979	undefined	21.351	26.162	100.16	20.000	0.050000	21.351	26.162	100.16	42.716	51.985	607.78	0.68485	19.284	0.085084	20.000	0.050000	21.351	26.162	100.16	42.716	51.985	607.78	0.68485	19.284	0.085084
574.00	6.0090	undefined	21.394	26.214	100.24	20.000	0.050000	21.394	26.214	100.24	42.775	52.042	608.28	0.68055	19.309	0.085293	20.000	0.050000	21.394	26.214	100.24	42.775	52.042	608.28	0.68055	19.309	0.085293
575.00	6.0200	undefined	21.436	26.265	100.31	20.000	0.050000	21.436	26.265	100.31	42.834	52.099	608.78	0.67627	19.333	0.085502	20.000	0.050000	21.436	26.265	100.31	42.834	52.099	608.78	0.67627	19.333	0.085502
576.00	6.0311	undefined	21.479	26.317	100.38	20.000	0.050000	21.479	26.317	100.38	42.893	52.155	609.28	0.67202	19.358	0.085710	20.000	0.050000	21.479	26.317	100.38	42.893	52.155	609.28	0.67202	19.358	0.085710
577.00	6.0422	undefined	21.522	26.369	100.46	20.000	0.050000	21.522	26.369	100.46	42.952	52.212	609.78	0.66780	19.382	0.085919	20.000	0.050000	21.522	26.369	100.46	42.952	52.212	609.78	0.66780	19.382	0.085919
578.00	6.0532	undefined	21.565	26.421	100.53	20.000	0.050000	21.565	26.421	100.53	43.011	52.269	610.28	0.66360	19.407	0.086128	20.000	0.050000	21.565	26.421	100.53	43.011	52.269	610.28	0.66360	19.407	0.086128
579.00	6.0643	undefined	21.608	26.473	100.61	20.000	0.050000	21.608	26.473	100.61	43.070	52.325	610.78	0.65943	19.431	0.086338	20.000	0.050000	21.608	26.473	100.61	43.070	52.325	610.78	0.65943	19.431	0.086338
580.00	6.0754	undefined	21.651	26.525	100.68	20.000	0.050000	21.651	26.525	100.68	43.129	52.382	611.28	0.65528	19.456	0.086547	20.000	0.050000	21.651	26.525	100.68	43.129	52.382	611.28	0.65528	19.456	0.086547
581.00	6.0864	undefined	21.695	26.577	100.76	20.000	0.050000	21.695	26.577	100.76	43.187	52.439	611.78	0.65115	19.480	0.086757	20.000	0.050000	21.695	26.577	100.76	43.187	52.439	611.78	0.65115	19.480	0.086757
582.00	6.0975	undefined	21.738	26.629	100.83	20.000	0.050000	21.738	26.629	100.83	43.246	52.495	612.28	0.64705	19.504	0.086966	20.000	0.050000	21.738	26.629	100.83	43.246	52.495	612.28	0.64705	19.504	0.086966
583.00	6.1085	undefined	21.781	26.681	100.91	20.000	0.050000	21.781	26.681	100.91	43.305	52.552	612.77	0.64297	19.529	0.087176	20.000	0.050000	21.781	26.681	100.91	43.305	52.552	612.77	0.64297	19.529	0.087176
584.00	6.1196	undefined	21.824	26.733	100.98	20.000	0.050000	21.824	26.733	100.98	43.364	52.609	613.27	0.63892	19.553	0.087386	20.000	0.050000	21.824	26.733	100.98	43.364	52.609	613.27	0.63892	19.553	0.087386
585.00	6.1307	undefined	21.868	26.785	101.05	20.000	0.050000	21.868	26.785	101.05	43.423	52.665	613.77	0.63489	19.577	0.087596	20.000	0.050000	21.868	26.785	101.05	43.423	52.665	613.77	0.63489	19.577	0.087596
586.00	6.1417	undefined	21.911	26.838	101.13	20.000	0.050000	21.911	26.838	101.13	43.481	52.722	614.26	0.63088	19.602	0.087806	20.000	0.050000	21.911	26.838	101.13	43.481	52.722	614.26	0.63088	19.602	0.087806
587.00	6.1528	undefined	21.955	26.890	101.20	20.000	0.050000	21.955	26.890	101.20	43.540	52.779	614.76	0.62689	19.626	0.088017	20.000	0.050000	21.955	26.890	101.20	43.540	52.779	614.76	0.62689	19.626	0.088017
588.00	6.1639	undefined	21.998	26.943	101.28	20.000	0.050000	21.998	26.943	101.28	43.599	52.835	615.25	0.62293	19.650	0.088227	20.000	0.050000	21.998	26.943	101.28	43.599	52.835	615.25	0.62293	19.650	0.088227
589.00	6.1749	undefined	22.042	26.995	101.35	20.000	0.050000	22.042	26.995	101.35	43.658	52.892	615.75	0.61899	19.675	0.088438	20.000	0.050000	22.042	26.995	101.35	43.658	52.892	615.75	0.61899	19.675	0.088438
590.00	6.1860	undefined	22.086	27.048	101.42	20.000	0.050000	22.086	27.048	101.42	43.716	52.948	616.24	0.61508	19.699	0.088648	20.000	0.050000	22.086	27.048	101.42	43.716	52.948	616.24	0.61508	19.699	0.088648
591.00	6.1970	undefined	22.129	27.100	101.50	20.000	0.050000	22.129	27.100	101.50	43.775	53.005	616.74	0.61119	19.723	0.088859	20.000	0.050000	22.129	27.100	101.50	43.775	53.005	616.74	0.61119	19.723	0.088859
592.00	6.2081	undefined	22.173	27.153	101.57	20.000	0.050000	22.173	27.153	101.57	43.834	53.061	617.23	0.60731	19.747	0.089070	20.000	0.050000	22.173	27.153	101.57	43.834	53.061	617.23	0.60731	19.747	0.089070
593.00	6.2192	undefined	22.217	27.206	101.65	20.000	0.050000	22.217	27.206	101.65	43.892	53.118	617.72	0.60347	19.771	0.089281	20.000	0.050000	22.217	27.206	101.65	43.892	53.118	617.72	0.60347	19.771	0.089281
594.00	6.2302	undefined	22.261	27.258	101.72	20.000	0.050000	22.261	27.258	101.72	43.951	53.174	618.21	0.59964	19.795	0.089493	20.000	0.050000	22.261	27.258	101.72	43.951	53.174	618.21	0.59964	19.795	0.089493
595.00	6.2413	undefined	22.305	27.311	101.79	20.000	0.050000	22.305	27.311	101.79	44.009	53.231	618.71	0.59583	19.820	0.089704	20.000	0.050000	22.305	27.311	101.79	44.009	53.231	618.71	0.59583	19.820	0.089704
596.00	6.2523	undefined	22.349	27.364	101.87	20.000	0.050000	22.349	27.364	101.87	44.068	53.287	619.20	0.59205	19.844	0.089916	20.000	0.050000	22.349	27.364	101.87	44.068	53.287	619.20	0.59205	19.844	0.089916
597.00	6.2634	undefined	22.393	27.417	101.94	20.000	0.050000	22.393	27.417	101.94	44.126	53.343	619.69	0.58829	19.868	0.090127	20.000	0.050000	22.393	27.417	101.94	44.126	53.343	619.69	0.58829	19.868	0.090127
598.00	6.2744	undefined	22.437	27.470	102.02	20.000	0.050000	22.437	27.470	102.02	44.185	53.400	620.18	0.58455	19.892	0.090339	20.000	0.050000	22.437	27.470	102.02	44.185	53.400	620.18	0.58455	19.892	0.090339
599.00	6.2855	undefined	22.481	27.523	102.09	20.000	0.050000	22.481	27.523	102.09	44.243	53.456	620.67	0.58083	19.916	0.090551	20.000	0.050000	22.481	27.523	102.09	44.243	53.456	620.67	0.58083	19.916	0.090551
600.00	6.2966	undefined	22.526	27.576	102.16	20.000	0.050000	22.526	27.576	102.16	44.301	53.513	621.16	0.57713	19.940	0.090763	20.000	0.050000	22.526	27.576	102.16	44.301	53.513	621.16	0.57713	19.940	0.090763
