Temperature (K)	Pressure (MPa)	Density (kg/m3)	Volume (m3/kg)	Internal Energy (kJ/kg)	Enthalpy (kJ/kg)	Entropy (J/g*K)	Cv (J/g*K)	Cp (J/g*K)	Sound Spd. (m/s)	Joule-Thomson (K/MPa)	Viscosity (uPa*s)	Therm. Cond. (W/m*K)	Phase
150.00	4.5992	365.87	0.0027332	131.82	144.39	1.0222	1.9243	3.8397	991.54	-0.16825	60.460	0.13563	liquid
151.00	4.5992	363.99	0.0027473	135.60	148.24	1.0478	1.9216	3.8600	980.33	-0.15503	59.395	0.13424	liquid
152.00	4.5992	362.10	0.0027617	139.41	152.11	1.0733	1.9189	3.8812	969.04	-0.14123	58.350	0.13285	liquid
153.00	4.5992	360.18	0.0027764	143.23	156.00	1.0989	1.9164	3.9034	957.66	-0.12681	57.322	0.13146	liquid
154.00	4.5992	358.23	0.0027915	147.08	159.92	1.1244	1.9139	3.9267	946.19	-0.11174	56.311	0.13006	liquid
155.00	4.5992	356.25	0.0028070	150.94	163.85	1.1499	1.9116	3.9512	934.62	-0.095966	55.316	0.12867	liquid
156.00	4.5992	354.25	0.0028229	154.84	167.82	1.1753	1.9093	3.9769	922.95	-0.079445	54.338	0.12727	liquid
157.00	4.5992	352.22	0.0028391	158.75	171.81	1.2008	1.9071	4.0040	911.18	-0.062125	53.375	0.12587	liquid
158.00	4.5992	350.16	0.0028559	162.69	175.83	1.2264	1.9051	4.0324	899.29	-0.043951	52.427	0.12447	liquid
159.00	4.5992	348.06	0.0028730	166.66	179.87	1.2519	1.9031	4.0625	887.29	-0.024861	51.492	0.12306	liquid
160.00	4.5992	345.93	0.0028907	170.66	183.95	1.2775	1.9013	4.0942	875.17	-0.0047850	50.572	0.12165	liquid
161.00	4.5992	343.77	0.0029089	174.68	188.06	1.3031	1.8996	4.1278	862.91	0.016352	49.664	0.12024	liquid
162.00	4.5992	341.56	0.0029277	178.74	192.21	1.3287	1.8980	4.1634	850.52	0.038633	48.768	0.11882	liquid
163.00	4.5992	339.32	0.0029471	182.84	196.39	1.3545	1.8965	4.2012	837.99	0.062154	47.884	0.11740	liquid
164.00	4.5992	337.03	0.0029671	186.97	200.61	1.3803	1.8952	4.2414	825.30	0.087017	47.011	0.11597	liquid
165.00	4.5992	334.70	0.0029878	191.13	204.87	1.4062	1.8941	4.2843	812.45	0.11334	46.149	0.11454	liquid
166.00	4.5992	332.31	0.0030092	195.34	209.18	1.4322	1.8931	4.3301	799.43	0.14126	45.295	0.11310	liquid
167.00	4.5992	329.88	0.0030314	199.59	213.54	1.4584	1.8923	4.3792	786.23	0.17092	44.451	0.11165	liquid
168.00	4.5992	327.38	0.0030545	203.89	217.94	1.4847	1.8918	4.4320	772.83	0.20250	43.615	0.11020	liquid
169.00	4.5992	324.83	0.0030785	208.24	222.40	1.5112	1.8914	4.4888	759.21	0.23618	42.786	0.10874	liquid
170.00	4.5992	322.21	0.0031035	212.65	226.92	1.5378	1.8913	4.5502	745.38	0.27219	41.964	0.10726	liquid
171.00	4.5992	319.53	0.0031296	217.11	231.50	1.5647	1.8914	4.6169	731.29	0.31080	41.147	0.10578	liquid
172.00	4.5992	316.76	0.0031569	221.64	236.16	1.5918	1.8918	4.6894	716.94	0.35230	40.335	0.10429	liquid
173.00	4.5992	313.91	0.0031856	226.23	240.88	1.6192	1.8926	4.7689	702.30	0.39705	39.526	0.10278	liquid
174.00	4.5992	310.97	0.0032157	230.91	245.70	1.6470	1.8937	4.8562	687.34	0.44546	38.720	0.10126	liquid
175.00	4.5992	307.93	0.0032475	235.66	250.60	1.6751	1.8953	4.9528	672.03	0.49803	37.914	0.099719	liquid
176.00	4.5992	304.78	0.0032811	240.51	255.61	1.7036	1.8973	5.0603	656.34	0.55537	37.109	0.098165	liquid
177.00	4.5992	301.50	0.0033168	245.47	260.72	1.7326	1.8999	5.1809	640.22	0.61819	36.300	0.096592	liquid
178.00	4.5992	298.07	0.0033549	250.54	265.97	1.7622	1.9031	5.3171	623.61	0.68741	35.488	0.094998	liquid
179.00	4.5992	294.49	0.0033957	255.75	271.37	1.7924	1.9071	5.4726	606.46	0.76414	34.669	0.093381	liquid
180.00	4.5992	290.72	0.0034397	261.11	276.93	1.8233	1.9120	5.6522	588.70	0.84981	33.840	0.091740	liquid
181.00	4.5992	286.74	0.0034875	266.64	282.68	1.8552	1.9180	5.8625	570.21	0.94628	32.998	0.090072	liquid
182.00	4.5992	282.50	0.0035398	272.38	288.66	1.8882	1.9254	6.1127	550.89	1.0560	32.139	0.088376	liquid
183.00	4.5992	277.95	0.0035977	278.38	294.92	1.9225	1.9346	6.4167	530.56	1.1823	31.256	0.086650	liquid
184.00	4.5992	273.03	0.0036626	284.68	301.52	1.9585	1.9462	6.7959	509.03	1.3300	30.341	0.084895	liquid
185.00	4.5992	267.62	0.0037366	291.37	308.55	1.9966	1.9611	7.2856	485.98	1.5060	29.383	0.083115	liquid
186.00	4.5992	261.57	0.0038230	298.57	316.15	2.0375	1.9806	7.9488	460.94	1.7214	28.365	0.081323	liquid
187.00	4.5992	254.63	0.0039273	306.48	324.55	2.0825	2.0075	8.9114	433.19	1.9948	27.257	0.079553	liquid
188.00	4.5992	246.30	0.0040600	315.49	334.17	2.1338	2.0472	10.473	401.35	2.3619	26.007	0.077910	liquid
189.00	4.5992	235.48	0.0042466	326.46	345.99	2.1965	2.1138	13.599	362.48	2.9071	24.492	0.076771	liquid
190.00	4.5992	218.07	0.0045856	342.50	363.59	2.2894	2.2717	24.777	306.32	3.9411	22.267	0.078726	liquid
190.56	4.5992	162.66	0.0061478	387.32	415.59	2.5624	undefined	undefined	undefined	0.0000	15.880	undefined	liquid
190.56	4.5992	162.66	0.0061478	387.32	415.59	2.5624	undefined	undefined	undefined	0.0000	15.880	undefined	vapor
191.00	4.5992	114.76	0.0087140	437.18	477.26	2.8859	undefined	undefined	undefined	undefined	11.583	undefined	supercritical
192.00	4.5992	100.79	0.0099211	455.53	501.16	3.0107	2.3008	16.830	263.13	9.5307	10.766	0.055446	supercritical
193.00	4.5992	93.671	0.010676	466.07	515.17	3.0835	2.1866	11.936	270.46	9.7043	10.427	0.048083	supercritical
194.00	4.5992	88.736	0.011269	474.01	525.84	3.1387	2.1123	9.6336	276.15	9.7577	10.225	0.044032	supercritical
195.00	4.5992	84.924	0.011775	480.58	534.74	3.1845	2.0586	8.2661	280.97	9.7530	10.088	0.041398	supercritical
196.00	4.5992	81.806	0.012224	486.30	542.52	3.2243	2.0175	7.3497	285.21	9.7152	9.9893	0.039526	supercritical
197.00	4.5992	79.160	0.012633	491.42	549.52	3.2599	1.9847	6.6878	289.06	9.6573	9.9156	0.038120	supercritical
198.00	4.5992	76.860	0.013011	496.11	555.95	3.2924	1.9579	6.1848	292.60	9.5864	9.8593	0.037023	supercritical
199.00	4.5992	74.824	0.013365	500.46	561.93	3.3226	1.9353	5.7880	295.91	9.5070	9.8161	0.036145	supercritical
200.00	4.5992	72.997	0.013699	504.54	567.55	3.3507	1.9160	5.4659	299.03	9.4222	9.7828	0.035426	supercritical
201.00	4.5992	71.339	0.014018	508.41	572.88	3.3773	1.8992	5.1987	301.99	9.3338	9.7574	0.034829	supercritical
202.00	4.5992	69.821	0.014322	512.09	577.96	3.4025	1.8845	4.9729	304.81	9.2432	9.7384	0.034327	supercritical
203.00	4.5992	68.422	0.014615	515.62	582.84	3.4266	1.8714	4.7792	307.52	9.1515	9.7247	0.033901	supercritical
204.00	4.5992	67.125	0.014898	519.01	587.53	3.4497	1.8597	4.6111	310.12	9.0592	9.7154	0.033537	supercritical
205.00	4.5992	65.915	0.015171	522.29	592.06	3.4718	1.8491	4.4635	312.64	8.9670	9.7098	0.033223	supercritical
206.00	4.5992	64.782	0.015436	525.47	596.46	3.4932	1.8394	4.3329	315.08	8.8751	9.7074	0.032953	supercritical
207.00	4.5992	63.716	0.015695	528.55	600.73	3.5139	1.8305	4.2162	317.44	8.7838	9.7078	0.032718	supercritical
208.00	4.5992	62.711	0.015946	531.56	604.90	3.5340	1.8224	4.1114	319.74	8.6934	9.7106	0.032514	supercritical
209.00	4.5992	61.760	0.016192	534.49	608.96	3.5535	1.8149	4.0166	321.97	8.6040	9.7156	0.032337	supercritical
210.00	4.5992	60.857	0.016432	537.36	612.93	3.5725	1.8079	3.9305	324.15	8.5156	9.7224	0.032184	supercritical
211.00	4.5992	59.998	0.016667	540.17	616.82	3.5909	1.8014	3.8518	326.28	8.4284	9.7309	0.032051	supercritical
212.00	4.5992	59.180	0.016898	542.92	620.64	3.6090	1.7953	3.7795	328.36	8.3424	9.7409	0.031936	supercritical
213.00	4.5992	58.397	0.017124	545.63	624.39	3.6266	1.7896	3.7130	330.40	8.2576	9.7522	0.031836	supercritical
214.00	4.5992	57.648	0.017347	548.29	628.07	3.6438	1.7842	3.6516	332.39	8.1740	9.7647	0.031752	supercritical
215.00	4.5992	56.931	0.017565	550.90	631.69	3.6607	1.7792	3.5946	334.35	8.0917	9.7784	0.031680	supercritical
216.00	4.5992	56.241	0.017781	553.48	635.26	3.6773	1.7745	3.5416	336.26	8.0107	9.7930	0.031619	supercritical
217.00	4.5992	55.578	0.017993	556.02	638.77	3.6935	1.7701	3.4922	338.14	7.9309	9.8085	0.031569	supercritical
218.00	4.5992	54.940	0.018202	558.53	642.24	3.7095	1.7659	3.4461	339.99	7.8523	9.8249	0.031529	supercritical
219.00	4.5992	54.324	0.018408	561.01	645.67	3.7252	1.7620	3.4028	341.81	7.7750	9.8420	0.031497	supercritical
220.00	4.5992	53.730	0.018611	563.45	649.05	3.7406	1.7582	3.3622	343.59	7.6988	9.8598	0.031473	supercritical
221.00	4.5992	53.156	0.018813	565.87	652.39	3.7557	1.7547	3.3241	345.35	7.6238	9.8783	0.031457	supercritical
222.00	4.5992	52.601	0.019011	568.26	655.70	3.7706	1.7514	3.2881	347.08	7.5500	9.8974	0.031447	supercritical
223.00	4.5992	52.063	0.019207	570.63	658.97	3.7854	1.7483	3.2542	348.78	7.4773	9.9170	0.031444	supercritical
224.00	4.5992	51.542	0.019402	572.98	662.21	3.7998	1.7453	3.2222	350.46	7.4058	9.9372	0.031446	supercritical
225.00	4.5992	51.037	0.019594	575.30	665.41	3.8141	1.7425	3.1918	352.11	7.3353	9.9578	0.031454	supercritical
226.00	4.5992	50.546	0.019784	577.60	668.59	3.8282	1.7399	3.1631	353.74	7.2659	9.9789	0.031466	supercritical
227.00	4.5992	50.069	0.019972	579.88	671.74	3.8421	1.7374	3.1358	355.35	7.1976	10.000	0.031483	supercritical
228.00	4.5992	49.606	0.020159	582.15	674.86	3.8558	1.7351	3.1099	356.93	7.1302	10.022	0.031505	supercritical
229.00	4.5992	49.155	0.020344	584.40	677.96	3.8694	1.7329	3.0853	358.50	7.0639	10.045	0.031530	supercritical
230.00	4.5992	48.717	0.020527	586.63	681.03	3.8828	1.7308	3.0618	360.04	6.9986	10.067	0.031560	supercritical
231.00	4.5992	48.289	0.020709	588.84	684.09	3.8960	1.7289	3.0395	361.57	6.9342	10.090	0.031593	supercritical
232.00	4.5992	47.873	0.020889	591.04	687.11	3.9091	1.7270	3.0182	363.07	6.8708	10.113	0.031629	supercritical
233.00	4.5992	47.467	0.021067	593.23	690.12	3.9220	1.7253	2.9978	364.56	6.8083	10.137	0.031669	supercritical
234.00	4.5992	47.071	0.021245	595.40	693.11	3.9348	1.7237	2.9784	366.03	6.7467	10.161	0.031711	supercritical
235.00	4.5992	46.684	0.021421	597.56	696.08	3.9475	1.7222	2.9598	367.49	6.6859	10.185	0.031757	supercritical
236.00	4.5992	46.306	0.021595	599.71	699.03	3.9600	1.7209	2.9421	368.92	6.6260	10.209	0.031805	supercritical
237.00	4.5992	45.937	0.021769	601.84	701.96	3.9724	1.7196	2.9251	370.34	6.5670	10.233	0.031856	supercritical
238.00	4.5992	45.576	0.021941	603.97	704.88	3.9847	1.7184	2.9088	371.75	6.5088	10.258	0.031909	supercritical
239.00	4.5992	45.223	0.022112	606.08	707.78	3.9969	1.7173	2.8932	373.14	6.4514	10.283	0.031964	supercritical
240.00	4.5992	44.878	0.022283	608.19	710.67	4.0089	1.7163	2.8782	374.52	6.3947	10.308	0.032022	supercritical
241.00	4.5992	44.540	0.022452	610.28	713.54	4.0209	1.7153	2.8639	375.88	6.3389	10.333	0.032082	supercritical
242.00	4.5992	44.210	0.022619	612.36	716.39	4.0327	1.7145	2.8501	377.23	6.2838	10.359	0.032144	supercritical
243.00	4.5992	43.886	0.022786	614.44	719.24	4.0444	1.7137	2.8369	378.56	6.2294	10.384	0.032208	supercritical
244.00	4.5992	43.568	0.022952	616.51	722.07	4.0561	1.7131	2.8242	379.89	6.1758	10.410	0.032274	supercritical
245.00	4.5992	43.257	0.023118	618.56	724.89	4.0676	1.7125	2.8120	381.20	6.1228	10.436	0.032341	supercritical
246.00	4.5992	42.952	0.023282	620.62	727.69	4.0790	1.7119	2.8003	382.49	6.0705	10.462	0.032410	supercritical
247.00	4.5992	42.653	0.023445	622.66	730.49	4.0903	1.7115	2.7890	383.78	6.0190	10.488	0.032481	supercritical
248.00	4.5992	42.359	0.023608	624.70	733.27	4.1016	1.7111	2.7781	385.05	5.9681	10.515	0.032554	supercritical
249.00	4.5992	42.071	0.023769	626.72	736.04	4.1127	1.7108	2.7677	386.31	5.9178	10.541	0.032628	supercritical
250.00	4.5992	41.789	0.023930	628.75	738.81	4.1238	1.7105	2.7576	387.56	5.8681	10.568	0.032703	supercritical
251.00	4.5992	41.511	0.024090	630.76	741.56	4.1348	1.7103	2.7479	388.80	5.8191	10.594	0.032780	supercritical
252.00	4.5992	41.238	0.024249	632.77	744.30	4.1457	1.7102	2.7386	390.03	5.7707	10.621	0.032859	supercritical
253.00	4.5992	40.970	0.024408	634.78	747.04	4.1565	1.7101	2.7296	391.24	5.7229	10.648	0.032939	supercritical
254.00	4.5992	40.707	0.024566	636.78	749.76	4.1673	1.7101	2.7210	392.45	5.6757	10.675	0.033020	supercritical
255.00	4.5992	40.448	0.024723	638.77	752.48	4.1780	1.7102	2.7127	393.65	5.6291	10.702	0.033102	supercritical
256.00	4.5992	40.194	0.024880	640.76	755.19	4.1886	1.7103	2.7047	394.84	5.5830	10.729	0.033185	supercritical
257.00	4.5992	39.944	0.025035	642.75	757.89	4.1991	1.7105	2.6969	396.01	5.5374	10.756	0.033270	supercritical
258.00	4.5992	39.697	0.025191	644.72	760.58	4.2096	1.7107	2.6895	397.18	5.4924	10.783	0.033356	supercritical
259.00	4.5992	39.455	0.025345	646.70	763.27	4.2200	1.7110	2.6823	398.34	5.4480	10.811	0.033443	supercritical
260.00	4.5992	39.217	0.025499	648.67	765.95	4.2303	1.7113	2.6754	399.49	5.4040	10.838	0.033531	supercritical
261.00	4.5992	38.983	0.025653	650.64	768.62	4.2405	1.7117	2.6687	400.63	5.3606	10.866	0.033620	supercritical
262.00	4.5992	38.752	0.025805	652.60	771.28	4.2507	1.7121	2.6623	401.77	5.3177	10.893	0.033711	supercritical
263.00	4.5992	38.524	0.025958	654.56	773.94	4.2609	1.7126	2.6561	402.89	5.2752	10.921	0.033802	supercritical
264.00	4.5992	38.301	0.026109	656.51	776.60	4.2709	1.7131	2.6501	404.01	5.2333	10.949	0.033894	supercritical
265.00	4.5992	38.080	0.026260	658.47	779.24	4.2809	1.7137	2.6443	405.11	5.1918	10.976	0.033987	supercritical
266.00	4.5992	37.863	0.026411	660.41	781.88	4.2909	1.7143	2.6388	406.21	5.1508	11.004	0.034082	supercritical
267.00	4.5992	37.649	0.026561	662.36	784.52	4.3008	1.7149	2.6334	407.30	5.1102	11.032	0.034177	supercritical
268.00	4.5992	37.438	0.026711	664.30	787.15	4.3106	1.7156	2.6283	408.39	5.0701	11.060	0.034273	supercritical
269.00	4.5992	37.230	0.026860	666.24	789.78	4.3204	1.7164	2.6233	409.46	5.0304	11.088	0.034370	supercritical
270.00	4.5992	37.025	0.027009	668.18	792.40	4.3301	1.7172	2.6185	410.53	4.9912	11.116	0.034468	supercritical
271.00	4.5992	36.823	0.027157	670.11	795.01	4.3398	1.7180	2.6139	411.59	4.9524	11.144	0.034566	supercritical
272.00	4.5992	36.624	0.027305	672.05	797.63	4.3494	1.7189	2.6095	412.65	4.9140	11.172	0.034666	supercritical
273.00	4.5992	36.427	0.027452	673.98	800.23	4.3590	1.7198	2.6053	413.69	4.8760	11.200	0.034766	supercritical
274.00	4.5992	36.233	0.027599	675.90	802.84	4.3685	1.7208	2.6012	414.73	4.8384	11.228	0.034867	supercritical
275.00	4.5992	36.042	0.027745	677.83	805.44	4.3780	1.7218	2.5972	415.77	4.8012	11.256	0.034969	supercritical
276.00	4.5992	35.853	0.027891	679.75	808.03	4.3874	1.7228	2.5934	416.79	4.7644	11.284	0.035072	supercritical
277.00	4.5992	35.667	0.028037	681.68	810.62	4.3968	1.7239	2.5898	417.81	4.7280	11.313	0.035176	supercritical
278.00	4.5992	35.483	0.028182	683.60	813.21	4.4061	1.7250	2.5863	418.83	4.6920	11.341	0.035280	supercritical
279.00	4.5992	35.302	0.028327	685.51	815.80	4.4154	1.7261	2.5829	419.83	4.6563	11.369	0.035385	supercritical
280.00	4.5992	35.123	0.028471	687.43	818.38	4.4246	1.7273	2.5797	420.83	4.6210	11.397	0.035491	supercritical
281.00	4.5992	34.946	0.028615	689.35	820.95	4.4338	1.7285	2.5766	421.83	4.5861	11.426	0.035598	supercritical
282.00	4.5992	34.771	0.028759	691.26	823.53	4.4429	1.7298	2.5736	422.81	4.5515	11.454	0.035705	supercritical
283.00	4.5992	34.599	0.028903	693.17	826.10	4.4520	1.7310	2.5708	423.80	4.5173	11.482	0.035813	supercritical
284.00	4.5992	34.429	0.029046	695.09	828.67	4.4611	1.7324	2.5681	424.77	4.4834	11.511	0.035922	supercritical
285.00	4.5992	34.260	0.029188	697.00	831.24	4.4701	1.7337	2.5655	425.74	4.4499	11.539	0.036031	supercritical
286.00	4.5992	34.094	0.029330	698.91	833.80	4.4791	1.7351	2.5630	426.71	4.4167	11.568	0.036141	supercritical
287.00	4.5992	33.930	0.029472	700.81	836.36	4.4880	1.7365	2.5606	427.67	4.3838	11.596	0.036252	supercritical
288.00	4.5992	33.768	0.029614	702.72	838.92	4.4969	1.7380	2.5583	428.62	4.3512	11.624	0.036364	supercritical
289.00	4.5992	33.607	0.029755	704.63	841.48	4.5058	1.7394	2.5562	429.57	4.3190	11.653	0.036476	supercritical
290.00	4.5992	33.449	0.029896	706.54	844.04	4.5146	1.7410	2.5541	430.51	4.2870	11.681	0.036588	supercritical
291.00	4.5992	33.292	0.030037	708.44	846.59	4.5234	1.7425	2.5522	431.45	4.2554	11.710	0.036702	supercritical
292.00	4.5992	33.137	0.030177	710.35	849.14	4.5322	1.7441	2.5503	432.38	4.2241	11.738	0.036816	supercritical
293.00	4.5992	32.984	0.030318	712.25	851.69	4.5409	1.7457	2.5485	433.31	4.1931	11.767	0.036931	supercritical
294.00	4.5992	32.833	0.030457	714.16	854.24	4.5496	1.7473	2.5469	434.23	4.1623	11.795	0.037046	supercritical
295.00	4.5992	32.683	0.030597	716.06	856.78	4.5582	1.7490	2.5453	435.14	4.1319	11.824	0.037162	supercritical
296.00	4.5992	32.535	0.030736	717.97	859.33	4.5668	1.7506	2.5438	436.05	4.1018	11.852	0.037278	supercritical
297.00	4.5992	32.389	0.030875	719.87	861.87	4.5754	1.7524	2.5424	436.96	4.0719	11.881	0.037396	supercritical
298.00	4.5992	32.244	0.031014	721.77	864.41	4.5840	1.7541	2.5411	437.86	4.0423	11.909	0.037513	supercritical
299.00	4.5992	32.101	0.031152	723.68	866.95	4.5925	1.7559	2.5399	438.76	4.0130	11.938	0.037632	supercritical
300.00	4.5992	31.959	0.031290	725.58	869.49	4.6009	1.7577	2.5387	439.65	3.9840	11.966	0.037751	supercritical
301.00	4.5992	31.819	0.031428	727.49	872.03	4.6094	1.7595	2.5377	440.54	3.9552	11.995	0.037870	supercritical
302.00	4.5992	31.680	0.031566	729.39	874.57	4.6178	1.7613	2.5367	441.42	3.9267	12.023	0.037991	supercritical
303.00	4.5992	31.543	0.031703	731.30	877.10	4.6262	1.7632	2.5358	442.30	3.8984	12.052	0.038111	supercritical
304.00	4.5992	31.407	0.031840	733.20	879.64	4.6345	1.7651	2.5349	443.18	3.8704	12.080	0.038233	supercritical
305.00	4.5992	31.272	0.031977	735.10	882.17	4.6429	1.7670	2.5342	444.05	3.8427	12.109	0.038355	supercritical
306.00	4.5992	31.139	0.032114	737.01	884.71	4.6512	1.7690	2.5335	444.91	3.8152	12.137	0.038477	supercritical
307.00	4.5992	31.007	0.032250	738.92	887.24	4.6594	1.7710	2.5329	445.77	3.7880	12.166	0.038600	supercritical
308.00	4.5992	30.877	0.032386	740.82	889.77	4.6677	1.7730	2.5323	446.63	3.7610	12.194	0.038724	supercritical
309.00	4.5992	30.748	0.032522	742.73	892.31	4.6759	1.7750	2.5319	447.48	3.7342	12.223	0.038848	supercritical
310.00	4.5992	30.620	0.032658	744.64	894.84	4.6840	1.7771	2.5314	448.33	3.7077	12.251	0.038972	supercritical
311.00	4.5992	30.494	0.032794	746.54	897.37	4.6922	1.7791	2.5311	449.18	3.6814	12.280	0.039098	supercritical
312.00	4.5992	30.368	0.032929	748.45	899.90	4.7003	1.7812	2.5308	450.02	3.6554	12.309	0.039223	supercritical
313.00	4.5992	30.244	0.033064	750.36	902.43	4.7084	1.7833	2.5306	450.85	3.6296	12.337	0.039350	supercritical
314.00	4.5992	30.121	0.033199	752.27	904.96	4.7165	1.7855	2.5304	451.69	3.6040	12.365	0.039477	supercritical
315.00	4.5992	30.000	0.033334	754.18	907.49	4.7245	1.7877	2.5303	452.51	3.5786	12.394	0.039604	supercritical
316.00	4.5992	29.879	0.033468	756.10	910.02	4.7326	1.7898	2.5303	453.34	3.5535	12.422	0.039732	supercritical
317.00	4.5992	29.760	0.033602	758.01	912.55	4.7406	1.7921	2.5303	454.16	3.5285	12.451	0.039860	supercritical
318.00	4.5992	29.642	0.033736	759.92	915.08	4.7485	1.7943	2.5304	454.98	3.5038	12.479	0.039989	supercritical
319.00	4.5992	29.524	0.033870	761.84	917.61	4.7565	1.7965	2.5305	455.79	3.4793	12.508	0.040119	supercritical
320.00	4.5992	29.408	0.034004	763.75	920.14	4.7644	1.7988	2.5307	456.60	3.4550	12.536	0.040249	supercritical
321.00	4.5992	29.293	0.034137	765.67	922.67	4.7723	1.8011	2.5309	457.41	3.4310	12.565	0.040379	supercritical
322.00	4.5992	29.179	0.034271	767.59	925.21	4.7802	1.8034	2.5312	458.21	3.4071	12.593	0.040511	supercritical
323.00	4.5992	29.066	0.034404	769.51	927.74	4.7880	1.8058	2.5316	459.01	3.3834	12.622	0.040642	supercritical
324.00	4.5992	28.955	0.034537	771.43	930.27	4.7958	1.8081	2.5319	459.81	3.3599	12.650	0.040774	supercritical
325.00	4.5992	28.844	0.034670	773.35	932.80	4.8036	1.8105	2.5324	460.60	3.3366	12.678	0.040907	supercritical
326.00	4.5992	28.734	0.034802	775.27	935.33	4.8114	1.8129	2.5329	461.39	3.3136	12.707	0.041040	supercritical
327.00	4.5992	28.625	0.034935	777.20	937.87	4.8192	1.8153	2.5334	462.18	3.2907	12.735	0.041173	supercritical
328.00	4.5992	28.517	0.035067	779.12	940.40	4.8269	1.8177	2.5340	462.96	3.2680	12.764	0.041307	supercritical
329.00	4.5992	28.410	0.035199	781.05	942.93	4.8346	1.8202	2.5346	463.74	3.2455	12.792	0.041442	supercritical
330.00	4.5992	28.304	0.035331	782.98	945.47	4.8423	1.8227	2.5353	464.52	3.2232	12.820	0.041577	supercritical
331.00	4.5992	28.199	0.035463	784.91	948.00	4.8500	1.8251	2.5360	465.29	3.2010	12.849	0.041712	supercritical
332.00	4.5992	28.095	0.035594	786.84	950.54	4.8576	1.8277	2.5368	466.06	3.1791	12.877	0.041848	supercritical
333.00	4.5992	27.991	0.035726	788.77	953.08	4.8653	1.8302	2.5376	466.83	3.1573	12.905	0.041985	supercritical
334.00	4.5992	27.889	0.035857	790.70	955.62	4.8729	1.8327	2.5385	467.59	3.1357	12.934	0.042122	supercritical
335.00	4.5992	27.787	0.035988	792.64	958.16	4.8805	1.8353	2.5394	468.35	3.1143	12.962	0.042259	supercritical
336.00	4.5992	27.686	0.036119	794.58	960.70	4.8880	1.8379	2.5403	469.11	3.0931	12.990	0.042397	supercritical
337.00	4.5992	27.586	0.036250	796.52	963.24	4.8956	1.8405	2.5413	469.87	3.0720	13.018	0.042536	supercritical
338.00	4.5992	27.487	0.036380	798.46	965.78	4.9031	1.8431	2.5423	470.62	3.0511	13.047	0.042674	supercritical
339.00	4.5992	27.389	0.036511	800.40	968.32	4.9106	1.8457	2.5434	471.37	3.0304	13.075	0.042814	supercritical
340.00	4.5992	27.292	0.036641	802.34	970.86	4.9181	1.8484	2.5445	472.11	3.0099	13.103	0.042953	supercritical
341.00	4.5992	27.195	0.036771	804.29	973.41	4.9256	1.8510	2.5456	472.86	2.9895	13.131	0.043094	supercritical
342.00	4.5992	27.099	0.036902	806.24	975.96	4.9331	1.8537	2.5468	473.60	2.9692	13.159	0.043234	supercritical
343.00	4.5992	27.004	0.037031	808.19	978.50	4.9405	1.8564	2.5480	474.34	2.9492	13.188	0.043376	supercritical
344.00	4.5992	26.910	0.037161	810.14	981.05	4.9479	1.8591	2.5492	475.07	2.9293	13.216	0.043517	supercritical
345.00	4.5992	26.816	0.037291	812.09	983.60	4.9553	1.8619	2.5505	475.80	2.9096	13.244	0.043659	supercritical
346.00	4.5992	26.723	0.037420	814.05	986.15	4.9627	1.8646	2.5518	476.53	2.8900	13.272	0.043802	supercritical
347.00	4.5992	26.631	0.037550	816.01	988.71	4.9701	1.8674	2.5532	477.26	2.8705	13.300	0.043945	supercritical
348.00	4.5992	26.540	0.037679	817.97	991.26	4.9774	1.8701	2.5545	477.99	2.8513	13.328	0.044088	supercritical
349.00	4.5992	26.449	0.037808	819.93	993.81	4.9848	1.8729	2.5560	478.71	2.8322	13.356	0.044232	supercritical
350.00	4.5992	26.359	0.037937	821.89	996.37	4.9921	1.8757	2.5574	479.43	2.8132	13.384	0.044376	supercritical
351.00	4.5992	26.270	0.038066	823.86	998.93	4.9994	1.8786	2.5589	480.14	2.7944	13.412	0.044521	supercritical
352.00	4.5992	26.181	0.038195	825.82	1001.5	5.0067	1.8814	2.5604	480.86	2.7757	13.440	0.044666	supercritical
353.00	4.5992	26.094	0.038324	827.79	1004.1	5.0139	1.8842	2.5620	481.57	2.7572	13.468	0.044812	supercritical
354.00	4.5992	26.006	0.038452	829.76	1006.6	5.0212	1.8871	2.5635	482.28	2.7388	13.496	0.044958	supercritical
355.00	4.5992	25.920	0.038581	831.74	1009.2	5.0284	1.8900	2.5651	482.99	2.7206	13.524	0.045104	supercritical
356.00	4.5992	25.834	0.038709	833.71	1011.7	5.0356	1.8929	2.5668	483.69	2.7025	13.552	0.045251	supercritical
357.00	4.5992	25.749	0.038837	835.69	1014.3	5.0428	1.8958	2.5684	484.39	2.6846	13.580	0.045399	supercritical
358.00	4.5992	25.664	0.038965	837.67	1016.9	5.0500	1.8987	2.5701	485.09	2.6668	13.608	0.045546	supercritical
359.00	4.5992	25.580	0.039093	839.65	1019.5	5.0572	1.9016	2.5719	485.79	2.6491	13.636	0.045695	supercritical
360.00	4.5992	25.497	0.039221	841.64	1022.0	5.0643	1.9046	2.5736	486.49	2.6316	13.664	0.045843	supercritical
361.00	4.5992	25.414	0.039348	843.63	1024.6	5.0715	1.9075	2.5754	487.18	2.6142	13.692	0.045992	supercritical
362.00	4.5992	25.332	0.039476	845.62	1027.2	5.0786	1.9105	2.5772	487.87	2.5969	13.720	0.046142	supercritical
363.00	4.5992	25.250	0.039604	847.61	1029.8	5.0857	1.9135	2.5790	488.56	2.5798	13.747	0.046292	supercritical
364.00	4.5992	25.169	0.039731	849.60	1032.3	5.0928	1.9165	2.5809	489.25	2.5628	13.775	0.046442	supercritical
365.00	4.5992	25.089	0.039858	851.60	1034.9	5.0999	1.9195	2.5828	489.93	2.5459	13.803	0.046593	supercritical
366.00	4.5992	25.009	0.039985	853.60	1037.5	5.1070	1.9225	2.5847	490.61	2.5292	13.831	0.046744	supercritical
367.00	4.5992	24.930	0.040112	855.60	1040.1	5.1140	1.9255	2.5866	491.29	2.5126	13.859	0.046895	supercritical
368.00	4.5992	24.851	0.040239	857.60	1042.7	5.1211	1.9286	2.5886	491.97	2.4961	13.886	0.047047	supercritical
369.00	4.5992	24.773	0.040366	859.61	1045.3	5.1281	1.9316	2.5906	492.65	2.4797	13.914	0.047200	supercritical
370.00	4.5992	24.696	0.040493	861.62	1047.9	5.1351	1.9347	2.5926	493.32	2.4635	13.942	0.047352	supercritical
371.00	4.5992	24.619	0.040620	863.63	1050.4	5.1421	1.9378	2.5946	493.99	2.4474	13.969	0.047505	supercritical
372.00	4.5992	24.542	0.040746	865.64	1053.0	5.1491	1.9409	2.5967	494.66	2.4314	13.997	0.047659	supercritical
373.00	4.5992	24.466	0.040873	867.66	1055.6	5.1561	1.9440	2.5988	495.33	2.4156	14.025	0.047813	supercritical
374.00	4.5992	24.391	0.040999	869.68	1058.2	5.1630	1.9471	2.6009	495.99	2.3998	14.052	0.047967	supercritical
375.00	4.5992	24.316	0.041125	871.70	1060.8	5.1700	1.9502	2.6030	496.66	2.3842	14.080	0.048122	supercritical
376.00	4.5992	24.242	0.041251	873.72	1063.4	5.1769	1.9533	2.6051	497.32	2.3687	14.107	0.048277	supercritical
377.00	4.5992	24.168	0.041377	875.75	1066.1	5.1838	1.9565	2.6073	497.98	2.3533	14.135	0.048433	supercritical
378.00	4.5992	24.094	0.041503	877.78	1068.7	5.1907	1.9596	2.6095	498.64	2.3380	14.163	0.048589	supercritical
379.00	4.5992	24.022	0.041629	879.81	1071.3	5.1976	1.9628	2.6117	499.29	2.3229	14.190	0.048745	supercritical
380.00	4.5992	23.949	0.041755	881.84	1073.9	5.2045	1.9660	2.6140	499.95	2.3078	14.218	0.048902	supercritical
381.00	4.5992	23.877	0.041881	883.88	1076.5	5.2114	1.9692	2.6162	500.60	2.2929	14.245	0.049059	supercritical
382.00	4.5992	23.806	0.042006	885.92	1079.1	5.2183	1.9724	2.6185	501.25	2.2781	14.272	0.049216	supercritical
383.00	4.5992	23.735	0.042132	887.96	1081.7	5.2251	1.9756	2.6208	501.90	2.2634	14.300	0.049374	supercritical
384.00	4.5992	23.664	0.042257	890.01	1084.4	5.2319	1.9788	2.6231	502.55	2.2488	14.327	0.049532	supercritical
385.00	4.5992	23.594	0.042383	892.05	1087.0	5.2388	1.9820	2.6254	503.19	2.2343	14.355	0.049691	supercritical
386.00	4.5992	23.525	0.042508	894.11	1089.6	5.2456	1.9852	2.6278	503.83	2.2199	14.382	0.049850	supercritical
387.00	4.5992	23.456	0.042633	896.16	1092.2	5.2524	1.9885	2.6302	504.48	2.2056	14.409	0.050009	supercritical
388.00	4.5992	23.387	0.042758	898.21	1094.9	5.2592	1.9917	2.6326	505.12	2.1915	14.437	0.050169	supercritical
389.00	4.5992	23.319	0.042883	900.27	1097.5	5.2660	1.9950	2.6350	505.75	2.1774	14.464	0.050329	supercritical
390.00	4.5992	23.251	0.043008	902.33	1100.1	5.2727	1.9983	2.6374	506.39	2.1634	14.491	0.050489	supercritical
391.00	4.5992	23.184	0.043133	904.40	1102.8	5.2795	2.0015	2.6398	507.02	2.1496	14.519	0.050650	supercritical
392.00	4.5992	23.117	0.043258	906.47	1105.4	5.2862	2.0048	2.6423	507.66	2.1358	14.546	0.050811	supercritical
393.00	4.5992	23.051	0.043383	908.54	1108.1	5.2930	2.0081	2.6448	508.29	2.1221	14.573	0.050973	supercritical
394.00	4.5992	22.985	0.043507	910.61	1110.7	5.2997	2.0114	2.6473	508.92	2.1086	14.600	0.051135	supercritical
395.00	4.5992	22.919	0.043632	912.68	1113.4	5.3064	2.0147	2.6498	509.55	2.0951	14.628	0.051297	supercritical
396.00	4.5992	22.854	0.043756	914.76	1116.0	5.3131	2.0181	2.6523	510.17	2.0818	14.655	0.051460	supercritical
397.00	4.5992	22.789	0.043881	916.84	1118.7	5.3198	2.0214	2.6549	510.80	2.0685	14.682	0.051623	supercritical
398.00	4.5992	22.725	0.044005	918.93	1121.3	5.3265	2.0247	2.6574	511.42	2.0553	14.709	0.051786	supercritical
399.00	4.5992	22.661	0.044129	921.02	1124.0	5.3331	2.0281	2.6600	512.04	2.0423	14.736	0.051950	supercritical
400.00	4.5992	22.597	0.044254	923.11	1126.6	5.3398	2.0314	2.6626	512.66	2.0293	14.763	0.052114	supercritical
401.00	4.5992	22.534	0.044378	925.20	1129.3	5.3465	2.0348	2.6652	513.28	2.0164	14.790	0.052278	supercritical
402.00	4.5992	22.471	0.044502	927.30	1132.0	5.3531	2.0382	2.6679	513.90	2.0036	14.817	0.052443	supercritical
403.00	4.5992	22.409	0.044626	929.39	1134.6	5.3597	2.0415	2.6705	514.52	1.9909	14.844	0.052608	supercritical
404.00	4.5992	22.347	0.044750	931.50	1137.3	5.3664	2.0449	2.6732	515.13	1.9783	14.872	0.052773	supercritical
405.00	4.5992	22.285	0.044873	933.60	1140.0	5.3730	2.0483	2.6758	515.74	1.9658	14.898	0.052939	supercritical
406.00	4.5992	22.224	0.044997	935.71	1142.7	5.3796	2.0517	2.6785	516.35	1.9534	14.925	0.053105	supercritical
407.00	4.5992	22.163	0.045121	937.82	1145.3	5.3862	2.0551	2.6812	516.96	1.9411	14.952	0.053272	supercritical
408.00	4.5992	22.102	0.045244	939.93	1148.0	5.3927	2.0585	2.6839	517.57	1.9288	14.979	0.053439	supercritical
409.00	4.5992	22.042	0.045368	942.05	1150.7	5.3993	2.0619	2.6867	518.18	1.9167	15.006	0.053606	supercritical
410.00	4.5992	21.982	0.045491	944.17	1153.4	5.4059	2.0654	2.6894	518.78	1.9046	15.033	0.053773	supercritical
411.00	4.5992	21.923	0.045615	946.30	1156.1	5.4124	2.0688	2.6921	519.39	1.8926	15.060	0.053941	supercritical
412.00	4.5992	21.864	0.045738	948.42	1158.8	5.4190	2.0722	2.6949	519.99	1.8807	15.087	0.054109	supercritical
413.00	4.5992	21.805	0.045862	950.55	1161.5	5.4255	2.0757	2.6977	520.59	1.8689	15.114	0.054278	supercritical
414.00	4.5992	21.746	0.045985	952.68	1164.2	5.4320	2.0791	2.7005	521.19	1.8572	15.140	0.054446	supercritical
415.00	4.5992	21.688	0.046108	954.82	1166.9	5.4386	2.0826	2.7033	521.79	1.8455	15.167	0.054615	supercritical
416.00	4.5992	21.631	0.046231	956.96	1169.6	5.4451	2.0860	2.7061	522.39	1.8340	15.194	0.054785	supercritical
417.00	4.5992	21.573	0.046354	959.10	1172.3	5.4516	2.0895	2.7089	522.99	1.8225	15.221	0.054955	supercritical
418.00	4.5992	21.516	0.046477	961.24	1175.0	5.4581	2.0930	2.7118	523.58	1.8111	15.247	0.055125	supercritical
419.00	4.5992	21.459	0.046600	963.39	1177.7	5.4645	2.0964	2.7146	524.17	1.7998	15.274	0.055295	supercritical
420.00	4.5992	21.403	0.046723	965.54	1180.4	5.4710	2.0999	2.7175	524.77	1.7886	15.301	0.055466	supercritical
421.00	4.5992	21.347	0.046846	967.70	1183.1	5.4775	2.1034	2.7204	525.36	1.7774	15.328	0.055637	supercritical
422.00	4.5992	21.291	0.046968	969.85	1185.9	5.4839	2.1069	2.7233	525.95	1.7663	15.354	0.055808	supercritical
423.00	4.5992	21.236	0.047091	972.01	1188.6	5.4904	2.1104	2.7262	526.53	1.7553	15.381	0.055980	supercritical
424.00	4.5992	21.180	0.047214	974.18	1191.3	5.4968	2.1139	2.7291	527.12	1.7444	15.407	0.056152	supercritical
425.00	4.5992	21.126	0.047336	976.35	1194.1	5.5033	2.1174	2.7320	527.71	1.7335	15.434	0.056324	supercritical
426.00	4.5992	21.071	0.047459	978.52	1196.8	5.5097	2.1210	2.7349	528.29	1.7228	15.461	0.056497	supercritical
427.00	4.5992	21.017	0.047581	980.69	1199.5	5.5161	2.1245	2.7379	528.88	1.7121	15.487	0.056670	supercritical
428.00	4.5992	20.963	0.047703	982.87	1202.3	5.5225	2.1280	2.7408	529.46	1.7014	15.514	0.056843	supercritical
429.00	4.5992	20.909	0.047826	985.04	1205.0	5.5289	2.1315	2.7438	530.04	1.6909	15.540	0.057017	supercritical
430.00	4.5992	20.856	0.047948	987.23	1207.8	5.5353	2.1351	2.7467	530.62	1.6804	15.567	0.057191	supercritical
431.00	4.5992	20.803	0.048070	989.41	1210.5	5.5417	2.1386	2.7497	531.20	1.6700	15.593	0.057365	supercritical
432.00	4.5992	20.750	0.048192	991.60	1213.2	5.5481	2.1422	2.7527	531.77	1.6597	15.619	0.057539	supercritical
433.00	4.5992	20.698	0.048314	993.80	1216.0	5.5544	2.1457	2.7557	532.35	1.6494	15.646	0.057714	supercritical
434.00	4.5992	20.646	0.048437	995.99	1218.8	5.5608	2.1493	2.7587	532.93	1.6392	15.672	0.057889	supercritical
435.00	4.5992	20.594	0.048559	998.19	1221.5	5.5671	2.1528	2.7618	533.50	1.6291	15.699	0.058065	supercritical
436.00	4.5992	20.542	0.048680	1000.4	1224.3	5.5735	2.1564	2.7648	534.07	1.6191	15.725	0.058240	supercritical
437.00	4.5992	20.491	0.048802	1002.6	1227.1	5.5798	2.1600	2.7678	534.64	1.6091	15.751	0.058416	supercritical
438.00	4.5992	20.440	0.048924	1004.8	1229.8	5.5862	2.1635	2.7709	535.22	1.5992	15.778	0.058592	supercritical
439.00	4.5992	20.389	0.049046	1007.0	1232.6	5.5925	2.1671	2.7739	535.78	1.5894	15.804	0.058769	supercritical
440.00	4.5992	20.339	0.049168	1009.2	1235.4	5.5988	2.1707	2.7770	536.35	1.5796	15.830	0.058946	supercritical
441.00	4.5992	20.288	0.049289	1011.5	1238.1	5.6051	2.1743	2.7801	536.92	1.5699	15.856	0.059123	supercritical
442.00	4.5992	20.238	0.049411	1013.7	1240.9	5.6114	2.1778	2.7831	537.49	1.5602	15.883	0.059300	supercritical
443.00	4.5992	20.189	0.049533	1015.9	1243.7	5.6177	2.1814	2.7862	538.05	1.5507	15.909	0.059478	supercritical
444.00	4.5992	20.139	0.049654	1018.1	1246.5	5.6240	2.1850	2.7893	538.62	1.5412	15.935	0.059656	supercritical
445.00	4.5992	20.090	0.049776	1020.4	1249.3	5.6303	2.1886	2.7924	539.18	1.5317	15.961	0.059834	supercritical
446.00	4.5992	20.041	0.049897	1022.6	1252.1	5.6365	2.1922	2.7956	539.74	1.5223	15.987	0.060013	supercritical
447.00	4.5992	19.993	0.050019	1024.8	1254.9	5.6428	2.1958	2.7987	540.30	1.5130	16.013	0.060192	supercritical
448.00	4.5992	19.944	0.050140	1027.1	1257.7	5.6491	2.1995	2.8018	540.86	1.5038	16.039	0.060371	supercritical
449.00	4.5992	19.896	0.050261	1029.3	1260.5	5.6553	2.2031	2.8049	541.42	1.4946	16.066	0.060550	supercritical
450.00	4.5992	19.848	0.050382	1031.6	1263.3	5.6616	2.2067	2.8081	541.98	1.4855	16.092	0.060730	supercritical
451.00	4.5992	19.801	0.050504	1033.8	1266.1	5.6678	2.2103	2.8112	542.54	1.4764	16.118	0.060910	supercritical
452.00	4.5992	19.753	0.050625	1036.1	1268.9	5.6740	2.2139	2.8144	543.09	1.4674	16.144	0.061090	supercritical
453.00	4.5992	19.706	0.050746	1038.3	1271.7	5.6802	2.2175	2.8176	543.65	1.4584	16.170	0.061271	supercritical
454.00	4.5992	19.659	0.050867	1040.6	1274.6	5.6865	2.2212	2.8207	544.20	1.4496	16.196	0.061451	supercritical
455.00	4.5992	19.612	0.050988	1042.9	1277.4	5.6927	2.2248	2.8239	544.75	1.4407	16.222	0.061633	supercritical
456.00	4.5992	19.566	0.051109	1045.1	1280.2	5.6989	2.2284	2.8271	545.31	1.4320	16.247	0.061814	supercritical
457.00	4.5992	19.520	0.051230	1047.4	1283.0	5.7051	2.2321	2.8303	545.86	1.4233	16.273	0.061995	supercritical
458.00	4.5992	19.474	0.051351	1049.7	1285.9	5.7113	2.2357	2.8335	546.41	1.4146	16.299	0.062177	supercritical
459.00	4.5992	19.428	0.051472	1052.0	1288.7	5.7174	2.2394	2.8367	546.96	1.4060	16.325	0.062359	supercritical
460.00	4.5992	19.383	0.051592	1054.2	1291.5	5.7236	2.2430	2.8399	547.50	1.3975	16.351	0.062542	supercritical
461.00	4.5992	19.337	0.051713	1056.5	1294.4	5.7298	2.2467	2.8431	548.05	1.3890	16.377	0.062724	supercritical
462.00	4.5992	19.292	0.051834	1058.8	1297.2	5.7360	2.2503	2.8464	548.60	1.3806	16.403	0.062907	supercritical
463.00	4.5992	19.248	0.051955	1061.1	1300.1	5.7421	2.2540	2.8496	549.14	1.3723	16.428	0.063090	supercritical
464.00	4.5992	19.203	0.052075	1063.4	1302.9	5.7483	2.2576	2.8528	549.69	1.3639	16.454	0.063274	supercritical
465.00	4.5992	19.159	0.052196	1065.7	1305.8	5.7544	2.2613	2.8561	550.23	1.3557	16.480	0.063458	supercritical
466.00	4.5992	19.114	0.052316	1068.0	1308.6	5.7605	2.2649	2.8593	550.77	1.3475	16.506	0.063642	supercritical
467.00	4.5992	19.071	0.052437	1070.3	1311.5	5.7667	2.2686	2.8626	551.32	1.3394	16.531	0.063826	supercritical
468.00	4.5992	19.027	0.052557	1072.6	1314.4	5.7728	2.2723	2.8658	551.86	1.3313	16.557	0.064010	supercritical
469.00	4.5992	18.983	0.052678	1074.9	1317.2	5.7789	2.2759	2.8691	552.40	1.3232	16.583	0.064195	supercritical
470.00	4.5992	18.940	0.052798	1077.3	1320.1	5.7850	2.2796	2.8724	552.94	1.3153	16.608	0.064380	supercritical
471.00	4.5992	18.897	0.052919	1079.6	1323.0	5.7911	2.2833	2.8756	553.47	1.3073	16.634	0.064565	supercritical
472.00	4.5992	18.854	0.053039	1081.9	1325.8	5.7973	2.2869	2.8789	554.01	1.2994	16.660	0.064751	supercritical
473.00	4.5992	18.811	0.053159	1084.2	1328.7	5.8033	2.2906	2.8822	554.55	1.2916	16.685	0.064936	supercritical
474.00	4.5992	18.769	0.053279	1086.6	1331.6	5.8094	2.2943	2.8855	555.08	1.2838	16.711	0.065122	supercritical
475.00	4.5992	18.727	0.053400	1088.9	1334.5	5.8155	2.2980	2.8888	555.62	1.2761	16.736	0.065308	supercritical
476.00	4.5992	18.685	0.053520	1091.2	1337.4	5.8216	2.3016	2.8921	556.15	1.2685	16.762	0.065495	supercritical
477.00	4.5992	18.643	0.053640	1093.6	1340.3	5.8277	2.3053	2.8954	556.69	1.2608	16.787	0.065682	supercritical
478.00	4.5992	18.601	0.053760	1095.9	1343.2	5.8337	2.3090	2.8987	557.22	1.2533	16.813	0.065868	supercritical
479.00	4.5992	18.560	0.053880	1098.3	1346.1	5.8398	2.3127	2.9020	557.75	1.2457	16.838	0.066056	supercritical
480.00	4.5992	18.518	0.054000	1100.6	1349.0	5.8459	2.3164	2.9053	558.28	1.2383	16.864	0.066243	supercritical
481.00	4.5992	18.477	0.054120	1103.0	1351.9	5.8519	2.3201	2.9087	558.81	1.2308	16.889	0.066431	supercritical
482.00	4.5992	18.437	0.054240	1105.3	1354.8	5.8580	2.3237	2.9120	559.34	1.2235	16.915	0.066619	supercritical
483.00	4.5992	18.396	0.054360	1107.7	1357.7	5.8640	2.3274	2.9153	559.87	1.2161	16.940	0.066807	supercritical
484.00	4.5992	18.355	0.054480	1110.1	1360.6	5.8700	2.3311	2.9187	560.40	1.2088	16.965	0.066995	supercritical
485.00	4.5992	18.315	0.054600	1112.4	1363.5	5.8761	2.3348	2.9220	560.92	1.2016	16.991	0.067184	supercritical
486.00	4.5992	18.275	0.054719	1114.8	1366.5	5.8821	2.3385	2.9253	561.45	1.1944	17.016	0.067373	supercritical
487.00	4.5992	18.235	0.054839	1117.2	1369.4	5.8881	2.3422	2.9287	561.97	1.1873	17.041	0.067562	supercritical
488.00	4.5992	18.195	0.054959	1119.6	1372.3	5.8941	2.3459	2.9320	562.50	1.1802	17.067	0.067751	supercritical
489.00	4.5992	18.156	0.055079	1121.9	1375.3	5.9001	2.3496	2.9354	563.02	1.1731	17.092	0.067940	supercritical
490.00	4.5992	18.117	0.055198	1124.3	1378.2	5.9061	2.3533	2.9388	563.54	1.1661	17.117	0.068130	supercritical
491.00	4.5992	18.077	0.055318	1126.7	1381.1	5.9121	2.3570	2.9421	564.07	1.1592	17.142	0.068320	supercritical
492.00	4.5992	18.038	0.055437	1129.1	1384.1	5.9181	2.3607	2.9455	564.59	1.1522	17.168	0.068510	supercritical
493.00	4.5992	18.000	0.055557	1131.5	1387.0	5.9241	2.3644	2.9489	565.11	1.1454	17.193	0.068701	supercritical
494.00	4.5992	17.961	0.055677	1133.9	1390.0	5.9301	2.3681	2.9522	565.63	1.1385	17.218	0.068891	supercritical
495.00	4.5992	17.922	0.055796	1136.3	1392.9	5.9360	2.3718	2.9556	566.15	1.1317	17.243	0.069082	supercritical
496.00	4.5992	17.884	0.055916	1138.7	1395.9	5.9420	2.3755	2.9590	566.66	1.1250	17.268	0.069273	supercritical
497.00	4.5992	17.846	0.056035	1141.1	1398.9	5.9480	2.3792	2.9624	567.18	1.1183	17.293	0.069465	supercritical
498.00	4.5992	17.808	0.056154	1143.6	1401.8	5.9539	2.3829	2.9658	567.70	1.1117	17.318	0.069656	supercritical
499.00	4.5992	17.770	0.056274	1146.0	1404.8	5.9599	2.3866	2.9692	568.22	1.1050	17.343	0.069848	supercritical
500.00	4.5992	17.733	0.056393	1148.4	1407.8	5.9658	2.3904	2.9725	568.73	1.0985	17.368	0.070040	supercritical
501.00	4.5992	17.695	0.056512	1150.8	1410.7	5.9718	2.3941	2.9759	569.25	1.0919	17.394	0.070232	supercritical
502.00	4.5992	17.658	0.056632	1153.2	1413.7	5.9777	2.3978	2.9793	569.76	1.0854	17.419	0.070425	supercritical
503.00	4.5992	17.621	0.056751	1155.7	1416.7	5.9836	2.4015	2.9827	570.27	1.0790	17.444	0.070617	supercritical
504.00	4.5992	17.584	0.056870	1158.1	1419.7	5.9896	2.4052	2.9861	570.78	1.0726	17.468	0.070810	supercritical
505.00	4.5992	17.547	0.056989	1160.6	1422.7	5.9955	2.4089	2.9896	571.30	1.0662	17.493	0.071003	supercritical
506.00	4.5992	17.511	0.057108	1163.0	1425.7	6.0014	2.4126	2.9930	571.81	1.0599	17.518	0.071197	supercritical
507.00	4.5992	17.474	0.057227	1165.4	1428.6	6.0073	2.4163	2.9964	572.32	1.0536	17.543	0.071390	supercritical
508.00	4.5992	17.438	0.057347	1167.9	1431.6	6.0132	2.4200	2.9998	572.83	1.0473	17.568	0.071584	supercritical
509.00	4.5992	17.402	0.057466	1170.4	1434.6	6.0191	2.4237	3.0032	573.34	1.0411	17.593	0.071778	supercritical
510.00	4.5992	17.366	0.057585	1172.8	1437.7	6.0250	2.4275	3.0066	573.85	1.0350	17.618	0.071972	supercritical
511.00	4.5992	17.330	0.057704	1175.3	1440.7	6.0309	2.4312	3.0100	574.35	1.0288	17.643	0.072166	supercritical
512.00	4.5992	17.294	0.057823	1177.7	1443.7	6.0368	2.4349	3.0135	574.86	1.0227	17.668	0.072361	supercritical
513.00	4.5992	17.259	0.057942	1180.2	1446.7	6.0427	2.4386	3.0169	575.37	1.0167	17.692	0.072555	supercritical
514.00	4.5992	17.223	0.058060	1182.7	1449.7	6.0486	2.4423	3.0203	575.87	1.0107	17.717	0.072750	supercritical
515.00	4.5992	17.188	0.058179	1185.2	1452.7	6.0544	2.4460	3.0238	576.38	1.0047	17.742	0.072945	supercritical
516.00	4.5992	17.153	0.058298	1187.6	1455.8	6.0603	2.4497	3.0272	576.88	0.99873	17.767	0.073141	supercritical
517.00	4.5992	17.118	0.058417	1190.1	1458.8	6.0662	2.4535	3.0306	577.39	0.99282	17.791	0.073336	supercritical
518.00	4.5992	17.084	0.058536	1192.6	1461.8	6.0720	2.4572	3.0341	577.89	0.98695	17.816	0.073532	supercritical
519.00	4.5992	17.049	0.058655	1195.1	1464.9	6.0779	2.4609	3.0375	578.39	0.98111	17.841	0.073728	supercritical
520.00	4.5992	17.015	0.058773	1197.6	1467.9	6.0837	2.4646	3.0409	578.89	0.97531	17.866	0.073924	supercritical
521.00	4.5992	16.980	0.058892	1200.1	1470.9	6.0896	2.4683	3.0444	579.39	0.96955	17.890	0.074120	supercritical
522.00	4.5992	16.946	0.059011	1202.6	1474.0	6.0954	2.4720	3.0478	579.89	0.96382	17.915	0.074317	supercritical
523.00	4.5992	16.912	0.059129	1205.1	1477.0	6.1013	2.4757	3.0513	580.39	0.95813	17.939	0.074514	supercritical
524.00	4.5992	16.878	0.059248	1207.6	1480.1	6.1071	2.4794	3.0547	580.89	0.95247	17.964	0.074711	supercritical
525.00	4.5992	16.844	0.059367	1210.1	1483.1	6.1129	2.4832	3.0582	581.39	0.94684	17.989	0.074908	supercritical
526.00	4.5992	16.811	0.059485	1212.6	1486.2	6.1187	2.4869	3.0616	581.89	0.94125	18.013	0.075105	supercritical
527.00	4.5992	16.777	0.059604	1215.1	1489.3	6.1246	2.4906	3.0651	582.39	0.93569	18.038	0.075303	supercritical
528.00	4.5992	16.744	0.059722	1217.7	1492.3	6.1304	2.4943	3.0685	582.88	0.93017	18.062	0.075500	supercritical
529.00	4.5992	16.711	0.059841	1220.2	1495.4	6.1362	2.4980	3.0720	583.38	0.92468	18.087	0.075698	supercritical
530.00	4.5992	16.678	0.059959	1222.7	1498.5	6.1420	2.5017	3.0755	583.88	0.91923	18.111	0.075896	supercritical
531.00	4.5992	16.645	0.060078	1225.2	1501.6	6.1478	2.5054	3.0789	584.37	0.91380	18.136	0.076095	supercritical
532.00	4.5992	16.612	0.060196	1227.8	1504.6	6.1536	2.5091	3.0824	584.87	0.90841	18.160	0.076293	supercritical
533.00	4.5992	16.580	0.060315	1230.3	1507.7	6.1594	2.5129	3.0858	585.36	0.90306	18.185	0.076492	supercritical
534.00	4.5992	16.547	0.060433	1232.9	1510.8	6.1652	2.5166	3.0893	585.85	0.89773	18.209	0.076691	supercritical
535.00	4.5992	16.515	0.060551	1235.4	1513.9	6.1709	2.5203	3.0928	586.35	0.89244	18.233	0.076890	supercritical
536.00	4.5992	16.483	0.060670	1238.0	1517.0	6.1767	2.5240	3.0962	586.84	0.88718	18.258	0.077089	supercritical
537.00	4.5992	16.451	0.060788	1240.5	1520.1	6.1825	2.5277	3.0997	587.33	0.88195	18.282	0.077288	supercritical
538.00	4.5992	16.419	0.060906	1243.1	1523.2	6.1883	2.5314	3.1032	587.82	0.87675	18.306	0.077488	supercritical
539.00	4.5992	16.387	0.061024	1245.6	1526.3	6.1940	2.5351	3.1066	588.31	0.87158	18.331	0.077687	supercritical
540.00	4.5992	16.355	0.061143	1248.2	1529.4	6.1998	2.5388	3.1101	588.80	0.86645	18.355	0.077887	supercritical
541.00	4.5992	16.324	0.061261	1250.8	1532.5	6.2056	2.5425	3.1136	589.29	0.86134	18.379	0.078087	supercritical
542.00	4.5992	16.292	0.061379	1253.3	1535.6	6.2113	2.5462	3.1171	589.78	0.85627	18.404	0.078288	supercritical
543.00	4.5992	16.261	0.061497	1255.9	1538.7	6.2171	2.5499	3.1205	590.26	0.85122	18.428	0.078488	supercritical
544.00	4.5992	16.230	0.061615	1258.5	1541.9	6.2228	2.5536	3.1240	590.75	0.84621	18.452	0.078689	supercritical
545.00	4.5992	16.199	0.061734	1261.1	1545.0	6.2285	2.5573	3.1275	591.24	0.84122	18.476	0.078890	supercritical
546.00	4.5992	16.168	0.061852	1263.7	1548.1	6.2343	2.5610	3.1310	591.73	0.83627	18.501	0.079091	supercritical
547.00	4.5992	16.137	0.061970	1266.2	1551.3	6.2400	2.5648	3.1344	592.21	0.83134	18.525	0.079292	supercritical
548.00	4.5992	16.106	0.062088	1268.8	1554.4	6.2457	2.5685	3.1379	592.70	0.82645	18.549	0.079493	supercritical
549.00	4.5992	16.076	0.062206	1271.4	1557.5	6.2515	2.5722	3.1414	593.18	0.82158	18.573	0.079695	supercritical
550.00	4.5992	16.045	0.062324	1274.0	1560.7	6.2572	2.5759	3.1449	593.66	0.81674	18.597	0.079896	supercritical
551.00	4.5992	16.015	0.062442	1276.6	1563.8	6.2629	2.5796	3.1483	594.15	0.81193	18.621	0.080098	supercritical
552.00	4.5992	15.985	0.062560	1279.2	1567.0	6.2686	2.5833	3.1518	594.63	0.80715	18.645	0.080300	supercritical
553.00	4.5992	15.955	0.062678	1281.9	1570.1	6.2743	2.5870	3.1553	595.11	0.80239	18.669	0.080503	supercritical
554.00	4.5992	15.925	0.062795	1284.5	1573.3	6.2800	2.5906	3.1588	595.60	0.79767	18.693	0.080705	supercritical
555.00	4.5992	15.895	0.062913	1287.1	1576.4	6.2857	2.5943	3.1623	596.08	0.79297	18.718	0.080907	supercritical
556.00	4.5992	15.865	0.063031	1289.7	1579.6	6.2914	2.5980	3.1657	596.56	0.78830	18.742	0.081110	supercritical
557.00	4.5992	15.836	0.063149	1292.3	1582.8	6.2971	2.6017	3.1692	597.04	0.78365	18.766	0.081313	supercritical
558.00	4.5992	15.806	0.063267	1295.0	1585.9	6.3028	2.6054	3.1727	597.52	0.77904	18.790	0.081516	supercritical
559.00	4.5992	15.777	0.063385	1297.6	1589.1	6.3085	2.6091	3.1762	598.00	0.77445	18.814	0.081719	supercritical
560.00	4.5992	15.747	0.063502	1300.2	1592.3	6.3142	2.6128	3.1797	598.48	0.76989	18.837	0.081923	supercritical
561.00	4.5992	15.718	0.063620	1302.9	1595.5	6.3198	2.6165	3.1832	598.95	0.76535	18.861	0.082126	supercritical
562.00	4.5992	15.689	0.063738	1305.5	1598.7	6.3255	2.6202	3.1866	599.43	0.76084	18.885	0.082330	supercritical
563.00	4.5992	15.660	0.063856	1308.2	1601.9	6.3312	2.6239	3.1901	599.91	0.75636	18.909	0.082534	supercritical
564.00	4.5992	15.632	0.063973	1310.8	1605.0	6.3368	2.6276	3.1936	600.39	0.75190	18.933	0.082738	supercritical
565.00	4.5992	15.603	0.064091	1313.5	1608.2	6.3425	2.6313	3.1971	600.86	0.74747	18.957	0.082942	supercritical
566.00	4.5992	15.574	0.064209	1316.1	1611.4	6.3482	2.6349	3.2006	601.34	0.74306	18.981	0.083146	supercritical
567.00	4.5992	15.546	0.064326	1318.8	1614.6	6.3538	2.6386	3.2041	601.81	0.73868	19.005	0.083351	supercritical
568.00	4.5992	15.517	0.064444	1321.5	1617.8	6.3595	2.6423	3.2076	602.29	0.73432	19.028	0.083556	supercritical
569.00	4.5992	15.489	0.064562	1324.1	1621.1	6.3651	2.6460	3.2110	602.76	0.72999	19.052	0.083760	supercritical
570.00	4.5992	15.461	0.064679	1326.8	1624.3	6.3707	2.6497	3.2145	603.23	0.72568	19.076	0.083965	supercritical
571.00	4.5992	15.433	0.064797	1329.5	1627.5	6.3764	2.6533	3.2180	603.71	0.72140	19.100	0.084171	supercritical
572.00	4.5992	15.405	0.064914	1332.2	1630.7	6.3820	2.6570	3.2215	604.18	0.71715	19.124	0.084376	supercritical
573.00	4.5992	15.377	0.065032	1334.8	1633.9	6.3876	2.6607	3.2250	604.65	0.71291	19.147	0.084581	supercritical
574.00	4.5992	15.349	0.065149	1337.5	1637.2	6.3933	2.6644	3.2285	605.12	0.70871	19.171	0.084787	supercritical
575.00	4.5992	15.322	0.065267	1340.2	1640.4	6.3989	2.6680	3.2320	605.59	0.70452	19.195	0.084993	supercritical
576.00	4.5992	15.294	0.065384	1342.9	1643.6	6.4045	2.6717	3.2354	606.07	0.70036	19.218	0.085199	supercritical
577.00	4.5992	15.267	0.065502	1345.6	1646.9	6.4101	2.6754	3.2389	606.54	0.69622	19.242	0.085405	supercritical
578.00	4.5992	15.239	0.065619	1348.3	1650.1	6.4157	2.6791	3.2424	607.01	0.69211	19.266	0.085611	supercritical
579.00	4.5992	15.212	0.065736	1351.0	1653.3	6.4213	2.6827	3.2459	607.47	0.68802	19.289	0.085817	supercritical
580.00	4.5992	15.185	0.065854	1353.7	1656.6	6.4270	2.6864	3.2494	607.94	0.68396	19.313	0.086024	supercritical
581.00	4.5992	15.158	0.065971	1356.4	1659.8	6.4326	2.6901	3.2529	608.41	0.67991	19.336	0.086230	supercritical
582.00	4.5992	15.131	0.066089	1359.1	1663.1	6.4382	2.6937	3.2563	608.88	0.67589	19.360	0.086437	supercritical
583.00	4.5992	15.104	0.066206	1361.9	1666.4	6.4437	2.6974	3.2598	609.35	0.67189	19.384	0.086644	supercritical
584.00	4.5992	15.078	0.066323	1364.6	1669.6	6.4493	2.7010	3.2633	609.81	0.66792	19.407	0.086851	supercritical
585.00	4.5992	15.051	0.066440	1367.3	1672.9	6.4549	2.7047	3.2668	610.28	0.66396	19.431	0.087059	supercritical
586.00	4.5992	15.025	0.066558	1370.0	1676.1	6.4605	2.7084	3.2703	610.75	0.66003	19.454	0.087266	supercritical
587.00	4.5992	14.998	0.066675	1372.8	1679.4	6.4661	2.7120	3.2738	611.21	0.65612	19.478	0.087474	supercritical
588.00	4.5992	14.972	0.066792	1375.5	1682.7	6.4717	2.7157	3.2772	611.68	0.65224	19.501	0.087681	supercritical
589.00	4.5992	14.946	0.066909	1378.2	1686.0	6.4772	2.7193	3.2807	612.14	0.64837	19.525	0.087889	supercritical
590.00	4.5992	14.919	0.067027	1381.0	1689.3	6.4828	2.7230	3.2842	612.60	0.64453	19.548	0.088097	supercritical
591.00	4.5992	14.893	0.067144	1383.7	1692.5	6.4884	2.7266	3.2877	613.07	0.64070	19.572	0.088305	supercritical
592.00	4.5992	14.867	0.067261	1386.5	1695.8	6.4939	2.7303	3.2912	613.53	0.63690	19.595	0.088513	supercritical
593.00	4.5992	14.842	0.067378	1389.2	1699.1	6.4995	2.7339	3.2946	613.99	0.63312	19.618	0.088722	supercritical
594.00	4.5992	14.816	0.067495	1392.0	1702.4	6.5050	2.7376	3.2981	614.46	0.62937	19.642	0.088930	supercritical
595.00	4.5992	14.790	0.067612	1394.8	1705.7	6.5106	2.7412	3.3016	614.92	0.62563	19.665	0.089139	supercritical
596.00	4.5992	14.765	0.067729	1397.5	1709.0	6.5161	2.7449	3.3051	615.38	0.62191	19.688	0.089348	supercritical
597.00	4.5992	14.739	0.067847	1400.3	1712.3	6.5217	2.7485	3.3085	615.84	0.61821	19.712	0.089557	supercritical
598.00	4.5992	14.714	0.067964	1403.1	1715.6	6.5272	2.7521	3.3120	616.30	0.61454	19.735	0.089766	supercritical
599.00	4.5992	14.688	0.068081	1405.8	1719.0	6.5328	2.7558	3.3155	616.76	0.61088	19.758	0.089975	supercritical
600.00	4.5992	14.663	0.068198	1408.6	1722.3	6.5383	2.7594	3.3190	617.22	0.60725	19.782	0.090185	supercritical
